"","Mean","Median","Mode","ESS","HDImass","HDIlow","HDIhigh","CompVal","PcntGtCompVal","ROPElow","ROPEhigh","PcntLtROPE","PcntInROPE","PcntGtROPE"
"B0[1]",-0.18757752078915,-0.1867915,-0.181988052495785,873,0.95,-0.336906,-0.0428682,0,0.658333333333333,NA,NA,NA,NA,NA
"B0[2]",0.0581859850391575,0.05817805,0.0631692138405525,815.2,0.95,-0.0820826,0.208009,0,78.1416666666667,NA,NA,NA,NA,NA
"BCivAct[1]",1.5805558775,1.58036,1.58317006350862,2380,0.95,1.52323,1.64339,0,100,NA,NA,NA,NA,NA
"BCivAct[2]",-0.22303032575,-0.2229355,-0.223641245845059,8608,0.95,-0.248727,-0.199828,0,0,NA,NA,NA,NA,NA
"BOffAct[1]",-0.157873453416667,-0.1578535,-0.157228181549813,11311.3,0.95,-0.184725,-0.134448,0,0,NA,NA,NA,NA,NA
"BOffAct[2]",1.5991254425,1.59881,1.59847413438271,2569.9,0.95,1.5371,1.65982,0,100,NA,NA,NA,NA,NA
"Bfona[1]",0.0464991187748167,0.04632845,0.0436744081781847,5099,0.95,0.00552159,0.0858101,0,98.775,NA,NA,NA,NA,NA
"Bfona[2]",-0.0880391835508333,-0.08812655,-0.0898972701287587,7445.1,0.95,-0.125762,-0.0485892,0,0,NA,NA,NA,NA,NA
"BfonaCivAct[1]",0.122691126491667,0.122658,0.124919476695468,9621.2,0.95,0.0928449,0.153382,0,100,NA,NA,NA,NA,NA
"BfonaCivAct[2]",0.035853492840525,0.03583345,0.0359357765567243,11549.5,0.95,0.00917263,0.0611699,0,99.625,NA,NA,NA,NA,NA
"BfonaOffAct[1]",0.0387170832128083,0.03877145,0.0382838227050394,12000,0.95,0.0112995,0.066158,0,99.7333333333333,NA,NA,NA,NA,NA
"BfonaOffAct[2]",0.0790656146583333,0.0790572,0.0777564857644397,10246.1,0.95,0.0466592,0.108607,0,100,NA,NA,NA,NA,NA
"Sigma[1]",1.36146033833333,1.361465,1.36229052208984,7035.5,0.95,1.33198,1.39086,0,100,NA,NA,NA,NA,NA
"Sigma[2]",1.35124113666667,1.35103,1.35147038219869,7303,0.95,1.32268,1.37954,0,100,NA,NA,NA,NA,NA
"civActScale[1]",-2.5,-2.5,-2.50201858305612,0,0.95,-2.5,-2.5,0,0,NA,NA,NA,NA,NA
"civActScale[2]",0.632777090083333,0.6328095,0.637088811858064,1760.6,0.95,0.505128,0.761487,0,100,NA,NA,NA,NA,NA
"civActScale[3]",-2.39975609333333,-2.39858,-2.38016211071482,1980.9,0.95,-2.58758,-2.21796,0,0,NA,NA,NA,NA,NA
"civActScale[4]",0.93451867425,0.9337905,0.930909352812867,1897.1,0.95,0.802713,1.065,0,100,NA,NA,NA,NA,NA
"civActScale[5]",0.80810894275,0.807624,0.804859810356156,1803.6,0.95,0.675032,0.939908,0,100,NA,NA,NA,NA,NA
"civActScale[6]",-1.03653326425,-1.036445,-1.03889908299782,1708,0.95,-1.17462,-0.894538,0,0,NA,NA,NA,NA,NA
"civActScale[7]",0.612611433416667,0.6123825,0.618334719842633,1895.4,0.95,0.480538,0.744417,0,100,NA,NA,NA,NA,NA
"civActScale[8]",-1.34602184,-1.346485,-1.35059930152405,1651,0.95,-1.4876,-1.20042,0,0,NA,NA,NA,NA,NA
"civActScale[9]",2.21969944416667,2.21904,2.22506370843538,2612.6,0.95,2.05915,2.38294,0,100,NA,NA,NA,NA,NA
"civActScale[10]",0.675797498416667,0.6760055,0.68235559674855,1805.7,0.95,0.539469,0.801882,0,100,NA,NA,NA,NA,NA
"civActScale[11]",1.27636508275,1.276025,1.27604717179629,2057.1,0.95,1.13896,1.41566,0,100,NA,NA,NA,NA,NA
"civActScale[12]",-1.09339191116667,-1.09397,-1.09787051824223,1781.7,0.95,-1.2367,-0.953603,0,0,NA,NA,NA,NA,NA
"civActScale[13]",0.551378639333333,0.55086,0.538430511643561,1724.6,0.95,0.42194,0.679063,0,100,NA,NA,NA,NA,NA
"civActScale[14]",0.84172223025,0.841963,0.843019931259851,1854.1,0.95,0.705557,0.971463,0,100,NA,NA,NA,NA,NA
"civActScale[15]",-1.52702783,-1.52626,-1.51719189537378,1775.1,0.95,-1.679,-1.37228,0,0,NA,NA,NA,NA,NA
"civActScale[16]",0.32221192645,0.3222995,0.316515530445004,1729.6,0.95,0.195142,0.449111,0,100,NA,NA,NA,NA,NA
"civActScale[17]",-1.13178512416667,-1.132385,-1.14043214805088,1617.7,0.95,-1.27224,-0.991772,0,0,NA,NA,NA,NA,NA
"civActScale[18]",0.63631326225,0.635896,0.634514609405267,1735.5,0.95,0.507393,0.769093,0,100,NA,NA,NA,NA,NA
"civActScale[19]",-2.25545318916667,-2.254865,-2.2465581795222,1871.3,0.95,-2.43356,-2.08356,0,0,NA,NA,NA,NA,NA
"civActScale[20]",0.783031462083333,0.7820865,0.773890684953467,1767.8,0.95,0.649307,0.915338,0,100,NA,NA,NA,NA,NA
"civActScale[21]",1.73462770083333,1.73366,1.73060785410089,2263.9,0.95,1.59485,1.88106,0,100,NA,NA,NA,NA,NA
"civActScale[22]",2.5,2.5,2.49798141694388,0,0.95,2.5,2.5,0,100,NA,NA,NA,NA,NA
"offActScale[1]",-2.5,-2.5,-2.50201858305612,0,0.95,-2.5,-2.5,0,0,NA,NA,NA,NA,NA
"offActScale[2]",0.220127454390583,0.220166,0.218960136883826,1709.2,0.95,0.0922826,0.348367,0,99.975,NA,NA,NA,NA,NA
"offActScale[3]",-2.5289742625,-2.527015,-2.52284691145008,1986.8,0.95,-2.71434,-2.3458,0,0,NA,NA,NA,NA,NA
"offActScale[4]",0.330409674208333,0.330519,0.327746335635378,1675.4,0.95,0.200463,0.457901,0,100,NA,NA,NA,NA,NA
"offActScale[5]",0.721686953333333,0.721308,0.716802593375079,1635.5,0.95,0.596318,0.854768,0,100,NA,NA,NA,NA,NA
"offActScale[6]",0.573585155833333,0.57369,0.585388977686585,1620.3,0.95,0.43888,0.696496,0,100,NA,NA,NA,NA,NA
"offActScale[7]",0.300523950875,0.300068,0.298312811900637,1597.8,0.95,0.175097,0.427774,0,100,NA,NA,NA,NA,NA
"offActScale[8]",-1.6439658625,-1.643125,-1.63310198861378,1753.8,0.95,-1.79369,-1.49222,0,0,NA,NA,NA,NA,NA
"offActScale[9]",-0.673247523166667,-0.6723195,-0.65987943700993,1668.5,0.95,-0.806602,-0.546359,0,0,NA,NA,NA,NA,NA
"offActScale[10]",1.92085627666667,1.92056,1.93459812221522,1952.9,0.95,1.76644,2.07627,0,100,NA,NA,NA,NA,NA
"offActScale[11]",-0.911493230083333,-0.9110985,-0.906815586549077,1802,0.95,-1.04588,-0.775813,0,0,NA,NA,NA,NA,NA
"offActScale[12]",0.4851728965,0.484959,0.479621919879162,1609.8,0.95,0.354383,0.612859,0,100,NA,NA,NA,NA,NA
"offActScale[13]",1.02649693758333,1.026145,1.02089879272175,1637.4,0.95,0.887775,1.15388,0,100,NA,NA,NA,NA,NA
"offActScale[14]",-1.32248301083333,-1.3211,-1.31373242392391,1605.4,0.95,-1.46707,-1.18691,0,0,NA,NA,NA,NA,NA
"offActScale[15]",0.489557794416667,0.489392,0.485052200763024,1647.6,0.95,0.362875,0.615993,0,100,NA,NA,NA,NA,NA
"offActScale[16]",-1.71423691916667,-1.712735,-1.70608443605776,1839.5,0.95,-1.86287,-1.56316,0,0,NA,NA,NA,NA,NA
"offActScale[17]",0.0262085360826383,0.02621645,0.0221369744600365,1534.1,0.95,-0.104168,0.149715,0,65.5333333333333,NA,NA,NA,NA,NA
"offActScale[18]",0.406492589,0.406394,0.409412416520759,1555.8,0.95,0.280088,0.536429,0,100,NA,NA,NA,NA,NA
"offActScale[19]",-2.436649755,-2.43599,-2.43626401179353,1987.2,0.95,-2.62002,-2.26577,0,0,NA,NA,NA,NA,NA
"offActScale[20]",0.44821680875,0.4484385,0.447830349810302,1677.4,0.95,0.317566,0.57533,0,100,NA,NA,NA,NA,NA
"offActScale[21]",1.58012742583333,1.57947,1.5707136734538,1887.8,0.95,1.43344,1.72505,0,100,NA,NA,NA,NA,NA
"offActScale[22]",2.5,2.5,2.49798141694388,0,0.95,2.5,2.5,0,100,NA,NA,NA,NA,NA
