"","rt","responses","internalResp","trial_type","trial_index","time_elapsed","internal_node_id","randSubjectID","date","sex","race","polAff","stimulus","key_press","view_history","questionType","officerAction","civilianAction","offActName","civActName","order","questionName","response","name","dimension","person","question"
"1",7879,"","[object Object]","survey-text",0,7895,"0.0-0.0","0rzo1gyj8b16s61haw02b9b34b0jjnuk","Fri Mar 10 2017 09:59:07 GMT-0500 (US Eastern Standard Time)","female","Black or African American","slightly conservative","",NA,"","","","","","","","","","","","",""
"2",27956,"","","single-stim",1,36867,"0.0-1.0","0rzo1gyj8b16s61haw02b9b34b0jjnuk","Fri Mar 10 2017 09:59:07 GMT-0500 (US Eastern Standard Time)","female","Black or African American","slightly conservative","<img src='static/images/1602685960_ICS_Credit-0.png' alt='Consent 1' height=1100 width=850><img src='static/images/1602685960_ICS_Credit-1.png' alt='Consent 2' height=1100 width=850></p>",89,"","","","","","","","","","","","",""
"3",3909,"","","instructions",2,41785,"0.0-2.0","0rzo1gyj8b16s61haw02b9b34b0jjnuk","Fri Mar 10 2017 09:59:07 GMT-0500 (US Eastern Standard Time)","female","Black or African American","slightly conservative","",NA,"[{""page_index"":0,""viewing_time"":3907}]","instructions","","","","","","","","","","",""
"4",100647,"","","instructions",3,143437,"0.0-3.0","0rzo1gyj8b16s61haw02b9b34b0jjnuk","Fri Mar 10 2017 09:59:07 GMT-0500 (US Eastern Standard Time)","female","Black or African American","slightly conservative","",NA,"[{""page_index"":0,""viewing_time"":34952},{""page_index"":1,""viewing_time"":36595},{""page_index"":2,""viewing_time"":20839},{""page_index"":3,""viewing_time"":8260}]","instructions","","","","","","","","","","",""
"5",39400,"{""Q0"":2}","[object Object]","survey-likert",4,184108,"0.0-4.0","0rzo1gyj8b16s61haw02b9b34b0jjnuk","Fri Mar 10 2017 09:59:07 GMT-0500 (US Eastern Standard Time)","female","Black or African American","slightly conservative","",NA,"","offCivRatings","the officer shouted ""get your fucking hands up!"" at the civilian","the civilian sprayed the officer with pepper spray","handsUp","pepperSpray","officerCivilian","acceptableCiv","2","","","",""
"6",19110,"{""Q0"":50}","[object Object]","survey-likert",5,203264,"0.0-5.0","0rzo1gyj8b16s61haw02b9b34b0jjnuk","Fri Mar 10 2017 09:59:07 GMT-0500 (US Eastern Standard Time)","female","Black or African American","slightly conservative","",NA,"","offCivRatings","the officer shouted ""get your fucking hands up!"" at the civilian","the civilian sprayed the officer with pepper spray","handsUp","pepperSpray","officerCivilian","forceCiv","50","","","",""
"7",24417,"{""Q0"":99}","[object Object]","survey-likert",6,227701,"0.0-6.0","0rzo1gyj8b16s61haw02b9b34b0jjnuk","Fri Mar 10 2017 09:59:07 GMT-0500 (US Eastern Standard Time)","female","Black or African American","slightly conservative","",NA,"","offCivRatings","the officer shouted ""get your fucking hands up!"" at the civilian","the civilian sprayed the officer with pepper spray","handsUp","pepperSpray","officerCivilian","appropriateCiv","99","","","",""
"8",13718,"{""Q0"":1}","[object Object]","survey-likert",7,241434,"0.0-7.0","0rzo1gyj8b16s61haw02b9b34b0jjnuk","Fri Mar 10 2017 09:59:07 GMT-0500 (US Eastern Standard Time)","female","Black or African American","slightly conservative","",NA,"","offCivRatings","the officer shouted ""get your fucking hands up!"" at the civilian","the civilian sprayed the officer with pepper spray","handsUp","pepperSpray","officerCivilian","manipCheckLow","1","","","",""
"9",11119,"{""Q0"":30}","[object Object]","survey-likert",8,252574,"0.0-8.0","0rzo1gyj8b16s61haw02b9b34b0jjnuk","Fri Mar 10 2017 09:59:07 GMT-0500 (US Eastern Standard Time)","female","Black or African American","slightly conservative","",NA,"","offCivRatings","the officer shouted ""get your fucking hands up!"" at the civilian","the civilian sprayed the officer with pepper spray","handsUp","pepperSpray","officerCivilian","punishCiv","30","","","",""
"10",2415,"","","instructions",9,254990,"0.0-9.0","0rzo1gyj8b16s61haw02b9b34b0jjnuk","Fri Mar 10 2017 09:59:07 GMT-0500 (US Eastern Standard Time)","female","Black or African American","slightly conservative","",NA,"[{""page_index"":0,""viewing_time"":2414}]","break","","","","","","","","","","",""
"11",30888,"{""Q0"":11}","[object Object]","survey-likert",10,286098,"0.0-10.0","0rzo1gyj8b16s61haw02b9b34b0jjnuk","Fri Mar 10 2017 09:59:07 GMT-0500 (US Eastern Standard Time)","female","Black or African American","slightly conservative","",NA,"","offCivRatings","the officer kicked the civilian in the stomach","the civilian twisted the arm of the officer, forcing him to the ground","kickStom","armbar","officerCivilian","acceptableCiv","11","","","",""
"12",17360,"{""Q0"":50}","[object Object]","survey-likert",11,303481,"0.0-11.0","0rzo1gyj8b16s61haw02b9b34b0jjnuk","Fri Mar 10 2017 09:59:07 GMT-0500 (US Eastern Standard Time)","female","Black or African American","slightly conservative","",NA,"","offCivRatings","the officer kicked the civilian in the stomach","the civilian twisted the arm of the officer, forcing him to the ground","kickStom","armbar","officerCivilian","forceCiv","50","","","",""
"13",6279,"{""Q0"":50}","[object Object]","survey-likert",12,309774,"0.0-12.0","0rzo1gyj8b16s61haw02b9b34b0jjnuk","Fri Mar 10 2017 09:59:07 GMT-0500 (US Eastern Standard Time)","female","Black or African American","slightly conservative","",NA,"","offCivRatings","the officer kicked the civilian in the stomach","the civilian twisted the arm of the officer, forcing him to the ground","kickStom","armbar","officerCivilian","punishCiv","50","","","",""
"14",11186,"{""Q0"":80}","[object Object]","survey-likert",13,320975,"0.0-13.0","0rzo1gyj8b16s61haw02b9b34b0jjnuk","Fri Mar 10 2017 09:59:07 GMT-0500 (US Eastern Standard Time)","female","Black or African American","slightly conservative","",NA,"","offCivRatings","the officer kicked the civilian in the stomach","the civilian twisted the arm of the officer, forcing him to the ground","kickStom","armbar","officerCivilian","appropriateCiv","80","","","",""
"15",1747,"","","instructions",14,322723,"0.0-14.0","0rzo1gyj8b16s61haw02b9b34b0jjnuk","Fri Mar 10 2017 09:59:07 GMT-0500 (US Eastern Standard Time)","female","Black or African American","slightly conservative","",NA,"[{""page_index"":0,""viewing_time"":1746}]","break","","","","","","","","","","",""
"16",27919,"{""Q0"":60}","[object Object]","survey-likert",15,350873,"0.0-15.0","0rzo1gyj8b16s61haw02b9b34b0jjnuk","Fri Mar 10 2017 09:59:07 GMT-0500 (US Eastern Standard Time)","female","Black or African American","slightly conservative","",NA,"","offCivRatings","the officer purposefully struck the civilian with a motor vehicle","the civilian headbutted the officer in the face","vehicle","headbutt","civilianOfficer","punishOff","60","","","",""
"17",13411,"{""Q0"":2}","[object Object]","survey-likert",16,364300,"0.0-16.0","0rzo1gyj8b16s61haw02b9b34b0jjnuk","Fri Mar 10 2017 09:59:07 GMT-0500 (US Eastern Standard Time)","female","Black or African American","slightly conservative","",NA,"","offCivRatings","the officer purposefully struck the civilian with a motor vehicle","the civilian headbutted the officer in the face","vehicle","headbutt","civilianOfficer","acceptableOff","2","","","",""
"18",18762,"{""Q0"":91}","[object Object]","survey-likert",17,383089,"0.0-17.0","0rzo1gyj8b16s61haw02b9b34b0jjnuk","Fri Mar 10 2017 09:59:07 GMT-0500 (US Eastern Standard Time)","female","Black or African American","slightly conservative","",NA,"","offCivRatings","the officer purposefully struck the civilian with a motor vehicle","the civilian headbutted the officer in the face","vehicle","headbutt","civilianOfficer","appropriateOff","91","","","",""
"19",9299,"{""Q0"":81}","[object Object]","survey-likert",18,392403,"0.0-18.0","0rzo1gyj8b16s61haw02b9b34b0jjnuk","Fri Mar 10 2017 09:59:07 GMT-0500 (US Eastern Standard Time)","female","Black or African American","slightly conservative","",NA,"","offCivRatings","the officer purposefully struck the civilian with a motor vehicle","the civilian headbutted the officer in the face","vehicle","headbutt","civilianOfficer","forceOff","81","","","",""
"20",1759,"","","instructions",19,394162,"0.0-19.0","0rzo1gyj8b16s61haw02b9b34b0jjnuk","Fri Mar 10 2017 09:59:07 GMT-0500 (US Eastern Standard Time)","female","Black or African American","slightly conservative","",NA,"[{""page_index"":0,""viewing_time"":1758}]","break","","","","","","","","","","",""
"21",13245,"{""Q0"":1}","[object Object]","survey-likert",20,407641,"0.0-20.0","0rzo1gyj8b16s61haw02b9b34b0jjnuk","Fri Mar 10 2017 09:59:07 GMT-0500 (US Eastern Standard Time)","female","Black or African American","slightly conservative","",NA,"","offCivRatings","the officer shot the civilian in the head with a handgun","the civilian shouted ""I don't have to fucking listen to you!"" at the officer","handgunHead","dontListen","officerCivilian","manipCheckLow","1","","","",""
"22",33730,"{""Q0"":2}","[object Object]","survey-likert",21,441387,"0.0-21.0","0rzo1gyj8b16s61haw02b9b34b0jjnuk","Fri Mar 10 2017 09:59:07 GMT-0500 (US Eastern Standard Time)","female","Black or African American","slightly conservative","",NA,"","offCivRatings","the officer shot the civilian in the head with a handgun","the civilian shouted ""I don't have to fucking listen to you!"" at the officer","handgunHead","dontListen","officerCivilian","punishCiv","2","","","",""
"23",12032,"{""Q0"":50}","[object Object]","survey-likert",22,453435,"0.0-22.0","0rzo1gyj8b16s61haw02b9b34b0jjnuk","Fri Mar 10 2017 09:59:07 GMT-0500 (US Eastern Standard Time)","female","Black or African American","slightly conservative","",NA,"","offCivRatings","the officer shot the civilian in the head with a handgun","the civilian shouted ""I don't have to fucking listen to you!"" at the officer","handgunHead","dontListen","officerCivilian","appropriateCiv","50","","","",""
"24",5957,"{""Q0"":21}","[object Object]","survey-likert",23,459407,"0.0-23.0","0rzo1gyj8b16s61haw02b9b34b0jjnuk","Fri Mar 10 2017 09:59:07 GMT-0500 (US Eastern Standard Time)","female","Black or African American","slightly conservative","",NA,"","offCivRatings","the officer shot the civilian in the head with a handgun","the civilian shouted ""I don't have to fucking listen to you!"" at the officer","handgunHead","dontListen","officerCivilian","acceptableCiv","21","","","",""
"25",6087,"{""Q0"":1}","[object Object]","survey-likert",24,465509,"0.0-24.0","0rzo1gyj8b16s61haw02b9b34b0jjnuk","Fri Mar 10 2017 09:59:07 GMT-0500 (US Eastern Standard Time)","female","Black or African American","slightly conservative","",NA,"","offCivRatings","the officer shot the civilian in the head with a handgun","the civilian shouted ""I don't have to fucking listen to you!"" at the officer","handgunHead","dontListen","officerCivilian","forceCiv","1","","","",""
"26",2085,"","","instructions",25,467594,"0.0-25.0","0rzo1gyj8b16s61haw02b9b34b0jjnuk","Fri Mar 10 2017 09:59:07 GMT-0500 (US Eastern Standard Time)","female","Black or African American","slightly conservative","",NA,"[{""page_index"":0,""viewing_time"":2084}]","break","","","","","","","","","","",""
"27",21134,"{""Q0"":99}","[object Object]","survey-likert",26,488958,"0.0-26.0","0rzo1gyj8b16s61haw02b9b34b0jjnuk","Fri Mar 10 2017 09:59:07 GMT-0500 (US Eastern Standard Time)","female","Black or African American","slightly conservative","",NA,"","offCivRatings","the officer said ""if you touch me, you're gonna get hurt"" to the civilian","the civilian stood near the officer","hurtThreat","stoodNear","officerCivilian","acceptableCiv","99","","","",""
"28",7529,"{""Q0"":50}","[object Object]","survey-likert",27,496503,"0.0-27.0","0rzo1gyj8b16s61haw02b9b34b0jjnuk","Fri Mar 10 2017 09:59:07 GMT-0500 (US Eastern Standard Time)","female","Black or African American","slightly conservative","",NA,"","offCivRatings","the officer said ""if you touch me, you're gonna get hurt"" to the civilian","the civilian stood near the officer","hurtThreat","stoodNear","officerCivilian","appropriateCiv","50","","","",""
"29",13082,"{""Q0"":2}","[object Object]","survey-likert",28,509601,"0.0-28.0","0rzo1gyj8b16s61haw02b9b34b0jjnuk","Fri Mar 10 2017 09:59:07 GMT-0500 (US Eastern Standard Time)","female","Black or African American","slightly conservative","",NA,"","offCivRatings","the officer said ""if you touch me, you're gonna get hurt"" to the civilian","the civilian stood near the officer","hurtThreat","stoodNear","officerCivilian","punishCiv","2","","","",""
"30",6558,"{""Q0"":4}","[object Object]","survey-likert",29,516176,"0.0-29.0","0rzo1gyj8b16s61haw02b9b34b0jjnuk","Fri Mar 10 2017 09:59:07 GMT-0500 (US Eastern Standard Time)","female","Black or African American","slightly conservative","",NA,"","offCivRatings","the officer said ""if you touch me, you're gonna get hurt"" to the civilian","the civilian stood near the officer","hurtThreat","stoodNear","officerCivilian","forceCiv","4","","","",""
"31",2357,"","","instructions",30,518533,"0.0-30.0","0rzo1gyj8b16s61haw02b9b34b0jjnuk","Fri Mar 10 2017 09:59:07 GMT-0500 (US Eastern Standard Time)","female","Black or African American","slightly conservative","",NA,"[{""page_index"":0,""viewing_time"":2356}]","break","","","","","","","","","","",""
"32",35536,"{""Q0"":61}","[object Object]","survey-likert",31,554287,"0.0-31.0","0rzo1gyj8b16s61haw02b9b34b0jjnuk","Fri Mar 10 2017 09:59:07 GMT-0500 (US Eastern Standard Time)","female","Black or African American","slightly conservative","",NA,"","offCivRatings","the officer slammed the civilian's head into the concrete curb","the civilian struck the officer on the leg with a metal pipe","headSlam","metalPipe","civilianOfficer","punishOff","61","","","",""
"33",11019,"{""Q0"":71}","[object Object]","survey-likert",32,565322,"0.0-32.0","0rzo1gyj8b16s61haw02b9b34b0jjnuk","Fri Mar 10 2017 09:59:07 GMT-0500 (US Eastern Standard Time)","female","Black or African American","slightly conservative","",NA,"","offCivRatings","the officer slammed the civilian's head into the concrete curb","the civilian struck the officer on the leg with a metal pipe","headSlam","metalPipe","civilianOfficer","forceOff","71","","","",""
"34",5954,"{""Q0"":70}","[object Object]","survey-likert",33,571292,"0.0-33.0","0rzo1gyj8b16s61haw02b9b34b0jjnuk","Fri Mar 10 2017 09:59:07 GMT-0500 (US Eastern Standard Time)","female","Black or African American","slightly conservative","",NA,"","offCivRatings","the officer slammed the civilian's head into the concrete curb","the civilian struck the officer on the leg with a metal pipe","headSlam","metalPipe","civilianOfficer","appropriateOff","70","","","",""
"35",7192,"{""Q0"":2}","[object Object]","survey-likert",34,578504,"0.0-34.0","0rzo1gyj8b16s61haw02b9b34b0jjnuk","Fri Mar 10 2017 09:59:07 GMT-0500 (US Eastern Standard Time)","female","Black or African American","slightly conservative","",NA,"","offCivRatings","the officer slammed the civilian's head into the concrete curb","the civilian struck the officer on the leg with a metal pipe","headSlam","metalPipe","civilianOfficer","acceptableOff","2","","","",""
"36",2082,"","","instructions",35,580586,"0.0-35.0","0rzo1gyj8b16s61haw02b9b34b0jjnuk","Fri Mar 10 2017 09:59:07 GMT-0500 (US Eastern Standard Time)","female","Black or African American","slightly conservative","",NA,"[{""page_index"":0,""viewing_time"":2081}]","break","","","","","","","","","","",""
"37",17817,"{""Q0"":50}","[object Object]","survey-likert",36,598634,"0.0-36.0","0rzo1gyj8b16s61haw02b9b34b0jjnuk","Fri Mar 10 2017 09:59:07 GMT-0500 (US Eastern Standard Time)","female","Black or African American","slightly conservative","",NA,"","offCivRatings","the officer applied a chokehold to the civilian","the civilian asked the officer how he was doing","choke","asked","officerCivilian","appropriateCiv","50","","","",""
"38",10173,"{""Q0"":2}","[object Object]","survey-likert",37,608824,"0.0-37.0","0rzo1gyj8b16s61haw02b9b34b0jjnuk","Fri Mar 10 2017 09:59:07 GMT-0500 (US Eastern Standard Time)","female","Black or African American","slightly conservative","",NA,"","offCivRatings","the officer applied a chokehold to the civilian","the civilian asked the officer how he was doing","choke","asked","officerCivilian","punishCiv","2","","","",""
"39",5808,"{""Q0"":2}","[object Object]","survey-likert",38,614647,"0.0-38.0","0rzo1gyj8b16s61haw02b9b34b0jjnuk","Fri Mar 10 2017 09:59:07 GMT-0500 (US Eastern Standard Time)","female","Black or African American","slightly conservative","",NA,"","offCivRatings","the officer applied a chokehold to the civilian","the civilian asked the officer how he was doing","choke","asked","officerCivilian","manipCheckLow","2","","","",""
"40",12265,"{""Q0"":2}","[object Object]","survey-likert",39,626934,"0.0-39.0","0rzo1gyj8b16s61haw02b9b34b0jjnuk","Fri Mar 10 2017 09:59:07 GMT-0500 (US Eastern Standard Time)","female","Black or African American","slightly conservative","",NA,"","offCivRatings","the officer applied a chokehold to the civilian","the civilian asked the officer how he was doing","choke","asked","officerCivilian","forceCiv","2","","","",""
"41",6849,"{""Q0"":99}","[object Object]","survey-likert",40,633797,"0.0-40.0","0rzo1gyj8b16s61haw02b9b34b0jjnuk","Fri Mar 10 2017 09:59:07 GMT-0500 (US Eastern Standard Time)","female","Black or African American","slightly conservative","",NA,"","offCivRatings","the officer applied a chokehold to the civilian","the civilian asked the officer how he was doing","choke","asked","officerCivilian","acceptableCiv","99","","","",""
"42",1711,"","","instructions",41,635509,"0.0-41.0","0rzo1gyj8b16s61haw02b9b34b0jjnuk","Fri Mar 10 2017 09:59:07 GMT-0500 (US Eastern Standard Time)","female","Black or African American","slightly conservative","",NA,"[{""page_index"":0,""viewing_time"":1710}]","break","","","","","","","","","","",""
"43",15682,"{""Q0"":70}","[object Object]","survey-likert",42,651409,"0.0-42.0","0rzo1gyj8b16s61haw02b9b34b0jjnuk","Fri Mar 10 2017 09:59:07 GMT-0500 (US Eastern Standard Time)","female","Black or African American","slightly conservative","",NA,"","offCivRatings","the officer headbutted the civilian in the face","the civilian hit the officer in the chest with a baseball bat","headbutt","ballBat","officerCivilian","punishCiv","70","","","",""
"44",6685,"{""Q0"":2}","[object Object]","survey-likert",43,658110,"0.0-43.0","0rzo1gyj8b16s61haw02b9b34b0jjnuk","Fri Mar 10 2017 09:59:07 GMT-0500 (US Eastern Standard Time)","female","Black or African American","slightly conservative","",NA,"","offCivRatings","the officer headbutted the civilian in the face","the civilian hit the officer in the chest with a baseball bat","headbutt","ballBat","officerCivilian","acceptableCiv","2","","","",""
"45",5443,"{""Q0"":99}","[object Object]","survey-likert",44,663569,"0.0-44.0","0rzo1gyj8b16s61haw02b9b34b0jjnuk","Fri Mar 10 2017 09:59:07 GMT-0500 (US Eastern Standard Time)","female","Black or African American","slightly conservative","",NA,"","offCivRatings","the officer headbutted the civilian in the face","the civilian hit the officer in the chest with a baseball bat","headbutt","ballBat","officerCivilian","manipCheckHigh","99","","","",""
"46",24602,"{""Q0"":99}","[object Object]","survey-likert",45,688185,"0.0-45.0","0rzo1gyj8b16s61haw02b9b34b0jjnuk","Fri Mar 10 2017 09:59:07 GMT-0500 (US Eastern Standard Time)","female","Black or African American","slightly conservative","",NA,"","offCivRatings","the officer headbutted the civilian in the face","the civilian hit the officer in the chest with a baseball bat","headbutt","ballBat","officerCivilian","appropriateCiv","99","","","",""
"47",9761,"{""Q0"":90}","[object Object]","survey-likert",46,697964,"0.0-46.0","0rzo1gyj8b16s61haw02b9b34b0jjnuk","Fri Mar 10 2017 09:59:07 GMT-0500 (US Eastern Standard Time)","female","Black or African American","slightly conservative","",NA,"","offCivRatings","the officer headbutted the civilian in the face","the civilian hit the officer in the chest with a baseball bat","headbutt","ballBat","officerCivilian","forceCiv","90","","","",""
"48",1761,"","","instructions",47,699726,"0.0-47.0","0rzo1gyj8b16s61haw02b9b34b0jjnuk","Fri Mar 10 2017 09:59:07 GMT-0500 (US Eastern Standard Time)","female","Black or African American","slightly conservative","",NA,"[{""page_index"":0,""viewing_time"":1760}]","break","","","","","","","","","","",""
"49",5741,"{""Q0"":2}","[object Object]","survey-likert",48,705688,"0.0-48.0","0rzo1gyj8b16s61haw02b9b34b0jjnuk","Fri Mar 10 2017 09:59:07 GMT-0500 (US Eastern Standard Time)","female","Black or African American","slightly conservative","",NA,"","offCivRatings","the officer sprayed the civilian with pepper spray","the civilian slammed the officer's head into the concrete curb","pepperSpray","headSlam","civilianOfficer","manipCheckLow","2","","","",""
"50",24835,"{""Q0"":50}","[object Object]","survey-likert",49,730537,"0.0-49.0","0rzo1gyj8b16s61haw02b9b34b0jjnuk","Fri Mar 10 2017 09:59:07 GMT-0500 (US Eastern Standard Time)","female","Black or African American","slightly conservative","",NA,"","offCivRatings","the officer sprayed the civilian with pepper spray","the civilian slammed the officer's head into the concrete curb","pepperSpray","headSlam","civilianOfficer","appropriateOff","50","","","",""
"51",4986,"{""Q0"":2}","[object Object]","survey-likert",50,735539,"0.0-50.0","0rzo1gyj8b16s61haw02b9b34b0jjnuk","Fri Mar 10 2017 09:59:07 GMT-0500 (US Eastern Standard Time)","female","Black or African American","slightly conservative","",NA,"","offCivRatings","the officer sprayed the civilian with pepper spray","the civilian slammed the officer's head into the concrete curb","pepperSpray","headSlam","civilianOfficer","punishOff","2","","","",""
"52",9354,"{""Q0"":2}","[object Object]","survey-likert",51,744909,"0.0-51.0","0rzo1gyj8b16s61haw02b9b34b0jjnuk","Fri Mar 10 2017 09:59:07 GMT-0500 (US Eastern Standard Time)","female","Black or African American","slightly conservative","",NA,"","offCivRatings","the officer sprayed the civilian with pepper spray","the civilian slammed the officer's head into the concrete curb","pepperSpray","headSlam","civilianOfficer","acceptableOff","2","","","",""
"53",10083,"{""Q0"":25}","[object Object]","survey-likert",52,755009,"0.0-52.0","0rzo1gyj8b16s61haw02b9b34b0jjnuk","Fri Mar 10 2017 09:59:07 GMT-0500 (US Eastern Standard Time)","female","Black or African American","slightly conservative","",NA,"","offCivRatings","the officer sprayed the civilian with pepper spray","the civilian slammed the officer's head into the concrete curb","pepperSpray","headSlam","civilianOfficer","forceOff","25","","","",""
"54",2149,"","","instructions",53,757160,"0.0-53.0","0rzo1gyj8b16s61haw02b9b34b0jjnuk","Fri Mar 10 2017 09:59:07 GMT-0500 (US Eastern Standard Time)","female","Black or African American","slightly conservative","",NA,"[{""page_index"":0,""viewing_time"":2149}]","break","","","","","","","","","","",""
"55",44657,"{""Q0"":2}","[object Object]","survey-likert",54,802043,"0.0-54.0","0rzo1gyj8b16s61haw02b9b34b0jjnuk","Fri Mar 10 2017 09:59:07 GMT-0500 (US Eastern Standard Time)","female","Black or African American","slightly conservative","",NA,"","offCivRatings","the officer asked the civilian how he was doing","the civilian shocked the officer with a tazer","asked","tazer","civilianOfficer","manipCheckLow","2","","","",""
"56",15328,"{""Q0"":98}","[object Object]","survey-likert",55,817387,"0.0-55.0","0rzo1gyj8b16s61haw02b9b34b0jjnuk","Fri Mar 10 2017 09:59:07 GMT-0500 (US Eastern Standard Time)","female","Black or African American","slightly conservative","",NA,"","offCivRatings","the officer asked the civilian how he was doing","the civilian shocked the officer with a tazer","asked","tazer","civilianOfficer","acceptableOff","98","","","",""
"57",10435,"{""Q0"":12}","[object Object]","survey-likert",56,827839,"0.0-56.0","0rzo1gyj8b16s61haw02b9b34b0jjnuk","Fri Mar 10 2017 09:59:07 GMT-0500 (US Eastern Standard Time)","female","Black or African American","slightly conservative","",NA,"","offCivRatings","the officer asked the civilian how he was doing","the civilian shocked the officer with a tazer","asked","tazer","civilianOfficer","appropriateOff","12","","","",""
"58",7554,"{""Q0"":2}","[object Object]","survey-likert",57,835409,"0.0-57.0","0rzo1gyj8b16s61haw02b9b34b0jjnuk","Fri Mar 10 2017 09:59:07 GMT-0500 (US Eastern Standard Time)","female","Black or African American","slightly conservative","",NA,"","offCivRatings","the officer asked the civilian how he was doing","the civilian shocked the officer with a tazer","asked","tazer","civilianOfficer","forceOff","2","","","",""
"59",8467,"{""Q0"":2}","[object Object]","survey-likert",58,843892,"0.0-58.0","0rzo1gyj8b16s61haw02b9b34b0jjnuk","Fri Mar 10 2017 09:59:07 GMT-0500 (US Eastern Standard Time)","female","Black or African American","slightly conservative","",NA,"","offCivRatings","the officer asked the civilian how he was doing","the civilian shocked the officer with a tazer","asked","tazer","civilianOfficer","punishOff","2","","","",""
"60",2410,"","","instructions",59,846302,"0.0-59.0","0rzo1gyj8b16s61haw02b9b34b0jjnuk","Fri Mar 10 2017 09:59:07 GMT-0500 (US Eastern Standard Time)","female","Black or African American","slightly conservative","",NA,"[{""page_index"":0,""viewing_time"":2409}]","break","","","","","","","","","","",""
"61",34920,"{""Q0"":90}","[object Object]","survey-likert",60,881441,"0.0-60.0","0rzo1gyj8b16s61haw02b9b34b0jjnuk","Fri Mar 10 2017 09:59:07 GMT-0500 (US Eastern Standard Time)","female","Black or African American","slightly conservative","",NA,"","offCivRatings","the officer shot the civilian in the chest with a beanbag shotgun round","the civilian applied a chokehold to the officer","beanbag","choke","officerCivilian","appropriateCiv","90","","","",""
"62",6777,"{""Q0"":1}","[object Object]","survey-likert",61,888233,"0.0-61.0","0rzo1gyj8b16s61haw02b9b34b0jjnuk","Fri Mar 10 2017 09:59:07 GMT-0500 (US Eastern Standard Time)","female","Black or African American","slightly conservative","",NA,"","offCivRatings","the officer shot the civilian in the chest with a beanbag shotgun round","the civilian applied a chokehold to the officer","beanbag","choke","officerCivilian","acceptableCiv","1","","","",""
"63",33603,"{""Q0"":61}","[object Object]","survey-likert",62,921851,"0.0-62.0","0rzo1gyj8b16s61haw02b9b34b0jjnuk","Fri Mar 10 2017 09:59:07 GMT-0500 (US Eastern Standard Time)","female","Black or African American","slightly conservative","",NA,"","offCivRatings","the officer shot the civilian in the chest with a beanbag shotgun round","the civilian applied a chokehold to the officer","beanbag","choke","officerCivilian","forceCiv","61","","","",""
"64",7183,"{""Q0"":40}","[object Object]","survey-likert",63,929050,"0.0-63.0","0rzo1gyj8b16s61haw02b9b34b0jjnuk","Fri Mar 10 2017 09:59:07 GMT-0500 (US Eastern Standard Time)","female","Black or African American","slightly conservative","",NA,"","offCivRatings","the officer shot the civilian in the chest with a beanbag shotgun round","the civilian applied a chokehold to the officer","beanbag","choke","officerCivilian","punishCiv","40","","","",""
"65",2747,"","","instructions",64,931797,"0.0-64.0","0rzo1gyj8b16s61haw02b9b34b0jjnuk","Fri Mar 10 2017 09:59:07 GMT-0500 (US Eastern Standard Time)","female","Black or African American","slightly conservative","",NA,"[{""page_index"":0,""viewing_time"":2746}]","break","","","","","","","","","","",""
"66",12409,"{""Q0"":1}","[object Object]","survey-likert",65,944429,"0.0-65.0","0rzo1gyj8b16s61haw02b9b34b0jjnuk","Fri Mar 10 2017 09:59:07 GMT-0500 (US Eastern Standard Time)","female","Black or African American","slightly conservative","",NA,"","offCivRatings","the officer yelled ""get back!"" at the civilian","the civilian purposefully struck the officer with a motor vehicle","getBack","vehicle","officerCivilian","acceptableCiv","1","","","",""
"67",12287,"{""Q0"":100}","[object Object]","survey-likert",66,956736,"0.0-66.0","0rzo1gyj8b16s61haw02b9b34b0jjnuk","Fri Mar 10 2017 09:59:07 GMT-0500 (US Eastern Standard Time)","female","Black or African American","slightly conservative","",NA,"","offCivRatings","the officer yelled ""get back!"" at the civilian","the civilian purposefully struck the officer with a motor vehicle","getBack","vehicle","officerCivilian","forceCiv","100","","","",""
"68",5443,"{""Q0"":99}","[object Object]","survey-likert",67,962195,"0.0-67.0","0rzo1gyj8b16s61haw02b9b34b0jjnuk","Fri Mar 10 2017 09:59:07 GMT-0500 (US Eastern Standard Time)","female","Black or African American","slightly conservative","",NA,"","offCivRatings","the officer yelled ""get back!"" at the civilian","the civilian purposefully struck the officer with a motor vehicle","getBack","vehicle","officerCivilian","appropriateCiv","99","","","",""
"69",4682,"{""Q0"":80}","[object Object]","survey-likert",68,966893,"0.0-68.0","0rzo1gyj8b16s61haw02b9b34b0jjnuk","Fri Mar 10 2017 09:59:07 GMT-0500 (US Eastern Standard Time)","female","Black or African American","slightly conservative","",NA,"","offCivRatings","the officer yelled ""get back!"" at the civilian","the civilian purposefully struck the officer with a motor vehicle","getBack","vehicle","officerCivilian","punishCiv","80","","","",""
"70",1952,"","","instructions",69,968845,"0.0-69.0","0rzo1gyj8b16s61haw02b9b34b0jjnuk","Fri Mar 10 2017 09:59:07 GMT-0500 (US Eastern Standard Time)","female","Black or African American","slightly conservative","",NA,"[{""page_index"":0,""viewing_time"":1951}]","break","","","","","","","","","","",""
"71",17333,"{""Q0"":54}","[object Object]","survey-likert",70,986400,"0.0-70.0","0rzo1gyj8b16s61haw02b9b34b0jjnuk","Fri Mar 10 2017 09:59:07 GMT-0500 (US Eastern Standard Time)","female","Black or African American","slightly conservative","",NA,"","offCivRatings","the officer called the civilian a ""thug""","the civilian pulled away from the officer","nameCall","pulledAway","civilianOfficer","appropriateOff","54","","","",""
"72",13035,"{""Q0"":1}","[object Object]","survey-likert",71,999449,"0.0-71.0","0rzo1gyj8b16s61haw02b9b34b0jjnuk","Fri Mar 10 2017 09:59:07 GMT-0500 (US Eastern Standard Time)","female","Black or African American","slightly conservative","",NA,"","offCivRatings","the officer called the civilian a ""thug""","the civilian pulled away from the officer","nameCall","pulledAway","civilianOfficer","punishOff","1","","","",""
"73",6907,"{""Q0"":2}","[object Object]","survey-likert",72,1006373,"0.0-72.0","0rzo1gyj8b16s61haw02b9b34b0jjnuk","Fri Mar 10 2017 09:59:07 GMT-0500 (US Eastern Standard Time)","female","Black or African American","slightly conservative","",NA,"","offCivRatings","the officer called the civilian a ""thug""","the civilian pulled away from the officer","nameCall","pulledAway","civilianOfficer","acceptableOff","2","","","",""
"74",4716,"{""Q0"":1}","[object Object]","survey-likert",73,1011103,"0.0-73.0","0rzo1gyj8b16s61haw02b9b34b0jjnuk","Fri Mar 10 2017 09:59:07 GMT-0500 (US Eastern Standard Time)","female","Black or African American","slightly conservative","",NA,"","offCivRatings","the officer called the civilian a ""thug""","the civilian pulled away from the officer","nameCall","pulledAway","civilianOfficer","forceOff","1","","","",""
"75",4790,"{""Q0"":2}","[object Object]","survey-likert",74,1015907,"0.0-74.0","0rzo1gyj8b16s61haw02b9b34b0jjnuk","Fri Mar 10 2017 09:59:07 GMT-0500 (US Eastern Standard Time)","female","Black or African American","slightly conservative","",NA,"","offCivRatings","the officer called the civilian a ""thug""","the civilian pulled away from the officer","nameCall","pulledAway","civilianOfficer","manipCheckLow","2","","","",""
"76",3389,"","","instructions",75,1019296,"0.0-75.0","0rzo1gyj8b16s61haw02b9b34b0jjnuk","Fri Mar 10 2017 09:59:07 GMT-0500 (US Eastern Standard Time)","female","Black or African American","slightly conservative","",NA,"[{""page_index"":0,""viewing_time"":3388}]","break","","","","","","","","","","",""
"77",20687,"{""Q0"":50}","[object Object]","survey-likert",76,1040207,"0.0-76.0","0rzo1gyj8b16s61haw02b9b34b0jjnuk","Fri Mar 10 2017 09:59:07 GMT-0500 (US Eastern Standard Time)","female","Black or African American","slightly conservative","",NA,"","offCivRatings","the officer struck the civilian on the leg with a collapsible baton","the civilian yelled ""get back!"" at the officer","batonLeg","getBack","officerCivilian","appropriateCiv","50","","","",""
"78",13219,"{""Q0"":98}","[object Object]","survey-likert",77,1053443,"0.0-77.0","0rzo1gyj8b16s61haw02b9b34b0jjnuk","Fri Mar 10 2017 09:59:07 GMT-0500 (US Eastern Standard Time)","female","Black or African American","slightly conservative","",NA,"","offCivRatings","the officer struck the civilian on the leg with a collapsible baton","the civilian yelled ""get back!"" at the officer","batonLeg","getBack","officerCivilian","acceptableCiv","98","","","",""
"79",29086,"{""Q0"":1}","[object Object]","survey-likert",78,1082545,"0.0-78.0","0rzo1gyj8b16s61haw02b9b34b0jjnuk","Fri Mar 10 2017 09:59:07 GMT-0500 (US Eastern Standard Time)","female","Black or African American","slightly conservative","",NA,"","offCivRatings","the officer struck the civilian on the leg with a collapsible baton","the civilian yelled ""get back!"" at the officer","batonLeg","getBack","officerCivilian","forceCiv","1","","","",""
"80",13552,"{""Q0"":2}","[object Object]","survey-likert",79,1096110,"0.0-79.0","0rzo1gyj8b16s61haw02b9b34b0jjnuk","Fri Mar 10 2017 09:59:07 GMT-0500 (US Eastern Standard Time)","female","Black or African American","slightly conservative","",NA,"","offCivRatings","the officer struck the civilian on the leg with a collapsible baton","the civilian yelled ""get back!"" at the officer","batonLeg","getBack","officerCivilian","punishCiv","2","","","",""
"81",1848,"","","instructions",80,1097958,"0.0-80.0","0rzo1gyj8b16s61haw02b9b34b0jjnuk","Fri Mar 10 2017 09:59:07 GMT-0500 (US Eastern Standard Time)","female","Black or African American","slightly conservative","",NA,"[{""page_index"":0,""viewing_time"":1847}]","break","","","","","","","","","","",""
"82",18251,"{""Q0"":40}","[object Object]","survey-likert",81,1116430,"0.0-81.0","0rzo1gyj8b16s61haw02b9b34b0jjnuk","Fri Mar 10 2017 09:59:07 GMT-0500 (US Eastern Standard Time)","female","Black or African American","slightly conservative","",NA,"","offCivRatings","the officer twisted the arm of the civilian, forcing him to the ground","the civilian shot the officer in the chest with a handgun","armbar","handgunChest","civilianOfficer","appropriateOff","40","","","",""
"83",7303,"{""Q0"":2}","[object Object]","survey-likert",82,1123746,"0.0-82.0","0rzo1gyj8b16s61haw02b9b34b0jjnuk","Fri Mar 10 2017 09:59:07 GMT-0500 (US Eastern Standard Time)","female","Black or African American","slightly conservative","",NA,"","offCivRatings","the officer twisted the arm of the civilian, forcing him to the ground","the civilian shot the officer in the chest with a handgun","armbar","handgunChest","civilianOfficer","punishOff","2","","","",""
"84",32420,"{""Q0"":50}","[object Object]","survey-likert",83,1156183,"0.0-83.0","0rzo1gyj8b16s61haw02b9b34b0jjnuk","Fri Mar 10 2017 09:59:07 GMT-0500 (US Eastern Standard Time)","female","Black or African American","slightly conservative","",NA,"","offCivRatings","the officer twisted the arm of the civilian, forcing him to the ground","the civilian shot the officer in the chest with a handgun","armbar","handgunChest","civilianOfficer","forceOff","50","","","",""
"85",7407,"{""Q0"":50}","[object Object]","survey-likert",84,1163606,"0.0-84.0","0rzo1gyj8b16s61haw02b9b34b0jjnuk","Fri Mar 10 2017 09:59:07 GMT-0500 (US Eastern Standard Time)","female","Black or African American","slightly conservative","",NA,"","offCivRatings","the officer twisted the arm of the civilian, forcing him to the ground","the civilian shot the officer in the chest with a handgun","armbar","handgunChest","civilianOfficer","acceptableOff","50","","","",""
"86",1712,"","","instructions",85,1165319,"0.0-85.0","0rzo1gyj8b16s61haw02b9b34b0jjnuk","Fri Mar 10 2017 09:59:07 GMT-0500 (US Eastern Standard Time)","female","Black or African American","slightly conservative","",NA,"[{""page_index"":0,""viewing_time"":1710}]","break","","","","","","","","","","",""
"87",13837,"{""Q0"":50}","[object Object]","survey-likert",86,1179382,"0.0-86.0","0rzo1gyj8b16s61haw02b9b34b0jjnuk","Fri Mar 10 2017 09:59:07 GMT-0500 (US Eastern Standard Time)","female","Black or African American","slightly conservative","",NA,"","offCivRatings","the officer shocked the civilian with a tazer","the civilian said ""if you touch me, you're gonna get hurt"" to the officer","tazer","hurtThreat","civilianOfficer","appropriateOff","50","","","",""
"88",12312,"{""Q0"":22}","[object Object]","survey-likert",87,1191711,"0.0-87.0","0rzo1gyj8b16s61haw02b9b34b0jjnuk","Fri Mar 10 2017 09:59:07 GMT-0500 (US Eastern Standard Time)","female","Black or African American","slightly conservative","",NA,"","offCivRatings","the officer shocked the civilian with a tazer","the civilian said ""if you touch me, you're gonna get hurt"" to the officer","tazer","hurtThreat","civilianOfficer","acceptableOff","22","","","",""
"89",10361,"{""Q0"":5}","[object Object]","survey-likert",88,1202089,"0.0-88.0","0rzo1gyj8b16s61haw02b9b34b0jjnuk","Fri Mar 10 2017 09:59:07 GMT-0500 (US Eastern Standard Time)","female","Black or African American","slightly conservative","",NA,"","offCivRatings","the officer shocked the civilian with a tazer","the civilian said ""if you touch me, you're gonna get hurt"" to the officer","tazer","hurtThreat","civilianOfficer","punishOff","5","","","",""
"90",5952,"{""Q0"":11}","[object Object]","survey-likert",89,1208058,"0.0-89.0","0rzo1gyj8b16s61haw02b9b34b0jjnuk","Fri Mar 10 2017 09:59:07 GMT-0500 (US Eastern Standard Time)","female","Black or African American","slightly conservative","",NA,"","offCivRatings","the officer shocked the civilian with a tazer","the civilian said ""if you touch me, you're gonna get hurt"" to the officer","tazer","hurtThreat","civilianOfficer","forceOff","11","","","",""
"91",9907,"{""Q0"":99}","[object Object]","survey-likert",90,1217980,"0.0-90.0","0rzo1gyj8b16s61haw02b9b34b0jjnuk","Fri Mar 10 2017 09:59:07 GMT-0500 (US Eastern Standard Time)","female","Black or African American","slightly conservative","",NA,"","offCivRatings","the officer shocked the civilian with a tazer","the civilian said ""if you touch me, you're gonna get hurt"" to the officer","tazer","hurtThreat","civilianOfficer","manipCheckHigh","99","","","",""
"92",2578,"","","instructions",91,1220559,"0.0-91.0","0rzo1gyj8b16s61haw02b9b34b0jjnuk","Fri Mar 10 2017 09:59:07 GMT-0500 (US Eastern Standard Time)","female","Black or African American","slightly conservative","",NA,"[{""page_index"":0,""viewing_time"":2577}]","break","","","","","","","","","","",""
"93",11791,"{""Q0"":99}","[object Object]","survey-likert",92,1232578,"0.0-92.0","0rzo1gyj8b16s61haw02b9b34b0jjnuk","Fri Mar 10 2017 09:59:07 GMT-0500 (US Eastern Standard Time)","female","Black or African American","slightly conservative","",NA,"","offCivRatings","the officer put handcuffs on the civilian","the civilian struck the officer in the stomach with a metal flashlight","handcuff","flashlight","civilianOfficer","acceptableOff","99","","","",""
"94",28743,"{""Q0"":2}","[object Object]","survey-likert",93,1261336,"0.0-93.0","0rzo1gyj8b16s61haw02b9b34b0jjnuk","Fri Mar 10 2017 09:59:07 GMT-0500 (US Eastern Standard Time)","female","Black or African American","slightly conservative","",NA,"","offCivRatings","the officer put handcuffs on the civilian","the civilian struck the officer in the stomach with a metal flashlight","handcuff","flashlight","civilianOfficer","punishOff","2","","","",""
"95",8538,"{""Q0"":50}","[object Object]","survey-likert",94,1269890,"0.0-94.0","0rzo1gyj8b16s61haw02b9b34b0jjnuk","Fri Mar 10 2017 09:59:07 GMT-0500 (US Eastern Standard Time)","female","Black or African American","slightly conservative","",NA,"","offCivRatings","the officer put handcuffs on the civilian","the civilian struck the officer in the stomach with a metal flashlight","handcuff","flashlight","civilianOfficer","appropriateOff","50","","","",""
"96",14479,"{""Q0"":28}","[object Object]","survey-likert",95,1284384,"0.0-95.0","0rzo1gyj8b16s61haw02b9b34b0jjnuk","Fri Mar 10 2017 09:59:07 GMT-0500 (US Eastern Standard Time)","female","Black or African American","slightly conservative","",NA,"","offCivRatings","the officer put handcuffs on the civilian","the civilian struck the officer in the stomach with a metal flashlight","handcuff","flashlight","civilianOfficer","forceOff","28","","","",""
"97",2057,"","","instructions",96,1286442,"0.0-96.0","0rzo1gyj8b16s61haw02b9b34b0jjnuk","Fri Mar 10 2017 09:59:07 GMT-0500 (US Eastern Standard Time)","female","Black or African American","slightly conservative","",NA,"[{""page_index"":0,""viewing_time"":2056}]","break","","","","","","","","","","",""
"98",52086,"{""Q0"":1}","[object Object]","survey-likert",97,1338752,"0.0-97.0","0rzo1gyj8b16s61haw02b9b34b0jjnuk","Fri Mar 10 2017 09:59:07 GMT-0500 (US Eastern Standard Time)","female","Black or African American","slightly conservative","",NA,"","offCivRatings","the officer shot the civilian in the chest with a handgun","the civilian waved at the officer in greeting","handgunChest","waved","officerCivilian","punishCiv","1","","","",""
"99",9830,"{""Q0"":2}","[object Object]","survey-likert",98,1348597,"0.0-98.0","0rzo1gyj8b16s61haw02b9b34b0jjnuk","Fri Mar 10 2017 09:59:07 GMT-0500 (US Eastern Standard Time)","female","Black or African American","slightly conservative","",NA,"","offCivRatings","the officer shot the civilian in the chest with a handgun","the civilian waved at the officer in greeting","handgunChest","waved","officerCivilian","forceCiv","2","","","",""
"100",63259,"{""Q0"":99}","[object Object]","survey-likert",99,1411871,"0.0-99.0","0rzo1gyj8b16s61haw02b9b34b0jjnuk","Fri Mar 10 2017 09:59:07 GMT-0500 (US Eastern Standard Time)","female","Black or African American","slightly conservative","",NA,"","offCivRatings","the officer shot the civilian in the chest with a handgun","the civilian waved at the officer in greeting","handgunChest","waved","officerCivilian","acceptableCiv","99","","","",""
"101",22321,"{""Q0"":40}","[object Object]","survey-likert",100,1434208,"0.0-100.0","0rzo1gyj8b16s61haw02b9b34b0jjnuk","Fri Mar 10 2017 09:59:07 GMT-0500 (US Eastern Standard Time)","female","Black or African American","slightly conservative","",NA,"","offCivRatings","the officer shot the civilian in the chest with a handgun","the civilian waved at the officer in greeting","handgunChest","waved","officerCivilian","appropriateCiv","40","","","",""
"102",1813,"","","instructions",101,1436022,"0.0-101.0","0rzo1gyj8b16s61haw02b9b34b0jjnuk","Fri Mar 10 2017 09:59:07 GMT-0500 (US Eastern Standard Time)","female","Black or African American","slightly conservative","",NA,"[{""page_index"":0,""viewing_time"":1812}]","break","","","","","","","","","","",""
"103",17180,"{""Q0"":1}","[object Object]","survey-likert",102,1453429,"0.0-102.0","0rzo1gyj8b16s61haw02b9b34b0jjnuk","Fri Mar 10 2017 09:59:07 GMT-0500 (US Eastern Standard Time)","female","Black or African American","slightly conservative","",NA,"","offCivRatings","the officer waved at the civilian in greeting","the civilian shot the officer in the head with a handgun","waved","handgunHead","civilianOfficer","appropriateOff","1","","","",""
"104",8575,"{""Q0"":2}","[object Object]","survey-likert",103,1462018,"0.0-103.0","0rzo1gyj8b16s61haw02b9b34b0jjnuk","Fri Mar 10 2017 09:59:07 GMT-0500 (US Eastern Standard Time)","female","Black or African American","slightly conservative","",NA,"","offCivRatings","the officer waved at the civilian in greeting","the civilian shot the officer in the head with a handgun","waved","handgunHead","civilianOfficer","punishOff","2","","","",""
"105",141863,"{""Q0"":99}","[object Object]","survey-likert",104,1603899,"0.0-104.0","0rzo1gyj8b16s61haw02b9b34b0jjnuk","Fri Mar 10 2017 09:59:07 GMT-0500 (US Eastern Standard Time)","female","Black or African American","slightly conservative","",NA,"","offCivRatings","the officer waved at the civilian in greeting","the civilian shot the officer in the head with a handgun","waved","handgunHead","civilianOfficer","acceptableOff","99","","","",""
"106",6141,"{""Q0"":1}","[object Object]","survey-likert",105,1610056,"0.0-105.0","0rzo1gyj8b16s61haw02b9b34b0jjnuk","Fri Mar 10 2017 09:59:07 GMT-0500 (US Eastern Standard Time)","female","Black or African American","slightly conservative","",NA,"","offCivRatings","the officer waved at the civilian in greeting","the civilian shot the officer in the head with a handgun","waved","handgunHead","civilianOfficer","forceOff","1","","","",""
"107",2646,"","","instructions",106,1612702,"0.0-106.0","0rzo1gyj8b16s61haw02b9b34b0jjnuk","Fri Mar 10 2017 09:59:07 GMT-0500 (US Eastern Standard Time)","female","Black or African American","slightly conservative","",NA,"[{""page_index"":0,""viewing_time"":2644}]","break","","","","","","","","","","",""
"108",9858,"{""Q0"":1}","[object Object]","survey-likert",107,1622780,"0.0-107.0","0rzo1gyj8b16s61haw02b9b34b0jjnuk","Fri Mar 10 2017 09:59:07 GMT-0500 (US Eastern Standard Time)","female","Black or African American","slightly conservative","",NA,"","offCivRatings","the officer stood near the civilian","the civilian kicked the officer in the stomach","stoodNear","kickStom","civilianOfficer","punishOff","1","","","",""
"109",4419,"{""Q0"":99}","[object Object]","survey-likert",108,1627213,"0.0-108.0","0rzo1gyj8b16s61haw02b9b34b0jjnuk","Fri Mar 10 2017 09:59:07 GMT-0500 (US Eastern Standard Time)","female","Black or African American","slightly conservative","",NA,"","offCivRatings","the officer stood near the civilian","the civilian kicked the officer in the stomach","stoodNear","kickStom","civilianOfficer","acceptableOff","99","","","",""
"110",8736,"{""Q0"":4}","[object Object]","survey-likert",109,1635965,"0.0-109.0","0rzo1gyj8b16s61haw02b9b34b0jjnuk","Fri Mar 10 2017 09:59:07 GMT-0500 (US Eastern Standard Time)","female","Black or African American","slightly conservative","",NA,"","offCivRatings","the officer stood near the civilian","the civilian kicked the officer in the stomach","stoodNear","kickStom","civilianOfficer","appropriateOff","4","","","",""
"111",4554,"{""Q0"":1}","[object Object]","survey-likert",110,1640536,"0.0-110.0","0rzo1gyj8b16s61haw02b9b34b0jjnuk","Fri Mar 10 2017 09:59:07 GMT-0500 (US Eastern Standard Time)","female","Black or African American","slightly conservative","",NA,"","offCivRatings","the officer stood near the civilian","the civilian kicked the officer in the stomach","stoodNear","kickStom","civilianOfficer","forceOff","1","","","",""
"112",1799,"","","instructions",111,1642336,"0.0-111.0","0rzo1gyj8b16s61haw02b9b34b0jjnuk","Fri Mar 10 2017 09:59:07 GMT-0500 (US Eastern Standard Time)","female","Black or African American","slightly conservative","",NA,"[{""page_index"":0,""viewing_time"":1798}]","break","","","","","","","","","","",""
"113",12844,"{""Q0"":2}","[object Object]","survey-likert",112,1655397,"0.0-112.0","0rzo1gyj8b16s61haw02b9b34b0jjnuk","Fri Mar 10 2017 09:59:07 GMT-0500 (US Eastern Standard Time)","female","Black or African American","slightly conservative","",NA,"","offCivRatings","the officer struck the civilian in the stomach with a metal flashlight","the civilian punched the officer in the face","flashlight","punchFace","civilianOfficer","manipCheckLow","2","","","",""
"114",12005,"{""Q0"":61}","[object Object]","survey-likert",113,1667421,"0.0-113.0","0rzo1gyj8b16s61haw02b9b34b0jjnuk","Fri Mar 10 2017 09:59:07 GMT-0500 (US Eastern Standard Time)","female","Black or African American","slightly conservative","",NA,"","offCivRatings","the officer struck the civilian in the stomach with a metal flashlight","the civilian punched the officer in the face","flashlight","punchFace","civilianOfficer","appropriateOff","61","","","",""
"115",9886,"{""Q0"":50}","[object Object]","survey-likert",114,1677325,"0.0-114.0","0rzo1gyj8b16s61haw02b9b34b0jjnuk","Fri Mar 10 2017 09:59:07 GMT-0500 (US Eastern Standard Time)","female","Black or African American","slightly conservative","",NA,"","offCivRatings","the officer struck the civilian in the stomach with a metal flashlight","the civilian punched the officer in the face","flashlight","punchFace","civilianOfficer","forceOff","50","","","",""
"116",7296,"{""Q0"":11}","[object Object]","survey-likert",115,1684636,"0.0-115.0","0rzo1gyj8b16s61haw02b9b34b0jjnuk","Fri Mar 10 2017 09:59:07 GMT-0500 (US Eastern Standard Time)","female","Black or African American","slightly conservative","",NA,"","offCivRatings","the officer struck the civilian in the stomach with a metal flashlight","the civilian punched the officer in the face","flashlight","punchFace","civilianOfficer","punishOff","11","","","",""
"117",4357,"{""Q0"":2}","[object Object]","survey-likert",116,1689008,"0.0-116.0","0rzo1gyj8b16s61haw02b9b34b0jjnuk","Fri Mar 10 2017 09:59:07 GMT-0500 (US Eastern Standard Time)","female","Black or African American","slightly conservative","",NA,"","offCivRatings","the officer struck the civilian in the stomach with a metal flashlight","the civilian punched the officer in the face","flashlight","punchFace","civilianOfficer","acceptableOff","2","","","",""
"118",1918,"","","instructions",117,1690927,"0.0-117.0","0rzo1gyj8b16s61haw02b9b34b0jjnuk","Fri Mar 10 2017 09:59:07 GMT-0500 (US Eastern Standard Time)","female","Black or African American","slightly conservative","",NA,"[{""page_index"":0,""viewing_time"":1918}]","break","","","","","","","","","","",""
"119",19386,"{""Q0"":1}","[object Object]","survey-likert",118,1710538,"0.0-118.0","0rzo1gyj8b16s61haw02b9b34b0jjnuk","Fri Mar 10 2017 09:59:07 GMT-0500 (US Eastern Standard Time)","female","Black or African American","slightly conservative","",NA,"","offCivRatings","the officer punched the civilian in the face","the civilian called the officer a ""pig""","punchFace","nameCall","officerCivilian","manipCheckLow","1","","","",""
"120",5360,"{""Q0"":2}","[object Object]","survey-likert",119,1715916,"0.0-119.0","0rzo1gyj8b16s61haw02b9b34b0jjnuk","Fri Mar 10 2017 09:59:07 GMT-0500 (US Eastern Standard Time)","female","Black or African American","slightly conservative","",NA,"","offCivRatings","the officer punched the civilian in the face","the civilian called the officer a ""pig""","punchFace","nameCall","officerCivilian","punishCiv","2","","","",""
"121",10167,"{""Q0"":35}","[object Object]","survey-likert",120,1726097,"0.0-120.0","0rzo1gyj8b16s61haw02b9b34b0jjnuk","Fri Mar 10 2017 09:59:07 GMT-0500 (US Eastern Standard Time)","female","Black or African American","slightly conservative","",NA,"","offCivRatings","the officer punched the civilian in the face","the civilian called the officer a ""pig""","punchFace","nameCall","officerCivilian","appropriateCiv","35","","","",""
"122",4816,"{""Q0"":2}","[object Object]","survey-likert",121,1730928,"0.0-121.0","0rzo1gyj8b16s61haw02b9b34b0jjnuk","Fri Mar 10 2017 09:59:07 GMT-0500 (US Eastern Standard Time)","female","Black or African American","slightly conservative","",NA,"","offCivRatings","the officer punched the civilian in the face","the civilian called the officer a ""pig""","punchFace","nameCall","officerCivilian","forceCiv","2","","","",""
"123",4478,"{""Q0"":9}","[object Object]","survey-likert",122,1735419,"0.0-122.0","0rzo1gyj8b16s61haw02b9b34b0jjnuk","Fri Mar 10 2017 09:59:07 GMT-0500 (US Eastern Standard Time)","female","Black or African American","slightly conservative","",NA,"","offCivRatings","the officer punched the civilian in the face","the civilian called the officer a ""pig""","punchFace","nameCall","officerCivilian","acceptableCiv","9","","","",""
"124",2113,"","","instructions",123,1737532,"0.0-123.0","0rzo1gyj8b16s61haw02b9b34b0jjnuk","Fri Mar 10 2017 09:59:07 GMT-0500 (US Eastern Standard Time)","female","Black or African American","slightly conservative","",NA,"[{""page_index"":0,""viewing_time"":2111}]","break","","","","","","","","","","",""
"125",8888,"{""Q0"":27}","[object Object]","survey-likert",124,1746646,"0.0-124.0","0rzo1gyj8b16s61haw02b9b34b0jjnuk","Fri Mar 10 2017 09:59:07 GMT-0500 (US Eastern Standard Time)","female","Black or African American","slightly conservative","",NA,"","policeLegitimacy","","","","","","","27","communityWants","normAlignment","",""
"126",4950,"{""Q0"":28}","[object Object]","survey-likert",125,1751613,"0.0-125.0","0rzo1gyj8b16s61haw02b9b34b0jjnuk","Fri Mar 10 2017 09:59:07 GMT-0500 (US Eastern Standard Time)","female","Black or African American","slightly conservative","",NA,"","policeLegitimacy","","","","","","","28","importantValues","normAlignment","",""
"127",9100,"{""Q0"":75}","[object Object]","survey-likert",126,1760727,"0.0-126.0","0rzo1gyj8b16s61haw02b9b34b0jjnuk","Fri Mar 10 2017 09:59:07 GMT-0500 (US Eastern Standard Time)","female","Black or African American","slightly conservative","",NA,"","policeLegitimacy","","","","","","","75","support","feltObligation","",""
"128",5944,"{""Q0"":40}","[object Object]","survey-likert",127,1766686,"0.0-127.0","0rzo1gyj8b16s61haw02b9b34b0jjnuk","Fri Mar 10 2017 09:59:07 GMT-0500 (US Eastern Standard Time)","female","Black or African American","slightly conservative","",NA,"","policeLegitimacy","","","","","","","40","rightWrong","normAlignment","",""
"129",9709,"{""Q0"":85}","[object Object]","survey-likert",128,1776410,"0.0-128.0","0rzo1gyj8b16s61haw02b9b34b0jjnuk","Fri Mar 10 2017 09:59:07 GMT-0500 (US Eastern Standard Time)","female","Black or African American","slightly conservative","",NA,"","policeLegitimacy","","","","","","","85","doReasons","feltObligation","",""
"130",6802,"{""Q0"":85}","[object Object]","survey-likert",129,1783226,"0.0-129.0","0rzo1gyj8b16s61haw02b9b34b0jjnuk","Fri Mar 10 2017 09:59:07 GMT-0500 (US Eastern Standard Time)","female","Black or African American","slightly conservative","",NA,"","policeLegitimacy","","","","","","","85","doTreat","feltObligation","",""
"131",10206,"{""Q0"":""yes""}","[object Object]","survey-multi-choice2",130,1793448,"0.0-130.0","0rzo1gyj8b16s61haw02b9b34b0jjnuk","Fri Mar 10 2017 09:59:07 GMT-0500 (US Eastern Standard Time)","female","Black or African American","slightly conservative","",NA,"","policeExperience","","","","","","","yes","stopped","","vicarious","Has anyone in your household ever been stopped on the street by the police without good reason?"
"132",4553,"{""Q0"":""no""}","[object Object]","survey-multi-choice2",131,1798008,"0.0-131.0","0rzo1gyj8b16s61haw02b9b34b0jjnuk","Fri Mar 10 2017 09:59:07 GMT-0500 (US Eastern Standard Time)","female","Black or African American","slightly conservative","",NA,"","policeExperience","","","","","","","no","stopped","","personal","Have you ever been stopped by the police on the street without good reason?"
"133",3928,"{""Q0"":""no""}","[object Object]","survey-multi-choice2",132,1801940,"0.0-132.0","0rzo1gyj8b16s61haw02b9b34b0jjnuk","Fri Mar 10 2017 09:59:07 GMT-0500 (US Eastern Standard Time)","female","Black or African American","slightly conservative","",NA,"","policeExperience","","","","","","","no","excessForce","","personal","Have the police ever used excessive force against you?"
"134",4511,"{""Q0"":""no""}","[object Object]","survey-multi-choice2",133,1806457,"0.0-133.0","0rzo1gyj8b16s61haw02b9b34b0jjnuk","Fri Mar 10 2017 09:59:07 GMT-0500 (US Eastern Standard Time)","female","Black or African American","slightly conservative","",NA,"","policeExperience","","","","","","","no","excessForce","","vicarious","Have the police ever used excessive force against anyone in your household?"
"135",6736,"{""Q0"":""no""}","[object Object]","survey-multi-choice2",134,1813201,"0.0-134.0","0rzo1gyj8b16s61haw02b9b34b0jjnuk","Fri Mar 10 2017 09:59:07 GMT-0500 (US Eastern Standard Time)","female","Black or African American","slightly conservative","",NA,"","policeExperience","","","","","","","no","corrupt","","personal","Have you ever seen a police officer engage in any corrupt activities (e.g., taking bribes or involvement in the drug trade)?"
"136",4119,"{""Q0"":""no""}","[object Object]","survey-multi-choice2",135,1817326,"0.0-135.0","0rzo1gyj8b16s61haw02b9b34b0jjnuk","Fri Mar 10 2017 09:59:07 GMT-0500 (US Eastern Standard Time)","female","Black or African American","slightly conservative","",NA,"","policeExperience","","","","","","","no","insultLang","","personal","Have the police ever used insulting language toward you?"
"137",4069,"{""Q0"":""no""}","[object Object]","survey-multi-choice2",136,1821399,"0.0-136.0","0rzo1gyj8b16s61haw02b9b34b0jjnuk","Fri Mar 10 2017 09:59:07 GMT-0500 (US Eastern Standard Time)","female","Black or African American","slightly conservative","",NA,"","policeExperience","","","","","","","no","insultLang","","vicarious","Have the police ever used insulting language toward anyone in your household?"
"138",17901,"{""Q0"":""female"",""Q1"":""Black or African American"",""Q2"":""slightly conservative""}","[object Object]","survey-multi-choice",137,1839325,"0.0-137.0","0rzo1gyj8b16s61haw02b9b34b0jjnuk","Fri Mar 10 2017 09:59:07 GMT-0500 (US Eastern Standard Time)","female","Black or African American","slightly conservative","",NA,"","demographics","","","","","","","","","","",""
"139",45354,"","","instructions",138,1885685,"0.0-138.0","0rzo1gyj8b16s61haw02b9b34b0jjnuk","Fri Mar 10 2017 09:59:07 GMT-0500 (US Eastern Standard Time)","female","Black or African American","slightly conservative","",NA,"[{""page_index"":0,""viewing_time"":3233},{""page_index"":1,""viewing_time"":15967},{""page_index"":2,""viewing_time"":19086},{""page_index"":3,""viewing_time"":7067}]","debriefing","","","","","","","","","","",""
