"","rt","responses","internalResp","trial_type","trial_index","time_elapsed","internal_node_id","randSubjectID","date","sex","race","polAff","stimulus","key_press","view_history","questionType","officerAction","civilianAction","offActName","civActName","order","questionName","response","name","dimension","person","question"
"1",5570,"","[object Object]","survey-text",0,5578,"0.0-0.0","1kp37v0wa382g21zylm0s9jyhjs2720c","Fri Jan 20 2017 19:22:45 GMT-0500 (US Eastern Standard Time)","female","White","slightly conservative","",NA,"","","","","","","","","","","","",""
"2",24364,"","","single-stim",1,30953,"0.0-1.0","1kp37v0wa382g21zylm0s9jyhjs2720c","Fri Jan 20 2017 19:22:45 GMT-0500 (US Eastern Standard Time)","female","White","slightly conservative","<img src='static/images/1602685960_ICS_Credit-0.png' alt='Consent 1' height=1100 width=850><img src='static/images/1602685960_ICS_Credit-1.png' alt='Consent 2' height=1100 width=850></p>",89,"","","","","","","","","","","","",""
"3",15286,"","","instructions",2,47243,"0.0-2.0","1kp37v0wa382g21zylm0s9jyhjs2720c","Fri Jan 20 2017 19:22:45 GMT-0500 (US Eastern Standard Time)","female","White","slightly conservative","",NA,"[{""page_index"":0,""viewing_time"":15285}]","instructions","","","","","","","","","","",""
"4",83608,"","","instructions",3,131854,"0.0-3.0","1kp37v0wa382g21zylm0s9jyhjs2720c","Fri Jan 20 2017 19:22:45 GMT-0500 (US Eastern Standard Time)","female","White","slightly conservative","",NA,"[{""page_index"":0,""viewing_time"":11409},{""page_index"":1,""viewing_time"":8124},{""page_index"":2,""viewing_time"":22698},{""page_index"":3,""viewing_time"":41376}]","instructions","","","","","","","","","","",""
"5",198496,"{""Q0"":80}","[object Object]","survey-likert",4,331474,"0.0-4.0","1kp37v0wa382g21zylm0s9jyhjs2720c","Fri Jan 20 2017 19:22:45 GMT-0500 (US Eastern Standard Time)","female","White","slightly conservative","",NA,"","offCivRatings","the officer purposefully struck the civilian with a motor vehicle","the civilian waved at the officer in greeting","vehicle","waved","civilianOfficer","punishOff","80","","","",""
"6",32074,"{""Q0"":20}","[object Object]","survey-likert",5,363561,"0.0-5.0","1kp37v0wa382g21zylm0s9jyhjs2720c","Fri Jan 20 2017 19:22:45 GMT-0500 (US Eastern Standard Time)","female","White","slightly conservative","",NA,"","offCivRatings","the officer purposefully struck the civilian with a motor vehicle","the civilian waved at the officer in greeting","vehicle","waved","civilianOfficer","appropriateOff","20","","","",""
"7",8983,"{""Q0"":70}","[object Object]","survey-likert",6,372556,"0.0-6.0","1kp37v0wa382g21zylm0s9jyhjs2720c","Fri Jan 20 2017 19:22:45 GMT-0500 (US Eastern Standard Time)","female","White","slightly conservative","",NA,"","offCivRatings","the officer purposefully struck the civilian with a motor vehicle","the civilian waved at the officer in greeting","vehicle","waved","civilianOfficer","forceOff","70","","","",""
"8",46112,"{""Q0"":1}","[object Object]","survey-likert",7,418682,"0.0-7.0","1kp37v0wa382g21zylm0s9jyhjs2720c","Fri Jan 20 2017 19:22:45 GMT-0500 (US Eastern Standard Time)","female","White","slightly conservative","",NA,"","offCivRatings","the officer purposefully struck the civilian with a motor vehicle","the civilian waved at the officer in greeting","vehicle","waved","civilianOfficer","acceptableOff","1","","","",""
"9",7802,"{""Q0"":100}","[object Object]","survey-likert",8,426493,"0.0-8.0","1kp37v0wa382g21zylm0s9jyhjs2720c","Fri Jan 20 2017 19:22:45 GMT-0500 (US Eastern Standard Time)","female","White","slightly conservative","",NA,"","offCivRatings","the officer purposefully struck the civilian with a motor vehicle","the civilian waved at the officer in greeting","vehicle","waved","civilianOfficer","manipCheckHigh","100","","","",""
"10",1693,"","","instructions",9,428188,"0.0-9.0","1kp37v0wa382g21zylm0s9jyhjs2720c","Fri Jan 20 2017 19:22:45 GMT-0500 (US Eastern Standard Time)","female","White","slightly conservative","",NA,"[{""page_index"":0,""viewing_time"":1693}]","break","","","","","","","","","","",""
"11",64628,"{""Q0"":100}","[object Object]","survey-likert",10,493036,"0.0-10.0","1kp37v0wa382g21zylm0s9jyhjs2720c","Fri Jan 20 2017 19:22:45 GMT-0500 (US Eastern Standard Time)","female","White","slightly conservative","",NA,"","offCivRatings","the officer shot the civilian in the head with a handgun","the civilian purposefully struck the officer with a motor vehicle","handgunHead","vehicle","civilianOfficer","forceOff","100","","","",""
"12",4420,"{""Q0"":90}","[object Object]","survey-likert",11,497465,"0.0-11.0","1kp37v0wa382g21zylm0s9jyhjs2720c","Fri Jan 20 2017 19:22:45 GMT-0500 (US Eastern Standard Time)","female","White","slightly conservative","",NA,"","offCivRatings","the officer shot the civilian in the head with a handgun","the civilian purposefully struck the officer with a motor vehicle","handgunHead","vehicle","civilianOfficer","punishOff","90","","","",""
"13",41204,"{""Q0"":70}","[object Object]","survey-likert",12,538679,"0.0-12.0","1kp37v0wa382g21zylm0s9jyhjs2720c","Fri Jan 20 2017 19:22:45 GMT-0500 (US Eastern Standard Time)","female","White","slightly conservative","",NA,"","offCivRatings","the officer shot the civilian in the head with a handgun","the civilian purposefully struck the officer with a motor vehicle","handgunHead","vehicle","civilianOfficer","appropriateOff","70","","","",""
"14",6073,"{""Q0"":30}","[object Object]","survey-likert",13,544761,"0.0-13.0","1kp37v0wa382g21zylm0s9jyhjs2720c","Fri Jan 20 2017 19:22:45 GMT-0500 (US Eastern Standard Time)","female","White","slightly conservative","",NA,"","offCivRatings","the officer shot the civilian in the head with a handgun","the civilian purposefully struck the officer with a motor vehicle","handgunHead","vehicle","civilianOfficer","acceptableOff","30","","","",""
"15",3694,"{""Q0"":1}","[object Object]","survey-likert",14,548464,"0.0-14.0","1kp37v0wa382g21zylm0s9jyhjs2720c","Fri Jan 20 2017 19:22:45 GMT-0500 (US Eastern Standard Time)","female","White","slightly conservative","",NA,"","offCivRatings","the officer shot the civilian in the head with a handgun","the civilian purposefully struck the officer with a motor vehicle","handgunHead","vehicle","civilianOfficer","manipCheckLow","1","","","",""
"16",1468,"","","instructions",15,549933,"0.0-15.0","1kp37v0wa382g21zylm0s9jyhjs2720c","Fri Jan 20 2017 19:22:45 GMT-0500 (US Eastern Standard Time)","female","White","slightly conservative","",NA,"[{""page_index"":0,""viewing_time"":1468}]","break","","","","","","","","","","",""
"17",12532,"{""Q0"":50}","[object Object]","survey-likert",16,562684,"0.0-16.0","1kp37v0wa382g21zylm0s9jyhjs2720c","Fri Jan 20 2017 19:22:45 GMT-0500 (US Eastern Standard Time)","female","White","slightly conservative","",NA,"","offCivRatings","the officer shouted ""get your fucking hands up!"" at the civilian","the civilian applied a chokehold to the officer","handsUp","choke","civilianOfficer","appropriateOff","50","","","",""
"18",3753,"{""Q0"":1}","[object Object]","survey-likert",17,566448,"0.0-17.0","1kp37v0wa382g21zylm0s9jyhjs2720c","Fri Jan 20 2017 19:22:45 GMT-0500 (US Eastern Standard Time)","female","White","slightly conservative","",NA,"","offCivRatings","the officer shouted ""get your fucking hands up!"" at the civilian","the civilian applied a chokehold to the officer","handsUp","choke","civilianOfficer","manipCheckLow","1","","","",""
"19",8323,"{""Q0"":11}","[object Object]","survey-likert",18,574782,"0.0-18.0","1kp37v0wa382g21zylm0s9jyhjs2720c","Fri Jan 20 2017 19:22:45 GMT-0500 (US Eastern Standard Time)","female","White","slightly conservative","",NA,"","offCivRatings","the officer shouted ""get your fucking hands up!"" at the civilian","the civilian applied a chokehold to the officer","handsUp","choke","civilianOfficer","forceOff","11","","","",""
"20",3785,"{""Q0"":1}","[object Object]","survey-likert",19,578577,"0.0-19.0","1kp37v0wa382g21zylm0s9jyhjs2720c","Fri Jan 20 2017 19:22:45 GMT-0500 (US Eastern Standard Time)","female","White","slightly conservative","",NA,"","offCivRatings","the officer shouted ""get your fucking hands up!"" at the civilian","the civilian applied a chokehold to the officer","handsUp","choke","civilianOfficer","punishOff","1","","","",""
"21",4031,"{""Q0"":100}","[object Object]","survey-likert",20,582622,"0.0-20.0","1kp37v0wa382g21zylm0s9jyhjs2720c","Fri Jan 20 2017 19:22:45 GMT-0500 (US Eastern Standard Time)","female","White","slightly conservative","",NA,"","offCivRatings","the officer shouted ""get your fucking hands up!"" at the civilian","the civilian applied a chokehold to the officer","handsUp","choke","civilianOfficer","acceptableOff","100","","","",""
"22",1346,"","","instructions",21,583968,"0.0-21.0","1kp37v0wa382g21zylm0s9jyhjs2720c","Fri Jan 20 2017 19:22:45 GMT-0500 (US Eastern Standard Time)","female","White","slightly conservative","",NA,"[{""page_index"":0,""viewing_time"":1346}]","break","","","","","","","","","","",""
"23",11103,"{""Q0"":60}","[object Object]","survey-likert",22,595292,"0.0-22.0","1kp37v0wa382g21zylm0s9jyhjs2720c","Fri Jan 20 2017 19:22:45 GMT-0500 (US Eastern Standard Time)","female","White","slightly conservative","",NA,"","offCivRatings","the officer struck the civilian in the stomach with a metal flashlight","the civilian shouted ""I don't have to fucking listen to you!"" at the officer","flashlight","dontListen","civilianOfficer","forceOff","60","","","",""
"24",4463,"{""Q0"":70}","[object Object]","survey-likert",23,599763,"0.0-23.0","1kp37v0wa382g21zylm0s9jyhjs2720c","Fri Jan 20 2017 19:22:45 GMT-0500 (US Eastern Standard Time)","female","White","slightly conservative","",NA,"","offCivRatings","the officer struck the civilian in the stomach with a metal flashlight","the civilian shouted ""I don't have to fucking listen to you!"" at the officer","flashlight","dontListen","civilianOfficer","acceptableOff","70","","","",""
"25",5946,"{""Q0"":21}","[object Object]","survey-likert",24,605717,"0.0-24.0","1kp37v0wa382g21zylm0s9jyhjs2720c","Fri Jan 20 2017 19:22:45 GMT-0500 (US Eastern Standard Time)","female","White","slightly conservative","",NA,"","offCivRatings","the officer struck the civilian in the stomach with a metal flashlight","the civilian shouted ""I don't have to fucking listen to you!"" at the officer","flashlight","dontListen","civilianOfficer","punishOff","21","","","",""
"26",5928,"{""Q0"":61}","[object Object]","survey-likert",25,611655,"0.0-25.0","1kp37v0wa382g21zylm0s9jyhjs2720c","Fri Jan 20 2017 19:22:45 GMT-0500 (US Eastern Standard Time)","female","White","slightly conservative","",NA,"","offCivRatings","the officer struck the civilian in the stomach with a metal flashlight","the civilian shouted ""I don't have to fucking listen to you!"" at the officer","flashlight","dontListen","civilianOfficer","appropriateOff","61","","","",""
"27",1778,"","","instructions",26,613433,"0.0-26.0","1kp37v0wa382g21zylm0s9jyhjs2720c","Fri Jan 20 2017 19:22:45 GMT-0500 (US Eastern Standard Time)","female","White","slightly conservative","",NA,"[{""page_index"":0,""viewing_time"":1778}]","break","","","","","","","","","","",""
"28",11669,"{""Q0"":30}","[object Object]","survey-likert",27,625320,"0.0-27.0","1kp37v0wa382g21zylm0s9jyhjs2720c","Fri Jan 20 2017 19:22:45 GMT-0500 (US Eastern Standard Time)","female","White","slightly conservative","",NA,"","offCivRatings","the officer said ""if you touch me, you're gonna get hurt"" to the civilian","the civilian struck the officer in the stomach with a metal flashlight","hurtThreat","flashlight","civilianOfficer","acceptableOff","30","","","",""
"29",9028,"{""Q0"":60}","[object Object]","survey-likert",28,634356,"0.0-28.0","1kp37v0wa382g21zylm0s9jyhjs2720c","Fri Jan 20 2017 19:22:45 GMT-0500 (US Eastern Standard Time)","female","White","slightly conservative","",NA,"","offCivRatings","the officer said ""if you touch me, you're gonna get hurt"" to the civilian","the civilian struck the officer in the stomach with a metal flashlight","hurtThreat","flashlight","civilianOfficer","appropriateOff","60","","","",""
"30",8062,"{""Q0"":32}","[object Object]","survey-likert",29,642427,"0.0-29.0","1kp37v0wa382g21zylm0s9jyhjs2720c","Fri Jan 20 2017 19:22:45 GMT-0500 (US Eastern Standard Time)","female","White","slightly conservative","",NA,"","offCivRatings","the officer said ""if you touch me, you're gonna get hurt"" to the civilian","the civilian struck the officer in the stomach with a metal flashlight","hurtThreat","flashlight","civilianOfficer","forceOff","32","","","",""
"31",5162,"{""Q0"":53}","[object Object]","survey-likert",30,647598,"0.0-30.0","1kp37v0wa382g21zylm0s9jyhjs2720c","Fri Jan 20 2017 19:22:45 GMT-0500 (US Eastern Standard Time)","female","White","slightly conservative","",NA,"","offCivRatings","the officer said ""if you touch me, you're gonna get hurt"" to the civilian","the civilian struck the officer in the stomach with a metal flashlight","hurtThreat","flashlight","civilianOfficer","punishOff","53","","","",""
"32",1481,"","","instructions",31,649079,"0.0-31.0","1kp37v0wa382g21zylm0s9jyhjs2720c","Fri Jan 20 2017 19:22:45 GMT-0500 (US Eastern Standard Time)","female","White","slightly conservative","",NA,"[{""page_index"":0,""viewing_time"":1481}]","break","","","","","","","","","","",""
"33",8038,"{""Q0"":100}","[object Object]","survey-likert",32,657335,"0.0-32.0","1kp37v0wa382g21zylm0s9jyhjs2720c","Fri Jan 20 2017 19:22:45 GMT-0500 (US Eastern Standard Time)","female","White","slightly conservative","",NA,"","offCivRatings","the officer punched the civilian in the face","the civilian sprayed the officer with pepper spray","punchFace","pepperSpray","officerCivilian","manipCheckHigh","100","","","",""
"34",17470,"{""Q0"":51}","[object Object]","survey-likert",33,674814,"0.0-33.0","1kp37v0wa382g21zylm0s9jyhjs2720c","Fri Jan 20 2017 19:22:45 GMT-0500 (US Eastern Standard Time)","female","White","slightly conservative","",NA,"","offCivRatings","the officer punched the civilian in the face","the civilian sprayed the officer with pepper spray","punchFace","pepperSpray","officerCivilian","appropriateCiv","51","","","",""
"35",8460,"{""Q0"":61}","[object Object]","survey-likert",34,683283,"0.0-34.0","1kp37v0wa382g21zylm0s9jyhjs2720c","Fri Jan 20 2017 19:22:45 GMT-0500 (US Eastern Standard Time)","female","White","slightly conservative","",NA,"","offCivRatings","the officer punched the civilian in the face","the civilian sprayed the officer with pepper spray","punchFace","pepperSpray","officerCivilian","punishCiv","61","","","",""
"36",5146,"{""Q0"":35}","[object Object]","survey-likert",35,688437,"0.0-35.0","1kp37v0wa382g21zylm0s9jyhjs2720c","Fri Jan 20 2017 19:22:45 GMT-0500 (US Eastern Standard Time)","female","White","slightly conservative","",NA,"","offCivRatings","the officer punched the civilian in the face","the civilian sprayed the officer with pepper spray","punchFace","pepperSpray","officerCivilian","acceptableCiv","35","","","",""
"37",7605,"{""Q0"":57}","[object Object]","survey-likert",36,696052,"0.0-36.0","1kp37v0wa382g21zylm0s9jyhjs2720c","Fri Jan 20 2017 19:22:45 GMT-0500 (US Eastern Standard Time)","female","White","slightly conservative","",NA,"","offCivRatings","the officer punched the civilian in the face","the civilian sprayed the officer with pepper spray","punchFace","pepperSpray","officerCivilian","forceCiv","57","","","",""
"38",1600,"","","instructions",37,697652,"0.0-37.0","1kp37v0wa382g21zylm0s9jyhjs2720c","Fri Jan 20 2017 19:22:45 GMT-0500 (US Eastern Standard Time)","female","White","slightly conservative","",NA,"[{""page_index"":0,""viewing_time"":1600}]","break","","","","","","","","","","",""
"39",27347,"{""Q0"":61}","[object Object]","survey-likert",38,725216,"0.0-38.0","1kp37v0wa382g21zylm0s9jyhjs2720c","Fri Jan 20 2017 19:22:45 GMT-0500 (US Eastern Standard Time)","female","White","slightly conservative","",NA,"","offCivRatings","the officer yelled ""get back!"" at the civilian","the civilian said ""if you touch me, you're gonna get hurt"" to the officer","getBack","hurtThreat","officerCivilian","appropriateCiv","61","","","",""
"40",6353,"{""Q0"":42}","[object Object]","survey-likert",39,731577,"0.0-39.0","1kp37v0wa382g21zylm0s9jyhjs2720c","Fri Jan 20 2017 19:22:45 GMT-0500 (US Eastern Standard Time)","female","White","slightly conservative","",NA,"","offCivRatings","the officer yelled ""get back!"" at the civilian","the civilian said ""if you touch me, you're gonna get hurt"" to the officer","getBack","hurtThreat","officerCivilian","acceptableCiv","42","","","",""
"41",4232,"{""Q0"":27}","[object Object]","survey-likert",40,735818,"0.0-40.0","1kp37v0wa382g21zylm0s9jyhjs2720c","Fri Jan 20 2017 19:22:45 GMT-0500 (US Eastern Standard Time)","female","White","slightly conservative","",NA,"","offCivRatings","the officer yelled ""get back!"" at the civilian","the civilian said ""if you touch me, you're gonna get hurt"" to the officer","getBack","hurtThreat","officerCivilian","forceCiv","27","","","",""
"42",4326,"{""Q0"":27}","[object Object]","survey-likert",41,740155,"0.0-41.0","1kp37v0wa382g21zylm0s9jyhjs2720c","Fri Jan 20 2017 19:22:45 GMT-0500 (US Eastern Standard Time)","female","White","slightly conservative","",NA,"","offCivRatings","the officer yelled ""get back!"" at the civilian","the civilian said ""if you touch me, you're gonna get hurt"" to the officer","getBack","hurtThreat","officerCivilian","punishCiv","27","","","",""
"43",1311,"","","instructions",42,741467,"0.0-42.0","1kp37v0wa382g21zylm0s9jyhjs2720c","Fri Jan 20 2017 19:22:45 GMT-0500 (US Eastern Standard Time)","female","White","slightly conservative","",NA,"[{""page_index"":0,""viewing_time"":1311}]","break","","","","","","","","","","",""
"44",17613,"{""Q0"":1}","[object Object]","survey-likert",43,759298,"0.0-43.0","1kp37v0wa382g21zylm0s9jyhjs2720c","Fri Jan 20 2017 19:22:45 GMT-0500 (US Eastern Standard Time)","female","White","slightly conservative","",NA,"","offCivRatings","the officer stood near the civilian","the civilian struck the officer on the leg with a metal pipe","stoodNear","metalPipe","civilianOfficer","punishOff","1","","","",""
"45",5837,"{""Q0"":50}","[object Object]","survey-likert",44,765142,"0.0-44.0","1kp37v0wa382g21zylm0s9jyhjs2720c","Fri Jan 20 2017 19:22:45 GMT-0500 (US Eastern Standard Time)","female","White","slightly conservative","",NA,"","offCivRatings","the officer stood near the civilian","the civilian struck the officer on the leg with a metal pipe","stoodNear","metalPipe","civilianOfficer","appropriateOff","50","","","",""
"46",5177,"{""Q0"":1}","[object Object]","survey-likert",45,770328,"0.0-45.0","1kp37v0wa382g21zylm0s9jyhjs2720c","Fri Jan 20 2017 19:22:45 GMT-0500 (US Eastern Standard Time)","female","White","slightly conservative","",NA,"","offCivRatings","the officer stood near the civilian","the civilian struck the officer on the leg with a metal pipe","stoodNear","metalPipe","civilianOfficer","forceOff","1","","","",""
"47",4028,"{""Q0"":100}","[object Object]","survey-likert",46,774366,"0.0-46.0","1kp37v0wa382g21zylm0s9jyhjs2720c","Fri Jan 20 2017 19:22:45 GMT-0500 (US Eastern Standard Time)","female","White","slightly conservative","",NA,"","offCivRatings","the officer stood near the civilian","the civilian struck the officer on the leg with a metal pipe","stoodNear","metalPipe","civilianOfficer","acceptableOff","100","","","",""
"48",1313,"","","instructions",47,775679,"0.0-47.0","1kp37v0wa382g21zylm0s9jyhjs2720c","Fri Jan 20 2017 19:22:45 GMT-0500 (US Eastern Standard Time)","female","White","slightly conservative","",NA,"[{""page_index"":0,""viewing_time"":1312}]","break","","","","","","","","","","",""
"49",12621,"{""Q0"":51}","[object Object]","survey-likert",48,788515,"0.0-48.0","1kp37v0wa382g21zylm0s9jyhjs2720c","Fri Jan 20 2017 19:22:45 GMT-0500 (US Eastern Standard Time)","female","White","slightly conservative","",NA,"","offCivRatings","the officer kicked the civilian in the stomach","the civilian shot the officer in the chest with a handgun","kickStom","handgunChest","civilianOfficer","appropriateOff","51","","","",""
"50",5367,"{""Q0"":1}","[object Object]","survey-likert",49,793890,"0.0-49.0","1kp37v0wa382g21zylm0s9jyhjs2720c","Fri Jan 20 2017 19:22:45 GMT-0500 (US Eastern Standard Time)","female","White","slightly conservative","",NA,"","offCivRatings","the officer kicked the civilian in the stomach","the civilian shot the officer in the chest with a handgun","kickStom","handgunChest","civilianOfficer","punishOff","1","","","",""
"51",4507,"{""Q0"":76}","[object Object]","survey-likert",50,798406,"0.0-50.0","1kp37v0wa382g21zylm0s9jyhjs2720c","Fri Jan 20 2017 19:22:45 GMT-0500 (US Eastern Standard Time)","female","White","slightly conservative","",NA,"","offCivRatings","the officer kicked the civilian in the stomach","the civilian shot the officer in the chest with a handgun","kickStom","handgunChest","civilianOfficer","forceOff","76","","","",""
"52",3889,"{""Q0"":81}","[object Object]","survey-likert",51,802305,"0.0-51.0","1kp37v0wa382g21zylm0s9jyhjs2720c","Fri Jan 20 2017 19:22:45 GMT-0500 (US Eastern Standard Time)","female","White","slightly conservative","",NA,"","offCivRatings","the officer kicked the civilian in the stomach","the civilian shot the officer in the chest with a handgun","kickStom","handgunChest","civilianOfficer","acceptableOff","81","","","",""
"53",1338,"","","instructions",52,803643,"0.0-52.0","1kp37v0wa382g21zylm0s9jyhjs2720c","Fri Jan 20 2017 19:22:45 GMT-0500 (US Eastern Standard Time)","female","White","slightly conservative","",NA,"[{""page_index"":0,""viewing_time"":1338}]","break","","","","","","","","","","",""
"54",10029,"{""Q0"":7}","[object Object]","survey-likert",53,813933,"0.0-53.0","1kp37v0wa382g21zylm0s9jyhjs2720c","Fri Jan 20 2017 19:22:45 GMT-0500 (US Eastern Standard Time)","female","White","slightly conservative","",NA,"","offCivRatings","the officer applied a chokehold to the civilian","the civilian asked the officer how he was doing","choke","asked","officerCivilian","forceCiv","7","","","",""
"55",3758,"{""Q0"":97}","[object Object]","survey-likert",54,817700,"0.0-54.0","1kp37v0wa382g21zylm0s9jyhjs2720c","Fri Jan 20 2017 19:22:45 GMT-0500 (US Eastern Standard Time)","female","White","slightly conservative","",NA,"","offCivRatings","the officer applied a chokehold to the civilian","the civilian asked the officer how he was doing","choke","asked","officerCivilian","acceptableCiv","97","","","",""
"56",6462,"{""Q0"":1}","[object Object]","survey-likert",55,824171,"0.0-55.0","1kp37v0wa382g21zylm0s9jyhjs2720c","Fri Jan 20 2017 19:22:45 GMT-0500 (US Eastern Standard Time)","female","White","slightly conservative","",NA,"","offCivRatings","the officer applied a chokehold to the civilian","the civilian asked the officer how he was doing","choke","asked","officerCivilian","appropriateCiv","1","","","",""
"57",3152,"{""Q0"":4}","[object Object]","survey-likert",56,827332,"0.0-56.0","1kp37v0wa382g21zylm0s9jyhjs2720c","Fri Jan 20 2017 19:22:45 GMT-0500 (US Eastern Standard Time)","female","White","slightly conservative","",NA,"","offCivRatings","the officer applied a chokehold to the civilian","the civilian asked the officer how he was doing","choke","asked","officerCivilian","punishCiv","4","","","",""
"58",1424,"","","instructions",57,828756,"0.0-57.0","1kp37v0wa382g21zylm0s9jyhjs2720c","Fri Jan 20 2017 19:22:45 GMT-0500 (US Eastern Standard Time)","female","White","slightly conservative","",NA,"[{""page_index"":0,""viewing_time"":1423}]","break","","","","","","","","","","",""
"59",23068,"{""Q0"":1}","[object Object]","survey-likert",58,852040,"0.0-58.0","1kp37v0wa382g21zylm0s9jyhjs2720c","Fri Jan 20 2017 19:22:45 GMT-0500 (US Eastern Standard Time)","female","White","slightly conservative","",NA,"","offCivRatings","the officer struck the civilian on the leg with a collapsible baton","the civilian slammed the officer's head into the concrete curb","batonLeg","headSlam","officerCivilian","acceptableCiv","1","","","",""
"60",5249,"{""Q0"":90}","[object Object]","survey-likert",59,857298,"0.0-59.0","1kp37v0wa382g21zylm0s9jyhjs2720c","Fri Jan 20 2017 19:22:45 GMT-0500 (US Eastern Standard Time)","female","White","slightly conservative","",NA,"","offCivRatings","the officer struck the civilian on the leg with a collapsible baton","the civilian slammed the officer's head into the concrete curb","batonLeg","headSlam","officerCivilian","appropriateCiv","90","","","",""
"61",3329,"{""Q0"":83}","[object Object]","survey-likert",60,860635,"0.0-60.0","1kp37v0wa382g21zylm0s9jyhjs2720c","Fri Jan 20 2017 19:22:45 GMT-0500 (US Eastern Standard Time)","female","White","slightly conservative","",NA,"","offCivRatings","the officer struck the civilian on the leg with a collapsible baton","the civilian slammed the officer's head into the concrete curb","batonLeg","headSlam","officerCivilian","punishCiv","83","","","",""
"62",4826,"{""Q0"":79}","[object Object]","survey-likert",61,865469,"0.0-61.0","1kp37v0wa382g21zylm0s9jyhjs2720c","Fri Jan 20 2017 19:22:45 GMT-0500 (US Eastern Standard Time)","female","White","slightly conservative","",NA,"","offCivRatings","the officer struck the civilian on the leg with a collapsible baton","the civilian slammed the officer's head into the concrete curb","batonLeg","headSlam","officerCivilian","forceCiv","79","","","",""
"63",1789,"","","instructions",62,867259,"0.0-62.0","1kp37v0wa382g21zylm0s9jyhjs2720c","Fri Jan 20 2017 19:22:45 GMT-0500 (US Eastern Standard Time)","female","White","slightly conservative","",NA,"[{""page_index"":0,""viewing_time"":1789}]","break","","","","","","","","","","",""
"64",11695,"{""Q0"":73}","[object Object]","survey-likert",63,879172,"0.0-63.0","1kp37v0wa382g21zylm0s9jyhjs2720c","Fri Jan 20 2017 19:22:45 GMT-0500 (US Eastern Standard Time)","female","White","slightly conservative","",NA,"","offCivRatings","the officer shocked the civilian with a tazer","the civilian shocked the officer with a tazer","tazer","tazer","officerCivilian","punishCiv","73","","","",""
"65",3507,"{""Q0"":100}","[object Object]","survey-likert",64,882688,"0.0-64.0","1kp37v0wa382g21zylm0s9jyhjs2720c","Fri Jan 20 2017 19:22:45 GMT-0500 (US Eastern Standard Time)","female","White","slightly conservative","",NA,"","offCivRatings","the officer shocked the civilian with a tazer","the civilian shocked the officer with a tazer","tazer","tazer","officerCivilian","manipCheckHigh","100","","","",""
"66",4662,"{""Q0"":77}","[object Object]","survey-likert",65,887360,"0.0-65.0","1kp37v0wa382g21zylm0s9jyhjs2720c","Fri Jan 20 2017 19:22:45 GMT-0500 (US Eastern Standard Time)","female","White","slightly conservative","",NA,"","offCivRatings","the officer shocked the civilian with a tazer","the civilian shocked the officer with a tazer","tazer","tazer","officerCivilian","appropriateCiv","77","","","",""
"67",3234,"{""Q0"":8}","[object Object]","survey-likert",66,890603,"0.0-66.0","1kp37v0wa382g21zylm0s9jyhjs2720c","Fri Jan 20 2017 19:22:45 GMT-0500 (US Eastern Standard Time)","female","White","slightly conservative","",NA,"","offCivRatings","the officer shocked the civilian with a tazer","the civilian shocked the officer with a tazer","tazer","tazer","officerCivilian","acceptableCiv","8","","","",""
"68",5265,"{""Q0"":75}","[object Object]","survey-likert",67,895878,"0.0-67.0","1kp37v0wa382g21zylm0s9jyhjs2720c","Fri Jan 20 2017 19:22:45 GMT-0500 (US Eastern Standard Time)","female","White","slightly conservative","",NA,"","offCivRatings","the officer shocked the civilian with a tazer","the civilian shocked the officer with a tazer","tazer","tazer","officerCivilian","forceCiv","75","","","",""
"69",1302,"","","instructions",68,897180,"0.0-68.0","1kp37v0wa382g21zylm0s9jyhjs2720c","Fri Jan 20 2017 19:22:45 GMT-0500 (US Eastern Standard Time)","female","White","slightly conservative","",NA,"[{""page_index"":0,""viewing_time"":1302}]","break","","","","","","","","","","",""
"70",9592,"{""Q0"":3}","[object Object]","survey-likert",69,907101,"0.0-69.0","1kp37v0wa382g21zylm0s9jyhjs2720c","Fri Jan 20 2017 19:22:45 GMT-0500 (US Eastern Standard Time)","female","White","slightly conservative","",NA,"","offCivRatings","the officer headbutted the civilian in the face","the civilian twisted the arm of the officer, forcing him to the ground","headbutt","armbar","civilianOfficer","punishOff","3","","","",""
"71",6256,"{""Q0"":54}","[object Object]","survey-likert",70,913367,"0.0-70.0","1kp37v0wa382g21zylm0s9jyhjs2720c","Fri Jan 20 2017 19:22:45 GMT-0500 (US Eastern Standard Time)","female","White","slightly conservative","",NA,"","offCivRatings","the officer headbutted the civilian in the face","the civilian twisted the arm of the officer, forcing him to the ground","headbutt","armbar","civilianOfficer","appropriateOff","54","","","",""
"72",3872,"{""Q0"":35}","[object Object]","survey-likert",71,917248,"0.0-71.0","1kp37v0wa382g21zylm0s9jyhjs2720c","Fri Jan 20 2017 19:22:45 GMT-0500 (US Eastern Standard Time)","female","White","slightly conservative","",NA,"","offCivRatings","the officer headbutted the civilian in the face","the civilian twisted the arm of the officer, forcing him to the ground","headbutt","armbar","civilianOfficer","acceptableOff","35","","","",""
"73",4677,"{""Q0"":78}","[object Object]","survey-likert",72,921945,"0.0-72.0","1kp37v0wa382g21zylm0s9jyhjs2720c","Fri Jan 20 2017 19:22:45 GMT-0500 (US Eastern Standard Time)","female","White","slightly conservative","",NA,"","offCivRatings","the officer headbutted the civilian in the face","the civilian twisted the arm of the officer, forcing him to the ground","headbutt","armbar","civilianOfficer","forceOff","78","","","",""
"74",1321,"","","instructions",73,923266,"0.0-73.0","1kp37v0wa382g21zylm0s9jyhjs2720c","Fri Jan 20 2017 19:22:45 GMT-0500 (US Eastern Standard Time)","female","White","slightly conservative","",NA,"[{""page_index"":0,""viewing_time"":1321}]","break","","","","","","","","","","",""
"75",7094,"{""Q0"":100}","[object Object]","survey-likert",74,930579,"0.0-74.0","1kp37v0wa382g21zylm0s9jyhjs2720c","Fri Jan 20 2017 19:22:45 GMT-0500 (US Eastern Standard Time)","female","White","slightly conservative","",NA,"","offCivRatings","the officer waved at the civilian in greeting","the civilian stood near the officer","waved","stoodNear","civilianOfficer","acceptableOff","100","","","",""
"76",8383,"{""Q0"":23}","[object Object]","survey-likert",75,938970,"0.0-75.0","1kp37v0wa382g21zylm0s9jyhjs2720c","Fri Jan 20 2017 19:22:45 GMT-0500 (US Eastern Standard Time)","female","White","slightly conservative","",NA,"","offCivRatings","the officer waved at the civilian in greeting","the civilian stood near the officer","waved","stoodNear","civilianOfficer","forceOff","23","","","",""
"77",2825,"{""Q0"":52}","[object Object]","survey-likert",76,941804,"0.0-76.0","1kp37v0wa382g21zylm0s9jyhjs2720c","Fri Jan 20 2017 19:22:45 GMT-0500 (US Eastern Standard Time)","female","White","slightly conservative","",NA,"","offCivRatings","the officer waved at the civilian in greeting","the civilian stood near the officer","waved","stoodNear","civilianOfficer","appropriateOff","52","","","",""
"78",8872,"{""Q0"":1}","[object Object]","survey-likert",77,950684,"0.0-77.0","1kp37v0wa382g21zylm0s9jyhjs2720c","Fri Jan 20 2017 19:22:45 GMT-0500 (US Eastern Standard Time)","female","White","slightly conservative","",NA,"","offCivRatings","the officer waved at the civilian in greeting","the civilian stood near the officer","waved","stoodNear","civilianOfficer","punishOff","1","","","",""
"79",1647,"","","instructions",78,952331,"0.0-78.0","1kp37v0wa382g21zylm0s9jyhjs2720c","Fri Jan 20 2017 19:22:45 GMT-0500 (US Eastern Standard Time)","female","White","slightly conservative","",NA,"[{""page_index"":0,""viewing_time"":1646}]","break","","","","","","","","","","",""
"80",7122,"{""Q0"":100}","[object Object]","survey-likert",79,959668,"0.0-79.0","1kp37v0wa382g21zylm0s9jyhjs2720c","Fri Jan 20 2017 19:22:45 GMT-0500 (US Eastern Standard Time)","female","White","slightly conservative","",NA,"","offCivRatings","the officer asked the civilian how he was doing","the civilian headbutted the officer in the face","asked","headbutt","officerCivilian","appropriateCiv","100","","","",""
"81",3120,"{""Q0"":1}","[object Object]","survey-likert",80,962797,"0.0-80.0","1kp37v0wa382g21zylm0s9jyhjs2720c","Fri Jan 20 2017 19:22:45 GMT-0500 (US Eastern Standard Time)","female","White","slightly conservative","",NA,"","offCivRatings","the officer asked the civilian how he was doing","the civilian headbutted the officer in the face","asked","headbutt","officerCivilian","acceptableCiv","1","","","",""
"82",4451,"{""Q0"":65}","[object Object]","survey-likert",81,967256,"0.0-81.0","1kp37v0wa382g21zylm0s9jyhjs2720c","Fri Jan 20 2017 19:22:45 GMT-0500 (US Eastern Standard Time)","female","White","slightly conservative","",NA,"","offCivRatings","the officer asked the civilian how he was doing","the civilian headbutted the officer in the face","asked","headbutt","officerCivilian","forceCiv","65","","","",""
"83",5866,"{""Q0"":80}","[object Object]","survey-likert",82,973131,"0.0-82.0","1kp37v0wa382g21zylm0s9jyhjs2720c","Fri Jan 20 2017 19:22:45 GMT-0500 (US Eastern Standard Time)","female","White","slightly conservative","",NA,"","offCivRatings","the officer asked the civilian how he was doing","the civilian headbutted the officer in the face","asked","headbutt","officerCivilian","punishCiv","80","","","",""
"84",1280,"","","instructions",83,974411,"0.0-83.0","1kp37v0wa382g21zylm0s9jyhjs2720c","Fri Jan 20 2017 19:22:45 GMT-0500 (US Eastern Standard Time)","female","White","slightly conservative","",NA,"[{""page_index"":0,""viewing_time"":1279}]","break","","","","","","","","","","",""
"85",9709,"{""Q0"":100}","[object Object]","survey-likert",84,984339,"0.0-84.0","1kp37v0wa382g21zylm0s9jyhjs2720c","Fri Jan 20 2017 19:22:45 GMT-0500 (US Eastern Standard Time)","female","White","slightly conservative","",NA,"","offCivRatings","the officer shot the civilian in the chest with a handgun","the civilian punched the officer in the face","handgunChest","punchFace","civilianOfficer","manipCheckHigh","100","","","",""
"86",4729,"{""Q0"":84}","[object Object]","survey-likert",85,989079,"0.0-85.0","1kp37v0wa382g21zylm0s9jyhjs2720c","Fri Jan 20 2017 19:22:45 GMT-0500 (US Eastern Standard Time)","female","White","slightly conservative","",NA,"","offCivRatings","the officer shot the civilian in the chest with a handgun","the civilian punched the officer in the face","handgunChest","punchFace","civilianOfficer","appropriateOff","84","","","",""
"87",11973,"{""Q0"":88}","[object Object]","survey-likert",86,1001060,"0.0-86.0","1kp37v0wa382g21zylm0s9jyhjs2720c","Fri Jan 20 2017 19:22:45 GMT-0500 (US Eastern Standard Time)","female","White","slightly conservative","",NA,"","offCivRatings","the officer shot the civilian in the chest with a handgun","the civilian punched the officer in the face","handgunChest","punchFace","civilianOfficer","punishOff","88","","","",""
"88",4810,"{""Q0"":35}","[object Object]","survey-likert",87,1005878,"0.0-87.0","1kp37v0wa382g21zylm0s9jyhjs2720c","Fri Jan 20 2017 19:22:45 GMT-0500 (US Eastern Standard Time)","female","White","slightly conservative","",NA,"","offCivRatings","the officer shot the civilian in the chest with a handgun","the civilian punched the officer in the face","handgunChest","punchFace","civilianOfficer","acceptableOff","35","","","",""
"89",4126,"{""Q0"":83}","[object Object]","survey-likert",88,1010013,"0.0-88.0","1kp37v0wa382g21zylm0s9jyhjs2720c","Fri Jan 20 2017 19:22:45 GMT-0500 (US Eastern Standard Time)","female","White","slightly conservative","",NA,"","offCivRatings","the officer shot the civilian in the chest with a handgun","the civilian punched the officer in the face","handgunChest","punchFace","civilianOfficer","forceOff","83","","","",""
"90",2078,"","","instructions",89,1012091,"0.0-89.0","1kp37v0wa382g21zylm0s9jyhjs2720c","Fri Jan 20 2017 19:22:45 GMT-0500 (US Eastern Standard Time)","female","White","slightly conservative","",NA,"[{""page_index"":0,""viewing_time"":2077}]","break","","","","","","","","","","",""
"91",8897,"{""Q0"":40}","[object Object]","survey-likert",90,1021208,"0.0-90.0","1kp37v0wa382g21zylm0s9jyhjs2720c","Fri Jan 20 2017 19:22:45 GMT-0500 (US Eastern Standard Time)","female","White","slightly conservative","",NA,"","offCivRatings","the officer put handcuffs on the civilian","the civilian pulled away from the officer","handcuff","pulledAway","officerCivilian","punishCiv","40","","","",""
"92",4011,"{""Q0"":52}","[object Object]","survey-likert",91,1025229,"0.0-91.0","1kp37v0wa382g21zylm0s9jyhjs2720c","Fri Jan 20 2017 19:22:45 GMT-0500 (US Eastern Standard Time)","female","White","slightly conservative","",NA,"","offCivRatings","the officer put handcuffs on the civilian","the civilian pulled away from the officer","handcuff","pulledAway","officerCivilian","appropriateCiv","52","","","",""
"93",3483,"{""Q0"":40}","[object Object]","survey-likert",92,1028719,"0.0-92.0","1kp37v0wa382g21zylm0s9jyhjs2720c","Fri Jan 20 2017 19:22:45 GMT-0500 (US Eastern Standard Time)","female","White","slightly conservative","",NA,"","offCivRatings","the officer put handcuffs on the civilian","the civilian pulled away from the officer","handcuff","pulledAway","officerCivilian","acceptableCiv","40","","","",""
"94",3909,"{""Q0"":58}","[object Object]","survey-likert",93,1032636,"0.0-93.0","1kp37v0wa382g21zylm0s9jyhjs2720c","Fri Jan 20 2017 19:22:45 GMT-0500 (US Eastern Standard Time)","female","White","slightly conservative","",NA,"","offCivRatings","the officer put handcuffs on the civilian","the civilian pulled away from the officer","handcuff","pulledAway","officerCivilian","forceCiv","58","","","",""
"95",3249,"{""Q0"":100}","[object Object]","survey-likert",94,1035895,"0.0-94.0","1kp37v0wa382g21zylm0s9jyhjs2720c","Fri Jan 20 2017 19:22:45 GMT-0500 (US Eastern Standard Time)","female","White","slightly conservative","",NA,"","offCivRatings","the officer put handcuffs on the civilian","the civilian pulled away from the officer","handcuff","pulledAway","officerCivilian","manipCheckHigh","100","","","",""
"96",1398,"","","instructions",95,1037293,"0.0-95.0","1kp37v0wa382g21zylm0s9jyhjs2720c","Fri Jan 20 2017 19:22:45 GMT-0500 (US Eastern Standard Time)","female","White","slightly conservative","",NA,"[{""page_index"":0,""viewing_time"":1398}]","break","","","","","","","","","","",""
"97",8508,"{""Q0"":100}","[object Object]","survey-likert",96,1046015,"0.0-96.0","1kp37v0wa382g21zylm0s9jyhjs2720c","Fri Jan 20 2017 19:22:45 GMT-0500 (US Eastern Standard Time)","female","White","slightly conservative","",NA,"","offCivRatings","the officer called the civilian a ""thug""","the civilian hit the officer in the chest with a baseball bat","nameCall","ballBat","officerCivilian","manipCheckHigh","100","","","",""
"98",3960,"{""Q0"":97}","[object Object]","survey-likert",97,1049985,"0.0-97.0","1kp37v0wa382g21zylm0s9jyhjs2720c","Fri Jan 20 2017 19:22:45 GMT-0500 (US Eastern Standard Time)","female","White","slightly conservative","",NA,"","offCivRatings","the officer called the civilian a ""thug""","the civilian hit the officer in the chest with a baseball bat","nameCall","ballBat","officerCivilian","appropriateCiv","97","","","",""
"99",3179,"{""Q0"":74}","[object Object]","survey-likert",98,1053173,"0.0-98.0","1kp37v0wa382g21zylm0s9jyhjs2720c","Fri Jan 20 2017 19:22:45 GMT-0500 (US Eastern Standard Time)","female","White","slightly conservative","",NA,"","offCivRatings","the officer called the civilian a ""thug""","the civilian hit the officer in the chest with a baseball bat","nameCall","ballBat","officerCivilian","forceCiv","74","","","",""
"100",4895,"{""Q0"":24}","[object Object]","survey-likert",99,1058077,"0.0-99.0","1kp37v0wa382g21zylm0s9jyhjs2720c","Fri Jan 20 2017 19:22:45 GMT-0500 (US Eastern Standard Time)","female","White","slightly conservative","",NA,"","offCivRatings","the officer called the civilian a ""thug""","the civilian hit the officer in the chest with a baseball bat","nameCall","ballBat","officerCivilian","acceptableCiv","24","","","",""
"101",3707,"{""Q0"":73}","[object Object]","survey-likert",100,1061791,"0.0-100.0","1kp37v0wa382g21zylm0s9jyhjs2720c","Fri Jan 20 2017 19:22:45 GMT-0500 (US Eastern Standard Time)","female","White","slightly conservative","",NA,"","offCivRatings","the officer called the civilian a ""thug""","the civilian hit the officer in the chest with a baseball bat","nameCall","ballBat","officerCivilian","punishCiv","73","","","",""
"102",1507,"","","instructions",101,1063299,"0.0-101.0","1kp37v0wa382g21zylm0s9jyhjs2720c","Fri Jan 20 2017 19:22:45 GMT-0500 (US Eastern Standard Time)","female","White","slightly conservative","",NA,"[{""page_index"":0,""viewing_time"":1506}]","break","","","","","","","","","","",""
"103",7944,"{""Q0"":100}","[object Object]","survey-likert",102,1071458,"0.0-102.0","1kp37v0wa382g21zylm0s9jyhjs2720c","Fri Jan 20 2017 19:22:45 GMT-0500 (US Eastern Standard Time)","female","White","slightly conservative","",NA,"","offCivRatings","the officer sprayed the civilian with pepper spray","the civilian shot the officer in the head with a handgun","pepperSpray","handgunHead","officerCivilian","appropriateCiv","100","","","",""
"104",4842,"{""Q0"":86}","[object Object]","survey-likert",103,1076308,"0.0-103.0","1kp37v0wa382g21zylm0s9jyhjs2720c","Fri Jan 20 2017 19:22:45 GMT-0500 (US Eastern Standard Time)","female","White","slightly conservative","",NA,"","offCivRatings","the officer sprayed the civilian with pepper spray","the civilian shot the officer in the head with a handgun","pepperSpray","handgunHead","officerCivilian","forceCiv","86","","","",""
"105",6245,"{""Q0"":19}","[object Object]","survey-likert",104,1082563,"0.0-104.0","1kp37v0wa382g21zylm0s9jyhjs2720c","Fri Jan 20 2017 19:22:45 GMT-0500 (US Eastern Standard Time)","female","White","slightly conservative","",NA,"","offCivRatings","the officer sprayed the civilian with pepper spray","the civilian shot the officer in the head with a handgun","pepperSpray","handgunHead","officerCivilian","acceptableCiv","19","","","",""
"106",5105,"{""Q0"":90}","[object Object]","survey-likert",105,1087677,"0.0-105.0","1kp37v0wa382g21zylm0s9jyhjs2720c","Fri Jan 20 2017 19:22:45 GMT-0500 (US Eastern Standard Time)","female","White","slightly conservative","",NA,"","offCivRatings","the officer sprayed the civilian with pepper spray","the civilian shot the officer in the head with a handgun","pepperSpray","handgunHead","officerCivilian","punishCiv","90","","","",""
"107",1396,"","","instructions",106,1089073,"0.0-106.0","1kp37v0wa382g21zylm0s9jyhjs2720c","Fri Jan 20 2017 19:22:45 GMT-0500 (US Eastern Standard Time)","female","White","slightly conservative","",NA,"[{""page_index"":0,""viewing_time"":1396}]","break","","","","","","","","","","",""
"108",11426,"{""Q0"":72}","[object Object]","survey-likert",107,1100717,"0.0-107.0","1kp37v0wa382g21zylm0s9jyhjs2720c","Fri Jan 20 2017 19:22:45 GMT-0500 (US Eastern Standard Time)","female","White","slightly conservative","",NA,"","offCivRatings","the officer twisted the arm of the civilian, forcing him to the ground","the civilian called the officer a ""pig""","armbar","nameCall","civilianOfficer","acceptableOff","72","","","",""
"109",4520,"{""Q0"":68}","[object Object]","survey-likert",108,1105247,"0.0-108.0","1kp37v0wa382g21zylm0s9jyhjs2720c","Fri Jan 20 2017 19:22:45 GMT-0500 (US Eastern Standard Time)","female","White","slightly conservative","",NA,"","offCivRatings","the officer twisted the arm of the civilian, forcing him to the ground","the civilian called the officer a ""pig""","armbar","nameCall","civilianOfficer","forceOff","68","","","",""
"110",3212,"{""Q0"":1}","[object Object]","survey-likert",109,1108466,"0.0-109.0","1kp37v0wa382g21zylm0s9jyhjs2720c","Fri Jan 20 2017 19:22:45 GMT-0500 (US Eastern Standard Time)","female","White","slightly conservative","",NA,"","offCivRatings","the officer twisted the arm of the civilian, forcing him to the ground","the civilian called the officer a ""pig""","armbar","nameCall","civilianOfficer","manipCheckLow","1","","","",""
"111",4004,"{""Q0"":12}","[object Object]","survey-likert",110,1112479,"0.0-110.0","1kp37v0wa382g21zylm0s9jyhjs2720c","Fri Jan 20 2017 19:22:45 GMT-0500 (US Eastern Standard Time)","female","White","slightly conservative","",NA,"","offCivRatings","the officer twisted the arm of the civilian, forcing him to the ground","the civilian called the officer a ""pig""","armbar","nameCall","civilianOfficer","punishOff","12","","","",""
"112",3873,"{""Q0"":52}","[object Object]","survey-likert",111,1116360,"0.0-111.0","1kp37v0wa382g21zylm0s9jyhjs2720c","Fri Jan 20 2017 19:22:45 GMT-0500 (US Eastern Standard Time)","female","White","slightly conservative","",NA,"","offCivRatings","the officer twisted the arm of the civilian, forcing him to the ground","the civilian called the officer a ""pig""","armbar","nameCall","civilianOfficer","appropriateOff","52","","","",""
"113",1229,"","","instructions",112,1117590,"0.0-112.0","1kp37v0wa382g21zylm0s9jyhjs2720c","Fri Jan 20 2017 19:22:45 GMT-0500 (US Eastern Standard Time)","female","White","slightly conservative","",NA,"[{""page_index"":0,""viewing_time"":1228}]","break","","","","","","","","","","",""
"114",6691,"{""Q0"":1}","[object Object]","survey-likert",113,1124498,"0.0-113.0","1kp37v0wa382g21zylm0s9jyhjs2720c","Fri Jan 20 2017 19:22:45 GMT-0500 (US Eastern Standard Time)","female","White","slightly conservative","",NA,"","offCivRatings","the officer slammed the civilian's head into the concrete curb","the civilian kicked the officer in the stomach","headSlam","kickStom","officerCivilian","manipCheckLow","1","","","",""
"115",8645,"{""Q0"":62}","[object Object]","survey-likert",114,1133172,"0.0-114.0","1kp37v0wa382g21zylm0s9jyhjs2720c","Fri Jan 20 2017 19:22:45 GMT-0500 (US Eastern Standard Time)","female","White","slightly conservative","",NA,"","offCivRatings","the officer slammed the civilian's head into the concrete curb","the civilian kicked the officer in the stomach","headSlam","kickStom","officerCivilian","forceCiv","62","","","",""
"116",12449,"{""Q0"":77}","[object Object]","survey-likert",115,1145631,"0.0-115.0","1kp37v0wa382g21zylm0s9jyhjs2720c","Fri Jan 20 2017 19:22:45 GMT-0500 (US Eastern Standard Time)","female","White","slightly conservative","",NA,"","offCivRatings","the officer slammed the civilian's head into the concrete curb","the civilian kicked the officer in the stomach","headSlam","kickStom","officerCivilian","punishCiv","77","","","",""
"117",11587,"{""Q0"":70}","[object Object]","survey-likert",116,1157229,"0.0-116.0","1kp37v0wa382g21zylm0s9jyhjs2720c","Fri Jan 20 2017 19:22:45 GMT-0500 (US Eastern Standard Time)","female","White","slightly conservative","",NA,"","offCivRatings","the officer slammed the civilian's head into the concrete curb","the civilian kicked the officer in the stomach","headSlam","kickStom","officerCivilian","appropriateCiv","70","","","",""
"118",3821,"{""Q0"":25}","[object Object]","survey-likert",117,1161060,"0.0-117.0","1kp37v0wa382g21zylm0s9jyhjs2720c","Fri Jan 20 2017 19:22:45 GMT-0500 (US Eastern Standard Time)","female","White","slightly conservative","",NA,"","offCivRatings","the officer slammed the civilian's head into the concrete curb","the civilian kicked the officer in the stomach","headSlam","kickStom","officerCivilian","acceptableCiv","25","","","",""
"119",1363,"","","instructions",118,1162423,"0.0-118.0","1kp37v0wa382g21zylm0s9jyhjs2720c","Fri Jan 20 2017 19:22:45 GMT-0500 (US Eastern Standard Time)","female","White","slightly conservative","",NA,"[{""page_index"":0,""viewing_time"":1362}]","break","","","","","","","","","","",""
"120",83461,"{""Q0"":14}","[object Object]","survey-likert",119,1246100,"0.0-119.0","1kp37v0wa382g21zylm0s9jyhjs2720c","Fri Jan 20 2017 19:22:45 GMT-0500 (US Eastern Standard Time)","female","White","slightly conservative","",NA,"","offCivRatings","the officer shot the civilian in the chest with a beanbag shotgun round","the civilian yelled ""get back!"" at the officer","beanbag","getBack","officerCivilian","forceCiv","14","","","",""
"121",9106,"{""Q0"":68}","[object Object]","survey-likert",120,1255214,"0.0-120.0","1kp37v0wa382g21zylm0s9jyhjs2720c","Fri Jan 20 2017 19:22:45 GMT-0500 (US Eastern Standard Time)","female","White","slightly conservative","",NA,"","offCivRatings","the officer shot the civilian in the chest with a beanbag shotgun round","the civilian yelled ""get back!"" at the officer","beanbag","getBack","officerCivilian","acceptableCiv","68","","","",""
"122",4243,"{""Q0"":51}","[object Object]","survey-likert",121,1259465,"0.0-121.0","1kp37v0wa382g21zylm0s9jyhjs2720c","Fri Jan 20 2017 19:22:45 GMT-0500 (US Eastern Standard Time)","female","White","slightly conservative","",NA,"","offCivRatings","the officer shot the civilian in the chest with a beanbag shotgun round","the civilian yelled ""get back!"" at the officer","beanbag","getBack","officerCivilian","appropriateCiv","51","","","",""
"123",3216,"{""Q0"":21}","[object Object]","survey-likert",122,1262690,"0.0-122.0","1kp37v0wa382g21zylm0s9jyhjs2720c","Fri Jan 20 2017 19:22:45 GMT-0500 (US Eastern Standard Time)","female","White","slightly conservative","",NA,"","offCivRatings","the officer shot the civilian in the chest with a beanbag shotgun round","the civilian yelled ""get back!"" at the officer","beanbag","getBack","officerCivilian","punishCiv","21","","","",""
"124",2046,"","","instructions",123,1264736,"0.0-123.0","1kp37v0wa382g21zylm0s9jyhjs2720c","Fri Jan 20 2017 19:22:45 GMT-0500 (US Eastern Standard Time)","female","White","slightly conservative","",NA,"[{""page_index"":0,""viewing_time"":2046}]","break","","","","","","","","","","",""
"125",10980,"{""Q0"":60}","[object Object]","survey-likert",124,1275932,"0.0-124.0","1kp37v0wa382g21zylm0s9jyhjs2720c","Fri Jan 20 2017 19:22:45 GMT-0500 (US Eastern Standard Time)","female","White","slightly conservative","",NA,"","policeLegitimacy","","","","","","","60","rightWrong","normAlignment","",""
"126",9188,"{""Q0"":68}","[object Object]","survey-likert",125,1285129,"0.0-125.0","1kp37v0wa382g21zylm0s9jyhjs2720c","Fri Jan 20 2017 19:22:45 GMT-0500 (US Eastern Standard Time)","female","White","slightly conservative","",NA,"","policeLegitimacy","","","","","","","68","doTreat","feltObligation","",""
"127",4732,"{""Q0"":73}","[object Object]","survey-likert",126,1289869,"0.0-126.0","1kp37v0wa382g21zylm0s9jyhjs2720c","Fri Jan 20 2017 19:22:45 GMT-0500 (US Eastern Standard Time)","female","White","slightly conservative","",NA,"","policeLegitimacy","","","","","","","73","importantValues","normAlignment","",""
"128",4679,"{""Q0"":75}","[object Object]","survey-likert",127,1294556,"0.0-127.0","1kp37v0wa382g21zylm0s9jyhjs2720c","Fri Jan 20 2017 19:22:45 GMT-0500 (US Eastern Standard Time)","female","White","slightly conservative","",NA,"","policeLegitimacy","","","","","","","75","support","feltObligation","",""
"129",5501,"{""Q0"":75}","[object Object]","survey-likert",128,1300065,"0.0-128.0","1kp37v0wa382g21zylm0s9jyhjs2720c","Fri Jan 20 2017 19:22:45 GMT-0500 (US Eastern Standard Time)","female","White","slightly conservative","",NA,"","policeLegitimacy","","","","","","","75","doReasons","feltObligation","",""
"130",4391,"{""Q0"":75}","[object Object]","survey-likert",129,1304465,"0.0-129.0","1kp37v0wa382g21zylm0s9jyhjs2720c","Fri Jan 20 2017 19:22:45 GMT-0500 (US Eastern Standard Time)","female","White","slightly conservative","",NA,"","policeLegitimacy","","","","","","","75","communityWants","normAlignment","",""
"131",4018,"{""Q0"":""no""}","[object Object]","survey-multi-choice2",130,1308492,"0.0-130.0","1kp37v0wa382g21zylm0s9jyhjs2720c","Fri Jan 20 2017 19:22:45 GMT-0500 (US Eastern Standard Time)","female","White","slightly conservative","",NA,"","policeExperience","","","","","","","no","excessForce","","personal","Have the police ever used excessive force against you?"
"132",4148,"{""Q0"":""no""}","[object Object]","survey-multi-choice2",131,1312646,"0.0-131.0","1kp37v0wa382g21zylm0s9jyhjs2720c","Fri Jan 20 2017 19:22:45 GMT-0500 (US Eastern Standard Time)","female","White","slightly conservative","",NA,"","policeExperience","","","","","","","no","stopped","","personal","Have you ever been stopped by the police on the street without good reason?"
"133",3834,"{""Q0"":""no""}","[object Object]","survey-multi-choice2",132,1316483,"0.0-132.0","1kp37v0wa382g21zylm0s9jyhjs2720c","Fri Jan 20 2017 19:22:45 GMT-0500 (US Eastern Standard Time)","female","White","slightly conservative","",NA,"","policeExperience","","","","","","","no","insultLang","","personal","Have the police ever used insulting language toward you?"
"134",4594,"{""Q0"":""no""}","[object Object]","survey-multi-choice2",133,1321080,"0.0-133.0","1kp37v0wa382g21zylm0s9jyhjs2720c","Fri Jan 20 2017 19:22:45 GMT-0500 (US Eastern Standard Time)","female","White","slightly conservative","",NA,"","policeExperience","","","","","","","no","corrupt","","personal","Have you ever seen a police officer engage in any corrupt activities (e.g., taking bribes or involvement in the drug trade)?"
"135",3843,"{""Q0"":""no""}","[object Object]","survey-multi-choice2",134,1324926,"0.0-134.0","1kp37v0wa382g21zylm0s9jyhjs2720c","Fri Jan 20 2017 19:22:45 GMT-0500 (US Eastern Standard Time)","female","White","slightly conservative","",NA,"","policeExperience","","","","","","","no","excessForce","","vicarious","Have the police ever used excessive force against anyone in your household?"
"136",5360,"{""Q0"":""yes""}","[object Object]","survey-multi-choice2",135,1330289,"0.0-135.0","1kp37v0wa382g21zylm0s9jyhjs2720c","Fri Jan 20 2017 19:22:45 GMT-0500 (US Eastern Standard Time)","female","White","slightly conservative","",NA,"","policeExperience","","","","","","","yes","stopped","","vicarious","Has anyone in your household ever been stopped on the street by the police without good reason?"
"137",5697,"{""Q0"":""yes""}","[object Object]","survey-multi-choice2",136,1335990,"0.0-136.0","1kp37v0wa382g21zylm0s9jyhjs2720c","Fri Jan 20 2017 19:22:45 GMT-0500 (US Eastern Standard Time)","female","White","slightly conservative","",NA,"","policeExperience","","","","","","","yes","insultLang","","vicarious","Have the police ever used insulting language toward anyone in your household?"
"138",13814,"{""Q0"":""female"",""Q1"":""White"",""Q2"":""slightly conservative""}","[object Object]","survey-multi-choice",137,1349820,"0.0-137.0","1kp37v0wa382g21zylm0s9jyhjs2720c","Fri Jan 20 2017 19:22:45 GMT-0500 (US Eastern Standard Time)","female","White","slightly conservative","",NA,"","demographics","","","","","","","","","","",""
"139",46876,"","","instructions",138,1397699,"0.0-138.0","1kp37v0wa382g21zylm0s9jyhjs2720c","Fri Jan 20 2017 19:22:45 GMT-0500 (US Eastern Standard Time)","female","White","slightly conservative","",NA,"[{""page_index"":0,""viewing_time"":2311},{""page_index"":1,""viewing_time"":40939},{""page_index"":2,""viewing_time"":1542},{""page_index"":3,""viewing_time"":2083}]","debriefing","","","","","","","","","","",""
