"","rt","responses","internalResp","trial_type","trial_index","time_elapsed","internal_node_id","randSubjectID","date","sex","race","polAff","stimulus","key_press","view_history","questionType","officerAction","civilianAction","offActName","civActName","order","questionName","response","name","dimension","person","question"
"1",256503,"","[object Object]","survey-text",0,256517,"0.0-0.0","43b74gegajfgnxpjsbo0nnt8nvlvqyen","Wed Feb 22 2017 16:17:03 GMT-0500 (Eastern Standard Time)","female","White","don't know/not political","",NA,"","","","","","","","","","","","",""
"2",28378,"","","single-stim",1,285902,"0.0-1.0","43b74gegajfgnxpjsbo0nnt8nvlvqyen","Wed Feb 22 2017 16:17:03 GMT-0500 (Eastern Standard Time)","female","White","don't know/not political","<img src='static/images/1602685960_ICS_Credit-0.png' alt='Consent 1' height=1100 width=850><img src='static/images/1602685960_ICS_Credit-1.png' alt='Consent 2' height=1100 width=850></p>",89,"","","","","","","","","","","","",""
"3",14678,"","","instructions",2,301582,"0.0-2.0","43b74gegajfgnxpjsbo0nnt8nvlvqyen","Wed Feb 22 2017 16:17:03 GMT-0500 (Eastern Standard Time)","female","White","don't know/not political","",NA,"[{""page_index"":0,""viewing_time"":14676}]","instructions","","","","","","","","","","",""
"4",52110,"","","instructions",3,354697,"0.0-3.0","43b74gegajfgnxpjsbo0nnt8nvlvqyen","Wed Feb 22 2017 16:17:03 GMT-0500 (Eastern Standard Time)","female","White","don't know/not political","",NA,"[{""page_index"":0,""viewing_time"":20749},{""page_index"":1,""viewing_time"":10088},{""page_index"":2,""viewing_time"":11512},{""page_index"":3,""viewing_time"":9760}]","instructions","","","","","","","","","","",""
"5",19339,"{""Q0"":1}","[object Object]","survey-likert",4,375095,"0.0-4.0","43b74gegajfgnxpjsbo0nnt8nvlvqyen","Wed Feb 22 2017 16:17:03 GMT-0500 (Eastern Standard Time)","female","White","don't know/not political","",NA,"","offCivRatings","the officer put handcuffs on the civilian","the civilian struck the officer in the stomach with a metal flashlight","handcuff","flashlight","officerCivilian","acceptableCiv","1","","","",""
"6",6440,"{""Q0"":91}","[object Object]","survey-likert",5,381557,"0.0-5.0","43b74gegajfgnxpjsbo0nnt8nvlvqyen","Wed Feb 22 2017 16:17:03 GMT-0500 (Eastern Standard Time)","female","White","don't know/not political","",NA,"","offCivRatings","the officer put handcuffs on the civilian","the civilian struck the officer in the stomach with a metal flashlight","handcuff","flashlight","officerCivilian","punishCiv","91","","","",""
"7",5185,"{""Q0"":3}","[object Object]","survey-likert",6,386760,"0.0-6.0","43b74gegajfgnxpjsbo0nnt8nvlvqyen","Wed Feb 22 2017 16:17:03 GMT-0500 (Eastern Standard Time)","female","White","don't know/not political","",NA,"","offCivRatings","the officer put handcuffs on the civilian","the civilian struck the officer in the stomach with a metal flashlight","handcuff","flashlight","officerCivilian","appropriateCiv","3","","","",""
"8",5134,"{""Q0"":92}","[object Object]","survey-likert",7,391911,"0.0-7.0","43b74gegajfgnxpjsbo0nnt8nvlvqyen","Wed Feb 22 2017 16:17:03 GMT-0500 (Eastern Standard Time)","female","White","don't know/not political","",NA,"","offCivRatings","the officer put handcuffs on the civilian","the civilian struck the officer in the stomach with a metal flashlight","handcuff","flashlight","officerCivilian","forceCiv","92","","","",""
"9",901,"","","instructions",8,392813,"0.0-8.0","43b74gegajfgnxpjsbo0nnt8nvlvqyen","Wed Feb 22 2017 16:17:03 GMT-0500 (Eastern Standard Time)","female","White","don't know/not political","",NA,"[{""page_index"":0,""viewing_time"":900}]","break","","","","","","","","","","",""
"10",15814,"{""Q0"":82}","[object Object]","survey-likert",9,408843,"0.0-9.0","43b74gegajfgnxpjsbo0nnt8nvlvqyen","Wed Feb 22 2017 16:17:03 GMT-0500 (Eastern Standard Time)","female","White","don't know/not political","",NA,"","offCivRatings","the officer kicked the civilian in the stomach","the civilian applied a chokehold to the officer","kickStom","choke","civilianOfficer","acceptableOff","82","","","",""
"11",3778,"{""Q0"":100}","[object Object]","survey-likert",10,412638,"0.0-10.0","43b74gegajfgnxpjsbo0nnt8nvlvqyen","Wed Feb 22 2017 16:17:03 GMT-0500 (Eastern Standard Time)","female","White","don't know/not political","",NA,"","offCivRatings","the officer kicked the civilian in the stomach","the civilian applied a chokehold to the officer","kickStom","choke","civilianOfficer","manipCheckHigh","100","","","",""
"12",7233,"{""Q0"":68}","[object Object]","survey-likert",11,419888,"0.0-11.0","43b74gegajfgnxpjsbo0nnt8nvlvqyen","Wed Feb 22 2017 16:17:03 GMT-0500 (Eastern Standard Time)","female","White","don't know/not political","",NA,"","offCivRatings","the officer kicked the civilian in the stomach","the civilian applied a chokehold to the officer","kickStom","choke","civilianOfficer","appropriateOff","68","","","",""
"13",5056,"{""Q0"":30}","[object Object]","survey-likert",12,424959,"0.0-12.0","43b74gegajfgnxpjsbo0nnt8nvlvqyen","Wed Feb 22 2017 16:17:03 GMT-0500 (Eastern Standard Time)","female","White","don't know/not political","",NA,"","offCivRatings","the officer kicked the civilian in the stomach","the civilian applied a chokehold to the officer","kickStom","choke","civilianOfficer","punishOff","30","","","",""
"14",7817,"{""Q0"":71}","[object Object]","survey-likert",13,432791,"0.0-13.0","43b74gegajfgnxpjsbo0nnt8nvlvqyen","Wed Feb 22 2017 16:17:03 GMT-0500 (Eastern Standard Time)","female","White","don't know/not political","",NA,"","offCivRatings","the officer kicked the civilian in the stomach","the civilian applied a chokehold to the officer","kickStom","choke","civilianOfficer","forceOff","71","","","",""
"15",837,"","","instructions",14,433630,"0.0-14.0","43b74gegajfgnxpjsbo0nnt8nvlvqyen","Wed Feb 22 2017 16:17:03 GMT-0500 (Eastern Standard Time)","female","White","don't know/not political","",NA,"[{""page_index"":0,""viewing_time"":837}]","break","","","","","","","","","","",""
"16",11784,"{""Q0"":50}","[object Object]","survey-likert",15,445628,"0.0-15.0","43b74gegajfgnxpjsbo0nnt8nvlvqyen","Wed Feb 22 2017 16:17:03 GMT-0500 (Eastern Standard Time)","female","White","don't know/not political","",NA,"","offCivRatings","the officer punched the civilian in the face","the civilian stood near the officer","punchFace","stoodNear","civilianOfficer","punishOff","50","","","",""
"17",3753,"{""Q0"":1}","[object Object]","survey-likert",16,449397,"0.0-16.0","43b74gegajfgnxpjsbo0nnt8nvlvqyen","Wed Feb 22 2017 16:17:03 GMT-0500 (Eastern Standard Time)","female","White","don't know/not political","",NA,"","offCivRatings","the officer punched the civilian in the face","the civilian stood near the officer","punchFace","stoodNear","civilianOfficer","manipCheckLow","1","","","",""
"18",4316,"{""Q0"":31}","[object Object]","survey-likert",17,453733,"0.0-17.0","43b74gegajfgnxpjsbo0nnt8nvlvqyen","Wed Feb 22 2017 16:17:03 GMT-0500 (Eastern Standard Time)","female","White","don't know/not political","",NA,"","offCivRatings","the officer punched the civilian in the face","the civilian stood near the officer","punchFace","stoodNear","civilianOfficer","appropriateOff","31","","","",""
"19",4136,"{""Q0"":34}","[object Object]","survey-likert",18,457885,"0.0-18.0","43b74gegajfgnxpjsbo0nnt8nvlvqyen","Wed Feb 22 2017 16:17:03 GMT-0500 (Eastern Standard Time)","female","White","don't know/not political","",NA,"","offCivRatings","the officer punched the civilian in the face","the civilian stood near the officer","punchFace","stoodNear","civilianOfficer","acceptableOff","34","","","",""
"20",4989,"{""Q0"":75}","[object Object]","survey-likert",19,462892,"0.0-19.0","43b74gegajfgnxpjsbo0nnt8nvlvqyen","Wed Feb 22 2017 16:17:03 GMT-0500 (Eastern Standard Time)","female","White","don't know/not political","",NA,"","offCivRatings","the officer punched the civilian in the face","the civilian stood near the officer","punchFace","stoodNear","civilianOfficer","forceOff","75","","","",""
"21",854,"","","instructions",20,463746,"0.0-20.0","43b74gegajfgnxpjsbo0nnt8nvlvqyen","Wed Feb 22 2017 16:17:03 GMT-0500 (Eastern Standard Time)","female","White","don't know/not political","",NA,"[{""page_index"":0,""viewing_time"":853}]","break","","","","","","","","","","",""
"22",15218,"{""Q0"":40}","[object Object]","survey-likert",21,479181,"0.0-21.0","43b74gegajfgnxpjsbo0nnt8nvlvqyen","Wed Feb 22 2017 16:17:03 GMT-0500 (Eastern Standard Time)","female","White","don't know/not political","",NA,"","offCivRatings","the officer called the civilian a ""thug""","the civilian waved at the officer in greeting","nameCall","waved","officerCivilian","forceCiv","40","","","",""
"23",3511,"{""Q0"":65}","[object Object]","survey-likert",22,482708,"0.0-22.0","43b74gegajfgnxpjsbo0nnt8nvlvqyen","Wed Feb 22 2017 16:17:03 GMT-0500 (Eastern Standard Time)","female","White","don't know/not political","",NA,"","offCivRatings","the officer called the civilian a ""thug""","the civilian waved at the officer in greeting","nameCall","waved","officerCivilian","acceptableCiv","65","","","",""
"24",2673,"{""Q0"":1}","[object Object]","survey-likert",23,485399,"0.0-23.0","43b74gegajfgnxpjsbo0nnt8nvlvqyen","Wed Feb 22 2017 16:17:03 GMT-0500 (Eastern Standard Time)","female","White","don't know/not political","",NA,"","offCivRatings","the officer called the civilian a ""thug""","the civilian waved at the officer in greeting","nameCall","waved","officerCivilian","manipCheckLow","1","","","",""
"25",4157,"{""Q0"":40}","[object Object]","survey-likert",24,489573,"0.0-24.0","43b74gegajfgnxpjsbo0nnt8nvlvqyen","Wed Feb 22 2017 16:17:03 GMT-0500 (Eastern Standard Time)","female","White","don't know/not political","",NA,"","offCivRatings","the officer called the civilian a ""thug""","the civilian waved at the officer in greeting","nameCall","waved","officerCivilian","appropriateCiv","40","","","",""
"26",3033,"{""Q0"":20}","[object Object]","survey-likert",25,492620,"0.0-25.0","43b74gegajfgnxpjsbo0nnt8nvlvqyen","Wed Feb 22 2017 16:17:03 GMT-0500 (Eastern Standard Time)","female","White","don't know/not political","",NA,"","offCivRatings","the officer called the civilian a ""thug""","the civilian waved at the officer in greeting","nameCall","waved","officerCivilian","punishCiv","20","","","",""
"27",2117,"","","instructions",26,494738,"0.0-26.0","43b74gegajfgnxpjsbo0nnt8nvlvqyen","Wed Feb 22 2017 16:17:03 GMT-0500 (Eastern Standard Time)","female","White","don't know/not political","",NA,"[{""page_index"":0,""viewing_time"":2116}]","break","","","","","","","","","","",""
"28",14847,"{""Q0"":14}","[object Object]","survey-likert",27,509800,"0.0-27.0","43b74gegajfgnxpjsbo0nnt8nvlvqyen","Wed Feb 22 2017 16:17:03 GMT-0500 (Eastern Standard Time)","female","White","don't know/not political","",NA,"","offCivRatings","the officer said ""if you touch me, you're gonna get hurt"" to the civilian","the civilian struck the officer on the leg with a metal pipe","hurtThreat","metalPipe","officerCivilian","acceptableCiv","14","","","",""
"29",9594,"{""Q0"":91}","[object Object]","survey-likert",28,519409,"0.0-28.0","43b74gegajfgnxpjsbo0nnt8nvlvqyen","Wed Feb 22 2017 16:17:03 GMT-0500 (Eastern Standard Time)","female","White","don't know/not political","",NA,"","offCivRatings","the officer said ""if you touch me, you're gonna get hurt"" to the civilian","the civilian struck the officer on the leg with a metal pipe","hurtThreat","metalPipe","officerCivilian","forceCiv","91","","","",""
"30",2168,"{""Q0"":78}","[object Object]","survey-likert",29,521592,"0.0-29.0","43b74gegajfgnxpjsbo0nnt8nvlvqyen","Wed Feb 22 2017 16:17:03 GMT-0500 (Eastern Standard Time)","female","White","don't know/not political","",NA,"","offCivRatings","the officer said ""if you touch me, you're gonna get hurt"" to the civilian","the civilian struck the officer on the leg with a metal pipe","hurtThreat","metalPipe","officerCivilian","punishCiv","78","","","",""
"31",7273,"{""Q0"":68}","[object Object]","survey-likert",30,528880,"0.0-30.0","43b74gegajfgnxpjsbo0nnt8nvlvqyen","Wed Feb 22 2017 16:17:03 GMT-0500 (Eastern Standard Time)","female","White","don't know/not political","",NA,"","offCivRatings","the officer said ""if you touch me, you're gonna get hurt"" to the civilian","the civilian struck the officer on the leg with a metal pipe","hurtThreat","metalPipe","officerCivilian","appropriateCiv","68","","","",""
"32",1011,"","","instructions",31,529892,"0.0-31.0","43b74gegajfgnxpjsbo0nnt8nvlvqyen","Wed Feb 22 2017 16:17:03 GMT-0500 (Eastern Standard Time)","female","White","don't know/not political","",NA,"[{""page_index"":0,""viewing_time"":1010}]","break","","","","","","","","","","",""
"33",9597,"{""Q0"":100}","[object Object]","survey-likert",32,539704,"0.0-32.0","43b74gegajfgnxpjsbo0nnt8nvlvqyen","Wed Feb 22 2017 16:17:03 GMT-0500 (Eastern Standard Time)","female","White","don't know/not political","",NA,"","offCivRatings","the officer shocked the civilian with a tazer","the civilian shouted ""I don't have to fucking listen to you!"" at the officer","tazer","dontListen","civilianOfficer","manipCheckHigh","100","","","",""
"34",8177,"{""Q0"":41}","[object Object]","survey-likert",33,547896,"0.0-33.0","43b74gegajfgnxpjsbo0nnt8nvlvqyen","Wed Feb 22 2017 16:17:03 GMT-0500 (Eastern Standard Time)","female","White","don't know/not political","",NA,"","offCivRatings","the officer shocked the civilian with a tazer","the civilian shouted ""I don't have to fucking listen to you!"" at the officer","tazer","dontListen","civilianOfficer","punishOff","41","","","",""
"35",2904,"{""Q0"":62}","[object Object]","survey-likert",34,550816,"0.0-34.0","43b74gegajfgnxpjsbo0nnt8nvlvqyen","Wed Feb 22 2017 16:17:03 GMT-0500 (Eastern Standard Time)","female","White","don't know/not political","",NA,"","offCivRatings","the officer shocked the civilian with a tazer","the civilian shouted ""I don't have to fucking listen to you!"" at the officer","tazer","dontListen","civilianOfficer","appropriateOff","62","","","",""
"36",4403,"{""Q0"":77}","[object Object]","survey-likert",35,555233,"0.0-35.0","43b74gegajfgnxpjsbo0nnt8nvlvqyen","Wed Feb 22 2017 16:17:03 GMT-0500 (Eastern Standard Time)","female","White","don't know/not political","",NA,"","offCivRatings","the officer shocked the civilian with a tazer","the civilian shouted ""I don't have to fucking listen to you!"" at the officer","tazer","dontListen","civilianOfficer","forceOff","77","","","",""
"37",5081,"{""Q0"":58}","[object Object]","survey-likert",36,560328,"0.0-36.0","43b74gegajfgnxpjsbo0nnt8nvlvqyen","Wed Feb 22 2017 16:17:03 GMT-0500 (Eastern Standard Time)","female","White","don't know/not political","",NA,"","offCivRatings","the officer shocked the civilian with a tazer","the civilian shouted ""I don't have to fucking listen to you!"" at the officer","tazer","dontListen","civilianOfficer","acceptableOff","58","","","",""
"38",837,"","","instructions",37,561166,"0.0-37.0","43b74gegajfgnxpjsbo0nnt8nvlvqyen","Wed Feb 22 2017 16:17:03 GMT-0500 (Eastern Standard Time)","female","White","don't know/not political","",NA,"[{""page_index"":0,""viewing_time"":836}]","break","","","","","","","","","","",""
"39",11560,"{""Q0"":23}","[object Object]","survey-likert",38,572941,"0.0-38.0","43b74gegajfgnxpjsbo0nnt8nvlvqyen","Wed Feb 22 2017 16:17:03 GMT-0500 (Eastern Standard Time)","female","White","don't know/not political","",NA,"","offCivRatings","the officer yelled ""get back!"" at the civilian","the civilian yelled ""get back!"" at the officer","getBack","getBack","civilianOfficer","forceOff","23","","","",""
"40",2439,"{""Q0"":29}","[object Object]","survey-likert",39,575396,"0.0-39.0","43b74gegajfgnxpjsbo0nnt8nvlvqyen","Wed Feb 22 2017 16:17:03 GMT-0500 (Eastern Standard Time)","female","White","don't know/not political","",NA,"","offCivRatings","the officer yelled ""get back!"" at the civilian","the civilian yelled ""get back!"" at the officer","getBack","getBack","civilianOfficer","punishOff","29","","","",""
"41",3042,"{""Q0"":53}","[object Object]","survey-likert",40,578452,"0.0-40.0","43b74gegajfgnxpjsbo0nnt8nvlvqyen","Wed Feb 22 2017 16:17:03 GMT-0500 (Eastern Standard Time)","female","White","don't know/not political","",NA,"","offCivRatings","the officer yelled ""get back!"" at the civilian","the civilian yelled ""get back!"" at the officer","getBack","getBack","civilianOfficer","appropriateOff","53","","","",""
"42",2970,"{""Q0"":83}","[object Object]","survey-likert",41,581436,"0.0-41.0","43b74gegajfgnxpjsbo0nnt8nvlvqyen","Wed Feb 22 2017 16:17:03 GMT-0500 (Eastern Standard Time)","female","White","don't know/not political","",NA,"","offCivRatings","the officer yelled ""get back!"" at the civilian","the civilian yelled ""get back!"" at the officer","getBack","getBack","civilianOfficer","acceptableOff","83","","","",""
"43",694,"","","instructions",42,582130,"0.0-42.0","43b74gegajfgnxpjsbo0nnt8nvlvqyen","Wed Feb 22 2017 16:17:03 GMT-0500 (Eastern Standard Time)","female","White","don't know/not political","",NA,"[{""page_index"":0,""viewing_time"":693}]","break","","","","","","","","","","",""
"44",6891,"{""Q0"":18}","[object Object]","survey-likert",43,589236,"0.0-43.0","43b74gegajfgnxpjsbo0nnt8nvlvqyen","Wed Feb 22 2017 16:17:03 GMT-0500 (Eastern Standard Time)","female","White","don't know/not political","",NA,"","offCivRatings","the officer purposefully struck the civilian with a motor vehicle","the civilian punched the officer in the face","vehicle","punchFace","civilianOfficer","appropriateOff","18","","","",""
"45",3105,"{""Q0"":32}","[object Object]","survey-likert",44,592356,"0.0-44.0","43b74gegajfgnxpjsbo0nnt8nvlvqyen","Wed Feb 22 2017 16:17:03 GMT-0500 (Eastern Standard Time)","female","White","don't know/not political","",NA,"","offCivRatings","the officer purposefully struck the civilian with a motor vehicle","the civilian punched the officer in the face","vehicle","punchFace","civilianOfficer","acceptableOff","32","","","",""
"46",6777,"{""Q0"":82}","[object Object]","survey-likert",45,599149,"0.0-45.0","43b74gegajfgnxpjsbo0nnt8nvlvqyen","Wed Feb 22 2017 16:17:03 GMT-0500 (Eastern Standard Time)","female","White","don't know/not political","",NA,"","offCivRatings","the officer purposefully struck the civilian with a motor vehicle","the civilian punched the officer in the face","vehicle","punchFace","civilianOfficer","forceOff","82","","","",""
"47",2025,"{""Q0"":62}","[object Object]","survey-likert",46,601188,"0.0-46.0","43b74gegajfgnxpjsbo0nnt8nvlvqyen","Wed Feb 22 2017 16:17:03 GMT-0500 (Eastern Standard Time)","female","White","don't know/not political","",NA,"","offCivRatings","the officer purposefully struck the civilian with a motor vehicle","the civilian punched the officer in the face","vehicle","punchFace","civilianOfficer","punishOff","62","","","",""
"48",718,"","","instructions",47,601906,"0.0-47.0","43b74gegajfgnxpjsbo0nnt8nvlvqyen","Wed Feb 22 2017 16:17:03 GMT-0500 (Eastern Standard Time)","female","White","don't know/not political","",NA,"[{""page_index"":0,""viewing_time"":717}]","break","","","","","","","","","","",""
"49",5820,"{""Q0"":63}","[object Object]","survey-likert",48,607940,"0.0-48.0","43b74gegajfgnxpjsbo0nnt8nvlvqyen","Wed Feb 22 2017 16:17:03 GMT-0500 (Eastern Standard Time)","female","White","don't know/not political","",NA,"","offCivRatings","the officer struck the civilian in the stomach with a metal flashlight","the civilian sprayed the officer with pepper spray","flashlight","pepperSpray","civilianOfficer","appropriateOff","63","","","",""
"50",3314,"{""Q0"":42}","[object Object]","survey-likert",49,611268,"0.0-49.0","43b74gegajfgnxpjsbo0nnt8nvlvqyen","Wed Feb 22 2017 16:17:03 GMT-0500 (Eastern Standard Time)","female","White","don't know/not political","",NA,"","offCivRatings","the officer struck the civilian in the stomach with a metal flashlight","the civilian sprayed the officer with pepper spray","flashlight","pepperSpray","civilianOfficer","punishOff","42","","","",""
"51",3578,"{""Q0"":62}","[object Object]","survey-likert",50,614860,"0.0-50.0","43b74gegajfgnxpjsbo0nnt8nvlvqyen","Wed Feb 22 2017 16:17:03 GMT-0500 (Eastern Standard Time)","female","White","don't know/not political","",NA,"","offCivRatings","the officer struck the civilian in the stomach with a metal flashlight","the civilian sprayed the officer with pepper spray","flashlight","pepperSpray","civilianOfficer","acceptableOff","62","","","",""
"52",4018,"{""Q0"":81}","[object Object]","survey-likert",51,618892,"0.0-51.0","43b74gegajfgnxpjsbo0nnt8nvlvqyen","Wed Feb 22 2017 16:17:03 GMT-0500 (Eastern Standard Time)","female","White","don't know/not political","",NA,"","offCivRatings","the officer struck the civilian in the stomach with a metal flashlight","the civilian sprayed the officer with pepper spray","flashlight","pepperSpray","civilianOfficer","forceOff","81","","","",""
"53",997,"","","instructions",52,619889,"0.0-52.0","43b74gegajfgnxpjsbo0nnt8nvlvqyen","Wed Feb 22 2017 16:17:03 GMT-0500 (Eastern Standard Time)","female","White","don't know/not political","",NA,"[{""page_index"":0,""viewing_time"":997}]","break","","","","","","","","","","",""
"54",10460,"{""Q0"":100}","[object Object]","survey-likert",53,630564,"0.0-53.0","43b74gegajfgnxpjsbo0nnt8nvlvqyen","Wed Feb 22 2017 16:17:03 GMT-0500 (Eastern Standard Time)","female","White","don't know/not political","",NA,"","offCivRatings","the officer slammed the civilian's head into the concrete curb","the civilian shot the officer in the head with a handgun","headSlam","handgunHead","civilianOfficer","manipCheckHigh","100","","","",""
"55",3110,"{""Q0"":35}","[object Object]","survey-likert",54,633689,"0.0-54.0","43b74gegajfgnxpjsbo0nnt8nvlvqyen","Wed Feb 22 2017 16:17:03 GMT-0500 (Eastern Standard Time)","female","White","don't know/not political","",NA,"","offCivRatings","the officer slammed the civilian's head into the concrete curb","the civilian shot the officer in the head with a handgun","headSlam","handgunHead","civilianOfficer","punishOff","35","","","",""
"56",2306,"{""Q0"":72}","[object Object]","survey-likert",55,636009,"0.0-55.0","43b74gegajfgnxpjsbo0nnt8nvlvqyen","Wed Feb 22 2017 16:17:03 GMT-0500 (Eastern Standard Time)","female","White","don't know/not political","",NA,"","offCivRatings","the officer slammed the civilian's head into the concrete curb","the civilian shot the officer in the head with a handgun","headSlam","handgunHead","civilianOfficer","appropriateOff","72","","","",""
"57",2368,"{""Q0"":83}","[object Object]","survey-likert",56,638393,"0.0-56.0","43b74gegajfgnxpjsbo0nnt8nvlvqyen","Wed Feb 22 2017 16:17:03 GMT-0500 (Eastern Standard Time)","female","White","don't know/not political","",NA,"","offCivRatings","the officer slammed the civilian's head into the concrete curb","the civilian shot the officer in the head with a handgun","headSlam","handgunHead","civilianOfficer","acceptableOff","83","","","",""
"58",2042,"{""Q0"":89}","[object Object]","survey-likert",57,640449,"0.0-57.0","43b74gegajfgnxpjsbo0nnt8nvlvqyen","Wed Feb 22 2017 16:17:03 GMT-0500 (Eastern Standard Time)","female","White","don't know/not political","",NA,"","offCivRatings","the officer slammed the civilian's head into the concrete curb","the civilian shot the officer in the head with a handgun","headSlam","handgunHead","civilianOfficer","forceOff","89","","","",""
"59",725,"","","instructions",58,641174,"0.0-58.0","43b74gegajfgnxpjsbo0nnt8nvlvqyen","Wed Feb 22 2017 16:17:03 GMT-0500 (Eastern Standard Time)","female","White","don't know/not political","",NA,"[{""page_index"":0,""viewing_time"":724}]","break","","","","","","","","","","",""
"60",8653,"{""Q0"":28}","[object Object]","survey-likert",59,650042,"0.0-59.0","43b74gegajfgnxpjsbo0nnt8nvlvqyen","Wed Feb 22 2017 16:17:03 GMT-0500 (Eastern Standard Time)","female","White","don't know/not political","",NA,"","offCivRatings","the officer struck the civilian on the leg with a collapsible baton","the civilian called the officer a ""pig""","batonLeg","nameCall","civilianOfficer","punishOff","28","","","",""
"61",3479,"{""Q0"":56}","[object Object]","survey-likert",60,653537,"0.0-60.0","43b74gegajfgnxpjsbo0nnt8nvlvqyen","Wed Feb 22 2017 16:17:03 GMT-0500 (Eastern Standard Time)","female","White","don't know/not political","",NA,"","offCivRatings","the officer struck the civilian on the leg with a collapsible baton","the civilian called the officer a ""pig""","batonLeg","nameCall","civilianOfficer","acceptableOff","56","","","",""
"62",2514,"{""Q0"":43}","[object Object]","survey-likert",61,656065,"0.0-61.0","43b74gegajfgnxpjsbo0nnt8nvlvqyen","Wed Feb 22 2017 16:17:03 GMT-0500 (Eastern Standard Time)","female","White","don't know/not political","",NA,"","offCivRatings","the officer struck the civilian on the leg with a collapsible baton","the civilian called the officer a ""pig""","batonLeg","nameCall","civilianOfficer","appropriateOff","43","","","",""
"63",1865,"{""Q0"":75}","[object Object]","survey-likert",62,657945,"0.0-62.0","43b74gegajfgnxpjsbo0nnt8nvlvqyen","Wed Feb 22 2017 16:17:03 GMT-0500 (Eastern Standard Time)","female","White","don't know/not political","",NA,"","offCivRatings","the officer struck the civilian on the leg with a collapsible baton","the civilian called the officer a ""pig""","batonLeg","nameCall","civilianOfficer","forceOff","75","","","",""
"64",782,"","","instructions",63,658727,"0.0-63.0","43b74gegajfgnxpjsbo0nnt8nvlvqyen","Wed Feb 22 2017 16:17:03 GMT-0500 (Eastern Standard Time)","female","White","don't know/not political","",NA,"[{""page_index"":0,""viewing_time"":781}]","break","","","","","","","","","","",""
"65",11755,"{""Q0"":67}","[object Object]","survey-likert",64,670697,"0.0-64.0","43b74gegajfgnxpjsbo0nnt8nvlvqyen","Wed Feb 22 2017 16:17:03 GMT-0500 (Eastern Standard Time)","female","White","don't know/not political","",NA,"","offCivRatings","the officer shot the civilian in the chest with a handgun","the civilian shocked the officer with a tazer","handgunChest","tazer","civilianOfficer","forceOff","67","","","",""
"66",3753,"{""Q0"":57}","[object Object]","survey-likert",65,674465,"0.0-65.0","43b74gegajfgnxpjsbo0nnt8nvlvqyen","Wed Feb 22 2017 16:17:03 GMT-0500 (Eastern Standard Time)","female","White","don't know/not political","",NA,"","offCivRatings","the officer shot the civilian in the chest with a handgun","the civilian shocked the officer with a tazer","handgunChest","tazer","civilianOfficer","punishOff","57","","","",""
"67",3242,"{""Q0"":53}","[object Object]","survey-likert",66,677721,"0.0-66.0","43b74gegajfgnxpjsbo0nnt8nvlvqyen","Wed Feb 22 2017 16:17:03 GMT-0500 (Eastern Standard Time)","female","White","don't know/not political","",NA,"","offCivRatings","the officer shot the civilian in the chest with a handgun","the civilian shocked the officer with a tazer","handgunChest","tazer","civilianOfficer","appropriateOff","53","","","",""
"68",5369,"{""Q0"":62}","[object Object]","survey-likert",67,683105,"0.0-67.0","43b74gegajfgnxpjsbo0nnt8nvlvqyen","Wed Feb 22 2017 16:17:03 GMT-0500 (Eastern Standard Time)","female","White","don't know/not political","",NA,"","offCivRatings","the officer shot the civilian in the chest with a handgun","the civilian shocked the officer with a tazer","handgunChest","tazer","civilianOfficer","acceptableOff","62","","","",""
"69",789,"","","instructions",68,683895,"0.0-68.0","43b74gegajfgnxpjsbo0nnt8nvlvqyen","Wed Feb 22 2017 16:17:03 GMT-0500 (Eastern Standard Time)","female","White","don't know/not political","",NA,"[{""page_index"":0,""viewing_time"":788}]","break","","","","","","","","","","",""
"70",6796,"{""Q0"":1}","[object Object]","survey-likert",69,690905,"0.0-69.0","43b74gegajfgnxpjsbo0nnt8nvlvqyen","Wed Feb 22 2017 16:17:03 GMT-0500 (Eastern Standard Time)","female","White","don't know/not political","",NA,"","offCivRatings","the officer asked the civilian how he was doing","the civilian said ""if you touch me, you're gonna get hurt"" to the officer","asked","hurtThreat","officerCivilian","acceptableCiv","1","","","",""
"71",2502,"{""Q0"":9}","[object Object]","survey-likert",70,693422,"0.0-70.0","43b74gegajfgnxpjsbo0nnt8nvlvqyen","Wed Feb 22 2017 16:17:03 GMT-0500 (Eastern Standard Time)","female","White","don't know/not political","",NA,"","offCivRatings","the officer asked the civilian how he was doing","the civilian said ""if you touch me, you're gonna get hurt"" to the officer","asked","hurtThreat","officerCivilian","appropriateCiv","9","","","",""
"72",2329,"{""Q0"":25}","[object Object]","survey-likert",71,695766,"0.0-71.0","43b74gegajfgnxpjsbo0nnt8nvlvqyen","Wed Feb 22 2017 16:17:03 GMT-0500 (Eastern Standard Time)","female","White","don't know/not political","",NA,"","offCivRatings","the officer asked the civilian how he was doing","the civilian said ""if you touch me, you're gonna get hurt"" to the officer","asked","hurtThreat","officerCivilian","forceCiv","25","","","",""
"73",2841,"{""Q0"":59}","[object Object]","survey-likert",72,698622,"0.0-72.0","43b74gegajfgnxpjsbo0nnt8nvlvqyen","Wed Feb 22 2017 16:17:03 GMT-0500 (Eastern Standard Time)","female","White","don't know/not political","",NA,"","offCivRatings","the officer asked the civilian how he was doing","the civilian said ""if you touch me, you're gonna get hurt"" to the officer","asked","hurtThreat","officerCivilian","punishCiv","59","","","",""
"74",589,"","","instructions",73,699212,"0.0-73.0","43b74gegajfgnxpjsbo0nnt8nvlvqyen","Wed Feb 22 2017 16:17:03 GMT-0500 (Eastern Standard Time)","female","White","don't know/not political","",NA,"[{""page_index"":0,""viewing_time"":588}]","break","","","","","","","","","","",""
"75",7500,"{""Q0"":69}","[object Object]","survey-likert",74,706926,"0.0-74.0","43b74gegajfgnxpjsbo0nnt8nvlvqyen","Wed Feb 22 2017 16:17:03 GMT-0500 (Eastern Standard Time)","female","White","don't know/not political","",NA,"","offCivRatings","the officer shot the civilian in the head with a handgun","the civilian slammed the officer's head into the concrete curb","handgunHead","headSlam","officerCivilian","punishCiv","69","","","",""
"76",1472,"{""Q0"":35}","[object Object]","survey-likert",75,708414,"0.0-75.0","43b74gegajfgnxpjsbo0nnt8nvlvqyen","Wed Feb 22 2017 16:17:03 GMT-0500 (Eastern Standard Time)","female","White","don't know/not political","",NA,"","offCivRatings","the officer shot the civilian in the head with a handgun","the civilian slammed the officer's head into the concrete curb","handgunHead","headSlam","officerCivilian","appropriateCiv","35","","","",""
"77",4384,"{""Q0"":31}","[object Object]","survey-likert",76,712815,"0.0-76.0","43b74gegajfgnxpjsbo0nnt8nvlvqyen","Wed Feb 22 2017 16:17:03 GMT-0500 (Eastern Standard Time)","female","White","don't know/not political","",NA,"","offCivRatings","the officer shot the civilian in the head with a handgun","the civilian slammed the officer's head into the concrete curb","handgunHead","headSlam","officerCivilian","acceptableCiv","31","","","",""
"78",3802,"{""Q0"":1}","[object Object]","survey-likert",77,716632,"0.0-77.0","43b74gegajfgnxpjsbo0nnt8nvlvqyen","Wed Feb 22 2017 16:17:03 GMT-0500 (Eastern Standard Time)","female","White","don't know/not political","",NA,"","offCivRatings","the officer shot the civilian in the head with a handgun","the civilian slammed the officer's head into the concrete curb","handgunHead","headSlam","officerCivilian","manipCheckLow","1","","","",""
"79",5096,"{""Q0"":86}","[object Object]","survey-likert",78,721742,"0.0-78.0","43b74gegajfgnxpjsbo0nnt8nvlvqyen","Wed Feb 22 2017 16:17:03 GMT-0500 (Eastern Standard Time)","female","White","don't know/not political","",NA,"","offCivRatings","the officer shot the civilian in the head with a handgun","the civilian slammed the officer's head into the concrete curb","handgunHead","headSlam","officerCivilian","forceCiv","86","","","",""
"80",870,"","","instructions",79,722612,"0.0-79.0","43b74gegajfgnxpjsbo0nnt8nvlvqyen","Wed Feb 22 2017 16:17:03 GMT-0500 (Eastern Standard Time)","female","White","don't know/not political","",NA,"[{""page_index"":0,""viewing_time"":869}]","break","","","","","","","","","","",""
"81",8693,"{""Q0"":64}","[object Object]","survey-likert",80,731518,"0.0-80.0","43b74gegajfgnxpjsbo0nnt8nvlvqyen","Wed Feb 22 2017 16:17:03 GMT-0500 (Eastern Standard Time)","female","White","don't know/not political","",NA,"","offCivRatings","the officer headbutted the civilian in the face","the civilian twisted the arm of the officer, forcing him to the ground","headbutt","armbar","officerCivilian","punishCiv","64","","","",""
"82",4914,"{""Q0"":40}","[object Object]","survey-likert",81,736446,"0.0-81.0","43b74gegajfgnxpjsbo0nnt8nvlvqyen","Wed Feb 22 2017 16:17:03 GMT-0500 (Eastern Standard Time)","female","White","don't know/not political","",NA,"","offCivRatings","the officer headbutted the civilian in the face","the civilian twisted the arm of the officer, forcing him to the ground","headbutt","armbar","officerCivilian","appropriateCiv","40","","","",""
"83",6600,"{""Q0"":73}","[object Object]","survey-likert",82,743061,"0.0-82.0","43b74gegajfgnxpjsbo0nnt8nvlvqyen","Wed Feb 22 2017 16:17:03 GMT-0500 (Eastern Standard Time)","female","White","don't know/not political","",NA,"","offCivRatings","the officer headbutted the civilian in the face","the civilian twisted the arm of the officer, forcing him to the ground","headbutt","armbar","officerCivilian","forceCiv","73","","","",""
"84",2345,"{""Q0"":32}","[object Object]","survey-likert",83,745422,"0.0-83.0","43b74gegajfgnxpjsbo0nnt8nvlvqyen","Wed Feb 22 2017 16:17:03 GMT-0500 (Eastern Standard Time)","female","White","don't know/not political","",NA,"","offCivRatings","the officer headbutted the civilian in the face","the civilian twisted the arm of the officer, forcing him to the ground","headbutt","armbar","officerCivilian","acceptableCiv","32","","","",""
"85",766,"","","instructions",84,746188,"0.0-84.0","43b74gegajfgnxpjsbo0nnt8nvlvqyen","Wed Feb 22 2017 16:17:03 GMT-0500 (Eastern Standard Time)","female","White","don't know/not political","",NA,"[{""page_index"":0,""viewing_time"":765}]","break","","","","","","","","","","",""
"86",6044,"{""Q0"":100}","[object Object]","survey-likert",85,752447,"0.0-85.0","43b74gegajfgnxpjsbo0nnt8nvlvqyen","Wed Feb 22 2017 16:17:03 GMT-0500 (Eastern Standard Time)","female","White","don't know/not political","",NA,"","offCivRatings","the officer waved at the civilian in greeting","the civilian asked the officer how he was doing","waved","asked","officerCivilian","acceptableCiv","100","","","",""
"87",2406,"{""Q0"":2}","[object Object]","survey-likert",86,754866,"0.0-86.0","43b74gegajfgnxpjsbo0nnt8nvlvqyen","Wed Feb 22 2017 16:17:03 GMT-0500 (Eastern Standard Time)","female","White","don't know/not political","",NA,"","offCivRatings","the officer waved at the civilian in greeting","the civilian asked the officer how he was doing","waved","asked","officerCivilian","punishCiv","2","","","",""
"88",2802,"{""Q0"":1}","[object Object]","survey-likert",87,757682,"0.0-87.0","43b74gegajfgnxpjsbo0nnt8nvlvqyen","Wed Feb 22 2017 16:17:03 GMT-0500 (Eastern Standard Time)","female","White","don't know/not political","",NA,"","offCivRatings","the officer waved at the civilian in greeting","the civilian asked the officer how he was doing","waved","asked","officerCivilian","forceCiv","1","","","",""
"89",4393,"{""Q0"":46}","[object Object]","survey-likert",88,762090,"0.0-88.0","43b74gegajfgnxpjsbo0nnt8nvlvqyen","Wed Feb 22 2017 16:17:03 GMT-0500 (Eastern Standard Time)","female","White","don't know/not political","",NA,"","offCivRatings","the officer waved at the civilian in greeting","the civilian asked the officer how he was doing","waved","asked","officerCivilian","appropriateCiv","46","","","",""
"90",909,"","","instructions",89,762999,"0.0-89.0","43b74gegajfgnxpjsbo0nnt8nvlvqyen","Wed Feb 22 2017 16:17:03 GMT-0500 (Eastern Standard Time)","female","White","don't know/not political","",NA,"[{""page_index"":0,""viewing_time"":908}]","break","","","","","","","","","","",""
"91",9821,"{""Q0"":77}","[object Object]","survey-likert",90,773034,"0.0-90.0","43b74gegajfgnxpjsbo0nnt8nvlvqyen","Wed Feb 22 2017 16:17:03 GMT-0500 (Eastern Standard Time)","female","White","don't know/not political","",NA,"","offCivRatings","the officer sprayed the civilian with pepper spray","the civilian shot the officer in the chest with a handgun","pepperSpray","handgunChest","civilianOfficer","acceptableOff","77","","","",""
"92",2098,"{""Q0"":11}","[object Object]","survey-likert",91,775146,"0.0-91.0","43b74gegajfgnxpjsbo0nnt8nvlvqyen","Wed Feb 22 2017 16:17:03 GMT-0500 (Eastern Standard Time)","female","White","don't know/not political","",NA,"","offCivRatings","the officer sprayed the civilian with pepper spray","the civilian shot the officer in the chest with a handgun","pepperSpray","handgunChest","civilianOfficer","punishOff","11","","","",""
"93",1858,"{""Q0"":1}","[object Object]","survey-likert",92,777018,"0.0-92.0","43b74gegajfgnxpjsbo0nnt8nvlvqyen","Wed Feb 22 2017 16:17:03 GMT-0500 (Eastern Standard Time)","female","White","don't know/not political","",NA,"","offCivRatings","the officer sprayed the civilian with pepper spray","the civilian shot the officer in the chest with a handgun","pepperSpray","handgunChest","civilianOfficer","manipCheckLow","1","","","",""
"94",3977,"{""Q0"":60}","[object Object]","survey-likert",93,781009,"0.0-93.0","43b74gegajfgnxpjsbo0nnt8nvlvqyen","Wed Feb 22 2017 16:17:03 GMT-0500 (Eastern Standard Time)","female","White","don't know/not political","",NA,"","offCivRatings","the officer sprayed the civilian with pepper spray","the civilian shot the officer in the chest with a handgun","pepperSpray","handgunChest","civilianOfficer","appropriateOff","60","","","",""
"95",3562,"{""Q0"":75}","[object Object]","survey-likert",94,784587,"0.0-94.0","43b74gegajfgnxpjsbo0nnt8nvlvqyen","Wed Feb 22 2017 16:17:03 GMT-0500 (Eastern Standard Time)","female","White","don't know/not political","",NA,"","offCivRatings","the officer sprayed the civilian with pepper spray","the civilian shot the officer in the chest with a handgun","pepperSpray","handgunChest","civilianOfficer","forceOff","75","","","",""
"96",693,"","","instructions",95,785280,"0.0-95.0","43b74gegajfgnxpjsbo0nnt8nvlvqyen","Wed Feb 22 2017 16:17:03 GMT-0500 (Eastern Standard Time)","female","White","don't know/not political","",NA,"[{""page_index"":0,""viewing_time"":692}]","break","","","","","","","","","","",""
"97",6876,"{""Q0"":40}","[object Object]","survey-likert",96,792370,"0.0-96.0","43b74gegajfgnxpjsbo0nnt8nvlvqyen","Wed Feb 22 2017 16:17:03 GMT-0500 (Eastern Standard Time)","female","White","don't know/not political","",NA,"","offCivRatings","the officer applied a chokehold to the civilian","the civilian hit the officer in the chest with a baseball bat","choke","ballBat","officerCivilian","appropriateCiv","40","","","",""
"98",2585,"{""Q0"":22}","[object Object]","survey-likert",97,794970,"0.0-97.0","43b74gegajfgnxpjsbo0nnt8nvlvqyen","Wed Feb 22 2017 16:17:03 GMT-0500 (Eastern Standard Time)","female","White","don't know/not political","",NA,"","offCivRatings","the officer applied a chokehold to the civilian","the civilian hit the officer in the chest with a baseball bat","choke","ballBat","officerCivilian","acceptableCiv","22","","","",""
"99",1945,"{""Q0"":74}","[object Object]","survey-likert",98,796930,"0.0-98.0","43b74gegajfgnxpjsbo0nnt8nvlvqyen","Wed Feb 22 2017 16:17:03 GMT-0500 (Eastern Standard Time)","female","White","don't know/not political","",NA,"","offCivRatings","the officer applied a chokehold to the civilian","the civilian hit the officer in the chest with a baseball bat","choke","ballBat","officerCivilian","punishCiv","74","","","",""
"100",2146,"{""Q0"":90}","[object Object]","survey-likert",99,799090,"0.0-99.0","43b74gegajfgnxpjsbo0nnt8nvlvqyen","Wed Feb 22 2017 16:17:03 GMT-0500 (Eastern Standard Time)","female","White","don't know/not political","",NA,"","offCivRatings","the officer applied a chokehold to the civilian","the civilian hit the officer in the chest with a baseball bat","choke","ballBat","officerCivilian","forceCiv","90","","","",""
"101",517,"","","instructions",100,799608,"0.0-100.0","43b74gegajfgnxpjsbo0nnt8nvlvqyen","Wed Feb 22 2017 16:17:03 GMT-0500 (Eastern Standard Time)","female","White","don't know/not political","",NA,"[{""page_index"":0,""viewing_time"":516}]","break","","","","","","","","","","",""
"102",5605,"{""Q0"":23}","[object Object]","survey-likert",101,805426,"0.0-101.0","43b74gegajfgnxpjsbo0nnt8nvlvqyen","Wed Feb 22 2017 16:17:03 GMT-0500 (Eastern Standard Time)","female","White","don't know/not political","",NA,"","offCivRatings","the officer shouted ""get your fucking hands up!"" at the civilian","the civilian headbutted the officer in the face","handsUp","headbutt","officerCivilian","acceptableCiv","23","","","",""
"103",3802,"{""Q0"":32}","[object Object]","survey-likert",102,809242,"0.0-102.0","43b74gegajfgnxpjsbo0nnt8nvlvqyen","Wed Feb 22 2017 16:17:03 GMT-0500 (Eastern Standard Time)","female","White","don't know/not political","",NA,"","offCivRatings","the officer shouted ""get your fucking hands up!"" at the civilian","the civilian headbutted the officer in the face","handsUp","headbutt","officerCivilian","appropriateCiv","32","","","",""
"104",1906,"{""Q0"":67}","[object Object]","survey-likert",103,811162,"0.0-103.0","43b74gegajfgnxpjsbo0nnt8nvlvqyen","Wed Feb 22 2017 16:17:03 GMT-0500 (Eastern Standard Time)","female","White","don't know/not political","",NA,"","offCivRatings","the officer shouted ""get your fucking hands up!"" at the civilian","the civilian headbutted the officer in the face","handsUp","headbutt","officerCivilian","punishCiv","67","","","",""
"105",3118,"{""Q0"":85}","[object Object]","survey-likert",104,814295,"0.0-104.0","43b74gegajfgnxpjsbo0nnt8nvlvqyen","Wed Feb 22 2017 16:17:03 GMT-0500 (Eastern Standard Time)","female","White","don't know/not political","",NA,"","offCivRatings","the officer shouted ""get your fucking hands up!"" at the civilian","the civilian headbutted the officer in the face","handsUp","headbutt","officerCivilian","forceCiv","85","","","",""
"106",2746,"{""Q0"":100}","[object Object]","survey-likert",105,817056,"0.0-105.0","43b74gegajfgnxpjsbo0nnt8nvlvqyen","Wed Feb 22 2017 16:17:03 GMT-0500 (Eastern Standard Time)","female","White","don't know/not political","",NA,"","offCivRatings","the officer shouted ""get your fucking hands up!"" at the civilian","the civilian headbutted the officer in the face","handsUp","headbutt","officerCivilian","manipCheckHigh","100","","","",""
"107",1150,"","","instructions",106,818206,"0.0-106.0","43b74gegajfgnxpjsbo0nnt8nvlvqyen","Wed Feb 22 2017 16:17:03 GMT-0500 (Eastern Standard Time)","female","White","don't know/not political","",NA,"[{""page_index"":0,""viewing_time"":1148}]","break","","","","","","","","","","",""
"108",9787,"{""Q0"":27}","[object Object]","survey-likert",107,828207,"0.0-107.0","43b74gegajfgnxpjsbo0nnt8nvlvqyen","Wed Feb 22 2017 16:17:03 GMT-0500 (Eastern Standard Time)","female","White","don't know/not political","",NA,"","offCivRatings","the officer shot the civilian in the chest with a beanbag shotgun round","the civilian purposefully struck the officer with a motor vehicle","beanbag","vehicle","civilianOfficer","acceptableOff","27","","","",""
"109",3401,"{""Q0"":80}","[object Object]","survey-likert",108,831622,"0.0-108.0","43b74gegajfgnxpjsbo0nnt8nvlvqyen","Wed Feb 22 2017 16:17:03 GMT-0500 (Eastern Standard Time)","female","White","don't know/not political","",NA,"","offCivRatings","the officer shot the civilian in the chest with a beanbag shotgun round","the civilian purposefully struck the officer with a motor vehicle","beanbag","vehicle","civilianOfficer","forceOff","80","","","",""
"110",3330,"{""Q0"":66}","[object Object]","survey-likert",109,834968,"0.0-109.0","43b74gegajfgnxpjsbo0nnt8nvlvqyen","Wed Feb 22 2017 16:17:03 GMT-0500 (Eastern Standard Time)","female","White","don't know/not political","",NA,"","offCivRatings","the officer shot the civilian in the chest with a beanbag shotgun round","the civilian purposefully struck the officer with a motor vehicle","beanbag","vehicle","civilianOfficer","appropriateOff","66","","","",""
"111",3289,"{""Q0"":55}","[object Object]","survey-likert",110,838271,"0.0-110.0","43b74gegajfgnxpjsbo0nnt8nvlvqyen","Wed Feb 22 2017 16:17:03 GMT-0500 (Eastern Standard Time)","female","White","don't know/not political","",NA,"","offCivRatings","the officer shot the civilian in the chest with a beanbag shotgun round","the civilian purposefully struck the officer with a motor vehicle","beanbag","vehicle","civilianOfficer","punishOff","55","","","",""
"112",622,"","","instructions",111,838893,"0.0-111.0","43b74gegajfgnxpjsbo0nnt8nvlvqyen","Wed Feb 22 2017 16:17:03 GMT-0500 (Eastern Standard Time)","female","White","don't know/not political","",NA,"[{""page_index"":0,""viewing_time"":621}]","break","","","","","","","","","","",""
"113",8755,"{""Q0"":1}","[object Object]","survey-likert",112,847862,"0.0-112.0","43b74gegajfgnxpjsbo0nnt8nvlvqyen","Wed Feb 22 2017 16:17:03 GMT-0500 (Eastern Standard Time)","female","White","don't know/not political","",NA,"","offCivRatings","the officer twisted the arm of the civilian, forcing him to the ground","the civilian pulled away from the officer","armbar","pulledAway","officerCivilian","manipCheckLow","1","","","",""
"114",8602,"{""Q0"":46}","[object Object]","survey-likert",113,856479,"0.0-113.0","43b74gegajfgnxpjsbo0nnt8nvlvqyen","Wed Feb 22 2017 16:17:03 GMT-0500 (Eastern Standard Time)","female","White","don't know/not political","",NA,"","offCivRatings","the officer twisted the arm of the civilian, forcing him to the ground","the civilian pulled away from the officer","armbar","pulledAway","officerCivilian","punishCiv","46","","","",""
"115",6609,"{""Q0"":32}","[object Object]","survey-likert",114,863103,"0.0-114.0","43b74gegajfgnxpjsbo0nnt8nvlvqyen","Wed Feb 22 2017 16:17:03 GMT-0500 (Eastern Standard Time)","female","White","don't know/not political","",NA,"","offCivRatings","the officer twisted the arm of the civilian, forcing him to the ground","the civilian pulled away from the officer","armbar","pulledAway","officerCivilian","acceptableCiv","32","","","",""
"116",4194,"{""Q0"":60}","[object Object]","survey-likert",115,867311,"0.0-115.0","43b74gegajfgnxpjsbo0nnt8nvlvqyen","Wed Feb 22 2017 16:17:03 GMT-0500 (Eastern Standard Time)","female","White","don't know/not political","",NA,"","offCivRatings","the officer twisted the arm of the civilian, forcing him to the ground","the civilian pulled away from the officer","armbar","pulledAway","officerCivilian","forceCiv","60","","","",""
"117",2475,"{""Q0"":27}","[object Object]","survey-likert",116,869800,"0.0-116.0","43b74gegajfgnxpjsbo0nnt8nvlvqyen","Wed Feb 22 2017 16:17:03 GMT-0500 (Eastern Standard Time)","female","White","don't know/not political","",NA,"","offCivRatings","the officer twisted the arm of the civilian, forcing him to the ground","the civilian pulled away from the officer","armbar","pulledAway","officerCivilian","appropriateCiv","27","","","",""
"118",604,"","","instructions",117,870405,"0.0-117.0","43b74gegajfgnxpjsbo0nnt8nvlvqyen","Wed Feb 22 2017 16:17:03 GMT-0500 (Eastern Standard Time)","female","White","don't know/not political","",NA,"[{""page_index"":0,""viewing_time"":603}]","break","","","","","","","","","","",""
"119",5096,"{""Q0"":70}","[object Object]","survey-likert",118,875715,"0.0-118.0","43b74gegajfgnxpjsbo0nnt8nvlvqyen","Wed Feb 22 2017 16:17:03 GMT-0500 (Eastern Standard Time)","female","White","don't know/not political","",NA,"","offCivRatings","the officer stood near the civilian","the civilian kicked the officer in the stomach","stoodNear","kickStom","officerCivilian","forceCiv","70","","","",""
"120",2458,"{""Q0"":1}","[object Object]","survey-likert",119,878187,"0.0-119.0","43b74gegajfgnxpjsbo0nnt8nvlvqyen","Wed Feb 22 2017 16:17:03 GMT-0500 (Eastern Standard Time)","female","White","don't know/not political","",NA,"","offCivRatings","the officer stood near the civilian","the civilian kicked the officer in the stomach","stoodNear","kickStom","officerCivilian","manipCheckLow","1","","","",""
"121",3242,"{""Q0"":16}","[object Object]","survey-likert",120,881443,"0.0-120.0","43b74gegajfgnxpjsbo0nnt8nvlvqyen","Wed Feb 22 2017 16:17:03 GMT-0500 (Eastern Standard Time)","female","White","don't know/not political","",NA,"","offCivRatings","the officer stood near the civilian","the civilian kicked the officer in the stomach","stoodNear","kickStom","officerCivilian","acceptableCiv","16","","","",""
"122",2673,"{""Q0"":21}","[object Object]","survey-likert",121,884131,"0.0-121.0","43b74gegajfgnxpjsbo0nnt8nvlvqyen","Wed Feb 22 2017 16:17:03 GMT-0500 (Eastern Standard Time)","female","White","don't know/not political","",NA,"","offCivRatings","the officer stood near the civilian","the civilian kicked the officer in the stomach","stoodNear","kickStom","officerCivilian","appropriateCiv","21","","","",""
"123",3290,"{""Q0"":60}","[object Object]","survey-likert",122,887436,"0.0-122.0","43b74gegajfgnxpjsbo0nnt8nvlvqyen","Wed Feb 22 2017 16:17:03 GMT-0500 (Eastern Standard Time)","female","White","don't know/not political","",NA,"","offCivRatings","the officer stood near the civilian","the civilian kicked the officer in the stomach","stoodNear","kickStom","officerCivilian","punishCiv","60","","","",""
"124",781,"","","instructions",123,888217,"0.0-123.0","43b74gegajfgnxpjsbo0nnt8nvlvqyen","Wed Feb 22 2017 16:17:03 GMT-0500 (Eastern Standard Time)","female","White","don't know/not political","",NA,"[{""page_index"":0,""viewing_time"":780}]","break","","","","","","","","","","",""
"125",9290,"{""Q0"":94}","[object Object]","survey-likert",124,897723,"0.0-124.0","43b74gegajfgnxpjsbo0nnt8nvlvqyen","Wed Feb 22 2017 16:17:03 GMT-0500 (Eastern Standard Time)","female","White","don't know/not political","",NA,"","policeLegitimacy","","","","","","","94","support","feltObligation","",""
"126",3562,"{""Q0"":100}","[object Object]","survey-likert",125,901299,"0.0-125.0","43b74gegajfgnxpjsbo0nnt8nvlvqyen","Wed Feb 22 2017 16:17:03 GMT-0500 (Eastern Standard Time)","female","White","don't know/not political","",NA,"","policeLegitimacy","","","","","","","100","communityWants","normAlignment","",""
"127",5467,"{""Q0"":79}","[object Object]","survey-likert",126,906779,"0.0-126.0","43b74gegajfgnxpjsbo0nnt8nvlvqyen","Wed Feb 22 2017 16:17:03 GMT-0500 (Eastern Standard Time)","female","White","don't know/not political","",NA,"","policeLegitimacy","","","","","","","79","rightWrong","normAlignment","",""
"128",3978,"{""Q0"":65}","[object Object]","survey-likert",127,910771,"0.0-127.0","43b74gegajfgnxpjsbo0nnt8nvlvqyen","Wed Feb 22 2017 16:17:03 GMT-0500 (Eastern Standard Time)","female","White","don't know/not political","",NA,"","policeLegitimacy","","","","","","","65","doTreat","feltObligation","",""
"129",4146,"{""Q0"":95}","[object Object]","survey-likert",128,914931,"0.0-128.0","43b74gegajfgnxpjsbo0nnt8nvlvqyen","Wed Feb 22 2017 16:17:03 GMT-0500 (Eastern Standard Time)","female","White","don't know/not political","",NA,"","policeLegitimacy","","","","","","","95","importantValues","normAlignment","",""
"130",6177,"{""Q0"":91}","[object Object]","survey-likert",129,921122,"0.0-129.0","43b74gegajfgnxpjsbo0nnt8nvlvqyen","Wed Feb 22 2017 16:17:03 GMT-0500 (Eastern Standard Time)","female","White","don't know/not political","",NA,"","policeLegitimacy","","","","","","","91","doReasons","feltObligation","",""
"131",6821,"{""Q0"":""yes""}","[object Object]","survey-multi-choice2",130,927956,"0.0-130.0","43b74gegajfgnxpjsbo0nnt8nvlvqyen","Wed Feb 22 2017 16:17:03 GMT-0500 (Eastern Standard Time)","female","White","don't know/not political","",NA,"","policeExperience","","","","","","","yes","stopped","","vicarious","Has anyone in your household ever been stopped on the street by the police without good reason?"
"132",3094,"{""Q0"":""no""}","[object Object]","survey-multi-choice2",131,931058,"0.0-131.0","43b74gegajfgnxpjsbo0nnt8nvlvqyen","Wed Feb 22 2017 16:17:03 GMT-0500 (Eastern Standard Time)","female","White","don't know/not political","",NA,"","policeExperience","","","","","","","no","insultLang","","vicarious","Have the police ever used insulting language toward anyone in your household?"
"133",4382,"{""Q0"":""no""}","[object Object]","survey-multi-choice2",132,935447,"0.0-132.0","43b74gegajfgnxpjsbo0nnt8nvlvqyen","Wed Feb 22 2017 16:17:03 GMT-0500 (Eastern Standard Time)","female","White","don't know/not political","",NA,"","policeExperience","","","","","","","no","stopped","","personal","Have you ever been stopped by the police on the street without good reason?"
"134",1674,"{""Q0"":""no""}","[object Object]","survey-multi-choice2",133,937126,"0.0-133.0","43b74gegajfgnxpjsbo0nnt8nvlvqyen","Wed Feb 22 2017 16:17:03 GMT-0500 (Eastern Standard Time)","female","White","don't know/not political","",NA,"","policeExperience","","","","","","","no","excessForce","","personal","Have the police ever used excessive force against you?"
"135",2138,"{""Q0"":""no""}","[object Object]","survey-multi-choice2",134,939271,"0.0-134.0","43b74gegajfgnxpjsbo0nnt8nvlvqyen","Wed Feb 22 2017 16:17:03 GMT-0500 (Eastern Standard Time)","female","White","don't know/not political","",NA,"","policeExperience","","","","","","","no","excessForce","","vicarious","Have the police ever used excessive force against anyone in your household?"
"136",2066,"{""Q0"":""no""}","[object Object]","survey-multi-choice2",135,941343,"0.0-135.0","43b74gegajfgnxpjsbo0nnt8nvlvqyen","Wed Feb 22 2017 16:17:03 GMT-0500 (Eastern Standard Time)","female","White","don't know/not political","",NA,"","policeExperience","","","","","","","no","insultLang","","personal","Have the police ever used insulting language toward you?"
"137",5258,"{""Q0"":""no""}","[object Object]","survey-multi-choice2",136,946607,"0.0-136.0","43b74gegajfgnxpjsbo0nnt8nvlvqyen","Wed Feb 22 2017 16:17:03 GMT-0500 (Eastern Standard Time)","female","White","don't know/not political","",NA,"","policeExperience","","","","","","","no","corrupt","","personal","Have you ever seen a police officer engage in any corrupt activities (e.g., taking bribes or involvement in the drug trade)?"
"138",15438,"{""Q0"":""female"",""Q1"":""White"",""Q2"":""don't know/not political""}","[object Object]","survey-multi-choice",137,962073,"0.0-137.0","43b74gegajfgnxpjsbo0nnt8nvlvqyen","Wed Feb 22 2017 16:17:03 GMT-0500 (Eastern Standard Time)","female","White","don't know/not political","",NA,"","demographics","","","","","","","","","","",""
"139",35015,"","","instructions",138,998090,"0.0-138.0","43b74gegajfgnxpjsbo0nnt8nvlvqyen","Wed Feb 22 2017 16:17:03 GMT-0500 (Eastern Standard Time)","female","White","don't know/not political","",NA,"[{""page_index"":0,""viewing_time"":2354},{""page_index"":1,""viewing_time"":22168},{""page_index"":2,""viewing_time"":7128},{""page_index"":3,""viewing_time"":3364}]","debriefing","","","","","","","","","","",""
