"","rt","responses","internalResp","trial_type","trial_index","time_elapsed","internal_node_id","randSubjectID","date","sex","race","polAff","stimulus","key_press","view_history","questionType","officerAction","civilianAction","offActName","civActName","order","questionName","response","name","dimension","person","question"
"1",82040,"","[object Object]","survey-text",0,82057,"0.0-0.0","49a3ddwrlwa1uhr28s7cnhyzs6xe6l42","Thu Mar 30 2017 16:22:58 GMT-0400 (Eastern Daylight Time)","female","White","moderate/middle of the road","",NA,"","","","","","","","","","","","",""
"2",57697,"","","single-stim",1,140761,"0.0-1.0","49a3ddwrlwa1uhr28s7cnhyzs6xe6l42","Thu Mar 30 2017 16:22:58 GMT-0400 (Eastern Daylight Time)","female","White","moderate/middle of the road","<img src='static/images/1602685960_ICS_Credit-0.png' alt='Consent 1' height=1100 width=850><img src='static/images/1602685960_ICS_Credit-1.png' alt='Consent 2' height=1100 width=850></p>",89,"","","","","","","","","","","","",""
"3",15811,"","","instructions",2,157573,"0.0-2.0","49a3ddwrlwa1uhr28s7cnhyzs6xe6l42","Thu Mar 30 2017 16:22:58 GMT-0400 (Eastern Daylight Time)","female","White","moderate/middle of the road","",NA,"[{""page_index"":0,""viewing_time"":15810}]","instructions","","","","","","","","","","",""
"4",63051,"","","instructions",3,221625,"0.0-3.0","49a3ddwrlwa1uhr28s7cnhyzs6xe6l42","Thu Mar 30 2017 16:22:58 GMT-0400 (Eastern Daylight Time)","female","White","moderate/middle of the road","",NA,"[{""page_index"":0,""viewing_time"":26093},{""page_index"":1,""viewing_time"":10456},{""page_index"":2,""viewing_time"":15568},{""page_index"":3,""viewing_time"":10933}]","instructions","","","","","","","","","","",""
"5",43699,"{""Q0"":1}","[object Object]","survey-likert",4,266414,"0.0-4.0","49a3ddwrlwa1uhr28s7cnhyzs6xe6l42","Thu Mar 30 2017 16:22:58 GMT-0400 (Eastern Daylight Time)","female","White","moderate/middle of the road","",NA,"","offCivRatings","the officer applied a chokehold to the civilian","the civilian waved at the officer in greeting","choke","waved","officerCivilian","punishCiv","1","","","",""
"6",15900,"{""Q0"":1}","[object Object]","survey-likert",5,282336,"0.0-5.0","49a3ddwrlwa1uhr28s7cnhyzs6xe6l42","Thu Mar 30 2017 16:22:58 GMT-0400 (Eastern Daylight Time)","female","White","moderate/middle of the road","",NA,"","offCivRatings","the officer applied a chokehold to the civilian","the civilian waved at the officer in greeting","choke","waved","officerCivilian","acceptableCiv","1","","","",""
"7",13973,"{""Q0"":1}","[object Object]","survey-likert",6,296328,"0.0-6.0","49a3ddwrlwa1uhr28s7cnhyzs6xe6l42","Thu Mar 30 2017 16:22:58 GMT-0400 (Eastern Daylight Time)","female","White","moderate/middle of the road","",NA,"","offCivRatings","the officer applied a chokehold to the civilian","the civilian waved at the officer in greeting","choke","waved","officerCivilian","appropriateCiv","1","","","",""
"8",8380,"{""Q0"":1}","[object Object]","survey-likert",7,304727,"0.0-7.0","49a3ddwrlwa1uhr28s7cnhyzs6xe6l42","Thu Mar 30 2017 16:22:58 GMT-0400 (Eastern Daylight Time)","female","White","moderate/middle of the road","",NA,"","offCivRatings","the officer applied a chokehold to the civilian","the civilian waved at the officer in greeting","choke","waved","officerCivilian","forceCiv","1","","","",""
"9",1174,"","","instructions",8,305902,"0.0-8.0","49a3ddwrlwa1uhr28s7cnhyzs6xe6l42","Thu Mar 30 2017 16:22:58 GMT-0400 (Eastern Daylight Time)","female","White","moderate/middle of the road","",NA,"[{""page_index"":0,""viewing_time"":1174}]","break","","","","","","","","","","",""
"10",30095,"{""Q0"":50}","[object Object]","survey-likert",9,336215,"0.0-9.0","49a3ddwrlwa1uhr28s7cnhyzs6xe6l42","Thu Mar 30 2017 16:22:58 GMT-0400 (Eastern Daylight Time)","female","White","moderate/middle of the road","",NA,"","offCivRatings","the officer shouted ""get your fucking hands up!"" at the civilian","the civilian sprayed the officer with pepper spray","handsUp","pepperSpray","civilianOfficer","appropriateOff","50","","","",""
"11",7483,"{""Q0"":11}","[object Object]","survey-likert",10,343716,"0.0-10.0","49a3ddwrlwa1uhr28s7cnhyzs6xe6l42","Thu Mar 30 2017 16:22:58 GMT-0400 (Eastern Daylight Time)","female","White","moderate/middle of the road","",NA,"","offCivRatings","the officer shouted ""get your fucking hands up!"" at the civilian","the civilian sprayed the officer with pepper spray","handsUp","pepperSpray","civilianOfficer","forceOff","11","","","",""
"12",10096,"{""Q0"":80}","[object Object]","survey-likert",11,353827,"0.0-11.0","49a3ddwrlwa1uhr28s7cnhyzs6xe6l42","Thu Mar 30 2017 16:22:58 GMT-0400 (Eastern Daylight Time)","female","White","moderate/middle of the road","",NA,"","offCivRatings","the officer shouted ""get your fucking hands up!"" at the civilian","the civilian sprayed the officer with pepper spray","handsUp","pepperSpray","civilianOfficer","acceptableOff","80","","","",""
"13",6640,"{""Q0"":11}","[object Object]","survey-likert",12,360483,"0.0-12.0","49a3ddwrlwa1uhr28s7cnhyzs6xe6l42","Thu Mar 30 2017 16:22:58 GMT-0400 (Eastern Daylight Time)","female","White","moderate/middle of the road","",NA,"","offCivRatings","the officer shouted ""get your fucking hands up!"" at the civilian","the civilian sprayed the officer with pepper spray","handsUp","pepperSpray","civilianOfficer","punishOff","11","","","",""
"14",1077,"","","instructions",13,361562,"0.0-13.0","49a3ddwrlwa1uhr28s7cnhyzs6xe6l42","Thu Mar 30 2017 16:22:58 GMT-0400 (Eastern Daylight Time)","female","White","moderate/middle of the road","",NA,"[{""page_index"":0,""viewing_time"":1077}]","break","","","","","","","","","","",""
"15",28385,"{""Q0"":80}","[object Object]","survey-likert",14,390163,"0.0-14.0","49a3ddwrlwa1uhr28s7cnhyzs6xe6l42","Thu Mar 30 2017 16:22:58 GMT-0400 (Eastern Daylight Time)","female","White","moderate/middle of the road","",NA,"","offCivRatings","the officer shot the civilian in the chest with a beanbag shotgun round","the civilian twisted the arm of the officer, forcing him to the ground","beanbag","armbar","officerCivilian","appropriateCiv","80","","","",""
"16",11193,"{""Q0"":30}","[object Object]","survey-likert",15,401372,"0.0-15.0","49a3ddwrlwa1uhr28s7cnhyzs6xe6l42","Thu Mar 30 2017 16:22:58 GMT-0400 (Eastern Daylight Time)","female","White","moderate/middle of the road","",NA,"","offCivRatings","the officer shot the civilian in the chest with a beanbag shotgun round","the civilian twisted the arm of the officer, forcing him to the ground","beanbag","armbar","officerCivilian","acceptableCiv","30","","","",""
"17",8052,"{""Q0"":80}","[object Object]","survey-likert",16,409441,"0.0-16.0","49a3ddwrlwa1uhr28s7cnhyzs6xe6l42","Thu Mar 30 2017 16:22:58 GMT-0400 (Eastern Daylight Time)","female","White","moderate/middle of the road","",NA,"","offCivRatings","the officer shot the civilian in the chest with a beanbag shotgun round","the civilian twisted the arm of the officer, forcing him to the ground","beanbag","armbar","officerCivilian","forceCiv","80","","","",""
"18",6647,"{""Q0"":79}","[object Object]","survey-likert",17,416105,"0.0-17.0","49a3ddwrlwa1uhr28s7cnhyzs6xe6l42","Thu Mar 30 2017 16:22:58 GMT-0400 (Eastern Daylight Time)","female","White","moderate/middle of the road","",NA,"","offCivRatings","the officer shot the civilian in the chest with a beanbag shotgun round","the civilian twisted the arm of the officer, forcing him to the ground","beanbag","armbar","officerCivilian","punishCiv","79","","","",""
"19",917,"","","instructions",18,417022,"0.0-18.0","49a3ddwrlwa1uhr28s7cnhyzs6xe6l42","Thu Mar 30 2017 16:22:58 GMT-0400 (Eastern Daylight Time)","female","White","moderate/middle of the road","",NA,"[{""page_index"":0,""viewing_time"":916}]","break","","","","","","","","","","",""
"20",19194,"{""Q0"":61}","[object Object]","survey-likert",19,436432,"0.0-19.0","49a3ddwrlwa1uhr28s7cnhyzs6xe6l42","Thu Mar 30 2017 16:22:58 GMT-0400 (Eastern Daylight Time)","female","White","moderate/middle of the road","",NA,"","offCivRatings","the officer asked the civilian how he was doing","the civilian punched the officer in the face","asked","punchFace","civilianOfficer","punishOff","61","","","",""
"21",5070,"{""Q0"":2}","[object Object]","survey-likert",20,441520,"0.0-20.0","49a3ddwrlwa1uhr28s7cnhyzs6xe6l42","Thu Mar 30 2017 16:22:58 GMT-0400 (Eastern Daylight Time)","female","White","moderate/middle of the road","",NA,"","offCivRatings","the officer asked the civilian how he was doing","the civilian punched the officer in the face","asked","punchFace","civilianOfficer","appropriateOff","2","","","",""
"22",7296,"{""Q0"":1}","[object Object]","survey-likert",21,448833,"0.0-21.0","49a3ddwrlwa1uhr28s7cnhyzs6xe6l42","Thu Mar 30 2017 16:22:58 GMT-0400 (Eastern Daylight Time)","female","White","moderate/middle of the road","",NA,"","offCivRatings","the officer asked the civilian how he was doing","the civilian punched the officer in the face","asked","punchFace","civilianOfficer","manipCheckLow","1","","","",""
"23",5879,"{""Q0"":1}","[object Object]","survey-likert",22,454729,"0.0-22.0","49a3ddwrlwa1uhr28s7cnhyzs6xe6l42","Thu Mar 30 2017 16:22:58 GMT-0400 (Eastern Daylight Time)","female","White","moderate/middle of the road","",NA,"","offCivRatings","the officer asked the civilian how he was doing","the civilian punched the officer in the face","asked","punchFace","civilianOfficer","forceOff","1","","","",""
"24",11844,"{""Q0"":40}","[object Object]","survey-likert",23,466588,"0.0-23.0","49a3ddwrlwa1uhr28s7cnhyzs6xe6l42","Thu Mar 30 2017 16:22:58 GMT-0400 (Eastern Daylight Time)","female","White","moderate/middle of the road","",NA,"","offCivRatings","the officer asked the civilian how he was doing","the civilian punched the officer in the face","asked","punchFace","civilianOfficer","acceptableOff","40","","","",""
"25",1085,"","","instructions",24,467675,"0.0-24.0","49a3ddwrlwa1uhr28s7cnhyzs6xe6l42","Thu Mar 30 2017 16:22:58 GMT-0400 (Eastern Daylight Time)","female","White","moderate/middle of the road","",NA,"[{""page_index"":0,""viewing_time"":1085}]","break","","","","","","","","","","",""
"26",22090,"{""Q0"":90}","[object Object]","survey-likert",25,489980,"0.0-25.0","49a3ddwrlwa1uhr28s7cnhyzs6xe6l42","Thu Mar 30 2017 16:22:58 GMT-0400 (Eastern Daylight Time)","female","White","moderate/middle of the road","",NA,"","offCivRatings","the officer called the civilian a ""thug""","the civilian shot the officer in the chest with a handgun","nameCall","handgunChest","civilianOfficer","punishOff","90","","","",""
"27",5793,"{""Q0"":2}","[object Object]","survey-likert",26,495788,"0.0-26.0","49a3ddwrlwa1uhr28s7cnhyzs6xe6l42","Thu Mar 30 2017 16:22:58 GMT-0400 (Eastern Daylight Time)","female","White","moderate/middle of the road","",NA,"","offCivRatings","the officer called the civilian a ""thug""","the civilian shot the officer in the chest with a handgun","nameCall","handgunChest","civilianOfficer","appropriateOff","2","","","",""
"28",7465,"{""Q0"":1}","[object Object]","survey-likert",27,503268,"0.0-27.0","49a3ddwrlwa1uhr28s7cnhyzs6xe6l42","Thu Mar 30 2017 16:22:58 GMT-0400 (Eastern Daylight Time)","female","White","moderate/middle of the road","",NA,"","offCivRatings","the officer called the civilian a ""thug""","the civilian shot the officer in the chest with a handgun","nameCall","handgunChest","civilianOfficer","forceOff","1","","","",""
"29",4129,"{""Q0"":1}","[object Object]","survey-likert",28,507412,"0.0-28.0","49a3ddwrlwa1uhr28s7cnhyzs6xe6l42","Thu Mar 30 2017 16:22:58 GMT-0400 (Eastern Daylight Time)","female","White","moderate/middle of the road","",NA,"","offCivRatings","the officer called the civilian a ""thug""","the civilian shot the officer in the chest with a handgun","nameCall","handgunChest","civilianOfficer","acceptableOff","1","","","",""
"30",917,"","","instructions",29,508330,"0.0-29.0","49a3ddwrlwa1uhr28s7cnhyzs6xe6l42","Thu Mar 30 2017 16:22:58 GMT-0400 (Eastern Daylight Time)","female","White","moderate/middle of the road","",NA,"[{""page_index"":0,""viewing_time"":916}]","break","","","","","","","","","","",""
"31",22967,"{""Q0"":50}","[object Object]","survey-likert",30,531529,"0.0-30.0","49a3ddwrlwa1uhr28s7cnhyzs6xe6l42","Thu Mar 30 2017 16:22:58 GMT-0400 (Eastern Daylight Time)","female","White","moderate/middle of the road","",NA,"","offCivRatings","the officer headbutted the civilian in the face","the civilian hit the officer in the chest with a baseball bat","headbutt","ballBat","civilianOfficer","appropriateOff","50","","","",""
"32",5458,"{""Q0"":1}","[object Object]","survey-likert",31,537002,"0.0-31.0","49a3ddwrlwa1uhr28s7cnhyzs6xe6l42","Thu Mar 30 2017 16:22:58 GMT-0400 (Eastern Daylight Time)","female","White","moderate/middle of the road","",NA,"","offCivRatings","the officer headbutted the civilian in the face","the civilian hit the officer in the chest with a baseball bat","headbutt","ballBat","civilianOfficer","punishOff","1","","","",""
"33",4519,"{""Q0"":90}","[object Object]","survey-likert",32,541537,"0.0-32.0","49a3ddwrlwa1uhr28s7cnhyzs6xe6l42","Thu Mar 30 2017 16:22:58 GMT-0400 (Eastern Daylight Time)","female","White","moderate/middle of the road","",NA,"","offCivRatings","the officer headbutted the civilian in the face","the civilian hit the officer in the chest with a baseball bat","headbutt","ballBat","civilianOfficer","acceptableOff","90","","","",""
"34",5385,"{""Q0"":80}","[object Object]","survey-likert",33,546937,"0.0-33.0","49a3ddwrlwa1uhr28s7cnhyzs6xe6l42","Thu Mar 30 2017 16:22:58 GMT-0400 (Eastern Daylight Time)","female","White","moderate/middle of the road","",NA,"","offCivRatings","the officer headbutted the civilian in the face","the civilian hit the officer in the chest with a baseball bat","headbutt","ballBat","civilianOfficer","forceOff","80","","","",""
"35",774,"","","instructions",34,547711,"0.0-34.0","49a3ddwrlwa1uhr28s7cnhyzs6xe6l42","Thu Mar 30 2017 16:22:58 GMT-0400 (Eastern Daylight Time)","female","White","moderate/middle of the road","",NA,"[{""page_index"":0,""viewing_time"":773}]","break","","","","","","","","","","",""
"36",15132,"{""Q0"":10}","[object Object]","survey-likert",35,563057,"0.0-35.0","49a3ddwrlwa1uhr28s7cnhyzs6xe6l42","Thu Mar 30 2017 16:22:58 GMT-0400 (Eastern Daylight Time)","female","White","moderate/middle of the road","",NA,"","offCivRatings","the officer shot the civilian in the head with a handgun","the civilian called the officer a ""pig""","handgunHead","nameCall","officerCivilian","punishCiv","10","","","",""
"37",10593,"{""Q0"":50}","[object Object]","survey-likert",36,573665,"0.0-36.0","49a3ddwrlwa1uhr28s7cnhyzs6xe6l42","Thu Mar 30 2017 16:22:58 GMT-0400 (Eastern Daylight Time)","female","White","moderate/middle of the road","",NA,"","offCivRatings","the officer shot the civilian in the head with a handgun","the civilian called the officer a ""pig""","handgunHead","nameCall","officerCivilian","acceptableCiv","50","","","",""
"38",4978,"{""Q0"":1}","[object Object]","survey-likert",37,578659,"0.0-37.0","49a3ddwrlwa1uhr28s7cnhyzs6xe6l42","Thu Mar 30 2017 16:22:58 GMT-0400 (Eastern Daylight Time)","female","White","moderate/middle of the road","",NA,"","offCivRatings","the officer shot the civilian in the head with a handgun","the civilian called the officer a ""pig""","handgunHead","nameCall","officerCivilian","manipCheckLow","1","","","",""
"39",3775,"{""Q0"":1}","[object Object]","survey-likert",38,582449,"0.0-38.0","49a3ddwrlwa1uhr28s7cnhyzs6xe6l42","Thu Mar 30 2017 16:22:58 GMT-0400 (Eastern Daylight Time)","female","White","moderate/middle of the road","",NA,"","offCivRatings","the officer shot the civilian in the head with a handgun","the civilian called the officer a ""pig""","handgunHead","nameCall","officerCivilian","forceCiv","1","","","",""
"40",7861,"{""Q0"":51}","[object Object]","survey-likert",39,590326,"0.0-39.0","49a3ddwrlwa1uhr28s7cnhyzs6xe6l42","Thu Mar 30 2017 16:22:58 GMT-0400 (Eastern Daylight Time)","female","White","moderate/middle of the road","",NA,"","offCivRatings","the officer shot the civilian in the head with a handgun","the civilian called the officer a ""pig""","handgunHead","nameCall","officerCivilian","appropriateCiv","51","","","",""
"41",924,"","","instructions",40,591251,"0.0-40.0","49a3ddwrlwa1uhr28s7cnhyzs6xe6l42","Thu Mar 30 2017 16:22:58 GMT-0400 (Eastern Daylight Time)","female","White","moderate/middle of the road","",NA,"[{""page_index"":0,""viewing_time"":923}]","break","","","","","","","","","","",""
"42",16874,"{""Q0"":100}","[object Object]","survey-likert",41,608341,"0.0-41.0","49a3ddwrlwa1uhr28s7cnhyzs6xe6l42","Thu Mar 30 2017 16:22:58 GMT-0400 (Eastern Daylight Time)","female","White","moderate/middle of the road","",NA,"","offCivRatings","the officer struck the civilian in the stomach with a metal flashlight","the civilian slammed the officer's head into the concrete curb","flashlight","headSlam","civilianOfficer","acceptableOff","100","","","",""
"43",8105,"{""Q0"":50}","[object Object]","survey-likert",42,616461,"0.0-42.0","49a3ddwrlwa1uhr28s7cnhyzs6xe6l42","Thu Mar 30 2017 16:22:58 GMT-0400 (Eastern Daylight Time)","female","White","moderate/middle of the road","",NA,"","offCivRatings","the officer struck the civilian in the stomach with a metal flashlight","the civilian slammed the officer's head into the concrete curb","flashlight","headSlam","civilianOfficer","appropriateOff","50","","","",""
"44",14225,"{""Q0"":69}","[object Object]","survey-likert",43,630701,"0.0-43.0","49a3ddwrlwa1uhr28s7cnhyzs6xe6l42","Thu Mar 30 2017 16:22:58 GMT-0400 (Eastern Daylight Time)","female","White","moderate/middle of the road","",NA,"","offCivRatings","the officer struck the civilian in the stomach with a metal flashlight","the civilian slammed the officer's head into the concrete curb","flashlight","headSlam","civilianOfficer","forceOff","69","","","",""
"45",4593,"{""Q0"":1}","[object Object]","survey-likert",44,635309,"0.0-44.0","49a3ddwrlwa1uhr28s7cnhyzs6xe6l42","Thu Mar 30 2017 16:22:58 GMT-0400 (Eastern Daylight Time)","female","White","moderate/middle of the road","",NA,"","offCivRatings","the officer struck the civilian in the stomach with a metal flashlight","the civilian slammed the officer's head into the concrete curb","flashlight","headSlam","civilianOfficer","punishOff","1","","","",""
"46",3290,"{""Q0"":100}","[object Object]","survey-likert",45,638614,"0.0-45.0","49a3ddwrlwa1uhr28s7cnhyzs6xe6l42","Thu Mar 30 2017 16:22:58 GMT-0400 (Eastern Daylight Time)","female","White","moderate/middle of the road","",NA,"","offCivRatings","the officer struck the civilian in the stomach with a metal flashlight","the civilian slammed the officer's head into the concrete curb","flashlight","headSlam","civilianOfficer","manipCheckHigh","100","","","",""
"47",870,"","","instructions",46,639484,"0.0-46.0","49a3ddwrlwa1uhr28s7cnhyzs6xe6l42","Thu Mar 30 2017 16:22:58 GMT-0400 (Eastern Daylight Time)","female","White","moderate/middle of the road","",NA,"[{""page_index"":0,""viewing_time"":869}]","break","","","","","","","","","","",""
"48",10022,"{""Q0"":100}","[object Object]","survey-likert",47,649722,"0.0-47.0","49a3ddwrlwa1uhr28s7cnhyzs6xe6l42","Thu Mar 30 2017 16:22:58 GMT-0400 (Eastern Daylight Time)","female","White","moderate/middle of the road","",NA,"","offCivRatings","the officer purposefully struck the civilian with a motor vehicle","the civilian purposefully struck the officer with a motor vehicle","vehicle","vehicle","officerCivilian","punishCiv","100","","","",""
"49",4552,"{""Q0"":11}","[object Object]","survey-likert",48,654291,"0.0-48.0","49a3ddwrlwa1uhr28s7cnhyzs6xe6l42","Thu Mar 30 2017 16:22:58 GMT-0400 (Eastern Daylight Time)","female","White","moderate/middle of the road","",NA,"","offCivRatings","the officer purposefully struck the civilian with a motor vehicle","the civilian purposefully struck the officer with a motor vehicle","vehicle","vehicle","officerCivilian","acceptableCiv","11","","","",""
"50",2929,"{""Q0"":100}","[object Object]","survey-likert",49,657235,"0.0-49.0","49a3ddwrlwa1uhr28s7cnhyzs6xe6l42","Thu Mar 30 2017 16:22:58 GMT-0400 (Eastern Daylight Time)","female","White","moderate/middle of the road","",NA,"","offCivRatings","the officer purposefully struck the civilian with a motor vehicle","the civilian purposefully struck the officer with a motor vehicle","vehicle","vehicle","officerCivilian","forceCiv","100","","","",""
"51",2929,"{""Q0"":100}","[object Object]","survey-likert",50,660178,"0.0-50.0","49a3ddwrlwa1uhr28s7cnhyzs6xe6l42","Thu Mar 30 2017 16:22:58 GMT-0400 (Eastern Daylight Time)","female","White","moderate/middle of the road","",NA,"","offCivRatings","the officer purposefully struck the civilian with a motor vehicle","the civilian purposefully struck the officer with a motor vehicle","vehicle","vehicle","officerCivilian","manipCheckHigh","100","","","",""
"52",8001,"{""Q0"":98}","[object Object]","survey-likert",51,668194,"0.0-51.0","49a3ddwrlwa1uhr28s7cnhyzs6xe6l42","Thu Mar 30 2017 16:22:58 GMT-0400 (Eastern Daylight Time)","female","White","moderate/middle of the road","",NA,"","offCivRatings","the officer purposefully struck the civilian with a motor vehicle","the civilian purposefully struck the officer with a motor vehicle","vehicle","vehicle","officerCivilian","appropriateCiv","98","","","",""
"53",814,"","","instructions",52,669008,"0.0-52.0","49a3ddwrlwa1uhr28s7cnhyzs6xe6l42","Thu Mar 30 2017 16:22:58 GMT-0400 (Eastern Daylight Time)","female","White","moderate/middle of the road","",NA,"[{""page_index"":0,""viewing_time"":813}]","break","","","","","","","","","","",""
"54",11786,"{""Q0"":21}","[object Object]","survey-likert",53,681010,"0.0-53.0","49a3ddwrlwa1uhr28s7cnhyzs6xe6l42","Thu Mar 30 2017 16:22:58 GMT-0400 (Eastern Daylight Time)","female","White","moderate/middle of the road","",NA,"","offCivRatings","the officer kicked the civilian in the stomach","the civilian shouted ""I don't have to fucking listen to you!"" at the officer","kickStom","dontListen","officerCivilian","acceptableCiv","21","","","",""
"55",4818,"{""Q0"":6}","[object Object]","survey-likert",54,685843,"0.0-54.0","49a3ddwrlwa1uhr28s7cnhyzs6xe6l42","Thu Mar 30 2017 16:22:58 GMT-0400 (Eastern Daylight Time)","female","White","moderate/middle of the road","",NA,"","offCivRatings","the officer kicked the civilian in the stomach","the civilian shouted ""I don't have to fucking listen to you!"" at the officer","kickStom","dontListen","officerCivilian","forceCiv","6","","","",""
"56",7750,"{""Q0"":50}","[object Object]","survey-likert",55,693610,"0.0-55.0","49a3ddwrlwa1uhr28s7cnhyzs6xe6l42","Thu Mar 30 2017 16:22:58 GMT-0400 (Eastern Daylight Time)","female","White","moderate/middle of the road","",NA,"","offCivRatings","the officer kicked the civilian in the stomach","the civilian shouted ""I don't have to fucking listen to you!"" at the officer","kickStom","dontListen","officerCivilian","appropriateCiv","50","","","",""
"57",6104,"{""Q0"":60}","[object Object]","survey-likert",56,699730,"0.0-56.0","49a3ddwrlwa1uhr28s7cnhyzs6xe6l42","Thu Mar 30 2017 16:22:58 GMT-0400 (Eastern Daylight Time)","female","White","moderate/middle of the road","",NA,"","offCivRatings","the officer kicked the civilian in the stomach","the civilian shouted ""I don't have to fucking listen to you!"" at the officer","kickStom","dontListen","officerCivilian","punishCiv","60","","","",""
"58",757,"","","instructions",57,700488,"0.0-57.0","49a3ddwrlwa1uhr28s7cnhyzs6xe6l42","Thu Mar 30 2017 16:22:58 GMT-0400 (Eastern Daylight Time)","female","White","moderate/middle of the road","",NA,"[{""page_index"":0,""viewing_time"":756}]","break","","","","","","","","","","",""
"59",7092,"{""Q0"":81}","[object Object]","survey-likert",58,707794,"0.0-58.0","49a3ddwrlwa1uhr28s7cnhyzs6xe6l42","Thu Mar 30 2017 16:22:58 GMT-0400 (Eastern Daylight Time)","female","White","moderate/middle of the road","",NA,"","offCivRatings","the officer punched the civilian in the face","the civilian yelled ""get back!"" at the officer","punchFace","getBack","civilianOfficer","forceOff","81","","","",""
"60",6693,"{""Q0"":89}","[object Object]","survey-likert",59,714505,"0.0-59.0","49a3ddwrlwa1uhr28s7cnhyzs6xe6l42","Thu Mar 30 2017 16:22:58 GMT-0400 (Eastern Daylight Time)","female","White","moderate/middle of the road","",NA,"","offCivRatings","the officer punched the civilian in the face","the civilian yelled ""get back!"" at the officer","punchFace","getBack","civilianOfficer","appropriateOff","89","","","",""
"61",7422,"{""Q0"":89}","[object Object]","survey-likert",60,721942,"0.0-60.0","49a3ddwrlwa1uhr28s7cnhyzs6xe6l42","Thu Mar 30 2017 16:22:58 GMT-0400 (Eastern Daylight Time)","female","White","moderate/middle of the road","",NA,"","offCivRatings","the officer punched the civilian in the face","the civilian yelled ""get back!"" at the officer","punchFace","getBack","civilianOfficer","punishOff","89","","","",""
"62",5913,"{""Q0"":11}","[object Object]","survey-likert",61,727870,"0.0-61.0","49a3ddwrlwa1uhr28s7cnhyzs6xe6l42","Thu Mar 30 2017 16:22:58 GMT-0400 (Eastern Daylight Time)","female","White","moderate/middle of the road","",NA,"","offCivRatings","the officer punched the civilian in the face","the civilian yelled ""get back!"" at the officer","punchFace","getBack","civilianOfficer","acceptableOff","11","","","",""
"63",749,"","","instructions",62,728620,"0.0-62.0","49a3ddwrlwa1uhr28s7cnhyzs6xe6l42","Thu Mar 30 2017 16:22:58 GMT-0400 (Eastern Daylight Time)","female","White","moderate/middle of the road","",NA,"[{""page_index"":0,""viewing_time"":748}]","break","","","","","","","","","","",""
"64",13724,"{""Q0"":10}","[object Object]","survey-likert",63,742560,"0.0-63.0","49a3ddwrlwa1uhr28s7cnhyzs6xe6l42","Thu Mar 30 2017 16:22:58 GMT-0400 (Eastern Daylight Time)","female","White","moderate/middle of the road","",NA,"","offCivRatings","the officer sprayed the civilian with pepper spray","the civilian pulled away from the officer","pepperSpray","pulledAway","officerCivilian","forceCiv","10","","","",""
"65",5928,"{""Q0"":89}","[object Object]","survey-likert",64,748502,"0.0-64.0","49a3ddwrlwa1uhr28s7cnhyzs6xe6l42","Thu Mar 30 2017 16:22:58 GMT-0400 (Eastern Daylight Time)","female","White","moderate/middle of the road","",NA,"","offCivRatings","the officer sprayed the civilian with pepper spray","the civilian pulled away from the officer","pepperSpray","pulledAway","officerCivilian","acceptableCiv","89","","","",""
"66",4497,"{""Q0"":50}","[object Object]","survey-likert",65,753015,"0.0-65.0","49a3ddwrlwa1uhr28s7cnhyzs6xe6l42","Thu Mar 30 2017 16:22:58 GMT-0400 (Eastern Daylight Time)","female","White","moderate/middle of the road","",NA,"","offCivRatings","the officer sprayed the civilian with pepper spray","the civilian pulled away from the officer","pepperSpray","pulledAway","officerCivilian","appropriateCiv","50","","","",""
"67",3056,"{""Q0"":1}","[object Object]","survey-likert",66,756086,"0.0-66.0","49a3ddwrlwa1uhr28s7cnhyzs6xe6l42","Thu Mar 30 2017 16:22:58 GMT-0400 (Eastern Daylight Time)","female","White","moderate/middle of the road","",NA,"","offCivRatings","the officer sprayed the civilian with pepper spray","the civilian pulled away from the officer","pepperSpray","pulledAway","officerCivilian","manipCheckLow","1","","","",""
"68",6185,"{""Q0"":2}","[object Object]","survey-likert",67,762287,"0.0-67.0","49a3ddwrlwa1uhr28s7cnhyzs6xe6l42","Thu Mar 30 2017 16:22:58 GMT-0400 (Eastern Daylight Time)","female","White","moderate/middle of the road","",NA,"","offCivRatings","the officer sprayed the civilian with pepper spray","the civilian pulled away from the officer","pepperSpray","pulledAway","officerCivilian","punishCiv","2","","","",""
"69",725,"","","instructions",68,763012,"0.0-68.0","49a3ddwrlwa1uhr28s7cnhyzs6xe6l42","Thu Mar 30 2017 16:22:58 GMT-0400 (Eastern Daylight Time)","female","White","moderate/middle of the road","",NA,"[{""page_index"":0,""viewing_time"":724}]","break","","","","","","","","","","",""
"70",17230,"{""Q0"":50}","[object Object]","survey-likert",69,780458,"0.0-69.0","49a3ddwrlwa1uhr28s7cnhyzs6xe6l42","Thu Mar 30 2017 16:22:58 GMT-0400 (Eastern Daylight Time)","female","White","moderate/middle of the road","",NA,"","offCivRatings","the officer stood near the civilian","the civilian said ""if you touch me, you're gonna get hurt"" to the officer","stoodNear","hurtThreat","officerCivilian","appropriateCiv","50","","","",""
"71",3007,"{""Q0"":1}","[object Object]","survey-likert",70,783484,"0.0-70.0","49a3ddwrlwa1uhr28s7cnhyzs6xe6l42","Thu Mar 30 2017 16:22:58 GMT-0400 (Eastern Daylight Time)","female","White","moderate/middle of the road","",NA,"","offCivRatings","the officer stood near the civilian","the civilian said ""if you touch me, you're gonna get hurt"" to the officer","stoodNear","hurtThreat","officerCivilian","forceCiv","1","","","",""
"72",2800,"{""Q0"":100}","[object Object]","survey-likert",71,786298,"0.0-71.0","49a3ddwrlwa1uhr28s7cnhyzs6xe6l42","Thu Mar 30 2017 16:22:58 GMT-0400 (Eastern Daylight Time)","female","White","moderate/middle of the road","",NA,"","offCivRatings","the officer stood near the civilian","the civilian said ""if you touch me, you're gonna get hurt"" to the officer","stoodNear","hurtThreat","officerCivilian","manipCheckHigh","100","","","",""
"73",4674,"{""Q0"":1}","[object Object]","survey-likert",72,790986,"0.0-72.0","49a3ddwrlwa1uhr28s7cnhyzs6xe6l42","Thu Mar 30 2017 16:22:58 GMT-0400 (Eastern Daylight Time)","female","White","moderate/middle of the road","",NA,"","offCivRatings","the officer stood near the civilian","the civilian said ""if you touch me, you're gonna get hurt"" to the officer","stoodNear","hurtThreat","officerCivilian","acceptableCiv","1","","","",""
"74",4786,"{""Q0"":89}","[object Object]","survey-likert",73,795787,"0.0-73.0","49a3ddwrlwa1uhr28s7cnhyzs6xe6l42","Thu Mar 30 2017 16:22:58 GMT-0400 (Eastern Daylight Time)","female","White","moderate/middle of the road","",NA,"","offCivRatings","the officer stood near the civilian","the civilian said ""if you touch me, you're gonna get hurt"" to the officer","stoodNear","hurtThreat","officerCivilian","punishCiv","89","","","",""
"75",733,"","","instructions",74,796520,"0.0-74.0","49a3ddwrlwa1uhr28s7cnhyzs6xe6l42","Thu Mar 30 2017 16:22:58 GMT-0400 (Eastern Daylight Time)","female","White","moderate/middle of the road","",NA,"[{""page_index"":0,""viewing_time"":732}]","break","","","","","","","","","","",""
"76",8092,"{""Q0"":100}","[object Object]","survey-likert",75,804826,"0.0-75.0","49a3ddwrlwa1uhr28s7cnhyzs6xe6l42","Thu Mar 30 2017 16:22:58 GMT-0400 (Eastern Daylight Time)","female","White","moderate/middle of the road","",NA,"","offCivRatings","the officer twisted the arm of the civilian, forcing him to the ground","the civilian applied a chokehold to the officer","armbar","choke","officerCivilian","punishCiv","100","","","",""
"77",6473,"{""Q0"":95}","[object Object]","survey-likert",76,811314,"0.0-76.0","49a3ddwrlwa1uhr28s7cnhyzs6xe6l42","Thu Mar 30 2017 16:22:58 GMT-0400 (Eastern Daylight Time)","female","White","moderate/middle of the road","",NA,"","offCivRatings","the officer twisted the arm of the civilian, forcing him to the ground","the civilian applied a chokehold to the officer","armbar","choke","officerCivilian","forceCiv","95","","","",""
"78",4474,"{""Q0"":1}","[object Object]","survey-likert",77,815802,"0.0-77.0","49a3ddwrlwa1uhr28s7cnhyzs6xe6l42","Thu Mar 30 2017 16:22:58 GMT-0400 (Eastern Daylight Time)","female","White","moderate/middle of the road","",NA,"","offCivRatings","the officer twisted the arm of the civilian, forcing him to the ground","the civilian applied a chokehold to the officer","armbar","choke","officerCivilian","acceptableCiv","1","","","",""
"79",5057,"{""Q0"":100}","[object Object]","survey-likert",78,820874,"0.0-78.0","49a3ddwrlwa1uhr28s7cnhyzs6xe6l42","Thu Mar 30 2017 16:22:58 GMT-0400 (Eastern Daylight Time)","female","White","moderate/middle of the road","",NA,"","offCivRatings","the officer twisted the arm of the civilian, forcing him to the ground","the civilian applied a chokehold to the officer","armbar","choke","officerCivilian","appropriateCiv","100","","","",""
"80",678,"","","instructions",79,821552,"0.0-79.0","49a3ddwrlwa1uhr28s7cnhyzs6xe6l42","Thu Mar 30 2017 16:22:58 GMT-0400 (Eastern Daylight Time)","female","White","moderate/middle of the road","",NA,"[{""page_index"":0,""viewing_time"":677}]","break","","","","","","","","","","",""
"81",7813,"{""Q0"":1}","[object Object]","survey-likert",80,829580,"0.0-80.0","49a3ddwrlwa1uhr28s7cnhyzs6xe6l42","Thu Mar 30 2017 16:22:58 GMT-0400 (Eastern Daylight Time)","female","White","moderate/middle of the road","",NA,"","offCivRatings","the officer shot the civilian in the chest with a handgun","the civilian asked the officer how he was doing","handgunChest","asked","officerCivilian","manipCheckLow","1","","","",""
"82",3032,"{""Q0"":1}","[object Object]","survey-likert",81,832627,"0.0-81.0","49a3ddwrlwa1uhr28s7cnhyzs6xe6l42","Thu Mar 30 2017 16:22:58 GMT-0400 (Eastern Daylight Time)","female","White","moderate/middle of the road","",NA,"","offCivRatings","the officer shot the civilian in the chest with a handgun","the civilian asked the officer how he was doing","handgunChest","asked","officerCivilian","punishCiv","1","","","",""
"83",3512,"{""Q0"":1}","[object Object]","survey-likert",82,836154,"0.0-82.0","49a3ddwrlwa1uhr28s7cnhyzs6xe6l42","Thu Mar 30 2017 16:22:58 GMT-0400 (Eastern Daylight Time)","female","White","moderate/middle of the road","",NA,"","offCivRatings","the officer shot the civilian in the chest with a handgun","the civilian asked the officer how he was doing","handgunChest","asked","officerCivilian","forceCiv","1","","","",""
"84",9501,"{""Q0"":49}","[object Object]","survey-likert",83,845671,"0.0-83.0","49a3ddwrlwa1uhr28s7cnhyzs6xe6l42","Thu Mar 30 2017 16:22:58 GMT-0400 (Eastern Daylight Time)","female","White","moderate/middle of the road","",NA,"","offCivRatings","the officer shot the civilian in the chest with a handgun","the civilian asked the officer how he was doing","handgunChest","asked","officerCivilian","acceptableCiv","49","","","",""
"85",8968,"{""Q0"":41}","[object Object]","survey-likert",84,854656,"0.0-84.0","49a3ddwrlwa1uhr28s7cnhyzs6xe6l42","Thu Mar 30 2017 16:22:58 GMT-0400 (Eastern Daylight Time)","female","White","moderate/middle of the road","",NA,"","offCivRatings","the officer shot the civilian in the chest with a handgun","the civilian asked the officer how he was doing","handgunChest","asked","officerCivilian","appropriateCiv","41","","","",""
"86",741,"","","instructions",85,855397,"0.0-85.0","49a3ddwrlwa1uhr28s7cnhyzs6xe6l42","Thu Mar 30 2017 16:22:58 GMT-0400 (Eastern Daylight Time)","female","White","moderate/middle of the road","",NA,"[{""page_index"":0,""viewing_time"":740}]","break","","","","","","","","","","",""
"87",7715,"{""Q0"":100}","[object Object]","survey-likert",86,863327,"0.0-86.0","49a3ddwrlwa1uhr28s7cnhyzs6xe6l42","Thu Mar 30 2017 16:22:58 GMT-0400 (Eastern Daylight Time)","female","White","moderate/middle of the road","",NA,"","offCivRatings","the officer put handcuffs on the civilian","the civilian shocked the officer with a tazer","handcuff","tazer","civilianOfficer","acceptableOff","100","","","",""
"88",2986,"{""Q0"":1}","[object Object]","survey-likert",87,866328,"0.0-87.0","49a3ddwrlwa1uhr28s7cnhyzs6xe6l42","Thu Mar 30 2017 16:22:58 GMT-0400 (Eastern Daylight Time)","female","White","moderate/middle of the road","",NA,"","offCivRatings","the officer put handcuffs on the civilian","the civilian shocked the officer with a tazer","handcuff","tazer","civilianOfficer","manipCheckLow","1","","","",""
"89",12401,"{""Q0"":50}","[object Object]","survey-likert",88,878744,"0.0-88.0","49a3ddwrlwa1uhr28s7cnhyzs6xe6l42","Thu Mar 30 2017 16:22:58 GMT-0400 (Eastern Daylight Time)","female","White","moderate/middle of the road","",NA,"","offCivRatings","the officer put handcuffs on the civilian","the civilian shocked the officer with a tazer","handcuff","tazer","civilianOfficer","forceOff","50","","","",""
"90",6577,"{""Q0"":50}","[object Object]","survey-likert",89,885336,"0.0-89.0","49a3ddwrlwa1uhr28s7cnhyzs6xe6l42","Thu Mar 30 2017 16:22:58 GMT-0400 (Eastern Daylight Time)","female","White","moderate/middle of the road","",NA,"","offCivRatings","the officer put handcuffs on the civilian","the civilian shocked the officer with a tazer","handcuff","tazer","civilianOfficer","appropriateOff","50","","","",""
"91",4481,"{""Q0"":1}","[object Object]","survey-likert",90,889831,"0.0-90.0","49a3ddwrlwa1uhr28s7cnhyzs6xe6l42","Thu Mar 30 2017 16:22:58 GMT-0400 (Eastern Daylight Time)","female","White","moderate/middle of the road","",NA,"","offCivRatings","the officer put handcuffs on the civilian","the civilian shocked the officer with a tazer","handcuff","tazer","civilianOfficer","punishOff","1","","","",""
"92",702,"","","instructions",91,890533,"0.0-91.0","49a3ddwrlwa1uhr28s7cnhyzs6xe6l42","Thu Mar 30 2017 16:22:58 GMT-0400 (Eastern Daylight Time)","female","White","moderate/middle of the road","",NA,"[{""page_index"":0,""viewing_time"":701}]","break","","","","","","","","","","",""
"93",7628,"{""Q0"":1}","[object Object]","survey-likert",92,898375,"0.0-92.0","49a3ddwrlwa1uhr28s7cnhyzs6xe6l42","Thu Mar 30 2017 16:22:58 GMT-0400 (Eastern Daylight Time)","female","White","moderate/middle of the road","",NA,"","offCivRatings","the officer struck the civilian on the leg with a collapsible baton","the civilian stood near the officer","batonLeg","stoodNear","officerCivilian","forceCiv","1","","","",""
"94",2782,"{""Q0"":2}","[object Object]","survey-likert",93,901172,"0.0-93.0","49a3ddwrlwa1uhr28s7cnhyzs6xe6l42","Thu Mar 30 2017 16:22:58 GMT-0400 (Eastern Daylight Time)","female","White","moderate/middle of the road","",NA,"","offCivRatings","the officer struck the civilian on the leg with a collapsible baton","the civilian stood near the officer","batonLeg","stoodNear","officerCivilian","punishCiv","2","","","",""
"95",12310,"{""Q0"":50}","[object Object]","survey-likert",94,913499,"0.0-94.0","49a3ddwrlwa1uhr28s7cnhyzs6xe6l42","Thu Mar 30 2017 16:22:58 GMT-0400 (Eastern Daylight Time)","female","White","moderate/middle of the road","",NA,"","offCivRatings","the officer struck the civilian on the leg with a collapsible baton","the civilian stood near the officer","batonLeg","stoodNear","officerCivilian","appropriateCiv","50","","","",""
"96",4730,"{""Q0"":89}","[object Object]","survey-likert",95,918243,"0.0-95.0","49a3ddwrlwa1uhr28s7cnhyzs6xe6l42","Thu Mar 30 2017 16:22:58 GMT-0400 (Eastern Daylight Time)","female","White","moderate/middle of the road","",NA,"","offCivRatings","the officer struck the civilian on the leg with a collapsible baton","the civilian stood near the officer","batonLeg","stoodNear","officerCivilian","acceptableCiv","89","","","",""
"97",733,"","","instructions",96,918978,"0.0-96.0","49a3ddwrlwa1uhr28s7cnhyzs6xe6l42","Thu Mar 30 2017 16:22:58 GMT-0400 (Eastern Daylight Time)","female","White","moderate/middle of the road","",NA,"[{""page_index"":0,""viewing_time"":732}]","break","","","","","","","","","","",""
"98",13906,"{""Q0"":70}","[object Object]","survey-likert",97,933099,"0.0-97.0","49a3ddwrlwa1uhr28s7cnhyzs6xe6l42","Thu Mar 30 2017 16:22:58 GMT-0400 (Eastern Daylight Time)","female","White","moderate/middle of the road","",NA,"","offCivRatings","the officer said ""if you touch me, you're gonna get hurt"" to the civilian","the civilian struck the officer in the stomach with a metal flashlight","hurtThreat","flashlight","civilianOfficer","acceptableOff","70","","","",""
"99",3730,"{""Q0"":50}","[object Object]","survey-likert",98,936843,"0.0-98.0","49a3ddwrlwa1uhr28s7cnhyzs6xe6l42","Thu Mar 30 2017 16:22:58 GMT-0400 (Eastern Daylight Time)","female","White","moderate/middle of the road","",NA,"","offCivRatings","the officer said ""if you touch me, you're gonna get hurt"" to the civilian","the civilian struck the officer in the stomach with a metal flashlight","hurtThreat","flashlight","civilianOfficer","appropriateOff","50","","","",""
"100",4777,"{""Q0"":21}","[object Object]","survey-likert",99,941635,"0.0-99.0","49a3ddwrlwa1uhr28s7cnhyzs6xe6l42","Thu Mar 30 2017 16:22:58 GMT-0400 (Eastern Daylight Time)","female","White","moderate/middle of the road","",NA,"","offCivRatings","the officer said ""if you touch me, you're gonna get hurt"" to the civilian","the civilian struck the officer in the stomach with a metal flashlight","hurtThreat","flashlight","civilianOfficer","punishOff","21","","","",""
"101",4433,"{""Q0"":1}","[object Object]","survey-likert",100,946083,"0.0-100.0","49a3ddwrlwa1uhr28s7cnhyzs6xe6l42","Thu Mar 30 2017 16:22:58 GMT-0400 (Eastern Daylight Time)","female","White","moderate/middle of the road","",NA,"","offCivRatings","the officer said ""if you touch me, you're gonna get hurt"" to the civilian","the civilian struck the officer in the stomach with a metal flashlight","hurtThreat","flashlight","civilianOfficer","forceOff","1","","","",""
"102",710,"","","instructions",101,946793,"0.0-101.0","49a3ddwrlwa1uhr28s7cnhyzs6xe6l42","Thu Mar 30 2017 16:22:58 GMT-0400 (Eastern Daylight Time)","female","White","moderate/middle of the road","",NA,"[{""page_index"":0,""viewing_time"":709}]","break","","","","","","","","","","",""
"103",7229,"{""Q0"":100}","[object Object]","survey-likert",102,954237,"0.0-102.0","49a3ddwrlwa1uhr28s7cnhyzs6xe6l42","Thu Mar 30 2017 16:22:58 GMT-0400 (Eastern Daylight Time)","female","White","moderate/middle of the road","",NA,"","offCivRatings","the officer yelled ""get back!"" at the civilian","the civilian struck the officer on the leg with a metal pipe","getBack","metalPipe","civilianOfficer","acceptableOff","100","","","",""
"104",4760,"{""Q0"":50}","[object Object]","survey-likert",103,959011,"0.0-103.0","49a3ddwrlwa1uhr28s7cnhyzs6xe6l42","Thu Mar 30 2017 16:22:58 GMT-0400 (Eastern Daylight Time)","female","White","moderate/middle of the road","",NA,"","offCivRatings","the officer yelled ""get back!"" at the civilian","the civilian struck the officer on the leg with a metal pipe","getBack","metalPipe","civilianOfficer","appropriateOff","50","","","",""
"105",3239,"{""Q0"":1}","[object Object]","survey-likert",104,962264,"0.0-104.0","49a3ddwrlwa1uhr28s7cnhyzs6xe6l42","Thu Mar 30 2017 16:22:58 GMT-0400 (Eastern Daylight Time)","female","White","moderate/middle of the road","",NA,"","offCivRatings","the officer yelled ""get back!"" at the civilian","the civilian struck the officer on the leg with a metal pipe","getBack","metalPipe","civilianOfficer","forceOff","1","","","",""
"106",3322,"{""Q0"":1}","[object Object]","survey-likert",105,965600,"0.0-105.0","49a3ddwrlwa1uhr28s7cnhyzs6xe6l42","Thu Mar 30 2017 16:22:58 GMT-0400 (Eastern Daylight Time)","female","White","moderate/middle of the road","",NA,"","offCivRatings","the officer yelled ""get back!"" at the civilian","the civilian struck the officer on the leg with a metal pipe","getBack","metalPipe","civilianOfficer","manipCheckLow","1","","","",""
"107",4290,"{""Q0"":1}","[object Object]","survey-likert",106,969905,"0.0-106.0","49a3ddwrlwa1uhr28s7cnhyzs6xe6l42","Thu Mar 30 2017 16:22:58 GMT-0400 (Eastern Daylight Time)","female","White","moderate/middle of the road","",NA,"","offCivRatings","the officer yelled ""get back!"" at the civilian","the civilian struck the officer on the leg with a metal pipe","getBack","metalPipe","civilianOfficer","punishOff","1","","","",""
"108",710,"","","instructions",107,970615,"0.0-107.0","49a3ddwrlwa1uhr28s7cnhyzs6xe6l42","Thu Mar 30 2017 16:22:58 GMT-0400 (Eastern Daylight Time)","female","White","moderate/middle of the road","",NA,"[{""page_index"":0,""viewing_time"":708}]","break","","","","","","","","","","",""
"109",7723,"{""Q0"":89}","[object Object]","survey-likert",108,978552,"0.0-108.0","49a3ddwrlwa1uhr28s7cnhyzs6xe6l42","Thu Mar 30 2017 16:22:58 GMT-0400 (Eastern Daylight Time)","female","White","moderate/middle of the road","",NA,"","offCivRatings","the officer slammed the civilian's head into the concrete curb","the civilian headbutted the officer in the face","headSlam","headbutt","officerCivilian","forceCiv","89","","","",""
"110",5216,"{""Q0"":83}","[object Object]","survey-likert",109,983784,"0.0-109.0","49a3ddwrlwa1uhr28s7cnhyzs6xe6l42","Thu Mar 30 2017 16:22:58 GMT-0400 (Eastern Daylight Time)","female","White","moderate/middle of the road","",NA,"","offCivRatings","the officer slammed the civilian's head into the concrete curb","the civilian headbutted the officer in the face","headSlam","headbutt","officerCivilian","punishCiv","83","","","",""
"111",12786,"{""Q0"":40}","[object Object]","survey-likert",110,996584,"0.0-110.0","49a3ddwrlwa1uhr28s7cnhyzs6xe6l42","Thu Mar 30 2017 16:22:58 GMT-0400 (Eastern Daylight Time)","female","White","moderate/middle of the road","",NA,"","offCivRatings","the officer slammed the civilian's head into the concrete curb","the civilian headbutted the officer in the face","headSlam","headbutt","officerCivilian","acceptableCiv","40","","","",""
"112",7785,"{""Q0"":69}","[object Object]","survey-likert",111,1004384,"0.0-111.0","49a3ddwrlwa1uhr28s7cnhyzs6xe6l42","Thu Mar 30 2017 16:22:58 GMT-0400 (Eastern Daylight Time)","female","White","moderate/middle of the road","",NA,"","offCivRatings","the officer slammed the civilian's head into the concrete curb","the civilian headbutted the officer in the face","headSlam","headbutt","officerCivilian","appropriateCiv","69","","","",""
"113",749,"","","instructions",112,1005135,"0.0-112.0","49a3ddwrlwa1uhr28s7cnhyzs6xe6l42","Thu Mar 30 2017 16:22:58 GMT-0400 (Eastern Daylight Time)","female","White","moderate/middle of the road","",NA,"[{""page_index"":0,""viewing_time"":749}]","break","","","","","","","","","","",""
"114",5810,"{""Q0"":1}","[object Object]","survey-likert",113,1011160,"0.0-113.0","49a3ddwrlwa1uhr28s7cnhyzs6xe6l42","Thu Mar 30 2017 16:22:58 GMT-0400 (Eastern Daylight Time)","female","White","moderate/middle of the road","",NA,"","offCivRatings","the officer shocked the civilian with a tazer","the civilian shot the officer in the head with a handgun","tazer","handgunHead","civilianOfficer","manipCheckLow","1","","","",""
"115",13127,"{""Q0"":70}","[object Object]","survey-likert",114,1024303,"0.0-114.0","49a3ddwrlwa1uhr28s7cnhyzs6xe6l42","Thu Mar 30 2017 16:22:58 GMT-0400 (Eastern Daylight Time)","female","White","moderate/middle of the road","",NA,"","offCivRatings","the officer shocked the civilian with a tazer","the civilian shot the officer in the head with a handgun","tazer","handgunHead","civilianOfficer","punishOff","70","","","",""
"116",5376,"{""Q0"":31}","[object Object]","survey-likert",115,1029693,"0.0-115.0","49a3ddwrlwa1uhr28s7cnhyzs6xe6l42","Thu Mar 30 2017 16:22:58 GMT-0400 (Eastern Daylight Time)","female","White","moderate/middle of the road","",NA,"","offCivRatings","the officer shocked the civilian with a tazer","the civilian shot the officer in the head with a handgun","tazer","handgunHead","civilianOfficer","acceptableOff","31","","","",""
"117",2393,"{""Q0"":100}","[object Object]","survey-likert",116,1032101,"0.0-116.0","49a3ddwrlwa1uhr28s7cnhyzs6xe6l42","Thu Mar 30 2017 16:22:58 GMT-0400 (Eastern Daylight Time)","female","White","moderate/middle of the road","",NA,"","offCivRatings","the officer shocked the civilian with a tazer","the civilian shot the officer in the head with a handgun","tazer","handgunHead","civilianOfficer","forceOff","100","","","",""
"118",7274,"{""Q0"":100}","[object Object]","survey-likert",117,1039389,"0.0-117.0","49a3ddwrlwa1uhr28s7cnhyzs6xe6l42","Thu Mar 30 2017 16:22:58 GMT-0400 (Eastern Daylight Time)","female","White","moderate/middle of the road","",NA,"","offCivRatings","the officer shocked the civilian with a tazer","the civilian shot the officer in the head with a handgun","tazer","handgunHead","civilianOfficer","appropriateOff","100","","","",""
"119",941,"","","instructions",118,1040331,"0.0-118.0","49a3ddwrlwa1uhr28s7cnhyzs6xe6l42","Thu Mar 30 2017 16:22:58 GMT-0400 (Eastern Daylight Time)","female","White","moderate/middle of the road","",NA,"[{""page_index"":0,""viewing_time"":940}]","break","","","","","","","","","","",""
"120",8277,"{""Q0"":1}","[object Object]","survey-likert",119,1048821,"0.0-119.0","49a3ddwrlwa1uhr28s7cnhyzs6xe6l42","Thu Mar 30 2017 16:22:58 GMT-0400 (Eastern Daylight Time)","female","White","moderate/middle of the road","",NA,"","offCivRatings","the officer waved at the civilian in greeting","the civilian kicked the officer in the stomach","waved","kickStom","civilianOfficer","acceptableOff","1","","","",""
"121",6313,"{""Q0"":1}","[object Object]","survey-likert",120,1055149,"0.0-120.0","49a3ddwrlwa1uhr28s7cnhyzs6xe6l42","Thu Mar 30 2017 16:22:58 GMT-0400 (Eastern Daylight Time)","female","White","moderate/middle of the road","",NA,"","offCivRatings","the officer waved at the civilian in greeting","the civilian kicked the officer in the stomach","waved","kickStom","civilianOfficer","appropriateOff","1","","","",""
"122",3458,"{""Q0"":78}","[object Object]","survey-likert",121,1058621,"0.0-121.0","49a3ddwrlwa1uhr28s7cnhyzs6xe6l42","Thu Mar 30 2017 16:22:58 GMT-0400 (Eastern Daylight Time)","female","White","moderate/middle of the road","",NA,"","offCivRatings","the officer waved at the civilian in greeting","the civilian kicked the officer in the stomach","waved","kickStom","civilianOfficer","punishOff","78","","","",""
"123",3337,"{""Q0"":1}","[object Object]","survey-likert",122,1061974,"0.0-122.0","49a3ddwrlwa1uhr28s7cnhyzs6xe6l42","Thu Mar 30 2017 16:22:58 GMT-0400 (Eastern Daylight Time)","female","White","moderate/middle of the road","",NA,"","offCivRatings","the officer waved at the civilian in greeting","the civilian kicked the officer in the stomach","waved","kickStom","civilianOfficer","forceOff","1","","","",""
"124",765,"","","instructions",123,1062739,"0.0-123.0","49a3ddwrlwa1uhr28s7cnhyzs6xe6l42","Thu Mar 30 2017 16:22:58 GMT-0400 (Eastern Daylight Time)","female","White","moderate/middle of the road","",NA,"[{""page_index"":0,""viewing_time"":765}]","break","","","","","","","","","","",""
"125",7409,"{""Q0"":70}","[object Object]","survey-likert",124,1070365,"0.0-124.0","49a3ddwrlwa1uhr28s7cnhyzs6xe6l42","Thu Mar 30 2017 16:22:58 GMT-0400 (Eastern Daylight Time)","female","White","moderate/middle of the road","",NA,"","policeLegitimacy","","","","","","","70","importantValues","normAlignment","",""
"126",8057,"{""Q0"":50}","[object Object]","survey-likert",125,1078437,"0.0-125.0","49a3ddwrlwa1uhr28s7cnhyzs6xe6l42","Thu Mar 30 2017 16:22:58 GMT-0400 (Eastern Daylight Time)","female","White","moderate/middle of the road","",NA,"","policeLegitimacy","","","","","","","50","doTreat","feltObligation","",""
"127",6229,"{""Q0"":60}","[object Object]","survey-likert",126,1084681,"0.0-126.0","49a3ddwrlwa1uhr28s7cnhyzs6xe6l42","Thu Mar 30 2017 16:22:58 GMT-0400 (Eastern Daylight Time)","female","White","moderate/middle of the road","",NA,"","policeLegitimacy","","","","","","","60","support","feltObligation","",""
"128",6209,"{""Q0"":70}","[object Object]","survey-likert",127,1090905,"0.0-127.0","49a3ddwrlwa1uhr28s7cnhyzs6xe6l42","Thu Mar 30 2017 16:22:58 GMT-0400 (Eastern Daylight Time)","female","White","moderate/middle of the road","",NA,"","policeLegitimacy","","","","","","","70","communityWants","normAlignment","",""
"129",10922,"{""Q0"":50}","[object Object]","survey-likert",128,1101842,"0.0-128.0","49a3ddwrlwa1uhr28s7cnhyzs6xe6l42","Thu Mar 30 2017 16:22:58 GMT-0400 (Eastern Daylight Time)","female","White","moderate/middle of the road","",NA,"","policeLegitimacy","","","","","","","50","doReasons","feltObligation","",""
"130",6018,"{""Q0"":30}","[object Object]","survey-likert",129,1107872,"0.0-129.0","49a3ddwrlwa1uhr28s7cnhyzs6xe6l42","Thu Mar 30 2017 16:22:58 GMT-0400 (Eastern Daylight Time)","female","White","moderate/middle of the road","",NA,"","policeLegitimacy","","","","","","","30","rightWrong","normAlignment","",""
"131",4805,"{""Q0"":""no""}","[object Object]","survey-multi-choice2",130,1112691,"0.0-130.0","49a3ddwrlwa1uhr28s7cnhyzs6xe6l42","Thu Mar 30 2017 16:22:58 GMT-0400 (Eastern Daylight Time)","female","White","moderate/middle of the road","",NA,"","policeExperience","","","","","","","no","excessForce","","vicarious","Have the police ever used excessive force against anyone in your household?"
"132",3205,"{""Q0"":""no""}","[object Object]","survey-multi-choice2",131,1115904,"0.0-131.0","49a3ddwrlwa1uhr28s7cnhyzs6xe6l42","Thu Mar 30 2017 16:22:58 GMT-0400 (Eastern Daylight Time)","female","White","moderate/middle of the road","",NA,"","policeExperience","","","","","","","no","insultLang","","personal","Have the police ever used insulting language toward you?"
"133",3529,"{""Q0"":""no""}","[object Object]","survey-multi-choice2",132,1119439,"0.0-132.0","49a3ddwrlwa1uhr28s7cnhyzs6xe6l42","Thu Mar 30 2017 16:22:58 GMT-0400 (Eastern Daylight Time)","female","White","moderate/middle of the road","",NA,"","policeExperience","","","","","","","no","stopped","","vicarious","Has anyone in your household ever been stopped on the street by the police without good reason?"
"134",2978,"{""Q0"":""no""}","[object Object]","survey-multi-choice2",133,1122423,"0.0-133.0","49a3ddwrlwa1uhr28s7cnhyzs6xe6l42","Thu Mar 30 2017 16:22:58 GMT-0400 (Eastern Daylight Time)","female","White","moderate/middle of the road","",NA,"","policeExperience","","","","","","","no","stopped","","personal","Have you ever been stopped by the police on the street without good reason?"
"135",2642,"{""Q0"":""no""}","[object Object]","survey-multi-choice2",134,1125071,"0.0-134.0","49a3ddwrlwa1uhr28s7cnhyzs6xe6l42","Thu Mar 30 2017 16:22:58 GMT-0400 (Eastern Daylight Time)","female","White","moderate/middle of the road","",NA,"","policeExperience","","","","","","","no","excessForce","","personal","Have the police ever used excessive force against you?"
"136",4523,"{""Q0"":""no""}","[object Object]","survey-multi-choice2",135,1129600,"0.0-135.0","49a3ddwrlwa1uhr28s7cnhyzs6xe6l42","Thu Mar 30 2017 16:22:58 GMT-0400 (Eastern Daylight Time)","female","White","moderate/middle of the road","",NA,"","policeExperience","","","","","","","no","corrupt","","personal","Have you ever seen a police officer engage in any corrupt activities (e.g., taking bribes or involvement in the drug trade)?"
"137",3074,"{""Q0"":""no""}","[object Object]","survey-multi-choice2",136,1132680,"0.0-136.0","49a3ddwrlwa1uhr28s7cnhyzs6xe6l42","Thu Mar 30 2017 16:22:58 GMT-0400 (Eastern Daylight Time)","female","White","moderate/middle of the road","",NA,"","policeExperience","","","","","","","no","insultLang","","vicarious","Have the police ever used insulting language toward anyone in your household?"
"138",19251,"{""Q0"":""female"",""Q1"":""White"",""Q2"":""moderate/middle of the road""}","[object Object]","survey-multi-choice",137,1151959,"0.0-137.0","49a3ddwrlwa1uhr28s7cnhyzs6xe6l42","Thu Mar 30 2017 16:22:58 GMT-0400 (Eastern Daylight Time)","female","White","moderate/middle of the road","",NA,"","demographics","","","","","","","","","","",""
"139",34163,"","","instructions",138,1187123,"0.0-138.0","49a3ddwrlwa1uhr28s7cnhyzs6xe6l42","Thu Mar 30 2017 16:22:58 GMT-0400 (Eastern Daylight Time)","female","White","moderate/middle of the road","",NA,"[{""page_index"":0,""viewing_time"":3386},{""page_index"":1,""viewing_time"":15960},{""page_index"":2,""viewing_time"":13096},{""page_index"":3,""viewing_time"":1720}]","debriefing","","","","","","","","","","",""
