"","rt","responses","internalResp","trial_type","trial_index","time_elapsed","internal_node_id","randSubjectID","date","sex","race","polAff","stimulus","key_press","view_history","questionType","officerAction","civilianAction","offActName","civActName","order","questionName","response","name","dimension","person","question"
"1",4035,"","[object Object]","survey-text",0,4059,"0.0-0.0","5pl7ghb3y32uu2ppsrlj80vwck7lz3vz","Wed Feb 08 2017 12:36:47 GMT-0500 (US Eastern Standard Time)","female","White","liberal","",NA,"","","","","","","","","","","","",""
"2",8460,"","","single-stim",1,13550,"0.0-1.0","5pl7ghb3y32uu2ppsrlj80vwck7lz3vz","Wed Feb 08 2017 12:36:47 GMT-0500 (US Eastern Standard Time)","female","White","liberal","<img src='static/images/1602685960_ICS_Credit-0.png' alt='Consent 1' height=1100 width=850><img src='static/images/1602685960_ICS_Credit-1.png' alt='Consent 2' height=1100 width=850></p>",89,"","","","","","","","","","","","",""
"3",2941,"","","instructions",2,17512,"0.0-2.0","5pl7ghb3y32uu2ppsrlj80vwck7lz3vz","Wed Feb 08 2017 12:36:47 GMT-0500 (US Eastern Standard Time)","female","White","liberal","",NA,"[{""page_index"":0,""viewing_time"":2938}]","instructions","","","","","","","","","","",""
"4",30936,"","","instructions",3,49464,"0.0-3.0","5pl7ghb3y32uu2ppsrlj80vwck7lz3vz","Wed Feb 08 2017 12:36:47 GMT-0500 (US Eastern Standard Time)","female","White","liberal","",NA,"[{""page_index"":0,""viewing_time"":14525},{""page_index"":1,""viewing_time"":6745},{""page_index"":2,""viewing_time"":8264},{""page_index"":3,""viewing_time"":1400}]","instructions","","","","","","","","","","",""
"5",31051,"{""Q0"":50}","[object Object]","survey-likert",4,81635,"0.0-4.0","5pl7ghb3y32uu2ppsrlj80vwck7lz3vz","Wed Feb 08 2017 12:36:47 GMT-0500 (US Eastern Standard Time)","female","White","liberal","",NA,"","offCivRatings","the officer put handcuffs on the civilian","the civilian stood near the officer","handcuff","stoodNear","civilianOfficer","appropriateOff","50","","","",""
"6",9676,"{""Q0"":1}","[object Object]","survey-likert",5,91342,"0.0-5.0","5pl7ghb3y32uu2ppsrlj80vwck7lz3vz","Wed Feb 08 2017 12:36:47 GMT-0500 (US Eastern Standard Time)","female","White","liberal","",NA,"","offCivRatings","the officer put handcuffs on the civilian","the civilian stood near the officer","handcuff","stoodNear","civilianOfficer","manipCheckHigh","1","","","",""
"7",12716,"{""Q0"":1}","[object Object]","survey-likert",6,104087,"0.0-6.0","5pl7ghb3y32uu2ppsrlj80vwck7lz3vz","Wed Feb 08 2017 12:36:47 GMT-0500 (US Eastern Standard Time)","female","White","liberal","",NA,"","offCivRatings","the officer put handcuffs on the civilian","the civilian stood near the officer","handcuff","stoodNear","civilianOfficer","punishOff","1","","","",""
"8",5352,"{""Q0"":100}","[object Object]","survey-likert",7,109471,"0.0-7.0","5pl7ghb3y32uu2ppsrlj80vwck7lz3vz","Wed Feb 08 2017 12:36:47 GMT-0500 (US Eastern Standard Time)","female","White","liberal","",NA,"","offCivRatings","the officer put handcuffs on the civilian","the civilian stood near the officer","handcuff","stoodNear","civilianOfficer","acceptableOff","100","","","",""
"9",9461,"{""Q0"":39}","[object Object]","survey-likert",8,118960,"0.0-8.0","5pl7ghb3y32uu2ppsrlj80vwck7lz3vz","Wed Feb 08 2017 12:36:47 GMT-0500 (US Eastern Standard Time)","female","White","liberal","",NA,"","offCivRatings","the officer put handcuffs on the civilian","the civilian stood near the officer","handcuff","stoodNear","civilianOfficer","forceOff","39","","","",""
"10",1028,"","","instructions",9,119990,"0.0-9.0","5pl7ghb3y32uu2ppsrlj80vwck7lz3vz","Wed Feb 08 2017 12:36:47 GMT-0500 (US Eastern Standard Time)","female","White","liberal","",NA,"[{""page_index"":0,""viewing_time"":1026}]","break","","","","","","","","","","",""
"11",23594,"{""Q0"":50}","[object Object]","survey-likert",10,143862,"0.0-10.0","5pl7ghb3y32uu2ppsrlj80vwck7lz3vz","Wed Feb 08 2017 12:36:47 GMT-0500 (US Eastern Standard Time)","female","White","liberal","",NA,"","offCivRatings","the officer purposefully struck the civilian with a motor vehicle","the civilian kicked the officer in the stomach","vehicle","kickStom","officerCivilian","punishCiv","50","","","",""
"12",3924,"{""Q0"":100}","[object Object]","survey-likert",11,147816,"0.0-11.0","5pl7ghb3y32uu2ppsrlj80vwck7lz3vz","Wed Feb 08 2017 12:36:47 GMT-0500 (US Eastern Standard Time)","female","White","liberal","",NA,"","offCivRatings","the officer purposefully struck the civilian with a motor vehicle","the civilian kicked the officer in the stomach","vehicle","kickStom","officerCivilian","manipCheckHigh","100","","","",""
"13",7461,"{""Q0"":26}","[object Object]","survey-likert",12,155302,"0.0-12.0","5pl7ghb3y32uu2ppsrlj80vwck7lz3vz","Wed Feb 08 2017 12:36:47 GMT-0500 (US Eastern Standard Time)","female","White","liberal","",NA,"","offCivRatings","the officer purposefully struck the civilian with a motor vehicle","the civilian kicked the officer in the stomach","vehicle","kickStom","officerCivilian","appropriateCiv","26","","","",""
"14",5376,"{""Q0"":40}","[object Object]","survey-likert",13,160702,"0.0-13.0","5pl7ghb3y32uu2ppsrlj80vwck7lz3vz","Wed Feb 08 2017 12:36:47 GMT-0500 (US Eastern Standard Time)","female","White","liberal","",NA,"","offCivRatings","the officer purposefully struck the civilian with a motor vehicle","the civilian kicked the officer in the stomach","vehicle","kickStom","officerCivilian","acceptableCiv","40","","","",""
"15",4530,"{""Q0"":31}","[object Object]","survey-likert",14,165262,"0.0-14.0","5pl7ghb3y32uu2ppsrlj80vwck7lz3vz","Wed Feb 08 2017 12:36:47 GMT-0500 (US Eastern Standard Time)","female","White","liberal","",NA,"","offCivRatings","the officer purposefully struck the civilian with a motor vehicle","the civilian kicked the officer in the stomach","vehicle","kickStom","officerCivilian","forceCiv","31","","","",""
"16",1037,"","","instructions",15,166299,"0.0-15.0","5pl7ghb3y32uu2ppsrlj80vwck7lz3vz","Wed Feb 08 2017 12:36:47 GMT-0500 (US Eastern Standard Time)","female","White","liberal","",NA,"[{""page_index"":0,""viewing_time"":1035}]","break","","","","","","","","","","",""
"17",12409,"{""Q0"":40}","[object Object]","survey-likert",16,178992,"0.0-16.0","5pl7ghb3y32uu2ppsrlj80vwck7lz3vz","Wed Feb 08 2017 12:36:47 GMT-0500 (US Eastern Standard Time)","female","White","liberal","",NA,"","offCivRatings","the officer shouted ""get your fucking hands up!"" at the civilian","the civilian shocked the officer with a tazer","handsUp","tazer","civilianOfficer","forceOff","40","","","",""
"18",3513,"{""Q0"":21}","[object Object]","survey-likert",17,182535,"0.0-17.0","5pl7ghb3y32uu2ppsrlj80vwck7lz3vz","Wed Feb 08 2017 12:36:47 GMT-0500 (US Eastern Standard Time)","female","White","liberal","",NA,"","offCivRatings","the officer shouted ""get your fucking hands up!"" at the civilian","the civilian shocked the officer with a tazer","handsUp","tazer","civilianOfficer","punishOff","21","","","",""
"19",4632,"{""Q0"":90}","[object Object]","survey-likert",18,187192,"0.0-18.0","5pl7ghb3y32uu2ppsrlj80vwck7lz3vz","Wed Feb 08 2017 12:36:47 GMT-0500 (US Eastern Standard Time)","female","White","liberal","",NA,"","offCivRatings","the officer shouted ""get your fucking hands up!"" at the civilian","the civilian shocked the officer with a tazer","handsUp","tazer","civilianOfficer","acceptableOff","90","","","",""
"20",9359,"{""Q0"":53}","[object Object]","survey-likert",19,196576,"0.0-19.0","5pl7ghb3y32uu2ppsrlj80vwck7lz3vz","Wed Feb 08 2017 12:36:47 GMT-0500 (US Eastern Standard Time)","female","White","liberal","",NA,"","offCivRatings","the officer shouted ""get your fucking hands up!"" at the civilian","the civilian shocked the officer with a tazer","handsUp","tazer","civilianOfficer","appropriateOff","53","","","",""
"21",1044,"","","instructions",20,197620,"0.0-20.0","5pl7ghb3y32uu2ppsrlj80vwck7lz3vz","Wed Feb 08 2017 12:36:47 GMT-0500 (US Eastern Standard Time)","female","White","liberal","",NA,"[{""page_index"":0,""viewing_time"":1042}]","break","","","","","","","","","","",""
"22",9325,"{""Q0"":11}","[object Object]","survey-likert",21,207218,"0.0-21.0","5pl7ghb3y32uu2ppsrlj80vwck7lz3vz","Wed Feb 08 2017 12:36:47 GMT-0500 (US Eastern Standard Time)","female","White","liberal","",NA,"","offCivRatings","the officer shot the civilian in the chest with a beanbag shotgun round","the civilian headbutted the officer in the face","beanbag","headbutt","officerCivilian","appropriateCiv","11","","","",""
"23",3071,"{""Q0"":31}","[object Object]","survey-likert",22,210313,"0.0-22.0","5pl7ghb3y32uu2ppsrlj80vwck7lz3vz","Wed Feb 08 2017 12:36:47 GMT-0500 (US Eastern Standard Time)","female","White","liberal","",NA,"","offCivRatings","the officer shot the civilian in the chest with a beanbag shotgun round","the civilian headbutted the officer in the face","beanbag","headbutt","officerCivilian","forceCiv","31","","","",""
"24",3467,"{""Q0"":1}","[object Object]","survey-likert",23,213809,"0.0-23.0","5pl7ghb3y32uu2ppsrlj80vwck7lz3vz","Wed Feb 08 2017 12:36:47 GMT-0500 (US Eastern Standard Time)","female","White","liberal","",NA,"","offCivRatings","the officer shot the civilian in the chest with a beanbag shotgun round","the civilian headbutted the officer in the face","beanbag","headbutt","officerCivilian","manipCheckLow","1","","","",""
"25",4966,"{""Q0"":10}","[object Object]","survey-likert",24,218801,"0.0-24.0","5pl7ghb3y32uu2ppsrlj80vwck7lz3vz","Wed Feb 08 2017 12:36:47 GMT-0500 (US Eastern Standard Time)","female","White","liberal","",NA,"","offCivRatings","the officer shot the civilian in the chest with a beanbag shotgun round","the civilian headbutted the officer in the face","beanbag","headbutt","officerCivilian","acceptableCiv","10","","","",""
"26",4648,"{""Q0"":70}","[object Object]","survey-likert",25,223473,"0.0-25.0","5pl7ghb3y32uu2ppsrlj80vwck7lz3vz","Wed Feb 08 2017 12:36:47 GMT-0500 (US Eastern Standard Time)","female","White","liberal","",NA,"","offCivRatings","the officer shot the civilian in the chest with a beanbag shotgun round","the civilian headbutted the officer in the face","beanbag","headbutt","officerCivilian","punishCiv","70","","","",""
"27",1043,"","","instructions",26,224518,"0.0-26.0","5pl7ghb3y32uu2ppsrlj80vwck7lz3vz","Wed Feb 08 2017 12:36:47 GMT-0500 (US Eastern Standard Time)","female","White","liberal","",NA,"[{""page_index"":0,""viewing_time"":1042}]","break","","","","","","","","","","",""
"28",8850,"{""Q0"":100}","[object Object]","survey-likert",27,233642,"0.0-27.0","5pl7ghb3y32uu2ppsrlj80vwck7lz3vz","Wed Feb 08 2017 12:36:47 GMT-0500 (US Eastern Standard Time)","female","White","liberal","",NA,"","offCivRatings","the officer sprayed the civilian with pepper spray","the civilian shot the officer in the chest with a handgun","pepperSpray","handgunChest","civilianOfficer","acceptableOff","100","","","",""
"29",4692,"{""Q0"":11}","[object Object]","survey-likert",28,238362,"0.0-28.0","5pl7ghb3y32uu2ppsrlj80vwck7lz3vz","Wed Feb 08 2017 12:36:47 GMT-0500 (US Eastern Standard Time)","female","White","liberal","",NA,"","offCivRatings","the officer sprayed the civilian with pepper spray","the civilian shot the officer in the chest with a handgun","pepperSpray","handgunChest","civilianOfficer","punishOff","11","","","",""
"30",8769,"{""Q0"":44}","[object Object]","survey-likert",29,247154,"0.0-29.0","5pl7ghb3y32uu2ppsrlj80vwck7lz3vz","Wed Feb 08 2017 12:36:47 GMT-0500 (US Eastern Standard Time)","female","White","liberal","",NA,"","offCivRatings","the officer sprayed the civilian with pepper spray","the civilian shot the officer in the chest with a handgun","pepperSpray","handgunChest","civilianOfficer","appropriateOff","44","","","",""
"31",8522,"{""Q0"":21}","[object Object]","survey-likert",30,255699,"0.0-30.0","5pl7ghb3y32uu2ppsrlj80vwck7lz3vz","Wed Feb 08 2017 12:36:47 GMT-0500 (US Eastern Standard Time)","female","White","liberal","",NA,"","offCivRatings","the officer sprayed the civilian with pepper spray","the civilian shot the officer in the chest with a handgun","pepperSpray","handgunChest","civilianOfficer","forceOff","21","","","",""
"32",2481,"{""Q0"":100}","[object Object]","survey-likert",31,258202,"0.0-31.0","5pl7ghb3y32uu2ppsrlj80vwck7lz3vz","Wed Feb 08 2017 12:36:47 GMT-0500 (US Eastern Standard Time)","female","White","liberal","",NA,"","offCivRatings","the officer sprayed the civilian with pepper spray","the civilian shot the officer in the chest with a handgun","pepperSpray","handgunChest","civilianOfficer","manipCheckHigh","100","","","",""
"33",1435,"","","instructions",32,259638,"0.0-32.0","5pl7ghb3y32uu2ppsrlj80vwck7lz3vz","Wed Feb 08 2017 12:36:47 GMT-0500 (US Eastern Standard Time)","female","White","liberal","",NA,"[{""page_index"":0,""viewing_time"":1434}]","break","","","","","","","","","","",""
"34",15823,"{""Q0"":21}","[object Object]","survey-likert",33,275730,"0.0-33.0","5pl7ghb3y32uu2ppsrlj80vwck7lz3vz","Wed Feb 08 2017 12:36:47 GMT-0500 (US Eastern Standard Time)","female","White","liberal","",NA,"","offCivRatings","the officer headbutted the civilian in the face","the civilian sprayed the officer with pepper spray","headbutt","pepperSpray","officerCivilian","forceCiv","21","","","",""
"35",4002,"{""Q0"":17}","[object Object]","survey-likert",34,279754,"0.0-34.0","5pl7ghb3y32uu2ppsrlj80vwck7lz3vz","Wed Feb 08 2017 12:36:47 GMT-0500 (US Eastern Standard Time)","female","White","liberal","",NA,"","offCivRatings","the officer headbutted the civilian in the face","the civilian sprayed the officer with pepper spray","headbutt","pepperSpray","officerCivilian","acceptableCiv","17","","","",""
"36",5353,"{""Q0"":71}","[object Object]","survey-likert",35,285130,"0.0-35.0","5pl7ghb3y32uu2ppsrlj80vwck7lz3vz","Wed Feb 08 2017 12:36:47 GMT-0500 (US Eastern Standard Time)","female","White","liberal","",NA,"","offCivRatings","the officer headbutted the civilian in the face","the civilian sprayed the officer with pepper spray","headbutt","pepperSpray","officerCivilian","appropriateCiv","71","","","",""
"37",6711,"{""Q0"":30}","[object Object]","survey-likert",36,291866,"0.0-36.0","5pl7ghb3y32uu2ppsrlj80vwck7lz3vz","Wed Feb 08 2017 12:36:47 GMT-0500 (US Eastern Standard Time)","female","White","liberal","",NA,"","offCivRatings","the officer headbutted the civilian in the face","the civilian sprayed the officer with pepper spray","headbutt","pepperSpray","officerCivilian","punishCiv","30","","","",""
"38",931,"","","instructions",37,292798,"0.0-37.0","5pl7ghb3y32uu2ppsrlj80vwck7lz3vz","Wed Feb 08 2017 12:36:47 GMT-0500 (US Eastern Standard Time)","female","White","liberal","",NA,"[{""page_index"":0,""viewing_time"":930}]","break","","","","","","","","","","",""
"39",7507,"{""Q0"":70}","[object Object]","survey-likert",38,300572,"0.0-38.0","5pl7ghb3y32uu2ppsrlj80vwck7lz3vz","Wed Feb 08 2017 12:36:47 GMT-0500 (US Eastern Standard Time)","female","White","liberal","",NA,"","offCivRatings","the officer applied a chokehold to the civilian","the civilian struck the officer on the leg with a metal pipe","choke","metalPipe","officerCivilian","punishCiv","70","","","",""
"40",4460,"{""Q0"":80}","[object Object]","survey-likert",39,305059,"0.0-39.0","5pl7ghb3y32uu2ppsrlj80vwck7lz3vz","Wed Feb 08 2017 12:36:47 GMT-0500 (US Eastern Standard Time)","female","White","liberal","",NA,"","offCivRatings","the officer applied a chokehold to the civilian","the civilian struck the officer on the leg with a metal pipe","choke","metalPipe","officerCivilian","forceCiv","80","","","",""
"41",2954,"{""Q0"":10}","[object Object]","survey-likert",40,308035,"0.0-40.0","5pl7ghb3y32uu2ppsrlj80vwck7lz3vz","Wed Feb 08 2017 12:36:47 GMT-0500 (US Eastern Standard Time)","female","White","liberal","",NA,"","offCivRatings","the officer applied a chokehold to the civilian","the civilian struck the officer on the leg with a metal pipe","choke","metalPipe","officerCivilian","acceptableCiv","10","","","",""
"42",4366,"{""Q0"":80}","[object Object]","survey-likert",41,312426,"0.0-41.0","5pl7ghb3y32uu2ppsrlj80vwck7lz3vz","Wed Feb 08 2017 12:36:47 GMT-0500 (US Eastern Standard Time)","female","White","liberal","",NA,"","offCivRatings","the officer applied a chokehold to the civilian","the civilian struck the officer on the leg with a metal pipe","choke","metalPipe","officerCivilian","appropriateCiv","80","","","",""
"43",852,"","","instructions",42,313279,"0.0-42.0","5pl7ghb3y32uu2ppsrlj80vwck7lz3vz","Wed Feb 08 2017 12:36:47 GMT-0500 (US Eastern Standard Time)","female","White","liberal","",NA,"[{""page_index"":0,""viewing_time"":850}]","break","","","","","","","","","","",""
"44",8193,"{""Q0"":70}","[object Object]","survey-likert",43,321740,"0.0-43.0","5pl7ghb3y32uu2ppsrlj80vwck7lz3vz","Wed Feb 08 2017 12:36:47 GMT-0500 (US Eastern Standard Time)","female","White","liberal","",NA,"","offCivRatings","the officer said ""if you touch me, you're gonna get hurt"" to the civilian","the civilian asked the officer how he was doing","hurtThreat","asked","civilianOfficer","appropriateOff","70","","","",""
"45",5464,"{""Q0"":25}","[object Object]","survey-likert",44,327229,"0.0-44.0","5pl7ghb3y32uu2ppsrlj80vwck7lz3vz","Wed Feb 08 2017 12:36:47 GMT-0500 (US Eastern Standard Time)","female","White","liberal","",NA,"","offCivRatings","the officer said ""if you touch me, you're gonna get hurt"" to the civilian","the civilian asked the officer how he was doing","hurtThreat","asked","civilianOfficer","acceptableOff","25","","","",""
"46",3968,"{""Q0"":16}","[object Object]","survey-likert",45,331221,"0.0-45.0","5pl7ghb3y32uu2ppsrlj80vwck7lz3vz","Wed Feb 08 2017 12:36:47 GMT-0500 (US Eastern Standard Time)","female","White","liberal","",NA,"","offCivRatings","the officer said ""if you touch me, you're gonna get hurt"" to the civilian","the civilian asked the officer how he was doing","hurtThreat","asked","civilianOfficer","forceOff","16","","","",""
"47",4227,"{""Q0"":100}","[object Object]","survey-likert",46,335476,"0.0-46.0","5pl7ghb3y32uu2ppsrlj80vwck7lz3vz","Wed Feb 08 2017 12:36:47 GMT-0500 (US Eastern Standard Time)","female","White","liberal","",NA,"","offCivRatings","the officer said ""if you touch me, you're gonna get hurt"" to the civilian","the civilian asked the officer how he was doing","hurtThreat","asked","civilianOfficer","manipCheckHigh","100","","","",""
"48",5737,"{""Q0"":31}","[object Object]","survey-likert",47,341236,"0.0-47.0","5pl7ghb3y32uu2ppsrlj80vwck7lz3vz","Wed Feb 08 2017 12:36:47 GMT-0500 (US Eastern Standard Time)","female","White","liberal","",NA,"","offCivRatings","the officer said ""if you touch me, you're gonna get hurt"" to the civilian","the civilian asked the officer how he was doing","hurtThreat","asked","civilianOfficer","punishOff","31","","","",""
"49",836,"","","instructions",48,342072,"0.0-48.0","5pl7ghb3y32uu2ppsrlj80vwck7lz3vz","Wed Feb 08 2017 12:36:47 GMT-0500 (US Eastern Standard Time)","female","White","liberal","",NA,"[{""page_index"":0,""viewing_time"":834}]","break","","","","","","","","","","",""
"50",6870,"{""Q0"":1}","[object Object]","survey-likert",49,349228,"0.0-49.0","5pl7ghb3y32uu2ppsrlj80vwck7lz3vz","Wed Feb 08 2017 12:36:47 GMT-0500 (US Eastern Standard Time)","female","White","liberal","",NA,"","offCivRatings","the officer stood near the civilian","the civilian struck the officer in the stomach with a metal flashlight","stoodNear","flashlight","civilianOfficer","forceOff","1","","","",""
"51",7305,"{""Q0"":10}","[object Object]","survey-likert",50,356558,"0.0-50.0","5pl7ghb3y32uu2ppsrlj80vwck7lz3vz","Wed Feb 08 2017 12:36:47 GMT-0500 (US Eastern Standard Time)","female","White","liberal","",NA,"","offCivRatings","the officer stood near the civilian","the civilian struck the officer in the stomach with a metal flashlight","stoodNear","flashlight","civilianOfficer","punishOff","10","","","",""
"52",5189,"{""Q0"":91}","[object Object]","survey-likert",51,361773,"0.0-51.0","5pl7ghb3y32uu2ppsrlj80vwck7lz3vz","Wed Feb 08 2017 12:36:47 GMT-0500 (US Eastern Standard Time)","female","White","liberal","",NA,"","offCivRatings","the officer stood near the civilian","the civilian struck the officer in the stomach with a metal flashlight","stoodNear","flashlight","civilianOfficer","acceptableOff","91","","","",""
"53",7424,"{""Q0"":45}","[object Object]","survey-likert",52,369221,"0.0-52.0","5pl7ghb3y32uu2ppsrlj80vwck7lz3vz","Wed Feb 08 2017 12:36:47 GMT-0500 (US Eastern Standard Time)","female","White","liberal","",NA,"","offCivRatings","the officer stood near the civilian","the civilian struck the officer in the stomach with a metal flashlight","stoodNear","flashlight","civilianOfficer","appropriateOff","45","","","",""
"54",2489,"{""Q0"":1}","[object Object]","survey-likert",53,371733,"0.0-53.0","5pl7ghb3y32uu2ppsrlj80vwck7lz3vz","Wed Feb 08 2017 12:36:47 GMT-0500 (US Eastern Standard Time)","female","White","liberal","",NA,"","offCivRatings","the officer stood near the civilian","the civilian struck the officer in the stomach with a metal flashlight","stoodNear","flashlight","civilianOfficer","manipCheckLow","1","","","",""
"55",971,"","","instructions",54,372706,"0.0-54.0","5pl7ghb3y32uu2ppsrlj80vwck7lz3vz","Wed Feb 08 2017 12:36:47 GMT-0500 (US Eastern Standard Time)","female","White","liberal","",NA,"[{""page_index"":0,""viewing_time"":970}]","break","","","","","","","","","","",""
"56",8163,"{""Q0"":52}","[object Object]","survey-likert",55,381141,"0.0-55.0","5pl7ghb3y32uu2ppsrlj80vwck7lz3vz","Wed Feb 08 2017 12:36:47 GMT-0500 (US Eastern Standard Time)","female","White","liberal","",NA,"","offCivRatings","the officer twisted the arm of the civilian, forcing him to the ground","the civilian waved at the officer in greeting","armbar","waved","civilianOfficer","punishOff","52","","","",""
"57",3264,"{""Q0"":15}","[object Object]","survey-likert",56,384429,"0.0-56.0","5pl7ghb3y32uu2ppsrlj80vwck7lz3vz","Wed Feb 08 2017 12:36:47 GMT-0500 (US Eastern Standard Time)","female","White","liberal","",NA,"","offCivRatings","the officer twisted the arm of the civilian, forcing him to the ground","the civilian waved at the officer in greeting","armbar","waved","civilianOfficer","acceptableOff","15","","","",""
"58",2753,"{""Q0"":75}","[object Object]","survey-likert",57,387206,"0.0-57.0","5pl7ghb3y32uu2ppsrlj80vwck7lz3vz","Wed Feb 08 2017 12:36:47 GMT-0500 (US Eastern Standard Time)","female","White","liberal","",NA,"","offCivRatings","the officer twisted the arm of the civilian, forcing him to the ground","the civilian waved at the officer in greeting","armbar","waved","civilianOfficer","forceOff","75","","","",""
"59",4633,"{""Q0"":71}","[object Object]","survey-likert",58,391861,"0.0-58.0","5pl7ghb3y32uu2ppsrlj80vwck7lz3vz","Wed Feb 08 2017 12:36:47 GMT-0500 (US Eastern Standard Time)","female","White","liberal","",NA,"","offCivRatings","the officer twisted the arm of the civilian, forcing him to the ground","the civilian waved at the officer in greeting","armbar","waved","civilianOfficer","appropriateOff","71","","","",""
"60",1197,"","","instructions",59,393059,"0.0-59.0","5pl7ghb3y32uu2ppsrlj80vwck7lz3vz","Wed Feb 08 2017 12:36:47 GMT-0500 (US Eastern Standard Time)","female","White","liberal","",NA,"[{""page_index"":0,""viewing_time"":1195}]","break","","","","","","","","","","",""
"61",8014,"{""Q0"":30}","[object Object]","survey-likert",60,401344,"0.0-60.0","5pl7ghb3y32uu2ppsrlj80vwck7lz3vz","Wed Feb 08 2017 12:36:47 GMT-0500 (US Eastern Standard Time)","female","White","liberal","",NA,"","offCivRatings","the officer punched the civilian in the face","the civilian shouted ""I don't have to fucking listen to you!"" at the officer","punchFace","dontListen","officerCivilian","punishCiv","30","","","",""
"62",4408,"{""Q0"":60}","[object Object]","survey-likert",61,405775,"0.0-61.0","5pl7ghb3y32uu2ppsrlj80vwck7lz3vz","Wed Feb 08 2017 12:36:47 GMT-0500 (US Eastern Standard Time)","female","White","liberal","",NA,"","offCivRatings","the officer punched the civilian in the face","the civilian shouted ""I don't have to fucking listen to you!"" at the officer","punchFace","dontListen","officerCivilian","acceptableCiv","60","","","",""
"63",6210,"{""Q0"":29}","[object Object]","survey-likert",62,412008,"0.0-62.0","5pl7ghb3y32uu2ppsrlj80vwck7lz3vz","Wed Feb 08 2017 12:36:47 GMT-0500 (US Eastern Standard Time)","female","White","liberal","",NA,"","offCivRatings","the officer punched the civilian in the face","the civilian shouted ""I don't have to fucking listen to you!"" at the officer","punchFace","dontListen","officerCivilian","appropriateCiv","29","","","",""
"64",2486,"{""Q0"":21}","[object Object]","survey-likert",63,414520,"0.0-63.0","5pl7ghb3y32uu2ppsrlj80vwck7lz3vz","Wed Feb 08 2017 12:36:47 GMT-0500 (US Eastern Standard Time)","female","White","liberal","",NA,"","offCivRatings","the officer punched the civilian in the face","the civilian shouted ""I don't have to fucking listen to you!"" at the officer","punchFace","dontListen","officerCivilian","forceCiv","21","","","",""
"65",900,"","","instructions",64,415420,"0.0-64.0","5pl7ghb3y32uu2ppsrlj80vwck7lz3vz","Wed Feb 08 2017 12:36:47 GMT-0500 (US Eastern Standard Time)","female","White","liberal","",NA,"[{""page_index"":0,""viewing_time"":898}]","break","","","","","","","","","","",""
"66",7887,"{""Q0"":85}","[object Object]","survey-likert",65,423566,"0.0-65.0","5pl7ghb3y32uu2ppsrlj80vwck7lz3vz","Wed Feb 08 2017 12:36:47 GMT-0500 (US Eastern Standard Time)","female","White","liberal","",NA,"","offCivRatings","the officer waved at the civilian in greeting","the civilian twisted the arm of the officer, forcing him to the ground","waved","armbar","officerCivilian","forceCiv","85","","","",""
"67",4204,"{""Q0"":100}","[object Object]","survey-likert",66,427791,"0.0-66.0","5pl7ghb3y32uu2ppsrlj80vwck7lz3vz","Wed Feb 08 2017 12:36:47 GMT-0500 (US Eastern Standard Time)","female","White","liberal","",NA,"","offCivRatings","the officer waved at the civilian in greeting","the civilian twisted the arm of the officer, forcing him to the ground","waved","armbar","officerCivilian","appropriateCiv","100","","","",""
"68",6550,"{""Q0"":85}","[object Object]","survey-likert",67,434368,"0.0-67.0","5pl7ghb3y32uu2ppsrlj80vwck7lz3vz","Wed Feb 08 2017 12:36:47 GMT-0500 (US Eastern Standard Time)","female","White","liberal","",NA,"","offCivRatings","the officer waved at the civilian in greeting","the civilian twisted the arm of the officer, forcing him to the ground","waved","armbar","officerCivilian","punishCiv","85","","","",""
"69",3376,"{""Q0"":12}","[object Object]","survey-likert",68,437768,"0.0-68.0","5pl7ghb3y32uu2ppsrlj80vwck7lz3vz","Wed Feb 08 2017 12:36:47 GMT-0500 (US Eastern Standard Time)","female","White","liberal","",NA,"","offCivRatings","the officer waved at the civilian in greeting","the civilian twisted the arm of the officer, forcing him to the ground","waved","armbar","officerCivilian","acceptableCiv","12","","","",""
"70",1467,"","","instructions",69,439236,"0.0-69.0","5pl7ghb3y32uu2ppsrlj80vwck7lz3vz","Wed Feb 08 2017 12:36:47 GMT-0500 (US Eastern Standard Time)","female","White","liberal","",NA,"[{""page_index"":0,""viewing_time"":1466}]","break","","","","","","","","","","",""
"71",8555,"{""Q0"":100}","[object Object]","survey-likert",70,448057,"0.0-70.0","5pl7ghb3y32uu2ppsrlj80vwck7lz3vz","Wed Feb 08 2017 12:36:47 GMT-0500 (US Eastern Standard Time)","female","White","liberal","",NA,"","offCivRatings","the officer struck the civilian in the stomach with a metal flashlight","the civilian applied a chokehold to the officer","flashlight","choke","officerCivilian","appropriateCiv","100","","","",""
"72",2961,"{""Q0"":87}","[object Object]","survey-likert",71,451041,"0.0-71.0","5pl7ghb3y32uu2ppsrlj80vwck7lz3vz","Wed Feb 08 2017 12:36:47 GMT-0500 (US Eastern Standard Time)","female","White","liberal","",NA,"","offCivRatings","the officer struck the civilian in the stomach with a metal flashlight","the civilian applied a chokehold to the officer","flashlight","choke","officerCivilian","punishCiv","87","","","",""
"73",3344,"{""Q0"":72}","[object Object]","survey-likert",72,454409,"0.0-72.0","5pl7ghb3y32uu2ppsrlj80vwck7lz3vz","Wed Feb 08 2017 12:36:47 GMT-0500 (US Eastern Standard Time)","female","White","liberal","",NA,"","offCivRatings","the officer struck the civilian in the stomach with a metal flashlight","the civilian applied a chokehold to the officer","flashlight","choke","officerCivilian","forceCiv","72","","","",""
"74",2625,"{""Q0"":7}","[object Object]","survey-likert",73,457060,"0.0-73.0","5pl7ghb3y32uu2ppsrlj80vwck7lz3vz","Wed Feb 08 2017 12:36:47 GMT-0500 (US Eastern Standard Time)","female","White","liberal","",NA,"","offCivRatings","the officer struck the civilian in the stomach with a metal flashlight","the civilian applied a chokehold to the officer","flashlight","choke","officerCivilian","acceptableCiv","7","","","",""
"75",2594,"{""Q0"":100}","[object Object]","survey-likert",74,459682,"0.0-74.0","5pl7ghb3y32uu2ppsrlj80vwck7lz3vz","Wed Feb 08 2017 12:36:47 GMT-0500 (US Eastern Standard Time)","female","White","liberal","",NA,"","offCivRatings","the officer struck the civilian in the stomach with a metal flashlight","the civilian applied a chokehold to the officer","flashlight","choke","officerCivilian","manipCheckHigh","100","","","",""
"76",962,"","","instructions",75,460645,"0.0-75.0","5pl7ghb3y32uu2ppsrlj80vwck7lz3vz","Wed Feb 08 2017 12:36:47 GMT-0500 (US Eastern Standard Time)","female","White","liberal","",NA,"[{""page_index"":0,""viewing_time"":960}]","break","","","","","","","","","","",""
"77",8721,"{""Q0"":94}","[object Object]","survey-likert",76,469633,"0.0-76.0","5pl7ghb3y32uu2ppsrlj80vwck7lz3vz","Wed Feb 08 2017 12:36:47 GMT-0500 (US Eastern Standard Time)","female","White","liberal","",NA,"","offCivRatings","the officer slammed the civilian's head into the concrete curb","the civilian pulled away from the officer","headSlam","pulledAway","civilianOfficer","forceOff","94","","","",""
"78",3544,"{""Q0"":74}","[object Object]","survey-likert",77,473201,"0.0-77.0","5pl7ghb3y32uu2ppsrlj80vwck7lz3vz","Wed Feb 08 2017 12:36:47 GMT-0500 (US Eastern Standard Time)","female","White","liberal","",NA,"","offCivRatings","the officer slammed the civilian's head into the concrete curb","the civilian pulled away from the officer","headSlam","pulledAway","civilianOfficer","punishOff","74","","","",""
"79",5784,"{""Q0"":16}","[object Object]","survey-likert",78,479011,"0.0-78.0","5pl7ghb3y32uu2ppsrlj80vwck7lz3vz","Wed Feb 08 2017 12:36:47 GMT-0500 (US Eastern Standard Time)","female","White","liberal","",NA,"","offCivRatings","the officer slammed the civilian's head into the concrete curb","the civilian pulled away from the officer","headSlam","pulledAway","civilianOfficer","acceptableOff","16","","","",""
"80",4001,"{""Q0"":85}","[object Object]","survey-likert",79,483035,"0.0-79.0","5pl7ghb3y32uu2ppsrlj80vwck7lz3vz","Wed Feb 08 2017 12:36:47 GMT-0500 (US Eastern Standard Time)","female","White","liberal","",NA,"","offCivRatings","the officer slammed the civilian's head into the concrete curb","the civilian pulled away from the officer","headSlam","pulledAway","civilianOfficer","appropriateOff","85","","","",""
"81",1058,"","","instructions",80,484094,"0.0-80.0","5pl7ghb3y32uu2ppsrlj80vwck7lz3vz","Wed Feb 08 2017 12:36:47 GMT-0500 (US Eastern Standard Time)","female","White","liberal","",NA,"[{""page_index"":0,""viewing_time"":1057}]","break","","","","","","","","","","",""
"82",8398,"{""Q0"":89}","[object Object]","survey-likert",81,492754,"0.0-81.0","5pl7ghb3y32uu2ppsrlj80vwck7lz3vz","Wed Feb 08 2017 12:36:47 GMT-0500 (US Eastern Standard Time)","female","White","liberal","",NA,"","offCivRatings","the officer kicked the civilian in the stomach","the civilian hit the officer in the chest with a baseball bat","kickStom","ballBat","officerCivilian","appropriateCiv","89","","","",""
"83",2691,"{""Q0"":84}","[object Object]","survey-likert",82,495474,"0.0-82.0","5pl7ghb3y32uu2ppsrlj80vwck7lz3vz","Wed Feb 08 2017 12:36:47 GMT-0500 (US Eastern Standard Time)","female","White","liberal","",NA,"","offCivRatings","the officer kicked the civilian in the stomach","the civilian hit the officer in the chest with a baseball bat","kickStom","ballBat","officerCivilian","punishCiv","84","","","",""
"84",3023,"{""Q0"":12}","[object Object]","survey-likert",83,498522,"0.0-83.0","5pl7ghb3y32uu2ppsrlj80vwck7lz3vz","Wed Feb 08 2017 12:36:47 GMT-0500 (US Eastern Standard Time)","female","White","liberal","",NA,"","offCivRatings","the officer kicked the civilian in the stomach","the civilian hit the officer in the chest with a baseball bat","kickStom","ballBat","officerCivilian","acceptableCiv","12","","","",""
"85",2460,"{""Q0"":1}","[object Object]","survey-likert",84,501002,"0.0-84.0","5pl7ghb3y32uu2ppsrlj80vwck7lz3vz","Wed Feb 08 2017 12:36:47 GMT-0500 (US Eastern Standard Time)","female","White","liberal","",NA,"","offCivRatings","the officer kicked the civilian in the stomach","the civilian hit the officer in the chest with a baseball bat","kickStom","ballBat","officerCivilian","manipCheckLow","1","","","",""
"86",3621,"{""Q0"":89}","[object Object]","survey-likert",85,504641,"0.0-85.0","5pl7ghb3y32uu2ppsrlj80vwck7lz3vz","Wed Feb 08 2017 12:36:47 GMT-0500 (US Eastern Standard Time)","female","White","liberal","",NA,"","offCivRatings","the officer kicked the civilian in the stomach","the civilian hit the officer in the chest with a baseball bat","kickStom","ballBat","officerCivilian","forceCiv","89","","","",""
"87",829,"","","instructions",86,505470,"0.0-86.0","5pl7ghb3y32uu2ppsrlj80vwck7lz3vz","Wed Feb 08 2017 12:36:47 GMT-0500 (US Eastern Standard Time)","female","White","liberal","",NA,"[{""page_index"":0,""viewing_time"":827}]","break","","","","","","","","","","",""
"88",4357,"{""Q0"":100}","[object Object]","survey-likert",87,510059,"0.0-87.0","5pl7ghb3y32uu2ppsrlj80vwck7lz3vz","Wed Feb 08 2017 12:36:47 GMT-0500 (US Eastern Standard Time)","female","White","liberal","",NA,"","offCivRatings","the officer called the civilian a ""thug""","the civilian called the officer a ""pig""","nameCall","nameCall","officerCivilian","manipCheckHigh","100","","","",""
"89",3784,"{""Q0"":1}","[object Object]","survey-likert",88,513866,"0.0-88.0","5pl7ghb3y32uu2ppsrlj80vwck7lz3vz","Wed Feb 08 2017 12:36:47 GMT-0500 (US Eastern Standard Time)","female","White","liberal","",NA,"","offCivRatings","the officer called the civilian a ""thug""","the civilian called the officer a ""pig""","nameCall","nameCall","officerCivilian","punishCiv","1","","","",""
"90",7480,"{""Q0"":50}","[object Object]","survey-likert",89,521369,"0.0-89.0","5pl7ghb3y32uu2ppsrlj80vwck7lz3vz","Wed Feb 08 2017 12:36:47 GMT-0500 (US Eastern Standard Time)","female","White","liberal","",NA,"","offCivRatings","the officer called the civilian a ""thug""","the civilian called the officer a ""pig""","nameCall","nameCall","officerCivilian","acceptableCiv","50","","","",""
"91",6676,"{""Q0"":20}","[object Object]","survey-likert",90,528067,"0.0-90.0","5pl7ghb3y32uu2ppsrlj80vwck7lz3vz","Wed Feb 08 2017 12:36:47 GMT-0500 (US Eastern Standard Time)","female","White","liberal","",NA,"","offCivRatings","the officer called the civilian a ""thug""","the civilian called the officer a ""pig""","nameCall","nameCall","officerCivilian","forceCiv","20","","","",""
"92",3175,"{""Q0"":54}","[object Object]","survey-likert",91,531266,"0.0-91.0","5pl7ghb3y32uu2ppsrlj80vwck7lz3vz","Wed Feb 08 2017 12:36:47 GMT-0500 (US Eastern Standard Time)","female","White","liberal","",NA,"","offCivRatings","the officer called the civilian a ""thug""","the civilian called the officer a ""pig""","nameCall","nameCall","officerCivilian","appropriateCiv","54","","","",""
"93",899,"","","instructions",92,532166,"0.0-92.0","5pl7ghb3y32uu2ppsrlj80vwck7lz3vz","Wed Feb 08 2017 12:36:47 GMT-0500 (US Eastern Standard Time)","female","White","liberal","",NA,"[{""page_index"":0,""viewing_time"":898}]","break","","","","","","","","","","",""
"94",10977,"{""Q0"":61}","[object Object]","survey-likert",93,543369,"0.0-93.0","5pl7ghb3y32uu2ppsrlj80vwck7lz3vz","Wed Feb 08 2017 12:36:47 GMT-0500 (US Eastern Standard Time)","female","White","liberal","",NA,"","offCivRatings","the officer shot the civilian in the chest with a handgun","the civilian punched the officer in the face","handgunChest","punchFace","officerCivilian","acceptableCiv","61","","","",""
"95",3758,"{""Q0"":68}","[object Object]","survey-likert",94,547147,"0.0-94.0","5pl7ghb3y32uu2ppsrlj80vwck7lz3vz","Wed Feb 08 2017 12:36:47 GMT-0500 (US Eastern Standard Time)","female","White","liberal","",NA,"","offCivRatings","the officer shot the civilian in the chest with a handgun","the civilian punched the officer in the face","handgunChest","punchFace","officerCivilian","punishCiv","68","","","",""
"96",5138,"{""Q0"":39}","[object Object]","survey-likert",95,552306,"0.0-95.0","5pl7ghb3y32uu2ppsrlj80vwck7lz3vz","Wed Feb 08 2017 12:36:47 GMT-0500 (US Eastern Standard Time)","female","White","liberal","",NA,"","offCivRatings","the officer shot the civilian in the chest with a handgun","the civilian punched the officer in the face","handgunChest","punchFace","officerCivilian","appropriateCiv","39","","","",""
"97",5396,"{""Q0"":41}","[object Object]","survey-likert",96,557721,"0.0-96.0","5pl7ghb3y32uu2ppsrlj80vwck7lz3vz","Wed Feb 08 2017 12:36:47 GMT-0500 (US Eastern Standard Time)","female","White","liberal","",NA,"","offCivRatings","the officer shot the civilian in the chest with a handgun","the civilian punched the officer in the face","handgunChest","punchFace","officerCivilian","forceCiv","41","","","",""
"98",989,"","","instructions",97,558711,"0.0-97.0","5pl7ghb3y32uu2ppsrlj80vwck7lz3vz","Wed Feb 08 2017 12:36:47 GMT-0500 (US Eastern Standard Time)","female","White","liberal","",NA,"[{""page_index"":0,""viewing_time"":987}]","break","","","","","","","","","","",""
"99",13044,"{""Q0"":40}","[object Object]","survey-likert",98,571979,"0.0-98.0","5pl7ghb3y32uu2ppsrlj80vwck7lz3vz","Wed Feb 08 2017 12:36:47 GMT-0500 (US Eastern Standard Time)","female","White","liberal","",NA,"","offCivRatings","the officer struck the civilian on the leg with a collapsible baton","the civilian shot the officer in the head with a handgun","batonLeg","handgunHead","civilianOfficer","appropriateOff","40","","","",""
"100",2778,"{""Q0"":40}","[object Object]","survey-likert",99,574779,"0.0-99.0","5pl7ghb3y32uu2ppsrlj80vwck7lz3vz","Wed Feb 08 2017 12:36:47 GMT-0500 (US Eastern Standard Time)","female","White","liberal","",NA,"","offCivRatings","the officer struck the civilian on the leg with a collapsible baton","the civilian shot the officer in the head with a handgun","batonLeg","handgunHead","civilianOfficer","punishOff","40","","","",""
"101",6804,"{""Q0"":21}","[object Object]","survey-likert",100,581603,"0.0-100.0","5pl7ghb3y32uu2ppsrlj80vwck7lz3vz","Wed Feb 08 2017 12:36:47 GMT-0500 (US Eastern Standard Time)","female","White","liberal","",NA,"","offCivRatings","the officer struck the civilian on the leg with a collapsible baton","the civilian shot the officer in the head with a handgun","batonLeg","handgunHead","civilianOfficer","forceOff","21","","","",""
"102",2895,"{""Q0"":73}","[object Object]","survey-likert",101,584522,"0.0-101.0","5pl7ghb3y32uu2ppsrlj80vwck7lz3vz","Wed Feb 08 2017 12:36:47 GMT-0500 (US Eastern Standard Time)","female","White","liberal","",NA,"","offCivRatings","the officer struck the civilian on the leg with a collapsible baton","the civilian shot the officer in the head with a handgun","batonLeg","handgunHead","civilianOfficer","acceptableOff","73","","","",""
"103",1157,"","","instructions",102,585680,"0.0-102.0","5pl7ghb3y32uu2ppsrlj80vwck7lz3vz","Wed Feb 08 2017 12:36:47 GMT-0500 (US Eastern Standard Time)","female","White","liberal","",NA,"[{""page_index"":0,""viewing_time"":1156}]","break","","","","","","","","","","",""
"104",6466,"{""Q0"":100}","[object Object]","survey-likert",103,592380,"0.0-103.0","5pl7ghb3y32uu2ppsrlj80vwck7lz3vz","Wed Feb 08 2017 12:36:47 GMT-0500 (US Eastern Standard Time)","female","White","liberal","",NA,"","offCivRatings","the officer shocked the civilian with a tazer","the civilian slammed the officer's head into the concrete curb","tazer","headSlam","civilianOfficer","manipCheckHigh","100","","","",""
"105",6457,"{""Q0"":51}","[object Object]","survey-likert",104,598861,"0.0-104.0","5pl7ghb3y32uu2ppsrlj80vwck7lz3vz","Wed Feb 08 2017 12:36:47 GMT-0500 (US Eastern Standard Time)","female","White","liberal","",NA,"","offCivRatings","the officer shocked the civilian with a tazer","the civilian slammed the officer's head into the concrete curb","tazer","headSlam","civilianOfficer","appropriateOff","51","","","",""
"106",4905,"{""Q0"":54}","[object Object]","survey-likert",105,603788,"0.0-105.0","5pl7ghb3y32uu2ppsrlj80vwck7lz3vz","Wed Feb 08 2017 12:36:47 GMT-0500 (US Eastern Standard Time)","female","White","liberal","",NA,"","offCivRatings","the officer shocked the civilian with a tazer","the civilian slammed the officer's head into the concrete curb","tazer","headSlam","civilianOfficer","acceptableOff","54","","","",""
"107",2938,"{""Q0"":62}","[object Object]","survey-likert",106,606748,"0.0-106.0","5pl7ghb3y32uu2ppsrlj80vwck7lz3vz","Wed Feb 08 2017 12:36:47 GMT-0500 (US Eastern Standard Time)","female","White","liberal","",NA,"","offCivRatings","the officer shocked the civilian with a tazer","the civilian slammed the officer's head into the concrete curb","tazer","headSlam","civilianOfficer","forceOff","62","","","",""
"108",4405,"{""Q0"":12}","[object Object]","survey-likert",107,611171,"0.0-107.0","5pl7ghb3y32uu2ppsrlj80vwck7lz3vz","Wed Feb 08 2017 12:36:47 GMT-0500 (US Eastern Standard Time)","female","White","liberal","",NA,"","offCivRatings","the officer shocked the civilian with a tazer","the civilian slammed the officer's head into the concrete curb","tazer","headSlam","civilianOfficer","punishOff","12","","","",""
"109",1173,"","","instructions",108,612344,"0.0-108.0","5pl7ghb3y32uu2ppsrlj80vwck7lz3vz","Wed Feb 08 2017 12:36:47 GMT-0500 (US Eastern Standard Time)","female","White","liberal","",NA,"[{""page_index"":0,""viewing_time"":1172}]","break","","","","","","","","","","",""
"110",8504,"{""Q0"":35}","[object Object]","survey-likert",109,621076,"0.0-109.0","5pl7ghb3y32uu2ppsrlj80vwck7lz3vz","Wed Feb 08 2017 12:36:47 GMT-0500 (US Eastern Standard Time)","female","White","liberal","",NA,"","offCivRatings","the officer yelled ""get back!"" at the civilian","the civilian yelled ""get back!"" at the officer","getBack","getBack","officerCivilian","punishCiv","35","","","",""
"111",3199,"{""Q0"":61}","[object Object]","survey-likert",110,624293,"0.0-110.0","5pl7ghb3y32uu2ppsrlj80vwck7lz3vz","Wed Feb 08 2017 12:36:47 GMT-0500 (US Eastern Standard Time)","female","White","liberal","",NA,"","offCivRatings","the officer yelled ""get back!"" at the civilian","the civilian yelled ""get back!"" at the officer","getBack","getBack","officerCivilian","acceptableCiv","61","","","",""
"112",5873,"{""Q0"":56}","[object Object]","survey-likert",111,630188,"0.0-111.0","5pl7ghb3y32uu2ppsrlj80vwck7lz3vz","Wed Feb 08 2017 12:36:47 GMT-0500 (US Eastern Standard Time)","female","White","liberal","",NA,"","offCivRatings","the officer yelled ""get back!"" at the civilian","the civilian yelled ""get back!"" at the officer","getBack","getBack","officerCivilian","forceCiv","56","","","",""
"113",2181,"{""Q0"":53}","[object Object]","survey-likert",112,632391,"0.0-112.0","5pl7ghb3y32uu2ppsrlj80vwck7lz3vz","Wed Feb 08 2017 12:36:47 GMT-0500 (US Eastern Standard Time)","female","White","liberal","",NA,"","offCivRatings","the officer yelled ""get back!"" at the civilian","the civilian yelled ""get back!"" at the officer","getBack","getBack","officerCivilian","appropriateCiv","53","","","",""
"114",961,"","","instructions",113,633353,"0.0-113.0","5pl7ghb3y32uu2ppsrlj80vwck7lz3vz","Wed Feb 08 2017 12:36:47 GMT-0500 (US Eastern Standard Time)","female","White","liberal","",NA,"[{""page_index"":0,""viewing_time"":959}]","break","","","","","","","","","","",""
"115",13890,"{""Q0"":90}","[object Object]","survey-likert",114,647476,"0.0-114.0","5pl7ghb3y32uu2ppsrlj80vwck7lz3vz","Wed Feb 08 2017 12:36:47 GMT-0500 (US Eastern Standard Time)","female","White","liberal","",NA,"","offCivRatings","the officer shot the civilian in the head with a handgun","the civilian purposefully struck the officer with a motor vehicle","handgunHead","vehicle","civilianOfficer","forceOff","90","","","",""
"116",4102,"{""Q0"":21}","[object Object]","survey-likert",115,651597,"0.0-115.0","5pl7ghb3y32uu2ppsrlj80vwck7lz3vz","Wed Feb 08 2017 12:36:47 GMT-0500 (US Eastern Standard Time)","female","White","liberal","",NA,"","offCivRatings","the officer shot the civilian in the head with a handgun","the civilian purposefully struck the officer with a motor vehicle","handgunHead","vehicle","civilianOfficer","acceptableOff","21","","","",""
"117",3862,"{""Q0"":63}","[object Object]","survey-likert",116,655479,"0.0-116.0","5pl7ghb3y32uu2ppsrlj80vwck7lz3vz","Wed Feb 08 2017 12:36:47 GMT-0500 (US Eastern Standard Time)","female","White","liberal","",NA,"","offCivRatings","the officer shot the civilian in the head with a handgun","the civilian purposefully struck the officer with a motor vehicle","handgunHead","vehicle","civilianOfficer","punishOff","63","","","",""
"118",7593,"{""Q0"":79}","[object Object]","survey-likert",117,663092,"0.0-117.0","5pl7ghb3y32uu2ppsrlj80vwck7lz3vz","Wed Feb 08 2017 12:36:47 GMT-0500 (US Eastern Standard Time)","female","White","liberal","",NA,"","offCivRatings","the officer shot the civilian in the head with a handgun","the civilian purposefully struck the officer with a motor vehicle","handgunHead","vehicle","civilianOfficer","appropriateOff","79","","","",""
"119",893,"","","instructions",118,663986,"0.0-118.0","5pl7ghb3y32uu2ppsrlj80vwck7lz3vz","Wed Feb 08 2017 12:36:47 GMT-0500 (US Eastern Standard Time)","female","White","liberal","",NA,"[{""page_index"":0,""viewing_time"":892}]","break","","","","","","","","","","",""
"120",7109,"{""Q0"":32}","[object Object]","survey-likert",119,671320,"0.0-119.0","5pl7ghb3y32uu2ppsrlj80vwck7lz3vz","Wed Feb 08 2017 12:36:47 GMT-0500 (US Eastern Standard Time)","female","White","liberal","",NA,"","offCivRatings","the officer asked the civilian how he was doing","the civilian said ""if you touch me, you're gonna get hurt"" to the officer","asked","hurtThreat","civilianOfficer","punishOff","32","","","",""
"121",2817,"{""Q0"":68}","[object Object]","survey-likert",120,674159,"0.0-120.0","5pl7ghb3y32uu2ppsrlj80vwck7lz3vz","Wed Feb 08 2017 12:36:47 GMT-0500 (US Eastern Standard Time)","female","White","liberal","",NA,"","offCivRatings","the officer asked the civilian how he was doing","the civilian said ""if you touch me, you're gonna get hurt"" to the officer","asked","hurtThreat","civilianOfficer","acceptableOff","68","","","",""
"122",2187,"{""Q0"":26}","[object Object]","survey-likert",121,676371,"0.0-121.0","5pl7ghb3y32uu2ppsrlj80vwck7lz3vz","Wed Feb 08 2017 12:36:47 GMT-0500 (US Eastern Standard Time)","female","White","liberal","",NA,"","offCivRatings","the officer asked the civilian how he was doing","the civilian said ""if you touch me, you're gonna get hurt"" to the officer","asked","hurtThreat","civilianOfficer","forceOff","26","","","",""
"123",4144,"{""Q0"":60}","[object Object]","survey-likert",122,680536,"0.0-122.0","5pl7ghb3y32uu2ppsrlj80vwck7lz3vz","Wed Feb 08 2017 12:36:47 GMT-0500 (US Eastern Standard Time)","female","White","liberal","",NA,"","offCivRatings","the officer asked the civilian how he was doing","the civilian said ""if you touch me, you're gonna get hurt"" to the officer","asked","hurtThreat","civilianOfficer","appropriateOff","60","","","",""
"124",833,"","","instructions",123,681370,"0.0-123.0","5pl7ghb3y32uu2ppsrlj80vwck7lz3vz","Wed Feb 08 2017 12:36:47 GMT-0500 (US Eastern Standard Time)","female","White","liberal","",NA,"[{""page_index"":0,""viewing_time"":832}]","break","","","","","","","","","","",""
"125",9984,"{""Q0"":69}","[object Object]","survey-likert",124,691581,"0.0-124.0","5pl7ghb3y32uu2ppsrlj80vwck7lz3vz","Wed Feb 08 2017 12:36:47 GMT-0500 (US Eastern Standard Time)","female","White","liberal","",NA,"","policeLegitimacy","","","","","","","69","doReasons","feltObligation","",""
"126",3851,"{""Q0"":41}","[object Object]","survey-likert",125,695453,"0.0-125.0","5pl7ghb3y32uu2ppsrlj80vwck7lz3vz","Wed Feb 08 2017 12:36:47 GMT-0500 (US Eastern Standard Time)","female","White","liberal","",NA,"","policeLegitimacy","","","","","","","41","importantValues","normAlignment","",""
"127",4703,"{""Q0"":56}","[object Object]","survey-likert",126,700174,"0.0-126.0","5pl7ghb3y32uu2ppsrlj80vwck7lz3vz","Wed Feb 08 2017 12:36:47 GMT-0500 (US Eastern Standard Time)","female","White","liberal","",NA,"","policeLegitimacy","","","","","","","56","support","feltObligation","",""
"128",6623,"{""Q0"":69}","[object Object]","survey-likert",127,706815,"0.0-127.0","5pl7ghb3y32uu2ppsrlj80vwck7lz3vz","Wed Feb 08 2017 12:36:47 GMT-0500 (US Eastern Standard Time)","female","White","liberal","",NA,"","policeLegitimacy","","","","","","","69","doTreat","feltObligation","",""
"129",4738,"{""Q0"":62}","[object Object]","survey-likert",128,711574,"0.0-128.0","5pl7ghb3y32uu2ppsrlj80vwck7lz3vz","Wed Feb 08 2017 12:36:47 GMT-0500 (US Eastern Standard Time)","female","White","liberal","",NA,"","policeLegitimacy","","","","","","","62","communityWants","normAlignment","",""
"130",4076,"{""Q0"":21}","[object Object]","survey-likert",129,715671,"0.0-129.0","5pl7ghb3y32uu2ppsrlj80vwck7lz3vz","Wed Feb 08 2017 12:36:47 GMT-0500 (US Eastern Standard Time)","female","White","liberal","",NA,"","policeLegitimacy","","","","","","","21","rightWrong","normAlignment","",""
"131",4078,"{""Q0"":""yes""}","[object Object]","survey-multi-choice2",130,719793,"0.0-130.0","5pl7ghb3y32uu2ppsrlj80vwck7lz3vz","Wed Feb 08 2017 12:36:47 GMT-0500 (US Eastern Standard Time)","female","White","liberal","",NA,"","policeExperience","","","","","","","yes","excessForce","","vicarious","Have the police ever used excessive force against anyone in your household?"
"132",2524,"{""Q0"":""no""}","[object Object]","survey-multi-choice2",131,722325,"0.0-131.0","5pl7ghb3y32uu2ppsrlj80vwck7lz3vz","Wed Feb 08 2017 12:36:47 GMT-0500 (US Eastern Standard Time)","female","White","liberal","",NA,"","policeExperience","","","","","","","no","stopped","","personal","Have you ever been stopped by the police on the street without good reason?"
"133",5714,"{""Q0"":""yes""}","[object Object]","survey-multi-choice2",132,728045,"0.0-132.0","5pl7ghb3y32uu2ppsrlj80vwck7lz3vz","Wed Feb 08 2017 12:36:47 GMT-0500 (US Eastern Standard Time)","female","White","liberal","",NA,"","policeExperience","","","","","","","yes","stopped","","vicarious","Has anyone in your household ever been stopped on the street by the police without good reason?"
"134",2824,"{""Q0"":""no""}","[object Object]","survey-multi-choice2",133,730878,"0.0-133.0","5pl7ghb3y32uu2ppsrlj80vwck7lz3vz","Wed Feb 08 2017 12:36:47 GMT-0500 (US Eastern Standard Time)","female","White","liberal","",NA,"","policeExperience","","","","","","","no","insultLang","","personal","Have the police ever used insulting language toward you?"
"135",3751,"{""Q0"":""no""}","[object Object]","survey-multi-choice2",134,734638,"0.0-134.0","5pl7ghb3y32uu2ppsrlj80vwck7lz3vz","Wed Feb 08 2017 12:36:47 GMT-0500 (US Eastern Standard Time)","female","White","liberal","",NA,"","policeExperience","","","","","","","no","corrupt","","personal","Have you ever seen a police officer engage in any corrupt activities (e.g., taking bribes or involvement in the drug trade)?"
"136",2000,"{""Q0"":""no""}","[object Object]","survey-multi-choice2",135,736645,"0.0-135.0","5pl7ghb3y32uu2ppsrlj80vwck7lz3vz","Wed Feb 08 2017 12:36:47 GMT-0500 (US Eastern Standard Time)","female","White","liberal","",NA,"","policeExperience","","","","","","","no","excessForce","","personal","Have the police ever used excessive force against you?"
"137",3017,"{""Q0"":""yes""}","[object Object]","survey-multi-choice2",136,739670,"0.0-136.0","5pl7ghb3y32uu2ppsrlj80vwck7lz3vz","Wed Feb 08 2017 12:36:47 GMT-0500 (US Eastern Standard Time)","female","White","liberal","",NA,"","policeExperience","","","","","","","yes","insultLang","","vicarious","Have the police ever used insulting language toward anyone in your household?"
"138",14073,"{""Q0"":""female"",""Q1"":""White"",""Q2"":""liberal""}","[object Object]","survey-multi-choice",137,753780,"0.0-137.0","5pl7ghb3y32uu2ppsrlj80vwck7lz3vz","Wed Feb 08 2017 12:36:47 GMT-0500 (US Eastern Standard Time)","female","White","liberal","",NA,"","demographics","","","","","","","","","","",""
"139",14607,"","","instructions",138,769399,"0.0-138.0","5pl7ghb3y32uu2ppsrlj80vwck7lz3vz","Wed Feb 08 2017 12:36:47 GMT-0500 (US Eastern Standard Time)","female","White","liberal","",NA,"[{""page_index"":0,""viewing_time"":1581},{""page_index"":1,""viewing_time"":9370},{""page_index"":2,""viewing_time"":2246},{""page_index"":3,""viewing_time"":1408}]","debriefing","","","","","","","","","","",""
