"","rt","responses","internalResp","trial_type","trial_index","time_elapsed","internal_node_id","randSubjectID","date","sex","race","polAff","stimulus","key_press","view_history","questionType","officerAction","civilianAction","offActName","civActName","order","questionName","response","name","dimension","person","question"
"1",10212,"","[object Object]","survey-text",0,10215,"0.0-0.0","772uxar3gcmhyecs9enhjr4o9nj9kz86","Tue Apr 04 2017 18:58:20 GMT-0400 (EDT)","female","White","slightly liberal","",NA,"","","","","","","","","","","","",""
"2",4239,"","","single-stim",1,15461,"0.0-1.0","772uxar3gcmhyecs9enhjr4o9nj9kz86","Tue Apr 04 2017 18:58:20 GMT-0400 (EDT)","female","White","slightly liberal","<img src='static/images/1602685960_ICS_Credit-0.png' alt='Consent 1' height=1100 width=850><img src='static/images/1602685960_ICS_Credit-1.png' alt='Consent 2' height=1100 width=850></p>",89,"","","","","","","","","","","","",""
"3",6417,"","","instructions",2,22880,"0.0-2.0","772uxar3gcmhyecs9enhjr4o9nj9kz86","Tue Apr 04 2017 18:58:20 GMT-0400 (EDT)","female","White","slightly liberal","",NA,"[{""page_index"":0,""viewing_time"":6417}]","instructions","","","","","","","","","","",""
"4",7016,"","","instructions",3,30900,"0.0-3.0","772uxar3gcmhyecs9enhjr4o9nj9kz86","Tue Apr 04 2017 18:58:20 GMT-0400 (EDT)","female","White","slightly liberal","",NA,"[{""page_index"":0,""viewing_time"":1032},{""page_index"":1,""viewing_time"":3847},{""page_index"":2,""viewing_time"":1311},{""page_index"":3,""viewing_time"":826}]","instructions","","","","","","","","","","",""
"5",13306,"{""Q0"":80}","[object Object]","survey-likert",4,45222,"0.0-4.0","772uxar3gcmhyecs9enhjr4o9nj9kz86","Tue Apr 04 2017 18:58:20 GMT-0400 (EDT)","female","White","slightly liberal","",NA,"","offCivRatings","the officer shot the civilian in the chest with a handgun","the civilian said ""if you touch me, you're gonna get hurt"" to the officer","handgunChest","hurtThreat","officerCivilian","forceCiv","80","","","",""
"6",5816,"{""Q0"":1}","[object Object]","survey-likert",5,51046,"0.0-5.0","772uxar3gcmhyecs9enhjr4o9nj9kz86","Tue Apr 04 2017 18:58:20 GMT-0400 (EDT)","female","White","slightly liberal","",NA,"","offCivRatings","the officer shot the civilian in the chest with a handgun","the civilian said ""if you touch me, you're gonna get hurt"" to the officer","handgunChest","hurtThreat","officerCivilian","manipCheckLow","1","","","",""
"7",4581,"{""Q0"":59}","[object Object]","survey-likert",6,55637,"0.0-6.0","772uxar3gcmhyecs9enhjr4o9nj9kz86","Tue Apr 04 2017 18:58:20 GMT-0400 (EDT)","female","White","slightly liberal","",NA,"","offCivRatings","the officer shot the civilian in the chest with a handgun","the civilian said ""if you touch me, you're gonna get hurt"" to the officer","handgunChest","hurtThreat","officerCivilian","punishCiv","59","","","",""
"8",7265,"{""Q0"":53}","[object Object]","survey-likert",7,62910,"0.0-7.0","772uxar3gcmhyecs9enhjr4o9nj9kz86","Tue Apr 04 2017 18:58:20 GMT-0400 (EDT)","female","White","slightly liberal","",NA,"","offCivRatings","the officer shot the civilian in the chest with a handgun","the civilian said ""if you touch me, you're gonna get hurt"" to the officer","handgunChest","hurtThreat","officerCivilian","appropriateCiv","53","","","",""
"9",3836,"{""Q0"":46}","[object Object]","survey-likert",8,66754,"0.0-8.0","772uxar3gcmhyecs9enhjr4o9nj9kz86","Tue Apr 04 2017 18:58:20 GMT-0400 (EDT)","female","White","slightly liberal","",NA,"","offCivRatings","the officer shot the civilian in the chest with a handgun","the civilian said ""if you touch me, you're gonna get hurt"" to the officer","handgunChest","hurtThreat","officerCivilian","acceptableCiv","46","","","",""
"10",1457,"","","instructions",9,68212,"0.0-9.0","772uxar3gcmhyecs9enhjr4o9nj9kz86","Tue Apr 04 2017 18:58:20 GMT-0400 (EDT)","female","White","slightly liberal","",NA,"[{""page_index"":0,""viewing_time"":1457}]","break","","","","","","","","","","",""
"11",3041,"{""Q0"":55}","[object Object]","survey-likert",10,71465,"0.0-10.0","772uxar3gcmhyecs9enhjr4o9nj9kz86","Tue Apr 04 2017 18:58:20 GMT-0400 (EDT)","female","White","slightly liberal","",NA,"","offCivRatings","the officer shocked the civilian with a tazer","the civilian struck the officer on the leg with a metal pipe","tazer","metalPipe","officerCivilian","appropriateCiv","55","","","",""
"12",2133,"{""Q0"":47}","[object Object]","survey-likert",11,73606,"0.0-11.0","772uxar3gcmhyecs9enhjr4o9nj9kz86","Tue Apr 04 2017 18:58:20 GMT-0400 (EDT)","female","White","slightly liberal","",NA,"","offCivRatings","the officer shocked the civilian with a tazer","the civilian struck the officer on the leg with a metal pipe","tazer","metalPipe","officerCivilian","forceCiv","47","","","",""
"13",1660,"{""Q0"":56}","[object Object]","survey-likert",12,75274,"0.0-12.0","772uxar3gcmhyecs9enhjr4o9nj9kz86","Tue Apr 04 2017 18:58:20 GMT-0400 (EDT)","female","White","slightly liberal","",NA,"","offCivRatings","the officer shocked the civilian with a tazer","the civilian struck the officer on the leg with a metal pipe","tazer","metalPipe","officerCivilian","acceptableCiv","56","","","",""
"14",1961,"{""Q0"":67}","[object Object]","survey-likert",13,77243,"0.0-13.0","772uxar3gcmhyecs9enhjr4o9nj9kz86","Tue Apr 04 2017 18:58:20 GMT-0400 (EDT)","female","White","slightly liberal","",NA,"","offCivRatings","the officer shocked the civilian with a tazer","the civilian struck the officer on the leg with a metal pipe","tazer","metalPipe","officerCivilian","punishCiv","67","","","",""
"15",808,"","","instructions",14,78051,"0.0-14.0","772uxar3gcmhyecs9enhjr4o9nj9kz86","Tue Apr 04 2017 18:58:20 GMT-0400 (EDT)","female","White","slightly liberal","",NA,"[{""page_index"":0,""viewing_time"":807}]","break","","","","","","","","","","",""
"16",1646,"{""Q0"":45}","[object Object]","survey-likert",15,79909,"0.0-15.0","772uxar3gcmhyecs9enhjr4o9nj9kz86","Tue Apr 04 2017 18:58:20 GMT-0400 (EDT)","female","White","slightly liberal","",NA,"","offCivRatings","the officer kicked the civilian in the stomach","the civilian yelled ""get back!"" at the officer","kickStom","getBack","civilianOfficer","punishOff","45","","","",""
"17",1748,"{""Q0"":42}","[object Object]","survey-likert",16,81664,"0.0-16.0","772uxar3gcmhyecs9enhjr4o9nj9kz86","Tue Apr 04 2017 18:58:20 GMT-0400 (EDT)","female","White","slightly liberal","",NA,"","offCivRatings","the officer kicked the civilian in the stomach","the civilian yelled ""get back!"" at the officer","kickStom","getBack","civilianOfficer","appropriateOff","42","","","",""
"18",1784,"{""Q0"":45}","[object Object]","survey-likert",17,83456,"0.0-17.0","772uxar3gcmhyecs9enhjr4o9nj9kz86","Tue Apr 04 2017 18:58:20 GMT-0400 (EDT)","female","White","slightly liberal","",NA,"","offCivRatings","the officer kicked the civilian in the stomach","the civilian yelled ""get back!"" at the officer","kickStom","getBack","civilianOfficer","forceOff","45","","","",""
"19",1804,"{""Q0"":53}","[object Object]","survey-likert",18,85268,"0.0-18.0","772uxar3gcmhyecs9enhjr4o9nj9kz86","Tue Apr 04 2017 18:58:20 GMT-0400 (EDT)","female","White","slightly liberal","",NA,"","offCivRatings","the officer kicked the civilian in the stomach","the civilian yelled ""get back!"" at the officer","kickStom","getBack","civilianOfficer","acceptableOff","53","","","",""
"20",832,"","","instructions",19,86101,"0.0-19.0","772uxar3gcmhyecs9enhjr4o9nj9kz86","Tue Apr 04 2017 18:58:20 GMT-0400 (EDT)","female","White","slightly liberal","",NA,"[{""page_index"":0,""viewing_time"":832}]","break","","","","","","","","","","",""
"21",1762,"{""Q0"":43}","[object Object]","survey-likert",20,88076,"0.0-20.0","772uxar3gcmhyecs9enhjr4o9nj9kz86","Tue Apr 04 2017 18:58:20 GMT-0400 (EDT)","female","White","slightly liberal","",NA,"","offCivRatings","the officer shouted ""get your fucking hands up!"" at the civilian","the civilian shocked the officer with a tazer","handsUp","tazer","officerCivilian","manipCheckLow","43","","","",""
"22",2496,"{""Q0"":40}","[object Object]","survey-likert",21,90580,"0.0-21.0","772uxar3gcmhyecs9enhjr4o9nj9kz86","Tue Apr 04 2017 18:58:20 GMT-0400 (EDT)","female","White","slightly liberal","",NA,"","offCivRatings","the officer shouted ""get your fucking hands up!"" at the civilian","the civilian shocked the officer with a tazer","handsUp","tazer","officerCivilian","punishCiv","40","","","",""
"23",2065,"{""Q0"":56}","[object Object]","survey-likert",22,92653,"0.0-22.0","772uxar3gcmhyecs9enhjr4o9nj9kz86","Tue Apr 04 2017 18:58:20 GMT-0400 (EDT)","female","White","slightly liberal","",NA,"","offCivRatings","the officer shouted ""get your fucking hands up!"" at the civilian","the civilian shocked the officer with a tazer","handsUp","tazer","officerCivilian","forceCiv","56","","","",""
"24",2117,"{""Q0"":58}","[object Object]","survey-likert",23,94778,"0.0-23.0","772uxar3gcmhyecs9enhjr4o9nj9kz86","Tue Apr 04 2017 18:58:20 GMT-0400 (EDT)","female","White","slightly liberal","",NA,"","offCivRatings","the officer shouted ""get your fucking hands up!"" at the civilian","the civilian shocked the officer with a tazer","handsUp","tazer","officerCivilian","acceptableCiv","58","","","",""
"25",1977,"{""Q0"":57}","[object Object]","survey-likert",24,96763,"0.0-24.0","772uxar3gcmhyecs9enhjr4o9nj9kz86","Tue Apr 04 2017 18:58:20 GMT-0400 (EDT)","female","White","slightly liberal","",NA,"","offCivRatings","the officer shouted ""get your fucking hands up!"" at the civilian","the civilian shocked the officer with a tazer","handsUp","tazer","officerCivilian","appropriateCiv","57","","","",""
"26",832,"","","instructions",25,97595,"0.0-25.0","772uxar3gcmhyecs9enhjr4o9nj9kz86","Tue Apr 04 2017 18:58:20 GMT-0400 (EDT)","female","White","slightly liberal","",NA,"[{""page_index"":0,""viewing_time"":831}]","break","","","","","","","","","","",""
"27",1530,"{""Q0"":42}","[object Object]","survey-likert",26,99336,"0.0-26.0","772uxar3gcmhyecs9enhjr4o9nj9kz86","Tue Apr 04 2017 18:58:20 GMT-0400 (EDT)","female","White","slightly liberal","",NA,"","offCivRatings","the officer put handcuffs on the civilian","the civilian twisted the arm of the officer, forcing him to the ground","handcuff","armbar","civilianOfficer","appropriateOff","42","","","",""
"28",2588,"{""Q0"":40}","[object Object]","survey-likert",27,101930,"0.0-27.0","772uxar3gcmhyecs9enhjr4o9nj9kz86","Tue Apr 04 2017 18:58:20 GMT-0400 (EDT)","female","White","slightly liberal","",NA,"","offCivRatings","the officer put handcuffs on the civilian","the civilian twisted the arm of the officer, forcing him to the ground","handcuff","armbar","civilianOfficer","forceOff","40","","","",""
"29",3401,"{""Q0"":56}","[object Object]","survey-likert",28,105338,"0.0-28.0","772uxar3gcmhyecs9enhjr4o9nj9kz86","Tue Apr 04 2017 18:58:20 GMT-0400 (EDT)","female","White","slightly liberal","",NA,"","offCivRatings","the officer put handcuffs on the civilian","the civilian twisted the arm of the officer, forcing him to the ground","handcuff","armbar","civilianOfficer","punishOff","56","","","",""
"30",1719,"{""Q0"":60}","[object Object]","survey-likert",29,107066,"0.0-29.0","772uxar3gcmhyecs9enhjr4o9nj9kz86","Tue Apr 04 2017 18:58:20 GMT-0400 (EDT)","female","White","slightly liberal","",NA,"","offCivRatings","the officer put handcuffs on the civilian","the civilian twisted the arm of the officer, forcing him to the ground","handcuff","armbar","civilianOfficer","acceptableOff","60","","","",""
"31",712,"","","instructions",30,107778,"0.0-30.0","772uxar3gcmhyecs9enhjr4o9nj9kz86","Tue Apr 04 2017 18:58:20 GMT-0400 (EDT)","female","White","slightly liberal","",NA,"[{""page_index"":0,""viewing_time"":712}]","break","","","","","","","","","","",""
"32",1553,"{""Q0"":56}","[object Object]","survey-likert",31,109543,"0.0-31.0","772uxar3gcmhyecs9enhjr4o9nj9kz86","Tue Apr 04 2017 18:58:20 GMT-0400 (EDT)","female","White","slightly liberal","",NA,"","offCivRatings","the officer waved at the civilian in greeting","the civilian slammed the officer's head into the concrete curb","waved","headSlam","civilianOfficer","manipCheckLow","56","","","",""
"33",1585,"{""Q0"":57}","[object Object]","survey-likert",32,111135,"0.0-32.0","772uxar3gcmhyecs9enhjr4o9nj9kz86","Tue Apr 04 2017 18:58:20 GMT-0400 (EDT)","female","White","slightly liberal","",NA,"","offCivRatings","the officer waved at the civilian in greeting","the civilian slammed the officer's head into the concrete curb","waved","headSlam","civilianOfficer","acceptableOff","57","","","",""
"34",2158,"{""Q0"":53}","[object Object]","survey-likert",33,113299,"0.0-33.0","772uxar3gcmhyecs9enhjr4o9nj9kz86","Tue Apr 04 2017 18:58:20 GMT-0400 (EDT)","female","White","slightly liberal","",NA,"","offCivRatings","the officer waved at the civilian in greeting","the civilian slammed the officer's head into the concrete curb","waved","headSlam","civilianOfficer","punishOff","53","","","",""
"35",13696,"{""Q0"":53}","[object Object]","survey-likert",34,127003,"0.0-34.0","772uxar3gcmhyecs9enhjr4o9nj9kz86","Tue Apr 04 2017 18:58:20 GMT-0400 (EDT)","female","White","slightly liberal","",NA,"","offCivRatings","the officer waved at the civilian in greeting","the civilian slammed the officer's head into the concrete curb","waved","headSlam","civilianOfficer","forceOff","53","","","",""
"36",1548,"{""Q0"":42}","[object Object]","survey-likert",35,128558,"0.0-35.0","772uxar3gcmhyecs9enhjr4o9nj9kz86","Tue Apr 04 2017 18:58:20 GMT-0400 (EDT)","female","White","slightly liberal","",NA,"","offCivRatings","the officer waved at the civilian in greeting","the civilian slammed the officer's head into the concrete curb","waved","headSlam","civilianOfficer","appropriateOff","42","","","",""
"37",626,"","","instructions",36,129184,"0.0-36.0","772uxar3gcmhyecs9enhjr4o9nj9kz86","Tue Apr 04 2017 18:58:20 GMT-0400 (EDT)","female","White","slightly liberal","",NA,"[{""page_index"":0,""viewing_time"":626}]","break","","","","","","","","","","",""
"38",1577,"{""Q0"":44}","[object Object]","survey-likert",37,130971,"0.0-37.0","772uxar3gcmhyecs9enhjr4o9nj9kz86","Tue Apr 04 2017 18:58:20 GMT-0400 (EDT)","female","White","slightly liberal","",NA,"","offCivRatings","the officer shot the civilian in the chest with a beanbag shotgun round","the civilian shot the officer in the chest with a handgun","beanbag","handgunChest","officerCivilian","appropriateCiv","44","","","",""
"39",2026,"{""Q0"":58}","[object Object]","survey-likert",38,133003,"0.0-38.0","772uxar3gcmhyecs9enhjr4o9nj9kz86","Tue Apr 04 2017 18:58:20 GMT-0400 (EDT)","female","White","slightly liberal","",NA,"","offCivRatings","the officer shot the civilian in the chest with a beanbag shotgun round","the civilian shot the officer in the chest with a handgun","beanbag","handgunChest","officerCivilian","punishCiv","58","","","",""
"40",3285,"{""Q0"":43}","[object Object]","survey-likert",39,136294,"0.0-39.0","772uxar3gcmhyecs9enhjr4o9nj9kz86","Tue Apr 04 2017 18:58:20 GMT-0400 (EDT)","female","White","slightly liberal","",NA,"","offCivRatings","the officer shot the civilian in the chest with a beanbag shotgun round","the civilian shot the officer in the chest with a handgun","beanbag","handgunChest","officerCivilian","forceCiv","43","","","",""
"41",2070,"{""Q0"":46}","[object Object]","survey-likert",40,138371,"0.0-40.0","772uxar3gcmhyecs9enhjr4o9nj9kz86","Tue Apr 04 2017 18:58:20 GMT-0400 (EDT)","female","White","slightly liberal","",NA,"","offCivRatings","the officer shot the civilian in the chest with a beanbag shotgun round","the civilian shot the officer in the chest with a handgun","beanbag","handgunChest","officerCivilian","acceptableCiv","46","","","",""
"42",671,"","","instructions",41,139043,"0.0-41.0","772uxar3gcmhyecs9enhjr4o9nj9kz86","Tue Apr 04 2017 18:58:20 GMT-0400 (EDT)","female","White","slightly liberal","",NA,"[{""page_index"":0,""viewing_time"":671}]","break","","","","","","","","","","",""
"43",2199,"{""Q0"":56}","[object Object]","survey-likert",42,141453,"0.0-42.0","772uxar3gcmhyecs9enhjr4o9nj9kz86","Tue Apr 04 2017 18:58:20 GMT-0400 (EDT)","female","White","slightly liberal","",NA,"","offCivRatings","the officer headbutted the civilian in the face","the civilian applied a chokehold to the officer","headbutt","choke","civilianOfficer","manipCheckHigh","56","","","",""
"44",1856,"{""Q0"":47}","[object Object]","survey-likert",43,143317,"0.0-43.0","772uxar3gcmhyecs9enhjr4o9nj9kz86","Tue Apr 04 2017 18:58:20 GMT-0400 (EDT)","female","White","slightly liberal","",NA,"","offCivRatings","the officer headbutted the civilian in the face","the civilian applied a chokehold to the officer","headbutt","choke","civilianOfficer","appropriateOff","47","","","",""
"45",1634,"{""Q0"":45}","[object Object]","survey-likert",44,144960,"0.0-44.0","772uxar3gcmhyecs9enhjr4o9nj9kz86","Tue Apr 04 2017 18:58:20 GMT-0400 (EDT)","female","White","slightly liberal","",NA,"","offCivRatings","the officer headbutted the civilian in the face","the civilian applied a chokehold to the officer","headbutt","choke","civilianOfficer","punishOff","45","","","",""
"46",1604,"{""Q0"":56}","[object Object]","survey-likert",45,146570,"0.0-45.0","772uxar3gcmhyecs9enhjr4o9nj9kz86","Tue Apr 04 2017 18:58:20 GMT-0400 (EDT)","female","White","slightly liberal","",NA,"","offCivRatings","the officer headbutted the civilian in the face","the civilian applied a chokehold to the officer","headbutt","choke","civilianOfficer","forceOff","56","","","",""
"47",1689,"{""Q0"":55}","[object Object]","survey-likert",46,148266,"0.0-46.0","772uxar3gcmhyecs9enhjr4o9nj9kz86","Tue Apr 04 2017 18:58:20 GMT-0400 (EDT)","female","White","slightly liberal","",NA,"","offCivRatings","the officer headbutted the civilian in the face","the civilian applied a chokehold to the officer","headbutt","choke","civilianOfficer","acceptableOff","55","","","",""
"48",680,"","","instructions",47,148946,"0.0-47.0","772uxar3gcmhyecs9enhjr4o9nj9kz86","Tue Apr 04 2017 18:58:20 GMT-0400 (EDT)","female","White","slightly liberal","",NA,"[{""page_index"":0,""viewing_time"":680}]","break","","","","","","","","","","",""
"49",1691,"{""Q0"":39}","[object Object]","survey-likert",48,150847,"0.0-48.0","772uxar3gcmhyecs9enhjr4o9nj9kz86","Tue Apr 04 2017 18:58:20 GMT-0400 (EDT)","female","White","slightly liberal","",NA,"","offCivRatings","the officer struck the civilian in the stomach with a metal flashlight","the civilian hit the officer in the chest with a baseball bat","flashlight","ballBat","civilianOfficer","appropriateOff","39","","","",""
"50",1784,"{""Q0"":41}","[object Object]","survey-likert",49,152639,"0.0-49.0","772uxar3gcmhyecs9enhjr4o9nj9kz86","Tue Apr 04 2017 18:58:20 GMT-0400 (EDT)","female","White","slightly liberal","",NA,"","offCivRatings","the officer struck the civilian in the stomach with a metal flashlight","the civilian hit the officer in the chest with a baseball bat","flashlight","ballBat","civilianOfficer","punishOff","41","","","",""
"51",1644,"{""Q0"":59}","[object Object]","survey-likert",50,154289,"0.0-50.0","772uxar3gcmhyecs9enhjr4o9nj9kz86","Tue Apr 04 2017 18:58:20 GMT-0400 (EDT)","female","White","slightly liberal","",NA,"","offCivRatings","the officer struck the civilian in the stomach with a metal flashlight","the civilian hit the officer in the chest with a baseball bat","flashlight","ballBat","civilianOfficer","acceptableOff","59","","","",""
"52",2009,"{""Q0"":59}","[object Object]","survey-likert",51,156305,"0.0-51.0","772uxar3gcmhyecs9enhjr4o9nj9kz86","Tue Apr 04 2017 18:58:20 GMT-0400 (EDT)","female","White","slightly liberal","",NA,"","offCivRatings","the officer struck the civilian in the stomach with a metal flashlight","the civilian hit the officer in the chest with a baseball bat","flashlight","ballBat","civilianOfficer","forceOff","59","","","",""
"53",1241,"","","instructions",52,157546,"0.0-52.0","772uxar3gcmhyecs9enhjr4o9nj9kz86","Tue Apr 04 2017 18:58:20 GMT-0400 (EDT)","female","White","slightly liberal","",NA,"[{""page_index"":0,""viewing_time"":1241}]","break","","","","","","","","","","",""
"54",2993,"{""Q0"":39}","[object Object]","survey-likert",53,160750,"0.0-53.0","772uxar3gcmhyecs9enhjr4o9nj9kz86","Tue Apr 04 2017 18:58:20 GMT-0400 (EDT)","female","White","slightly liberal","",NA,"","offCivRatings","the officer sprayed the civilian with pepper spray","the civilian kicked the officer in the stomach","pepperSpray","kickStom","civilianOfficer","acceptableOff","39","","","",""
"55",2037,"{""Q0"":58}","[object Object]","survey-likert",54,162794,"0.0-54.0","772uxar3gcmhyecs9enhjr4o9nj9kz86","Tue Apr 04 2017 18:58:20 GMT-0400 (EDT)","female","White","slightly liberal","",NA,"","offCivRatings","the officer sprayed the civilian with pepper spray","the civilian kicked the officer in the stomach","pepperSpray","kickStom","civilianOfficer","forceOff","58","","","",""
"56",1628,"{""Q0"":39}","[object Object]","survey-likert",55,164429,"0.0-55.0","772uxar3gcmhyecs9enhjr4o9nj9kz86","Tue Apr 04 2017 18:58:20 GMT-0400 (EDT)","female","White","slightly liberal","",NA,"","offCivRatings","the officer sprayed the civilian with pepper spray","the civilian kicked the officer in the stomach","pepperSpray","kickStom","civilianOfficer","appropriateOff","39","","","",""
"57",1633,"{""Q0"":60}","[object Object]","survey-likert",56,166068,"0.0-56.0","772uxar3gcmhyecs9enhjr4o9nj9kz86","Tue Apr 04 2017 18:58:20 GMT-0400 (EDT)","female","White","slightly liberal","",NA,"","offCivRatings","the officer sprayed the civilian with pepper spray","the civilian kicked the officer in the stomach","pepperSpray","kickStom","civilianOfficer","manipCheckHigh","60","","","",""
"58",1725,"{""Q0"":59}","[object Object]","survey-likert",57,167800,"0.0-57.0","772uxar3gcmhyecs9enhjr4o9nj9kz86","Tue Apr 04 2017 18:58:20 GMT-0400 (EDT)","female","White","slightly liberal","",NA,"","offCivRatings","the officer sprayed the civilian with pepper spray","the civilian kicked the officer in the stomach","pepperSpray","kickStom","civilianOfficer","punishOff","59","","","",""
"59",1028,"","","instructions",58,168828,"0.0-58.0","772uxar3gcmhyecs9enhjr4o9nj9kz86","Tue Apr 04 2017 18:58:20 GMT-0400 (EDT)","female","White","slightly liberal","",NA,"[{""page_index"":0,""viewing_time"":1028}]","break","","","","","","","","","","",""
"60",1690,"{""Q0"":40}","[object Object]","survey-likert",59,170731,"0.0-59.0","772uxar3gcmhyecs9enhjr4o9nj9kz86","Tue Apr 04 2017 18:58:20 GMT-0400 (EDT)","female","White","slightly liberal","",NA,"","offCivRatings","the officer yelled ""get back!"" at the civilian","the civilian stood near the officer","getBack","stoodNear","civilianOfficer","acceptableOff","40","","","",""
"61",2609,"{""Q0"":61}","[object Object]","survey-likert",60,173346,"0.0-60.0","772uxar3gcmhyecs9enhjr4o9nj9kz86","Tue Apr 04 2017 18:58:20 GMT-0400 (EDT)","female","White","slightly liberal","",NA,"","offCivRatings","the officer yelled ""get back!"" at the civilian","the civilian stood near the officer","getBack","stoodNear","civilianOfficer","punishOff","61","","","",""
"62",5857,"{""Q0"":59}","[object Object]","survey-likert",61,179210,"0.0-61.0","772uxar3gcmhyecs9enhjr4o9nj9kz86","Tue Apr 04 2017 18:58:20 GMT-0400 (EDT)","female","White","slightly liberal","",NA,"","offCivRatings","the officer yelled ""get back!"" at the civilian","the civilian stood near the officer","getBack","stoodNear","civilianOfficer","forceOff","59","","","",""
"63",1565,"{""Q0"":43}","[object Object]","survey-likert",62,180781,"0.0-62.0","772uxar3gcmhyecs9enhjr4o9nj9kz86","Tue Apr 04 2017 18:58:20 GMT-0400 (EDT)","female","White","slightly liberal","",NA,"","offCivRatings","the officer yelled ""get back!"" at the civilian","the civilian stood near the officer","getBack","stoodNear","civilianOfficer","manipCheckHigh","43","","","",""
"64",1801,"{""Q0"":39}","[object Object]","survey-likert",63,182589,"0.0-63.0","772uxar3gcmhyecs9enhjr4o9nj9kz86","Tue Apr 04 2017 18:58:20 GMT-0400 (EDT)","female","White","slightly liberal","",NA,"","offCivRatings","the officer yelled ""get back!"" at the civilian","the civilian stood near the officer","getBack","stoodNear","civilianOfficer","appropriateOff","39","","","",""
"65",1321,"","","instructions",64,183910,"0.0-64.0","772uxar3gcmhyecs9enhjr4o9nj9kz86","Tue Apr 04 2017 18:58:20 GMT-0400 (EDT)","female","White","slightly liberal","",NA,"[{""page_index"":0,""viewing_time"":1320}]","break","","","","","","","","","","",""
"66",1602,"{""Q0"":59}","[object Object]","survey-likert",65,185723,"0.0-65.0","772uxar3gcmhyecs9enhjr4o9nj9kz86","Tue Apr 04 2017 18:58:20 GMT-0400 (EDT)","female","White","slightly liberal","",NA,"","offCivRatings","the officer punched the civilian in the face","the civilian struck the officer in the stomach with a metal flashlight","punchFace","flashlight","officerCivilian","forceCiv","59","","","",""
"67",1864,"{""Q0"":41}","[object Object]","survey-likert",66,187594,"0.0-66.0","772uxar3gcmhyecs9enhjr4o9nj9kz86","Tue Apr 04 2017 18:58:20 GMT-0400 (EDT)","female","White","slightly liberal","",NA,"","offCivRatings","the officer punched the civilian in the face","the civilian struck the officer in the stomach with a metal flashlight","punchFace","flashlight","officerCivilian","acceptableCiv","41","","","",""
"68",2069,"{""Q0"":38}","[object Object]","survey-likert",67,189671,"0.0-67.0","772uxar3gcmhyecs9enhjr4o9nj9kz86","Tue Apr 04 2017 18:58:20 GMT-0400 (EDT)","female","White","slightly liberal","",NA,"","offCivRatings","the officer punched the civilian in the face","the civilian struck the officer in the stomach with a metal flashlight","punchFace","flashlight","officerCivilian","punishCiv","38","","","",""
"69",2138,"{""Q0"":62}","[object Object]","survey-likert",68,191815,"0.0-68.0","772uxar3gcmhyecs9enhjr4o9nj9kz86","Tue Apr 04 2017 18:58:20 GMT-0400 (EDT)","female","White","slightly liberal","",NA,"","offCivRatings","the officer punched the civilian in the face","the civilian struck the officer in the stomach with a metal flashlight","punchFace","flashlight","officerCivilian","appropriateCiv","62","","","",""
"70",1009,"","","instructions",69,192824,"0.0-69.0","772uxar3gcmhyecs9enhjr4o9nj9kz86","Tue Apr 04 2017 18:58:20 GMT-0400 (EDT)","female","White","slightly liberal","",NA,"[{""page_index"":0,""viewing_time"":1009}]","break","","","","","","","","","","",""
"71",9692,"{""Q0"":59}","[object Object]","survey-likert",70,202727,"0.0-70.0","772uxar3gcmhyecs9enhjr4o9nj9kz86","Tue Apr 04 2017 18:58:20 GMT-0400 (EDT)","female","White","slightly liberal","",NA,"","offCivRatings","the officer purposefully struck the civilian with a motor vehicle","the civilian asked the officer how he was doing","vehicle","asked","officerCivilian","appropriateCiv","59","","","",""
"72",1677,"{""Q0"":43}","[object Object]","survey-likert",71,204411,"0.0-71.0","772uxar3gcmhyecs9enhjr4o9nj9kz86","Tue Apr 04 2017 18:58:20 GMT-0400 (EDT)","female","White","slightly liberal","",NA,"","offCivRatings","the officer purposefully struck the civilian with a motor vehicle","the civilian asked the officer how he was doing","vehicle","asked","officerCivilian","acceptableCiv","43","","","",""
"73",2073,"{""Q0"":60}","[object Object]","survey-likert",72,206491,"0.0-72.0","772uxar3gcmhyecs9enhjr4o9nj9kz86","Tue Apr 04 2017 18:58:20 GMT-0400 (EDT)","female","White","slightly liberal","",NA,"","offCivRatings","the officer purposefully struck the civilian with a motor vehicle","the civilian asked the officer how he was doing","vehicle","asked","officerCivilian","manipCheckHigh","60","","","",""
"74",2463,"{""Q0"":56}","[object Object]","survey-likert",73,208960,"0.0-73.0","772uxar3gcmhyecs9enhjr4o9nj9kz86","Tue Apr 04 2017 18:58:20 GMT-0400 (EDT)","female","White","slightly liberal","",NA,"","offCivRatings","the officer purposefully struck the civilian with a motor vehicle","the civilian asked the officer how he was doing","vehicle","asked","officerCivilian","forceCiv","56","","","",""
"75",1556,"{""Q0"":41}","[object Object]","survey-likert",74,210523,"0.0-74.0","772uxar3gcmhyecs9enhjr4o9nj9kz86","Tue Apr 04 2017 18:58:20 GMT-0400 (EDT)","female","White","slightly liberal","",NA,"","offCivRatings","the officer purposefully struck the civilian with a motor vehicle","the civilian asked the officer how he was doing","vehicle","asked","officerCivilian","punishCiv","41","","","",""
"76",684,"","","instructions",75,211207,"0.0-75.0","772uxar3gcmhyecs9enhjr4o9nj9kz86","Tue Apr 04 2017 18:58:20 GMT-0400 (EDT)","female","White","slightly liberal","",NA,"[{""page_index"":0,""viewing_time"":684}]","break","","","","","","","","","","",""
"77",1836,"{""Q0"":38}","[object Object]","survey-likert",76,213253,"0.0-76.0","772uxar3gcmhyecs9enhjr4o9nj9kz86","Tue Apr 04 2017 18:58:20 GMT-0400 (EDT)","female","White","slightly liberal","",NA,"","offCivRatings","the officer struck the civilian on the leg with a collapsible baton","the civilian shot the officer in the head with a handgun","batonLeg","handgunHead","civilianOfficer","acceptableOff","38","","","",""
"78",2178,"{""Q0"":58}","[object Object]","survey-likert",77,215437,"0.0-77.0","772uxar3gcmhyecs9enhjr4o9nj9kz86","Tue Apr 04 2017 18:58:20 GMT-0400 (EDT)","female","White","slightly liberal","",NA,"","offCivRatings","the officer struck the civilian on the leg with a collapsible baton","the civilian shot the officer in the head with a handgun","batonLeg","handgunHead","civilianOfficer","forceOff","58","","","",""
"79",1870,"{""Q0"":44}","[object Object]","survey-likert",78,217314,"0.0-78.0","772uxar3gcmhyecs9enhjr4o9nj9kz86","Tue Apr 04 2017 18:58:20 GMT-0400 (EDT)","female","White","slightly liberal","",NA,"","offCivRatings","the officer struck the civilian on the leg with a collapsible baton","the civilian shot the officer in the head with a handgun","batonLeg","handgunHead","civilianOfficer","punishOff","44","","","",""
"80",4071,"{""Q0"":57}","[object Object]","survey-likert",79,221391,"0.0-79.0","772uxar3gcmhyecs9enhjr4o9nj9kz86","Tue Apr 04 2017 18:58:20 GMT-0400 (EDT)","female","White","slightly liberal","",NA,"","offCivRatings","the officer struck the civilian on the leg with a collapsible baton","the civilian shot the officer in the head with a handgun","batonLeg","handgunHead","civilianOfficer","appropriateOff","57","","","",""
"81",1353,"","","instructions",80,222744,"0.0-80.0","772uxar3gcmhyecs9enhjr4o9nj9kz86","Tue Apr 04 2017 18:58:20 GMT-0400 (EDT)","female","White","slightly liberal","",NA,"[{""page_index"":0,""viewing_time"":1353}]","break","","","","","","","","","","",""
"82",7316,"{""Q0"":66}","[object Object]","survey-likert",81,230271,"0.0-81.0","772uxar3gcmhyecs9enhjr4o9nj9kz86","Tue Apr 04 2017 18:58:20 GMT-0400 (EDT)","female","White","slightly liberal","",NA,"","offCivRatings","the officer asked the civilian how he was doing","the civilian sprayed the officer with pepper spray","asked","pepperSpray","officerCivilian","forceCiv","66","","","",""
"83",2675,"{""Q0"":66}","[object Object]","survey-likert",82,232952,"0.0-82.0","772uxar3gcmhyecs9enhjr4o9nj9kz86","Tue Apr 04 2017 18:58:20 GMT-0400 (EDT)","female","White","slightly liberal","",NA,"","offCivRatings","the officer asked the civilian how he was doing","the civilian sprayed the officer with pepper spray","asked","pepperSpray","officerCivilian","punishCiv","66","","","",""
"84",5265,"{""Q0"":42}","[object Object]","survey-likert",83,238223,"0.0-83.0","772uxar3gcmhyecs9enhjr4o9nj9kz86","Tue Apr 04 2017 18:58:20 GMT-0400 (EDT)","female","White","slightly liberal","",NA,"","offCivRatings","the officer asked the civilian how he was doing","the civilian sprayed the officer with pepper spray","asked","pepperSpray","officerCivilian","acceptableCiv","42","","","",""
"85",2924,"{""Q0"":29}","[object Object]","survey-likert",84,241153,"0.0-84.0","772uxar3gcmhyecs9enhjr4o9nj9kz86","Tue Apr 04 2017 18:58:20 GMT-0400 (EDT)","female","White","slightly liberal","",NA,"","offCivRatings","the officer asked the civilian how he was doing","the civilian sprayed the officer with pepper spray","asked","pepperSpray","officerCivilian","appropriateCiv","29","","","",""
"86",1113,"","","instructions",85,242266,"0.0-85.0","772uxar3gcmhyecs9enhjr4o9nj9kz86","Tue Apr 04 2017 18:58:20 GMT-0400 (EDT)","female","White","slightly liberal","",NA,"[{""page_index"":0,""viewing_time"":1113}]","break","","","","","","","","","","",""
"87",8107,"{""Q0"":97}","[object Object]","survey-likert",86,250583,"0.0-86.0","772uxar3gcmhyecs9enhjr4o9nj9kz86","Tue Apr 04 2017 18:58:20 GMT-0400 (EDT)","female","White","slightly liberal","",NA,"","offCivRatings","the officer applied a chokehold to the civilian","the civilian waved at the officer in greeting","choke","waved","civilianOfficer","punishOff","97","","","",""
"88",6581,"{""Q0"":73}","[object Object]","survey-likert",87,257171,"0.0-87.0","772uxar3gcmhyecs9enhjr4o9nj9kz86","Tue Apr 04 2017 18:58:20 GMT-0400 (EDT)","female","White","slightly liberal","",NA,"","offCivRatings","the officer applied a chokehold to the civilian","the civilian waved at the officer in greeting","choke","waved","civilianOfficer","appropriateOff","73","","","",""
"89",4158,"{""Q0"":19}","[object Object]","survey-likert",88,261337,"0.0-88.0","772uxar3gcmhyecs9enhjr4o9nj9kz86","Tue Apr 04 2017 18:58:20 GMT-0400 (EDT)","female","White","slightly liberal","",NA,"","offCivRatings","the officer applied a chokehold to the civilian","the civilian waved at the officer in greeting","choke","waved","civilianOfficer","acceptableOff","19","","","",""
"90",2737,"{""Q0"":72}","[object Object]","survey-likert",89,264079,"0.0-89.0","772uxar3gcmhyecs9enhjr4o9nj9kz86","Tue Apr 04 2017 18:58:20 GMT-0400 (EDT)","female","White","slightly liberal","",NA,"","offCivRatings","the officer applied a chokehold to the civilian","the civilian waved at the officer in greeting","choke","waved","civilianOfficer","forceOff","72","","","",""
"91",1085,"","","instructions",90,265165,"0.0-90.0","772uxar3gcmhyecs9enhjr4o9nj9kz86","Tue Apr 04 2017 18:58:20 GMT-0400 (EDT)","female","White","slightly liberal","",NA,"[{""page_index"":0,""viewing_time"":1085}]","break","","","","","","","","","","",""
"92",6443,"{""Q0"":100}","[object Object]","survey-likert",91,271818,"0.0-91.0","772uxar3gcmhyecs9enhjr4o9nj9kz86","Tue Apr 04 2017 18:58:20 GMT-0400 (EDT)","female","White","slightly liberal","",NA,"","offCivRatings","the officer said ""if you touch me, you're gonna get hurt"" to the civilian","the civilian headbutted the officer in the face","hurtThreat","headbutt","officerCivilian","manipCheckHigh","100","","","",""
"93",9258,"{""Q0"":59}","[object Object]","survey-likert",92,281083,"0.0-92.0","772uxar3gcmhyecs9enhjr4o9nj9kz86","Tue Apr 04 2017 18:58:20 GMT-0400 (EDT)","female","White","slightly liberal","",NA,"","offCivRatings","the officer said ""if you touch me, you're gonna get hurt"" to the civilian","the civilian headbutted the officer in the face","hurtThreat","headbutt","officerCivilian","appropriateCiv","59","","","",""
"94",3181,"{""Q0"":55}","[object Object]","survey-likert",93,284270,"0.0-93.0","772uxar3gcmhyecs9enhjr4o9nj9kz86","Tue Apr 04 2017 18:58:20 GMT-0400 (EDT)","female","White","slightly liberal","",NA,"","offCivRatings","the officer said ""if you touch me, you're gonna get hurt"" to the civilian","the civilian headbutted the officer in the face","hurtThreat","headbutt","officerCivilian","punishCiv","55","","","",""
"95",1933,"{""Q0"":45}","[object Object]","survey-likert",94,286210,"0.0-94.0","772uxar3gcmhyecs9enhjr4o9nj9kz86","Tue Apr 04 2017 18:58:20 GMT-0400 (EDT)","female","White","slightly liberal","",NA,"","offCivRatings","the officer said ""if you touch me, you're gonna get hurt"" to the civilian","the civilian headbutted the officer in the face","hurtThreat","headbutt","officerCivilian","acceptableCiv","45","","","",""
"96",1856,"{""Q0"":62}","[object Object]","survey-likert",95,288075,"0.0-95.0","772uxar3gcmhyecs9enhjr4o9nj9kz86","Tue Apr 04 2017 18:58:20 GMT-0400 (EDT)","female","White","slightly liberal","",NA,"","offCivRatings","the officer said ""if you touch me, you're gonna get hurt"" to the civilian","the civilian headbutted the officer in the face","hurtThreat","headbutt","officerCivilian","forceCiv","62","","","",""
"97",736,"","","instructions",96,288811,"0.0-96.0","772uxar3gcmhyecs9enhjr4o9nj9kz86","Tue Apr 04 2017 18:58:20 GMT-0400 (EDT)","female","White","slightly liberal","",NA,"[{""page_index"":0,""viewing_time"":736}]","break","","","","","","","","","","",""
"98",7257,"{""Q0"":37}","[object Object]","survey-likert",97,296278,"0.0-97.0","772uxar3gcmhyecs9enhjr4o9nj9kz86","Tue Apr 04 2017 18:58:20 GMT-0400 (EDT)","female","White","slightly liberal","",NA,"","offCivRatings","the officer called the civilian a ""thug""","the civilian shouted ""I don't have to fucking listen to you!"" at the officer","nameCall","dontListen","civilianOfficer","forceOff","37","","","",""
"99",2406,"{""Q0"":1}","[object Object]","survey-likert",98,298691,"0.0-98.0","772uxar3gcmhyecs9enhjr4o9nj9kz86","Tue Apr 04 2017 18:58:20 GMT-0400 (EDT)","female","White","slightly liberal","",NA,"","offCivRatings","the officer called the civilian a ""thug""","the civilian shouted ""I don't have to fucking listen to you!"" at the officer","nameCall","dontListen","civilianOfficer","manipCheckLow","1","","","",""
"100",2235,"{""Q0"":42}","[object Object]","survey-likert",99,300933,"0.0-99.0","772uxar3gcmhyecs9enhjr4o9nj9kz86","Tue Apr 04 2017 18:58:20 GMT-0400 (EDT)","female","White","slightly liberal","",NA,"","offCivRatings","the officer called the civilian a ""thug""","the civilian shouted ""I don't have to fucking listen to you!"" at the officer","nameCall","dontListen","civilianOfficer","appropriateOff","42","","","",""
"101",1725,"{""Q0"":44}","[object Object]","survey-likert",100,302664,"0.0-100.0","772uxar3gcmhyecs9enhjr4o9nj9kz86","Tue Apr 04 2017 18:58:20 GMT-0400 (EDT)","female","White","slightly liberal","",NA,"","offCivRatings","the officer called the civilian a ""thug""","the civilian shouted ""I don't have to fucking listen to you!"" at the officer","nameCall","dontListen","civilianOfficer","punishOff","44","","","",""
"102",1593,"{""Q0"":56}","[object Object]","survey-likert",101,304264,"0.0-101.0","772uxar3gcmhyecs9enhjr4o9nj9kz86","Tue Apr 04 2017 18:58:20 GMT-0400 (EDT)","female","White","slightly liberal","",NA,"","offCivRatings","the officer called the civilian a ""thug""","the civilian shouted ""I don't have to fucking listen to you!"" at the officer","nameCall","dontListen","civilianOfficer","acceptableOff","56","","","",""
"103",944,"","","instructions",102,305209,"0.0-102.0","772uxar3gcmhyecs9enhjr4o9nj9kz86","Tue Apr 04 2017 18:58:20 GMT-0400 (EDT)","female","White","slightly liberal","",NA,"[{""page_index"":0,""viewing_time"":944}]","break","","","","","","","","","","",""
"104",1564,"{""Q0"":45}","[object Object]","survey-likert",103,306981,"0.0-103.0","772uxar3gcmhyecs9enhjr4o9nj9kz86","Tue Apr 04 2017 18:58:20 GMT-0400 (EDT)","female","White","slightly liberal","",NA,"","offCivRatings","the officer twisted the arm of the civilian, forcing him to the ground","the civilian called the officer a ""pig""","armbar","nameCall","officerCivilian","appropriateCiv","45","","","",""
"105",1465,"{""Q0"":40}","[object Object]","survey-likert",104,308452,"0.0-104.0","772uxar3gcmhyecs9enhjr4o9nj9kz86","Tue Apr 04 2017 18:58:20 GMT-0400 (EDT)","female","White","slightly liberal","",NA,"","offCivRatings","the officer twisted the arm of the civilian, forcing him to the ground","the civilian called the officer a ""pig""","armbar","nameCall","officerCivilian","forceCiv","40","","","",""
"106",2022,"{""Q0"":57}","[object Object]","survey-likert",105,310481,"0.0-105.0","772uxar3gcmhyecs9enhjr4o9nj9kz86","Tue Apr 04 2017 18:58:20 GMT-0400 (EDT)","female","White","slightly liberal","",NA,"","offCivRatings","the officer twisted the arm of the civilian, forcing him to the ground","the civilian called the officer a ""pig""","armbar","nameCall","officerCivilian","acceptableCiv","57","","","",""
"107",2418,"{""Q0"":43}","[object Object]","survey-likert",106,312906,"0.0-106.0","772uxar3gcmhyecs9enhjr4o9nj9kz86","Tue Apr 04 2017 18:58:20 GMT-0400 (EDT)","female","White","slightly liberal","",NA,"","offCivRatings","the officer twisted the arm of the civilian, forcing him to the ground","the civilian called the officer a ""pig""","armbar","nameCall","officerCivilian","punishCiv","43","","","",""
"108",752,"","","instructions",107,313658,"0.0-107.0","772uxar3gcmhyecs9enhjr4o9nj9kz86","Tue Apr 04 2017 18:58:20 GMT-0400 (EDT)","female","White","slightly liberal","",NA,"[{""page_index"":0,""viewing_time"":752}]","break","","","","","","","","","","",""
"109",1588,"{""Q0"":55}","[object Object]","survey-likert",108,315456,"0.0-108.0","772uxar3gcmhyecs9enhjr4o9nj9kz86","Tue Apr 04 2017 18:58:20 GMT-0400 (EDT)","female","White","slightly liberal","",NA,"","offCivRatings","the officer stood near the civilian","the civilian purposefully struck the officer with a motor vehicle","stoodNear","vehicle","civilianOfficer","punishOff","55","","","",""
"110",1626,"{""Q0"":41}","[object Object]","survey-likert",109,317087,"0.0-109.0","772uxar3gcmhyecs9enhjr4o9nj9kz86","Tue Apr 04 2017 18:58:20 GMT-0400 (EDT)","female","White","slightly liberal","",NA,"","offCivRatings","the officer stood near the civilian","the civilian purposefully struck the officer with a motor vehicle","stoodNear","vehicle","civilianOfficer","forceOff","41","","","",""
"111",1637,"{""Q0"":57}","[object Object]","survey-likert",110,318731,"0.0-110.0","772uxar3gcmhyecs9enhjr4o9nj9kz86","Tue Apr 04 2017 18:58:20 GMT-0400 (EDT)","female","White","slightly liberal","",NA,"","offCivRatings","the officer stood near the civilian","the civilian purposefully struck the officer with a motor vehicle","stoodNear","vehicle","civilianOfficer","appropriateOff","57","","","",""
"112",1694,"{""Q0"":41}","[object Object]","survey-likert",111,320431,"0.0-111.0","772uxar3gcmhyecs9enhjr4o9nj9kz86","Tue Apr 04 2017 18:58:20 GMT-0400 (EDT)","female","White","slightly liberal","",NA,"","offCivRatings","the officer stood near the civilian","the civilian purposefully struck the officer with a motor vehicle","stoodNear","vehicle","civilianOfficer","acceptableOff","41","","","",""
"113",845,"","","instructions",112,321276,"0.0-112.0","772uxar3gcmhyecs9enhjr4o9nj9kz86","Tue Apr 04 2017 18:58:20 GMT-0400 (EDT)","female","White","slightly liberal","",NA,"[{""page_index"":0,""viewing_time"":845}]","break","","","","","","","","","","",""
"114",2397,"{""Q0"":1}","[object Object]","survey-likert",113,323883,"0.0-113.0","772uxar3gcmhyecs9enhjr4o9nj9kz86","Tue Apr 04 2017 18:58:20 GMT-0400 (EDT)","female","White","slightly liberal","",NA,"","offCivRatings","the officer slammed the civilian's head into the concrete curb","the civilian punched the officer in the face","headSlam","punchFace","officerCivilian","manipCheckLow","1","","","",""
"115",5166,"{""Q0"":38}","[object Object]","survey-likert",114,329055,"0.0-114.0","772uxar3gcmhyecs9enhjr4o9nj9kz86","Tue Apr 04 2017 18:58:20 GMT-0400 (EDT)","female","White","slightly liberal","",NA,"","offCivRatings","the officer slammed the civilian's head into the concrete curb","the civilian punched the officer in the face","headSlam","punchFace","officerCivilian","acceptableCiv","38","","","",""
"116",2510,"{""Q0"":89}","[object Object]","survey-likert",115,331573,"0.0-115.0","772uxar3gcmhyecs9enhjr4o9nj9kz86","Tue Apr 04 2017 18:58:20 GMT-0400 (EDT)","female","White","slightly liberal","",NA,"","offCivRatings","the officer slammed the civilian's head into the concrete curb","the civilian punched the officer in the face","headSlam","punchFace","officerCivilian","forceCiv","89","","","",""
"117",2139,"{""Q0"":61}","[object Object]","survey-likert",116,333718,"0.0-116.0","772uxar3gcmhyecs9enhjr4o9nj9kz86","Tue Apr 04 2017 18:58:20 GMT-0400 (EDT)","female","White","slightly liberal","",NA,"","offCivRatings","the officer slammed the civilian's head into the concrete curb","the civilian punched the officer in the face","headSlam","punchFace","officerCivilian","punishCiv","61","","","",""
"118",1805,"{""Q0"":26}","[object Object]","survey-likert",117,335530,"0.0-117.0","772uxar3gcmhyecs9enhjr4o9nj9kz86","Tue Apr 04 2017 18:58:20 GMT-0400 (EDT)","female","White","slightly liberal","",NA,"","offCivRatings","the officer slammed the civilian's head into the concrete curb","the civilian punched the officer in the face","headSlam","punchFace","officerCivilian","appropriateCiv","26","","","",""
"119",632,"","","instructions",118,336162,"0.0-118.0","772uxar3gcmhyecs9enhjr4o9nj9kz86","Tue Apr 04 2017 18:58:20 GMT-0400 (EDT)","female","White","slightly liberal","",NA,"[{""page_index"":0,""viewing_time"":632}]","break","","","","","","","","","","",""
"120",1712,"{""Q0"":64}","[object Object]","survey-likert",119,338084,"0.0-119.0","772uxar3gcmhyecs9enhjr4o9nj9kz86","Tue Apr 04 2017 18:58:20 GMT-0400 (EDT)","female","White","slightly liberal","",NA,"","offCivRatings","the officer shot the civilian in the head with a handgun","the civilian pulled away from the officer","handgunHead","pulledAway","officerCivilian","punishCiv","64","","","",""
"121",1606,"{""Q0"":55}","[object Object]","survey-likert",120,339695,"0.0-120.0","772uxar3gcmhyecs9enhjr4o9nj9kz86","Tue Apr 04 2017 18:58:20 GMT-0400 (EDT)","female","White","slightly liberal","",NA,"","offCivRatings","the officer shot the civilian in the head with a handgun","the civilian pulled away from the officer","handgunHead","pulledAway","officerCivilian","appropriateCiv","55","","","",""
"122",1549,"{""Q0"":37}","[object Object]","survey-likert",121,341251,"0.0-121.0","772uxar3gcmhyecs9enhjr4o9nj9kz86","Tue Apr 04 2017 18:58:20 GMT-0400 (EDT)","female","White","slightly liberal","",NA,"","offCivRatings","the officer shot the civilian in the head with a handgun","the civilian pulled away from the officer","handgunHead","pulledAway","officerCivilian","acceptableCiv","37","","","",""
"123",1787,"{""Q0"":67}","[object Object]","survey-likert",122,343043,"0.0-122.0","772uxar3gcmhyecs9enhjr4o9nj9kz86","Tue Apr 04 2017 18:58:20 GMT-0400 (EDT)","female","White","slightly liberal","",NA,"","offCivRatings","the officer shot the civilian in the head with a handgun","the civilian pulled away from the officer","handgunHead","pulledAway","officerCivilian","forceCiv","67","","","",""
"124",832,"","","instructions",123,343876,"0.0-123.0","772uxar3gcmhyecs9enhjr4o9nj9kz86","Tue Apr 04 2017 18:58:20 GMT-0400 (EDT)","female","White","slightly liberal","",NA,"[{""page_index"":0,""viewing_time"":832}]","break","","","","","","","","","","",""
"125",1912,"{""Q0"":60}","[object Object]","survey-likert",124,345997,"0.0-124.0","772uxar3gcmhyecs9enhjr4o9nj9kz86","Tue Apr 04 2017 18:58:20 GMT-0400 (EDT)","female","White","slightly liberal","",NA,"","policeLegitimacy","","","","","","","60","rightWrong","normAlignment","",""
"126",1564,"{""Q0"":41}","[object Object]","survey-likert",125,347569,"0.0-125.0","772uxar3gcmhyecs9enhjr4o9nj9kz86","Tue Apr 04 2017 18:58:20 GMT-0400 (EDT)","female","White","slightly liberal","",NA,"","policeLegitimacy","","","","","","","41","doTreat","feltObligation","",""
"127",1748,"{""Q0"":68}","[object Object]","survey-likert",126,349325,"0.0-126.0","772uxar3gcmhyecs9enhjr4o9nj9kz86","Tue Apr 04 2017 18:58:20 GMT-0400 (EDT)","female","White","slightly liberal","",NA,"","policeLegitimacy","","","","","","","68","doReasons","feltObligation","",""
"128",1712,"{""Q0"":37}","[object Object]","survey-likert",127,351044,"0.0-127.0","772uxar3gcmhyecs9enhjr4o9nj9kz86","Tue Apr 04 2017 18:58:20 GMT-0400 (EDT)","female","White","slightly liberal","",NA,"","policeLegitimacy","","","","","","","37","communityWants","normAlignment","",""
"129",1645,"{""Q0"":68}","[object Object]","survey-likert",128,352696,"0.0-128.0","772uxar3gcmhyecs9enhjr4o9nj9kz86","Tue Apr 04 2017 18:58:20 GMT-0400 (EDT)","female","White","slightly liberal","",NA,"","policeLegitimacy","","","","","","","68","support","feltObligation","",""
"130",2017,"{""Q0"":34}","[object Object]","survey-likert",129,354719,"0.0-129.0","772uxar3gcmhyecs9enhjr4o9nj9kz86","Tue Apr 04 2017 18:58:20 GMT-0400 (EDT)","female","White","slightly liberal","",NA,"","policeLegitimacy","","","","","","","34","importantValues","normAlignment","",""
"131",8207,"{""Q0"":""no""}","[object Object]","survey-multi-choice2",130,362933,"0.0-130.0","772uxar3gcmhyecs9enhjr4o9nj9kz86","Tue Apr 04 2017 18:58:20 GMT-0400 (EDT)","female","White","slightly liberal","",NA,"","policeExperience","","","","","","","no","stopped","","personal","Have you ever been stopped by the police on the street without good reason?"
"132",3194,"{""Q0"":""no""}","[object Object]","survey-multi-choice2",131,366131,"0.0-131.0","772uxar3gcmhyecs9enhjr4o9nj9kz86","Tue Apr 04 2017 18:58:20 GMT-0400 (EDT)","female","White","slightly liberal","",NA,"","policeExperience","","","","","","","no","insultLang","","vicarious","Have the police ever used insulting language toward anyone in your household?"
"133",3426,"{""Q0"":""no""}","[object Object]","survey-multi-choice2",132,369560,"0.0-132.0","772uxar3gcmhyecs9enhjr4o9nj9kz86","Tue Apr 04 2017 18:58:20 GMT-0400 (EDT)","female","White","slightly liberal","",NA,"","policeExperience","","","","","","","no","insultLang","","personal","Have the police ever used insulting language toward you?"
"134",3183,"{""Q0"":""no""}","[object Object]","survey-multi-choice2",133,372746,"0.0-133.0","772uxar3gcmhyecs9enhjr4o9nj9kz86","Tue Apr 04 2017 18:58:20 GMT-0400 (EDT)","female","White","slightly liberal","",NA,"","policeExperience","","","","","","","no","excessForce","","personal","Have the police ever used excessive force against you?"
"135",3369,"{""Q0"":""no""}","[object Object]","survey-multi-choice2",134,376119,"0.0-134.0","772uxar3gcmhyecs9enhjr4o9nj9kz86","Tue Apr 04 2017 18:58:20 GMT-0400 (EDT)","female","White","slightly liberal","",NA,"","policeExperience","","","","","","","no","corrupt","","personal","Have you ever seen a police officer engage in any corrupt activities (e.g., taking bribes or involvement in the drug trade)?"
"136",2683,"{""Q0"":""no""}","[object Object]","survey-multi-choice2",135,378805,"0.0-135.0","772uxar3gcmhyecs9enhjr4o9nj9kz86","Tue Apr 04 2017 18:58:20 GMT-0400 (EDT)","female","White","slightly liberal","",NA,"","policeExperience","","","","","","","no","excessForce","","vicarious","Have the police ever used excessive force against anyone in your household?"
"137",5081,"{""Q0"":""no""}","[object Object]","survey-multi-choice2",136,383889,"0.0-136.0","772uxar3gcmhyecs9enhjr4o9nj9kz86","Tue Apr 04 2017 18:58:20 GMT-0400 (EDT)","female","White","slightly liberal","",NA,"","policeExperience","","","","","","","no","stopped","","vicarious","Has anyone in your household ever been stopped on the street by the police without good reason?"
"138",8982,"{""Q0"":""female"",""Q1"":""White"",""Q2"":""slightly liberal""}","[object Object]","survey-multi-choice",137,392883,"0.0-137.0","772uxar3gcmhyecs9enhjr4o9nj9kz86","Tue Apr 04 2017 18:58:20 GMT-0400 (EDT)","female","White","slightly liberal","",NA,"","demographics","","","","","","","","","","",""
"139",7042,"","","instructions",138,400927,"0.0-138.0","772uxar3gcmhyecs9enhjr4o9nj9kz86","Tue Apr 04 2017 18:58:20 GMT-0400 (EDT)","female","White","slightly liberal","",NA,"[{""page_index"":0,""viewing_time"":2892},{""page_index"":1,""viewing_time"":1932},{""page_index"":2,""viewing_time"":513},{""page_index"":3,""viewing_time"":1705}]","debriefing","","","","","","","","","","",""
