"","rt","responses","internalResp","trial_type","trial_index","time_elapsed","internal_node_id","randSubjectID","date","sex","race","polAff","stimulus","key_press","view_history","questionType","officerAction","civilianAction","offActName","civActName","order","questionName","response","name","dimension","person","question"
"1",933020,"","[object Object]","survey-text",0,933039,"0.0-0.0","8977u6c6mvztpg6wvhfyev94gfkbert4","Thu Mar 02 2017 12:46:15 GMT-0500 (Eastern Standard Time)","male","White","conservative","",NA,"","","","","","","","","","","","",""
"2",16144,"","","single-stim",1,950190,"0.0-1.0","8977u6c6mvztpg6wvhfyev94gfkbert4","Thu Mar 02 2017 12:46:15 GMT-0500 (Eastern Standard Time)","male","White","conservative","<img src='static/images/1602685960_ICS_Credit-0.png' alt='Consent 1' height=1100 width=850><img src='static/images/1602685960_ICS_Credit-1.png' alt='Consent 2' height=1100 width=850></p>",89,"","","","","","","","","","","","",""
"3",1214,"","","instructions",2,952407,"0.0-2.0","8977u6c6mvztpg6wvhfyev94gfkbert4","Thu Mar 02 2017 12:46:15 GMT-0500 (Eastern Standard Time)","male","White","conservative","",NA,"[{""page_index"":0,""viewing_time"":1213}]","instructions","","","","","","","","","","",""
"4",11406,"","","instructions",3,964814,"0.0-3.0","8977u6c6mvztpg6wvhfyev94gfkbert4","Thu Mar 02 2017 12:46:15 GMT-0500 (Eastern Standard Time)","male","White","conservative","",NA,"[{""page_index"":0,""viewing_time"":1030},{""page_index"":1,""viewing_time"":3551},{""page_index"":2,""viewing_time"":6080},{""page_index"":3,""viewing_time"":744}]","instructions","","","","","","","","","","",""
"5",14771,"{""Q0"":1}","[object Object]","survey-likert",4,980646,"0.0-4.0","8977u6c6mvztpg6wvhfyev94gfkbert4","Thu Mar 02 2017 12:46:15 GMT-0500 (Eastern Standard Time)","male","White","conservative","",NA,"","offCivRatings","the officer slammed the civilian's head into the concrete curb","the civilian stood near the officer","headSlam","stoodNear","civilianOfficer","acceptableOff","1","","","",""
"6",5423,"{""Q0"":100}","[object Object]","survey-likert",5,986089,"0.0-5.0","8977u6c6mvztpg6wvhfyev94gfkbert4","Thu Mar 02 2017 12:46:15 GMT-0500 (Eastern Standard Time)","male","White","conservative","",NA,"","offCivRatings","the officer slammed the civilian's head into the concrete curb","the civilian stood near the officer","headSlam","stoodNear","civilianOfficer","forceOff","100","","","",""
"7",17818,"{""Q0"":60}","[object Object]","survey-likert",6,1003925,"0.0-6.0","8977u6c6mvztpg6wvhfyev94gfkbert4","Thu Mar 02 2017 12:46:15 GMT-0500 (Eastern Standard Time)","male","White","conservative","",NA,"","offCivRatings","the officer slammed the civilian's head into the concrete curb","the civilian stood near the officer","headSlam","stoodNear","civilianOfficer","manipCheckHigh","60","","","",""
"8",6630,"{""Q0"":90}","[object Object]","survey-likert",7,1010572,"0.0-7.0","8977u6c6mvztpg6wvhfyev94gfkbert4","Thu Mar 02 2017 12:46:15 GMT-0500 (Eastern Standard Time)","male","White","conservative","",NA,"","offCivRatings","the officer slammed the civilian's head into the concrete curb","the civilian stood near the officer","headSlam","stoodNear","civilianOfficer","punishOff","90","","","",""
"9",8270,"{""Q0"":21}","[object Object]","survey-likert",8,1018860,"0.0-8.0","8977u6c6mvztpg6wvhfyev94gfkbert4","Thu Mar 02 2017 12:46:15 GMT-0500 (Eastern Standard Time)","male","White","conservative","",NA,"","offCivRatings","the officer slammed the civilian's head into the concrete curb","the civilian stood near the officer","headSlam","stoodNear","civilianOfficer","appropriateOff","21","","","",""
"10",1165,"","","instructions",9,1020026,"0.0-9.0","8977u6c6mvztpg6wvhfyev94gfkbert4","Thu Mar 02 2017 12:46:15 GMT-0500 (Eastern Standard Time)","male","White","conservative","",NA,"[{""page_index"":0,""viewing_time"":1164}]","break","","","","","","","","","","",""
"11",28994,"{""Q0"":31}","[object Object]","survey-likert",10,1049236,"0.0-10.0","8977u6c6mvztpg6wvhfyev94gfkbert4","Thu Mar 02 2017 12:46:15 GMT-0500 (Eastern Standard Time)","male","White","conservative","",NA,"","offCivRatings","the officer sprayed the civilian with pepper spray","the civilian said ""if you touch me, you're gonna get hurt"" to the officer","pepperSpray","hurtThreat","officerCivilian","appropriateCiv","31","","","",""
"12",5816,"{""Q0"":40}","[object Object]","survey-likert",11,1055068,"0.0-11.0","8977u6c6mvztpg6wvhfyev94gfkbert4","Thu Mar 02 2017 12:46:15 GMT-0500 (Eastern Standard Time)","male","White","conservative","",NA,"","offCivRatings","the officer sprayed the civilian with pepper spray","the civilian said ""if you touch me, you're gonna get hurt"" to the officer","pepperSpray","hurtThreat","officerCivilian","punishCiv","40","","","",""
"13",4020,"{""Q0"":20}","[object Object]","survey-likert",12,1059105,"0.0-12.0","8977u6c6mvztpg6wvhfyev94gfkbert4","Thu Mar 02 2017 12:46:15 GMT-0500 (Eastern Standard Time)","male","White","conservative","",NA,"","offCivRatings","the officer sprayed the civilian with pepper spray","the civilian said ""if you touch me, you're gonna get hurt"" to the officer","pepperSpray","hurtThreat","officerCivilian","acceptableCiv","20","","","",""
"14",4584,"{""Q0"":30}","[object Object]","survey-likert",13,1063704,"0.0-13.0","8977u6c6mvztpg6wvhfyev94gfkbert4","Thu Mar 02 2017 12:46:15 GMT-0500 (Eastern Standard Time)","male","White","conservative","",NA,"","offCivRatings","the officer sprayed the civilian with pepper spray","the civilian said ""if you touch me, you're gonna get hurt"" to the officer","pepperSpray","hurtThreat","officerCivilian","forceCiv","30","","","",""
"15",941,"","","instructions",14,1064647,"0.0-14.0","8977u6c6mvztpg6wvhfyev94gfkbert4","Thu Mar 02 2017 12:46:15 GMT-0500 (Eastern Standard Time)","male","White","conservative","",NA,"[{""page_index"":0,""viewing_time"":940}]","break","","","","","","","","","","",""
"16",8960,"{""Q0"":80}","[object Object]","survey-likert",15,1073824,"0.0-15.0","8977u6c6mvztpg6wvhfyev94gfkbert4","Thu Mar 02 2017 12:46:15 GMT-0500 (Eastern Standard Time)","male","White","conservative","",NA,"","offCivRatings","the officer shocked the civilian with a tazer","the civilian headbutted the officer in the face","tazer","headbutt","officerCivilian","appropriateCiv","80","","","",""
"17",5015,"{""Q0"":20}","[object Object]","survey-likert",16,1078857,"0.0-16.0","8977u6c6mvztpg6wvhfyev94gfkbert4","Thu Mar 02 2017 12:46:15 GMT-0500 (Eastern Standard Time)","male","White","conservative","",NA,"","offCivRatings","the officer shocked the civilian with a tazer","the civilian headbutted the officer in the face","tazer","headbutt","officerCivilian","acceptableCiv","20","","","",""
"18",7862,"{""Q0"":1}","[object Object]","survey-likert",17,1086736,"0.0-17.0","8977u6c6mvztpg6wvhfyev94gfkbert4","Thu Mar 02 2017 12:46:15 GMT-0500 (Eastern Standard Time)","male","White","conservative","",NA,"","offCivRatings","the officer shocked the civilian with a tazer","the civilian headbutted the officer in the face","tazer","headbutt","officerCivilian","manipCheckLow","1","","","",""
"19",9064,"{""Q0"":80}","[object Object]","survey-likert",18,1095817,"0.0-18.0","8977u6c6mvztpg6wvhfyev94gfkbert4","Thu Mar 02 2017 12:46:15 GMT-0500 (Eastern Standard Time)","male","White","conservative","",NA,"","offCivRatings","the officer shocked the civilian with a tazer","the civilian headbutted the officer in the face","tazer","headbutt","officerCivilian","punishCiv","80","","","",""
"20",8542,"{""Q0"":70}","[object Object]","survey-likert",19,1104377,"0.0-19.0","8977u6c6mvztpg6wvhfyev94gfkbert4","Thu Mar 02 2017 12:46:15 GMT-0500 (Eastern Standard Time)","male","White","conservative","",NA,"","offCivRatings","the officer shocked the civilian with a tazer","the civilian headbutted the officer in the face","tazer","headbutt","officerCivilian","forceCiv","70","","","",""
"21",917,"","","instructions",20,1105294,"0.0-20.0","8977u6c6mvztpg6wvhfyev94gfkbert4","Thu Mar 02 2017 12:46:15 GMT-0500 (Eastern Standard Time)","male","White","conservative","",NA,"[{""page_index"":0,""viewing_time"":916}]","break","","","","","","","","","","",""
"22",7795,"{""Q0"":100}","[object Object]","survey-likert",21,1113304,"0.0-21.0","8977u6c6mvztpg6wvhfyev94gfkbert4","Thu Mar 02 2017 12:46:15 GMT-0500 (Eastern Standard Time)","male","White","conservative","",NA,"","offCivRatings","the officer yelled ""get back!"" at the civilian","the civilian slammed the officer's head into the concrete curb","getBack","headSlam","officerCivilian","appropriateCiv","100","","","",""
"23",2640,"{""Q0"":1}","[object Object]","survey-likert",22,1115961,"0.0-22.0","8977u6c6mvztpg6wvhfyev94gfkbert4","Thu Mar 02 2017 12:46:15 GMT-0500 (Eastern Standard Time)","male","White","conservative","",NA,"","offCivRatings","the officer yelled ""get back!"" at the civilian","the civilian slammed the officer's head into the concrete curb","getBack","headSlam","officerCivilian","acceptableCiv","1","","","",""
"24",2783,"{""Q0"":100}","[object Object]","survey-likert",23,1118760,"0.0-23.0","8977u6c6mvztpg6wvhfyev94gfkbert4","Thu Mar 02 2017 12:46:15 GMT-0500 (Eastern Standard Time)","male","White","conservative","",NA,"","offCivRatings","the officer yelled ""get back!"" at the civilian","the civilian slammed the officer's head into the concrete curb","getBack","headSlam","officerCivilian","forceCiv","100","","","",""
"25",2950,"{""Q0"":100}","[object Object]","survey-likert",24,1121726,"0.0-24.0","8977u6c6mvztpg6wvhfyev94gfkbert4","Thu Mar 02 2017 12:46:15 GMT-0500 (Eastern Standard Time)","male","White","conservative","",NA,"","offCivRatings","the officer yelled ""get back!"" at the civilian","the civilian slammed the officer's head into the concrete curb","getBack","headSlam","officerCivilian","punishCiv","100","","","",""
"26",3071,"{""Q0"":1}","[object Object]","survey-likert",25,1124813,"0.0-25.0","8977u6c6mvztpg6wvhfyev94gfkbert4","Thu Mar 02 2017 12:46:15 GMT-0500 (Eastern Standard Time)","male","White","conservative","",NA,"","offCivRatings","the officer yelled ""get back!"" at the civilian","the civilian slammed the officer's head into the concrete curb","getBack","headSlam","officerCivilian","manipCheckLow","1","","","",""
"27",774,"","","instructions",26,1125587,"0.0-26.0","8977u6c6mvztpg6wvhfyev94gfkbert4","Thu Mar 02 2017 12:46:15 GMT-0500 (Eastern Standard Time)","male","White","conservative","",NA,"[{""page_index"":0,""viewing_time"":773}]","break","","","","","","","","","","",""
"28",7155,"{""Q0"":100}","[object Object]","survey-likert",27,1132957,"0.0-27.0","8977u6c6mvztpg6wvhfyev94gfkbert4","Thu Mar 02 2017 12:46:15 GMT-0500 (Eastern Standard Time)","male","White","conservative","",NA,"","offCivRatings","the officer shot the civilian in the head with a handgun","the civilian struck the officer on the leg with a metal pipe","handgunHead","metalPipe","civilianOfficer","forceOff","100","","","",""
"29",3921,"{""Q0"":1}","[object Object]","survey-likert",28,1136894,"0.0-28.0","8977u6c6mvztpg6wvhfyev94gfkbert4","Thu Mar 02 2017 12:46:15 GMT-0500 (Eastern Standard Time)","male","White","conservative","",NA,"","offCivRatings","the officer shot the civilian in the head with a handgun","the civilian struck the officer on the leg with a metal pipe","handgunHead","metalPipe","civilianOfficer","punishOff","1","","","",""
"30",10121,"{""Q0"":70}","[object Object]","survey-likert",29,1147030,"0.0-29.0","8977u6c6mvztpg6wvhfyev94gfkbert4","Thu Mar 02 2017 12:46:15 GMT-0500 (Eastern Standard Time)","male","White","conservative","",NA,"","offCivRatings","the officer shot the civilian in the head with a handgun","the civilian struck the officer on the leg with a metal pipe","handgunHead","metalPipe","civilianOfficer","appropriateOff","70","","","",""
"31",4433,"{""Q0"":100}","[object Object]","survey-likert",30,1151477,"0.0-30.0","8977u6c6mvztpg6wvhfyev94gfkbert4","Thu Mar 02 2017 12:46:15 GMT-0500 (Eastern Standard Time)","male","White","conservative","",NA,"","offCivRatings","the officer shot the civilian in the head with a handgun","the civilian struck the officer on the leg with a metal pipe","handgunHead","metalPipe","civilianOfficer","acceptableOff","100","","","",""
"32",1077,"","","instructions",31,1152555,"0.0-31.0","8977u6c6mvztpg6wvhfyev94gfkbert4","Thu Mar 02 2017 12:46:15 GMT-0500 (Eastern Standard Time)","male","White","conservative","",NA,"[{""page_index"":0,""viewing_time"":1076}]","break","","","","","","","","","","",""
"33",9124,"{""Q0"":31}","[object Object]","survey-likert",32,1161894,"0.0-32.0","8977u6c6mvztpg6wvhfyev94gfkbert4","Thu Mar 02 2017 12:46:15 GMT-0500 (Eastern Standard Time)","male","White","conservative","",NA,"","offCivRatings","the officer kicked the civilian in the stomach","the civilian kicked the officer in the stomach","kickStom","kickStom","civilianOfficer","appropriateOff","31","","","",""
"34",4049,"{""Q0"":60}","[object Object]","survey-likert",33,1165957,"0.0-33.0","8977u6c6mvztpg6wvhfyev94gfkbert4","Thu Mar 02 2017 12:46:15 GMT-0500 (Eastern Standard Time)","male","White","conservative","",NA,"","offCivRatings","the officer kicked the civilian in the stomach","the civilian kicked the officer in the stomach","kickStom","kickStom","civilianOfficer","forceOff","60","","","",""
"35",2297,"{""Q0"":100}","[object Object]","survey-likert",34,1168269,"0.0-34.0","8977u6c6mvztpg6wvhfyev94gfkbert4","Thu Mar 02 2017 12:46:15 GMT-0500 (Eastern Standard Time)","male","White","conservative","",NA,"","offCivRatings","the officer kicked the civilian in the stomach","the civilian kicked the officer in the stomach","kickStom","kickStom","civilianOfficer","acceptableOff","100","","","",""
"36",3417,"{""Q0"":1}","[object Object]","survey-likert",35,1171702,"0.0-35.0","8977u6c6mvztpg6wvhfyev94gfkbert4","Thu Mar 02 2017 12:46:15 GMT-0500 (Eastern Standard Time)","male","White","conservative","",NA,"","offCivRatings","the officer kicked the civilian in the stomach","the civilian kicked the officer in the stomach","kickStom","kickStom","civilianOfficer","punishOff","1","","","",""
"37",1525,"","","instructions",36,1173227,"0.0-36.0","8977u6c6mvztpg6wvhfyev94gfkbert4","Thu Mar 02 2017 12:46:15 GMT-0500 (Eastern Standard Time)","male","White","conservative","",NA,"[{""page_index"":0,""viewing_time"":1524}]","break","","","","","","","","","","",""
"38",6365,"{""Q0"":31}","[object Object]","survey-likert",37,1179806,"0.0-37.0","8977u6c6mvztpg6wvhfyev94gfkbert4","Thu Mar 02 2017 12:46:15 GMT-0500 (Eastern Standard Time)","male","White","conservative","",NA,"","offCivRatings","the officer punched the civilian in the face","the civilian shot the officer in the head with a handgun","punchFace","handgunHead","civilianOfficer","forceOff","31","","","",""
"39",2957,"{""Q0"":100}","[object Object]","survey-likert",38,1182778,"0.0-38.0","8977u6c6mvztpg6wvhfyev94gfkbert4","Thu Mar 02 2017 12:46:15 GMT-0500 (Eastern Standard Time)","male","White","conservative","",NA,"","offCivRatings","the officer punched the civilian in the face","the civilian shot the officer in the head with a handgun","punchFace","handgunHead","civilianOfficer","acceptableOff","100","","","",""
"40",2438,"{""Q0"":1}","[object Object]","survey-likert",39,1185233,"0.0-39.0","8977u6c6mvztpg6wvhfyev94gfkbert4","Thu Mar 02 2017 12:46:15 GMT-0500 (Eastern Standard Time)","male","White","conservative","",NA,"","offCivRatings","the officer punched the civilian in the face","the civilian shot the officer in the head with a handgun","punchFace","handgunHead","civilianOfficer","punishOff","1","","","",""
"41",3945,"{""Q0"":1}","[object Object]","survey-likert",40,1189193,"0.0-40.0","8977u6c6mvztpg6wvhfyev94gfkbert4","Thu Mar 02 2017 12:46:15 GMT-0500 (Eastern Standard Time)","male","White","conservative","",NA,"","offCivRatings","the officer punched the civilian in the face","the civilian shot the officer in the head with a handgun","punchFace","handgunHead","civilianOfficer","appropriateOff","1","","","",""
"42",798,"","","instructions",41,1189991,"0.0-41.0","8977u6c6mvztpg6wvhfyev94gfkbert4","Thu Mar 02 2017 12:46:15 GMT-0500 (Eastern Standard Time)","male","White","conservative","",NA,"[{""page_index"":0,""viewing_time"":797}]","break","","","","","","","","","","",""
"43",5283,"{""Q0"":100}","[object Object]","survey-likert",42,1195489,"0.0-42.0","8977u6c6mvztpg6wvhfyev94gfkbert4","Thu Mar 02 2017 12:46:15 GMT-0500 (Eastern Standard Time)","male","White","conservative","",NA,"","offCivRatings","the officer asked the civilian how he was doing","the civilian sprayed the officer with pepper spray","asked","pepperSpray","officerCivilian","manipCheckHigh","100","","","",""
"44",6386,"{""Q0"":21}","[object Object]","survey-likert",43,1201890,"0.0-43.0","8977u6c6mvztpg6wvhfyev94gfkbert4","Thu Mar 02 2017 12:46:15 GMT-0500 (Eastern Standard Time)","male","White","conservative","",NA,"","offCivRatings","the officer asked the civilian how he was doing","the civilian sprayed the officer with pepper spray","asked","pepperSpray","officerCivilian","appropriateCiv","21","","","",""
"45",2647,"{""Q0"":1}","[object Object]","survey-likert",44,1204554,"0.0-44.0","8977u6c6mvztpg6wvhfyev94gfkbert4","Thu Mar 02 2017 12:46:15 GMT-0500 (Eastern Standard Time)","male","White","conservative","",NA,"","offCivRatings","the officer asked the civilian how he was doing","the civilian sprayed the officer with pepper spray","asked","pepperSpray","officerCivilian","acceptableCiv","1","","","",""
"46",2360,"{""Q0"":69}","[object Object]","survey-likert",45,1206930,"0.0-45.0","8977u6c6mvztpg6wvhfyev94gfkbert4","Thu Mar 02 2017 12:46:15 GMT-0500 (Eastern Standard Time)","male","White","conservative","",NA,"","offCivRatings","the officer asked the civilian how he was doing","the civilian sprayed the officer with pepper spray","asked","pepperSpray","officerCivilian","forceCiv","69","","","",""
"47",2823,"{""Q0"":100}","[object Object]","survey-likert",46,1209769,"0.0-46.0","8977u6c6mvztpg6wvhfyev94gfkbert4","Thu Mar 02 2017 12:46:15 GMT-0500 (Eastern Standard Time)","male","White","conservative","",NA,"","offCivRatings","the officer asked the civilian how he was doing","the civilian sprayed the officer with pepper spray","asked","pepperSpray","officerCivilian","punishCiv","100","","","",""
"48",1741,"","","instructions",47,1211511,"0.0-47.0","8977u6c6mvztpg6wvhfyev94gfkbert4","Thu Mar 02 2017 12:46:15 GMT-0500 (Eastern Standard Time)","male","White","conservative","",NA,"[{""page_index"":0,""viewing_time"":1740}]","break","","","","","","","","","","",""
"49",4155,"{""Q0"":1}","[object Object]","survey-likert",48,1215882,"0.0-48.0","8977u6c6mvztpg6wvhfyev94gfkbert4","Thu Mar 02 2017 12:46:15 GMT-0500 (Eastern Standard Time)","male","White","conservative","",NA,"","offCivRatings","the officer put handcuffs on the civilian","the civilian asked the officer how he was doing","handcuff","asked","officerCivilian","forceCiv","1","","","",""
"50",4089,"{""Q0"":20}","[object Object]","survey-likert",49,1219985,"0.0-49.0","8977u6c6mvztpg6wvhfyev94gfkbert4","Thu Mar 02 2017 12:46:15 GMT-0500 (Eastern Standard Time)","male","White","conservative","",NA,"","offCivRatings","the officer put handcuffs on the civilian","the civilian asked the officer how he was doing","handcuff","asked","officerCivilian","appropriateCiv","20","","","",""
"51",4067,"{""Q0"":100}","[object Object]","survey-likert",50,1224067,"0.0-50.0","8977u6c6mvztpg6wvhfyev94gfkbert4","Thu Mar 02 2017 12:46:15 GMT-0500 (Eastern Standard Time)","male","White","conservative","",NA,"","offCivRatings","the officer put handcuffs on the civilian","the civilian asked the officer how he was doing","handcuff","asked","officerCivilian","acceptableCiv","100","","","",""
"52",2687,"{""Q0"":1}","[object Object]","survey-likert",51,1226769,"0.0-51.0","8977u6c6mvztpg6wvhfyev94gfkbert4","Thu Mar 02 2017 12:46:15 GMT-0500 (Eastern Standard Time)","male","White","conservative","",NA,"","offCivRatings","the officer put handcuffs on the civilian","the civilian asked the officer how he was doing","handcuff","asked","officerCivilian","punishCiv","1","","","",""
"53",1006,"","","instructions",52,1227775,"0.0-52.0","8977u6c6mvztpg6wvhfyev94gfkbert4","Thu Mar 02 2017 12:46:15 GMT-0500 (Eastern Standard Time)","male","White","conservative","",NA,"[{""page_index"":0,""viewing_time"":1005}]","break","","","","","","","","","","",""
"54",7099,"{""Q0"":80}","[object Object]","survey-likert",53,1235090,"0.0-53.0","8977u6c6mvztpg6wvhfyev94gfkbert4","Thu Mar 02 2017 12:46:15 GMT-0500 (Eastern Standard Time)","male","White","conservative","",NA,"","offCivRatings","the officer twisted the arm of the civilian, forcing him to the ground","the civilian waved at the officer in greeting","armbar","waved","civilianOfficer","appropriateOff","80","","","",""
"55",3264,"{""Q0"":70}","[object Object]","survey-likert",54,1238370,"0.0-54.0","8977u6c6mvztpg6wvhfyev94gfkbert4","Thu Mar 02 2017 12:46:15 GMT-0500 (Eastern Standard Time)","male","White","conservative","",NA,"","offCivRatings","the officer twisted the arm of the civilian, forcing him to the ground","the civilian waved at the officer in greeting","armbar","waved","civilianOfficer","forceOff","70","","","",""
"56",3294,"{""Q0"":1}","[object Object]","survey-likert",55,1241679,"0.0-55.0","8977u6c6mvztpg6wvhfyev94gfkbert4","Thu Mar 02 2017 12:46:15 GMT-0500 (Eastern Standard Time)","male","White","conservative","",NA,"","offCivRatings","the officer twisted the arm of the civilian, forcing him to the ground","the civilian waved at the officer in greeting","armbar","waved","civilianOfficer","manipCheckLow","1","","","",""
"57",4909,"{""Q0"":26}","[object Object]","survey-likert",56,1246606,"0.0-56.0","8977u6c6mvztpg6wvhfyev94gfkbert4","Thu Mar 02 2017 12:46:15 GMT-0500 (Eastern Standard Time)","male","White","conservative","",NA,"","offCivRatings","the officer twisted the arm of the civilian, forcing him to the ground","the civilian waved at the officer in greeting","armbar","waved","civilianOfficer","acceptableOff","26","","","",""
"58",2682,"{""Q0"":53}","[object Object]","survey-likert",57,1249303,"0.0-57.0","8977u6c6mvztpg6wvhfyev94gfkbert4","Thu Mar 02 2017 12:46:15 GMT-0500 (Eastern Standard Time)","male","White","conservative","",NA,"","offCivRatings","the officer twisted the arm of the civilian, forcing him to the ground","the civilian waved at the officer in greeting","armbar","waved","civilianOfficer","punishOff","53","","","",""
"59",917,"","","instructions",58,1250221,"0.0-58.0","8977u6c6mvztpg6wvhfyev94gfkbert4","Thu Mar 02 2017 12:46:15 GMT-0500 (Eastern Standard Time)","male","White","conservative","",NA,"[{""page_index"":0,""viewing_time"":916}]","break","","","","","","","","","","",""
"60",5482,"{""Q0"":60}","[object Object]","survey-likert",59,1255919,"0.0-59.0","8977u6c6mvztpg6wvhfyev94gfkbert4","Thu Mar 02 2017 12:46:15 GMT-0500 (Eastern Standard Time)","male","White","conservative","",NA,"","offCivRatings","the officer struck the civilian on the leg with a collapsible baton","the civilian punched the officer in the face","batonLeg","punchFace","officerCivilian","forceCiv","60","","","",""
"61",2977,"{""Q0"":75}","[object Object]","survey-likert",60,1258910,"0.0-60.0","8977u6c6mvztpg6wvhfyev94gfkbert4","Thu Mar 02 2017 12:46:15 GMT-0500 (Eastern Standard Time)","male","White","conservative","",NA,"","offCivRatings","the officer struck the civilian on the leg with a collapsible baton","the civilian punched the officer in the face","batonLeg","punchFace","officerCivilian","punishCiv","75","","","",""
"62",3400,"{""Q0"":8}","[object Object]","survey-likert",61,1262326,"0.0-61.0","8977u6c6mvztpg6wvhfyev94gfkbert4","Thu Mar 02 2017 12:46:15 GMT-0500 (Eastern Standard Time)","male","White","conservative","",NA,"","offCivRatings","the officer struck the civilian on the leg with a collapsible baton","the civilian punched the officer in the face","batonLeg","punchFace","officerCivilian","acceptableCiv","8","","","",""
"63",2737,"{""Q0"":69}","[object Object]","survey-likert",62,1265079,"0.0-62.0","8977u6c6mvztpg6wvhfyev94gfkbert4","Thu Mar 02 2017 12:46:15 GMT-0500 (Eastern Standard Time)","male","White","conservative","",NA,"","offCivRatings","the officer struck the civilian on the leg with a collapsible baton","the civilian punched the officer in the face","batonLeg","punchFace","officerCivilian","appropriateCiv","69","","","",""
"64",1096,"","","instructions",63,1266175,"0.0-63.0","8977u6c6mvztpg6wvhfyev94gfkbert4","Thu Mar 02 2017 12:46:15 GMT-0500 (Eastern Standard Time)","male","White","conservative","",NA,"[{""page_index"":0,""viewing_time"":1095}]","break","","","","","","","","","","",""
"65",6510,"{""Q0"":1}","[object Object]","survey-likert",64,1272902,"0.0-64.0","8977u6c6mvztpg6wvhfyev94gfkbert4","Thu Mar 02 2017 12:46:15 GMT-0500 (Eastern Standard Time)","male","White","conservative","",NA,"","offCivRatings","the officer called the civilian a ""thug""","the civilian twisted the arm of the officer, forcing him to the ground","nameCall","armbar","civilianOfficer","punishOff","1","","","",""
"66",2641,"{""Q0"":100}","[object Object]","survey-likert",65,1275558,"0.0-65.0","8977u6c6mvztpg6wvhfyev94gfkbert4","Thu Mar 02 2017 12:46:15 GMT-0500 (Eastern Standard Time)","male","White","conservative","",NA,"","offCivRatings","the officer called the civilian a ""thug""","the civilian twisted the arm of the officer, forcing him to the ground","nameCall","armbar","civilianOfficer","acceptableOff","100","","","",""
"67",3113,"{""Q0"":1}","[object Object]","survey-likert",66,1278687,"0.0-66.0","8977u6c6mvztpg6wvhfyev94gfkbert4","Thu Mar 02 2017 12:46:15 GMT-0500 (Eastern Standard Time)","male","White","conservative","",NA,"","offCivRatings","the officer called the civilian a ""thug""","the civilian twisted the arm of the officer, forcing him to the ground","nameCall","armbar","civilianOfficer","appropriateOff","1","","","",""
"68",2311,"{""Q0"":1}","[object Object]","survey-likert",67,1281014,"0.0-67.0","8977u6c6mvztpg6wvhfyev94gfkbert4","Thu Mar 02 2017 12:46:15 GMT-0500 (Eastern Standard Time)","male","White","conservative","",NA,"","offCivRatings","the officer called the civilian a ""thug""","the civilian twisted the arm of the officer, forcing him to the ground","nameCall","armbar","civilianOfficer","forceOff","1","","","",""
"69",842,"","","instructions",68,1281857,"0.0-68.0","8977u6c6mvztpg6wvhfyev94gfkbert4","Thu Mar 02 2017 12:46:15 GMT-0500 (Eastern Standard Time)","male","White","conservative","",NA,"[{""page_index"":0,""viewing_time"":841}]","break","","","","","","","","","","",""
"70",6446,"{""Q0"":100}","[object Object]","survey-likert",69,1288518,"0.0-69.0","8977u6c6mvztpg6wvhfyev94gfkbert4","Thu Mar 02 2017 12:46:15 GMT-0500 (Eastern Standard Time)","male","White","conservative","",NA,"","offCivRatings","the officer shouted ""get your fucking hands up!"" at the civilian","the civilian purposefully struck the officer with a motor vehicle","handsUp","vehicle","civilianOfficer","acceptableOff","100","","","",""
"71",4568,"{""Q0"":1}","[object Object]","survey-likert",70,1293102,"0.0-70.0","8977u6c6mvztpg6wvhfyev94gfkbert4","Thu Mar 02 2017 12:46:15 GMT-0500 (Eastern Standard Time)","male","White","conservative","",NA,"","offCivRatings","the officer shouted ""get your fucking hands up!"" at the civilian","the civilian purposefully struck the officer with a motor vehicle","handsUp","vehicle","civilianOfficer","appropriateOff","1","","","",""
"72",3089,"{""Q0"":1}","[object Object]","survey-likert",71,1296208,"0.0-71.0","8977u6c6mvztpg6wvhfyev94gfkbert4","Thu Mar 02 2017 12:46:15 GMT-0500 (Eastern Standard Time)","male","White","conservative","",NA,"","offCivRatings","the officer shouted ""get your fucking hands up!"" at the civilian","the civilian purposefully struck the officer with a motor vehicle","handsUp","vehicle","civilianOfficer","forceOff","1","","","",""
"73",2998,"{""Q0"":1}","[object Object]","survey-likert",72,1299222,"0.0-72.0","8977u6c6mvztpg6wvhfyev94gfkbert4","Thu Mar 02 2017 12:46:15 GMT-0500 (Eastern Standard Time)","male","White","conservative","",NA,"","offCivRatings","the officer shouted ""get your fucking hands up!"" at the civilian","the civilian purposefully struck the officer with a motor vehicle","handsUp","vehicle","civilianOfficer","punishOff","1","","","",""
"74",870,"","","instructions",73,1300092,"0.0-73.0","8977u6c6mvztpg6wvhfyev94gfkbert4","Thu Mar 02 2017 12:46:15 GMT-0500 (Eastern Standard Time)","male","White","conservative","",NA,"[{""page_index"":0,""viewing_time"":869}]","break","","","","","","","","","","",""
"75",5880,"{""Q0"":3}","[object Object]","survey-likert",74,1306186,"0.0-74.0","8977u6c6mvztpg6wvhfyev94gfkbert4","Thu Mar 02 2017 12:46:15 GMT-0500 (Eastern Standard Time)","male","White","conservative","",NA,"","offCivRatings","the officer shot the civilian in the chest with a handgun","the civilian shot the officer in the chest with a handgun","handgunChest","handgunChest","officerCivilian","acceptableCiv","3","","","",""
"76",3434,"{""Q0"":100}","[object Object]","survey-likert",75,1309635,"0.0-75.0","8977u6c6mvztpg6wvhfyev94gfkbert4","Thu Mar 02 2017 12:46:15 GMT-0500 (Eastern Standard Time)","male","White","conservative","",NA,"","offCivRatings","the officer shot the civilian in the chest with a handgun","the civilian shot the officer in the chest with a handgun","handgunChest","handgunChest","officerCivilian","forceCiv","100","","","",""
"77",3576,"{""Q0"":100}","[object Object]","survey-likert",76,1313226,"0.0-76.0","8977u6c6mvztpg6wvhfyev94gfkbert4","Thu Mar 02 2017 12:46:15 GMT-0500 (Eastern Standard Time)","male","White","conservative","",NA,"","offCivRatings","the officer shot the civilian in the chest with a handgun","the civilian shot the officer in the chest with a handgun","handgunChest","handgunChest","officerCivilian","appropriateCiv","100","","","",""
"78",2489,"{""Q0"":100}","[object Object]","survey-likert",77,1315730,"0.0-77.0","8977u6c6mvztpg6wvhfyev94gfkbert4","Thu Mar 02 2017 12:46:15 GMT-0500 (Eastern Standard Time)","male","White","conservative","",NA,"","offCivRatings","the officer shot the civilian in the chest with a handgun","the civilian shot the officer in the chest with a handgun","handgunChest","handgunChest","officerCivilian","punishCiv","100","","","",""
"79",1149,"","","instructions",78,1316880,"0.0-78.0","8977u6c6mvztpg6wvhfyev94gfkbert4","Thu Mar 02 2017 12:46:15 GMT-0500 (Eastern Standard Time)","male","White","conservative","",NA,"[{""page_index"":0,""viewing_time"":1148}]","break","","","","","","","","","","",""
"80",7699,"{""Q0"":21}","[object Object]","survey-likert",79,1324795,"0.0-79.0","8977u6c6mvztpg6wvhfyev94gfkbert4","Thu Mar 02 2017 12:46:15 GMT-0500 (Eastern Standard Time)","male","White","conservative","",NA,"","offCivRatings","the officer struck the civilian in the stomach with a metal flashlight","the civilian yelled ""get back!"" at the officer","flashlight","getBack","officerCivilian","appropriateCiv","21","","","",""
"81",3681,"{""Q0"":100}","[object Object]","survey-likert",80,1328491,"0.0-80.0","8977u6c6mvztpg6wvhfyev94gfkbert4","Thu Mar 02 2017 12:46:15 GMT-0500 (Eastern Standard Time)","male","White","conservative","",NA,"","offCivRatings","the officer struck the civilian in the stomach with a metal flashlight","the civilian yelled ""get back!"" at the officer","flashlight","getBack","officerCivilian","manipCheckHigh","100","","","",""
"82",7617,"{""Q0"":1}","[object Object]","survey-likert",81,1336122,"0.0-81.0","8977u6c6mvztpg6wvhfyev94gfkbert4","Thu Mar 02 2017 12:46:15 GMT-0500 (Eastern Standard Time)","male","White","conservative","",NA,"","offCivRatings","the officer struck the civilian in the stomach with a metal flashlight","the civilian yelled ""get back!"" at the officer","flashlight","getBack","officerCivilian","punishCiv","1","","","",""
"83",2657,"{""Q0"":100}","[object Object]","survey-likert",82,1338795,"0.0-82.0","8977u6c6mvztpg6wvhfyev94gfkbert4","Thu Mar 02 2017 12:46:15 GMT-0500 (Eastern Standard Time)","male","White","conservative","",NA,"","offCivRatings","the officer struck the civilian in the stomach with a metal flashlight","the civilian yelled ""get back!"" at the officer","flashlight","getBack","officerCivilian","acceptableCiv","100","","","",""
"84",2657,"{""Q0"":1}","[object Object]","survey-likert",83,1341467,"0.0-83.0","8977u6c6mvztpg6wvhfyev94gfkbert4","Thu Mar 02 2017 12:46:15 GMT-0500 (Eastern Standard Time)","male","White","conservative","",NA,"","offCivRatings","the officer struck the civilian in the stomach with a metal flashlight","the civilian yelled ""get back!"" at the officer","flashlight","getBack","officerCivilian","forceCiv","1","","","",""
"85",1228,"","","instructions",84,1342696,"0.0-84.0","8977u6c6mvztpg6wvhfyev94gfkbert4","Thu Mar 02 2017 12:46:15 GMT-0500 (Eastern Standard Time)","male","White","conservative","",NA,"[{""page_index"":0,""viewing_time"":1227}]","break","","","","","","","","","","",""
"86",6628,"{""Q0"":1}","[object Object]","survey-likert",85,1349538,"0.0-85.0","8977u6c6mvztpg6wvhfyev94gfkbert4","Thu Mar 02 2017 12:46:15 GMT-0500 (Eastern Standard Time)","male","White","conservative","",NA,"","offCivRatings","the officer waved at the civilian in greeting","the civilian struck the officer in the stomach with a metal flashlight","waved","flashlight","civilianOfficer","punishOff","1","","","",""
"87",2784,"{""Q0"":100}","[object Object]","survey-likert",86,1352338,"0.0-86.0","8977u6c6mvztpg6wvhfyev94gfkbert4","Thu Mar 02 2017 12:46:15 GMT-0500 (Eastern Standard Time)","male","White","conservative","",NA,"","offCivRatings","the officer waved at the civilian in greeting","the civilian struck the officer in the stomach with a metal flashlight","waved","flashlight","civilianOfficer","manipCheckHigh","100","","","",""
"88",7986,"{""Q0"":1}","[object Object]","survey-likert",87,1360339,"0.0-87.0","8977u6c6mvztpg6wvhfyev94gfkbert4","Thu Mar 02 2017 12:46:15 GMT-0500 (Eastern Standard Time)","male","White","conservative","",NA,"","offCivRatings","the officer waved at the civilian in greeting","the civilian struck the officer in the stomach with a metal flashlight","waved","flashlight","civilianOfficer","appropriateOff","1","","","",""
"89",1977,"{""Q0"":100}","[object Object]","survey-likert",88,1362331,"0.0-88.0","8977u6c6mvztpg6wvhfyev94gfkbert4","Thu Mar 02 2017 12:46:15 GMT-0500 (Eastern Standard Time)","male","White","conservative","",NA,"","offCivRatings","the officer waved at the civilian in greeting","the civilian struck the officer in the stomach with a metal flashlight","waved","flashlight","civilianOfficer","acceptableOff","100","","","",""
"90",4126,"{""Q0"":1}","[object Object]","survey-likert",89,1366471,"0.0-89.0","8977u6c6mvztpg6wvhfyev94gfkbert4","Thu Mar 02 2017 12:46:15 GMT-0500 (Eastern Standard Time)","male","White","conservative","",NA,"","offCivRatings","the officer waved at the civilian in greeting","the civilian struck the officer in the stomach with a metal flashlight","waved","flashlight","civilianOfficer","forceOff","1","","","",""
"91",734,"","","instructions",90,1367206,"0.0-90.0","8977u6c6mvztpg6wvhfyev94gfkbert4","Thu Mar 02 2017 12:46:15 GMT-0500 (Eastern Standard Time)","male","White","conservative","",NA,"[{""page_index"":0,""viewing_time"":733}]","break","","","","","","","","","","",""
"92",5450,"{""Q0"":21}","[object Object]","survey-likert",91,1372872,"0.0-91.0","8977u6c6mvztpg6wvhfyev94gfkbert4","Thu Mar 02 2017 12:46:15 GMT-0500 (Eastern Standard Time)","male","White","conservative","",NA,"","offCivRatings","the officer stood near the civilian","the civilian shouted ""I don't have to fucking listen to you!"" at the officer","stoodNear","dontListen","officerCivilian","acceptableCiv","21","","","",""
"93",2761,"{""Q0"":40}","[object Object]","survey-likert",92,1375648,"0.0-92.0","8977u6c6mvztpg6wvhfyev94gfkbert4","Thu Mar 02 2017 12:46:15 GMT-0500 (Eastern Standard Time)","male","White","conservative","",NA,"","offCivRatings","the officer stood near the civilian","the civilian shouted ""I don't have to fucking listen to you!"" at the officer","stoodNear","dontListen","officerCivilian","forceCiv","40","","","",""
"94",2609,"{""Q0"":59}","[object Object]","survey-likert",93,1378271,"0.0-93.0","8977u6c6mvztpg6wvhfyev94gfkbert4","Thu Mar 02 2017 12:46:15 GMT-0500 (Eastern Standard Time)","male","White","conservative","",NA,"","offCivRatings","the officer stood near the civilian","the civilian shouted ""I don't have to fucking listen to you!"" at the officer","stoodNear","dontListen","officerCivilian","appropriateCiv","59","","","",""
"95",5489,"{""Q0"":36}","[object Object]","survey-likert",94,1383775,"0.0-94.0","8977u6c6mvztpg6wvhfyev94gfkbert4","Thu Mar 02 2017 12:46:15 GMT-0500 (Eastern Standard Time)","male","White","conservative","",NA,"","offCivRatings","the officer stood near the civilian","the civilian shouted ""I don't have to fucking listen to you!"" at the officer","stoodNear","dontListen","officerCivilian","punishCiv","36","","","",""
"96",645,"","","instructions",95,1384421,"0.0-95.0","8977u6c6mvztpg6wvhfyev94gfkbert4","Thu Mar 02 2017 12:46:15 GMT-0500 (Eastern Standard Time)","male","White","conservative","",NA,"[{""page_index"":0,""viewing_time"":644}]","break","","","","","","","","","","",""
"97",5244,"{""Q0"":70}","[object Object]","survey-likert",96,1389880,"0.0-96.0","8977u6c6mvztpg6wvhfyev94gfkbert4","Thu Mar 02 2017 12:46:15 GMT-0500 (Eastern Standard Time)","male","White","conservative","",NA,"","offCivRatings","the officer shot the civilian in the chest with a beanbag shotgun round","the civilian hit the officer in the chest with a baseball bat","beanbag","ballBat","civilianOfficer","forceOff","70","","","",""
"98",2584,"{""Q0"":1}","[object Object]","survey-likert",97,1392480,"0.0-97.0","8977u6c6mvztpg6wvhfyev94gfkbert4","Thu Mar 02 2017 12:46:15 GMT-0500 (Eastern Standard Time)","male","White","conservative","",NA,"","offCivRatings","the officer shot the civilian in the chest with a beanbag shotgun round","the civilian hit the officer in the chest with a baseball bat","beanbag","ballBat","civilianOfficer","punishOff","1","","","",""
"99",2384,"{""Q0"":100}","[object Object]","survey-likert",98,1394880,"0.0-98.0","8977u6c6mvztpg6wvhfyev94gfkbert4","Thu Mar 02 2017 12:46:15 GMT-0500 (Eastern Standard Time)","male","White","conservative","",NA,"","offCivRatings","the officer shot the civilian in the chest with a beanbag shotgun round","the civilian hit the officer in the chest with a baseball bat","beanbag","ballBat","civilianOfficer","acceptableOff","100","","","",""
"100",2865,"{""Q0"":100}","[object Object]","survey-likert",99,1397760,"0.0-99.0","8977u6c6mvztpg6wvhfyev94gfkbert4","Thu Mar 02 2017 12:46:15 GMT-0500 (Eastern Standard Time)","male","White","conservative","",NA,"","offCivRatings","the officer shot the civilian in the chest with a beanbag shotgun round","the civilian hit the officer in the chest with a baseball bat","beanbag","ballBat","civilianOfficer","manipCheckHigh","100","","","",""
"101",2049,"{""Q0"":63}","[object Object]","survey-likert",100,1399824,"0.0-100.0","8977u6c6mvztpg6wvhfyev94gfkbert4","Thu Mar 02 2017 12:46:15 GMT-0500 (Eastern Standard Time)","male","White","conservative","",NA,"","offCivRatings","the officer shot the civilian in the chest with a beanbag shotgun round","the civilian hit the officer in the chest with a baseball bat","beanbag","ballBat","civilianOfficer","appropriateOff","63","","","",""
"102",1101,"","","instructions",101,1400925,"0.0-101.0","8977u6c6mvztpg6wvhfyev94gfkbert4","Thu Mar 02 2017 12:46:15 GMT-0500 (Eastern Standard Time)","male","White","conservative","",NA,"[{""page_index"":0,""viewing_time"":1100}]","break","","","","","","","","","","",""
"103",4276,"{""Q0"":100}","[object Object]","survey-likert",102,1405415,"0.0-102.0","8977u6c6mvztpg6wvhfyev94gfkbert4","Thu Mar 02 2017 12:46:15 GMT-0500 (Eastern Standard Time)","male","White","conservative","",NA,"","offCivRatings","the officer said ""if you touch me, you're gonna get hurt"" to the civilian","the civilian applied a chokehold to the officer","hurtThreat","choke","civilianOfficer","acceptableOff","100","","","",""
"104",3176,"{""Q0"":1}","[object Object]","survey-likert",103,1408608,"0.0-103.0","8977u6c6mvztpg6wvhfyev94gfkbert4","Thu Mar 02 2017 12:46:15 GMT-0500 (Eastern Standard Time)","male","White","conservative","",NA,"","offCivRatings","the officer said ""if you touch me, you're gonna get hurt"" to the civilian","the civilian applied a chokehold to the officer","hurtThreat","choke","civilianOfficer","manipCheckLow","1","","","",""
"105",3130,"{""Q0"":77}","[object Object]","survey-likert",104,1411752,"0.0-104.0","8977u6c6mvztpg6wvhfyev94gfkbert4","Thu Mar 02 2017 12:46:15 GMT-0500 (Eastern Standard Time)","male","White","conservative","",NA,"","offCivRatings","the officer said ""if you touch me, you're gonna get hurt"" to the civilian","the civilian applied a chokehold to the officer","hurtThreat","choke","civilianOfficer","appropriateOff","77","","","",""
"106",1650,"{""Q0"":16}","[object Object]","survey-likert",105,1413416,"0.0-105.0","8977u6c6mvztpg6wvhfyev94gfkbert4","Thu Mar 02 2017 12:46:15 GMT-0500 (Eastern Standard Time)","male","White","conservative","",NA,"","offCivRatings","the officer said ""if you touch me, you're gonna get hurt"" to the civilian","the civilian applied a chokehold to the officer","hurtThreat","choke","civilianOfficer","forceOff","16","","","",""
"107",2232,"{""Q0"":1}","[object Object]","survey-likert",106,1415663,"0.0-106.0","8977u6c6mvztpg6wvhfyev94gfkbert4","Thu Mar 02 2017 12:46:15 GMT-0500 (Eastern Standard Time)","male","White","conservative","",NA,"","offCivRatings","the officer said ""if you touch me, you're gonna get hurt"" to the civilian","the civilian applied a chokehold to the officer","hurtThreat","choke","civilianOfficer","punishOff","1","","","",""
"108",1070,"","","instructions",107,1416733,"0.0-107.0","8977u6c6mvztpg6wvhfyev94gfkbert4","Thu Mar 02 2017 12:46:15 GMT-0500 (Eastern Standard Time)","male","White","conservative","",NA,"[{""page_index"":0,""viewing_time"":1069}]","break","","","","","","","","","","",""
"109",7181,"{""Q0"":100}","[object Object]","survey-likert",108,1424128,"0.0-108.0","8977u6c6mvztpg6wvhfyev94gfkbert4","Thu Mar 02 2017 12:46:15 GMT-0500 (Eastern Standard Time)","male","White","conservative","",NA,"","offCivRatings","the officer purposefully struck the civilian with a motor vehicle","the civilian shocked the officer with a tazer","vehicle","tazer","civilianOfficer","forceOff","100","","","",""
"110",2301,"{""Q0"":17}","[object Object]","survey-likert",109,1426443,"0.0-109.0","8977u6c6mvztpg6wvhfyev94gfkbert4","Thu Mar 02 2017 12:46:15 GMT-0500 (Eastern Standard Time)","male","White","conservative","",NA,"","offCivRatings","the officer purposefully struck the civilian with a motor vehicle","the civilian shocked the officer with a tazer","vehicle","tazer","civilianOfficer","punishOff","17","","","",""
"111",2049,"{""Q0"":74}","[object Object]","survey-likert",110,1428508,"0.0-110.0","8977u6c6mvztpg6wvhfyev94gfkbert4","Thu Mar 02 2017 12:46:15 GMT-0500 (Eastern Standard Time)","male","White","conservative","",NA,"","offCivRatings","the officer purposefully struck the civilian with a motor vehicle","the civilian shocked the officer with a tazer","vehicle","tazer","civilianOfficer","appropriateOff","74","","","",""
"112",4544,"{""Q0"":84}","[object Object]","survey-likert",111,1433068,"0.0-111.0","8977u6c6mvztpg6wvhfyev94gfkbert4","Thu Mar 02 2017 12:46:15 GMT-0500 (Eastern Standard Time)","male","White","conservative","",NA,"","offCivRatings","the officer purposefully struck the civilian with a motor vehicle","the civilian shocked the officer with a tazer","vehicle","tazer","civilianOfficer","acceptableOff","84","","","",""
"113",829,"","","instructions",112,1433897,"0.0-112.0","8977u6c6mvztpg6wvhfyev94gfkbert4","Thu Mar 02 2017 12:46:15 GMT-0500 (Eastern Standard Time)","male","White","conservative","",NA,"[{""page_index"":0,""viewing_time"":829}]","break","","","","","","","","","","",""
"114",5147,"{""Q0"":32}","[object Object]","survey-likert",113,1439259,"0.0-113.0","8977u6c6mvztpg6wvhfyev94gfkbert4","Thu Mar 02 2017 12:46:15 GMT-0500 (Eastern Standard Time)","male","White","conservative","",NA,"","offCivRatings","the officer headbutted the civilian in the face","the civilian called the officer a ""pig""","headbutt","nameCall","officerCivilian","appropriateCiv","32","","","",""
"115",3427,"{""Q0"":18}","[object Object]","survey-likert",114,1442700,"0.0-114.0","8977u6c6mvztpg6wvhfyev94gfkbert4","Thu Mar 02 2017 12:46:15 GMT-0500 (Eastern Standard Time)","male","White","conservative","",NA,"","offCivRatings","the officer headbutted the civilian in the face","the civilian called the officer a ""pig""","headbutt","nameCall","officerCivilian","forceCiv","18","","","",""
"116",4856,"{""Q0"":27}","[object Object]","survey-likert",115,1447572,"0.0-115.0","8977u6c6mvztpg6wvhfyev94gfkbert4","Thu Mar 02 2017 12:46:15 GMT-0500 (Eastern Standard Time)","male","White","conservative","",NA,"","offCivRatings","the officer headbutted the civilian in the face","the civilian called the officer a ""pig""","headbutt","nameCall","officerCivilian","acceptableCiv","27","","","",""
"117",3241,"{""Q0"":100}","[object Object]","survey-likert",116,1450827,"0.0-116.0","8977u6c6mvztpg6wvhfyev94gfkbert4","Thu Mar 02 2017 12:46:15 GMT-0500 (Eastern Standard Time)","male","White","conservative","",NA,"","offCivRatings","the officer headbutted the civilian in the face","the civilian called the officer a ""pig""","headbutt","nameCall","officerCivilian","manipCheckHigh","100","","","",""
"118",3377,"{""Q0"":1}","[object Object]","survey-likert",117,1454219,"0.0-117.0","8977u6c6mvztpg6wvhfyev94gfkbert4","Thu Mar 02 2017 12:46:15 GMT-0500 (Eastern Standard Time)","male","White","conservative","",NA,"","offCivRatings","the officer headbutted the civilian in the face","the civilian called the officer a ""pig""","headbutt","nameCall","officerCivilian","punishCiv","1","","","",""
"119",749,"","","instructions",118,1454969,"0.0-118.0","8977u6c6mvztpg6wvhfyev94gfkbert4","Thu Mar 02 2017 12:46:15 GMT-0500 (Eastern Standard Time)","male","White","conservative","",NA,"[{""page_index"":0,""viewing_time"":748}]","break","","","","","","","","","","",""
"120",4852,"{""Q0"":66}","[object Object]","survey-likert",119,1460036,"0.0-119.0","8977u6c6mvztpg6wvhfyev94gfkbert4","Thu Mar 02 2017 12:46:15 GMT-0500 (Eastern Standard Time)","male","White","conservative","",NA,"","offCivRatings","the officer applied a chokehold to the civilian","the civilian pulled away from the officer","choke","pulledAway","officerCivilian","acceptableCiv","66","","","",""
"121",2145,"{""Q0"":53}","[object Object]","survey-likert",120,1462196,"0.0-120.0","8977u6c6mvztpg6wvhfyev94gfkbert4","Thu Mar 02 2017 12:46:15 GMT-0500 (Eastern Standard Time)","male","White","conservative","",NA,"","offCivRatings","the officer applied a chokehold to the civilian","the civilian pulled away from the officer","choke","pulledAway","officerCivilian","forceCiv","53","","","",""
"122",3200,"{""Q0"":67}","[object Object]","survey-likert",121,1465411,"0.0-121.0","8977u6c6mvztpg6wvhfyev94gfkbert4","Thu Mar 02 2017 12:46:15 GMT-0500 (Eastern Standard Time)","male","White","conservative","",NA,"","offCivRatings","the officer applied a chokehold to the civilian","the civilian pulled away from the officer","choke","pulledAway","officerCivilian","appropriateCiv","67","","","",""
"123",2537,"{""Q0"":1}","[object Object]","survey-likert",122,1467963,"0.0-122.0","8977u6c6mvztpg6wvhfyev94gfkbert4","Thu Mar 02 2017 12:46:15 GMT-0500 (Eastern Standard Time)","male","White","conservative","",NA,"","offCivRatings","the officer applied a chokehold to the civilian","the civilian pulled away from the officer","choke","pulledAway","officerCivilian","punishCiv","1","","","",""
"124",1149,"","","instructions",123,1469113,"0.0-123.0","8977u6c6mvztpg6wvhfyev94gfkbert4","Thu Mar 02 2017 12:46:15 GMT-0500 (Eastern Standard Time)","male","White","conservative","",NA,"[{""page_index"":0,""viewing_time"":1148}]","break","","","","","","","","","","",""
"125",6138,"{""Q0"":90}","[object Object]","survey-likert",124,1475468,"0.0-124.0","8977u6c6mvztpg6wvhfyev94gfkbert4","Thu Mar 02 2017 12:46:15 GMT-0500 (Eastern Standard Time)","male","White","conservative","",NA,"","policeLegitimacy","","","","","","","90","support","feltObligation","",""
"126",2808,"{""Q0"":100}","[object Object]","survey-likert",125,1478292,"0.0-125.0","8977u6c6mvztpg6wvhfyev94gfkbert4","Thu Mar 02 2017 12:46:15 GMT-0500 (Eastern Standard Time)","male","White","conservative","",NA,"","policeLegitimacy","","","","","","","100","communityWants","normAlignment","",""
"127",2969,"{""Q0"":100}","[object Object]","survey-likert",126,1481275,"0.0-126.0","8977u6c6mvztpg6wvhfyev94gfkbert4","Thu Mar 02 2017 12:46:15 GMT-0500 (Eastern Standard Time)","male","White","conservative","",NA,"","policeLegitimacy","","","","","","","100","rightWrong","normAlignment","",""
"128",5247,"{""Q0"":100}","[object Object]","survey-likert",127,1486537,"0.0-127.0","8977u6c6mvztpg6wvhfyev94gfkbert4","Thu Mar 02 2017 12:46:15 GMT-0500 (Eastern Standard Time)","male","White","conservative","",NA,"","policeLegitimacy","","","","","","","100","importantValues","normAlignment","",""
"129",3465,"{""Q0"":100}","[object Object]","survey-likert",128,1490016,"0.0-128.0","8977u6c6mvztpg6wvhfyev94gfkbert4","Thu Mar 02 2017 12:46:15 GMT-0500 (Eastern Standard Time)","male","White","conservative","",NA,"","policeLegitimacy","","","","","","","100","doReasons","feltObligation","",""
"130",3314,"{""Q0"":100}","[object Object]","survey-likert",129,1493344,"0.0-129.0","8977u6c6mvztpg6wvhfyev94gfkbert4","Thu Mar 02 2017 12:46:15 GMT-0500 (Eastern Standard Time)","male","White","conservative","",NA,"","policeLegitimacy","","","","","","","100","doTreat","feltObligation","",""
"131",5469,"{""Q0"":""no""}","[object Object]","survey-multi-choice2",130,1498825,"0.0-130.0","8977u6c6mvztpg6wvhfyev94gfkbert4","Thu Mar 02 2017 12:46:15 GMT-0500 (Eastern Standard Time)","male","White","conservative","",NA,"","policeExperience","","","","","","","no","corrupt","","personal","Have you ever seen a police officer engage in any corrupt activities (e.g., taking bribes or involvement in the drug trade)?"
"132",3901,"{""Q0"":""no""}","[object Object]","survey-multi-choice2",131,1502735,"0.0-131.0","8977u6c6mvztpg6wvhfyev94gfkbert4","Thu Mar 02 2017 12:46:15 GMT-0500 (Eastern Standard Time)","male","White","conservative","",NA,"","policeExperience","","","","","","","no","stopped","","vicarious","Has anyone in your household ever been stopped on the street by the police without good reason?"
"133",2313,"{""Q0"":""no""}","[object Object]","survey-multi-choice2",132,1505054,"0.0-132.0","8977u6c6mvztpg6wvhfyev94gfkbert4","Thu Mar 02 2017 12:46:15 GMT-0500 (Eastern Standard Time)","male","White","conservative","",NA,"","policeExperience","","","","","","","no","excessForce","","personal","Have the police ever used excessive force against you?"
"134",5410,"{""Q0"":""yes""}","[object Object]","survey-multi-choice2",133,1510471,"0.0-133.0","8977u6c6mvztpg6wvhfyev94gfkbert4","Thu Mar 02 2017 12:46:15 GMT-0500 (Eastern Standard Time)","male","White","conservative","",NA,"","policeExperience","","","","","","","yes","insultLang","","personal","Have the police ever used insulting language toward you?"
"135",3115,"{""Q0"":""no""}","[object Object]","survey-multi-choice2",134,1513592,"0.0-134.0","8977u6c6mvztpg6wvhfyev94gfkbert4","Thu Mar 02 2017 12:46:15 GMT-0500 (Eastern Standard Time)","male","White","conservative","",NA,"","policeExperience","","","","","","","no","excessForce","","vicarious","Have the police ever used excessive force against anyone in your household?"
"136",5249,"{""Q0"":""no""}","[object Object]","survey-multi-choice2",135,1518847,"0.0-135.0","8977u6c6mvztpg6wvhfyev94gfkbert4","Thu Mar 02 2017 12:46:15 GMT-0500 (Eastern Standard Time)","male","White","conservative","",NA,"","policeExperience","","","","","","","no","insultLang","","vicarious","Have the police ever used insulting language toward anyone in your household?"
"137",3106,"{""Q0"":""no""}","[object Object]","survey-multi-choice2",136,1521959,"0.0-136.0","8977u6c6mvztpg6wvhfyev94gfkbert4","Thu Mar 02 2017 12:46:15 GMT-0500 (Eastern Standard Time)","male","White","conservative","",NA,"","policeExperience","","","","","","","no","stopped","","personal","Have you ever been stopped by the police on the street without good reason?"
"138",7718,"{""Q0"":""male"",""Q1"":""White"",""Q2"":""conservative""}","[object Object]","survey-multi-choice",137,1529706,"0.0-137.0","8977u6c6mvztpg6wvhfyev94gfkbert4","Thu Mar 02 2017 12:46:15 GMT-0500 (Eastern Standard Time)","male","White","conservative","",NA,"","demographics","","","","","","","","","","",""
"139",11603,"","","instructions",138,1542310,"0.0-138.0","8977u6c6mvztpg6wvhfyev94gfkbert4","Thu Mar 02 2017 12:46:15 GMT-0500 (Eastern Standard Time)","male","White","conservative","",NA,"[{""page_index"":0,""viewing_time"":2082},{""page_index"":1,""viewing_time"":4480},{""page_index"":2,""viewing_time"":3056},{""page_index"":3,""viewing_time"":1984}]","debriefing","","","","","","","","","","",""
