"","rt","responses","internalResp","trial_type","trial_index","time_elapsed","internal_node_id","randSubjectID","date","sex","race","polAff","stimulus","key_press","view_history","questionType","officerAction","civilianAction","offActName","civActName","order","questionName","response","name","dimension","person","question"
"1",8883,"","[object Object]","survey-text",0,8893,"0.0-0.0","8rkxoo27fjcczmr2dvt4b1ktn6mog8n9","Wed Apr 26 2017 23:13:35 GMT-0400 (US Eastern Standard Time)","male","Asian","don't know/not political","",NA,"","","","","","","","","","","","",""
"2",4079,"","","single-stim",1,14003,"0.0-1.0","8rkxoo27fjcczmr2dvt4b1ktn6mog8n9","Wed Apr 26 2017 23:13:35 GMT-0400 (US Eastern Standard Time)","male","Asian","don't know/not political","<img src='static/images/1602685960_ICS_Credit-0.png' alt='Consent 1' height=1100 width=850><img src='static/images/1602685960_ICS_Credit-1.png' alt='Consent 2' height=1100 width=850></p>",89,"","","","","","","","","","","","",""
"3",1255,"","","instructions",2,16262,"0.0-2.0","8rkxoo27fjcczmr2dvt4b1ktn6mog8n9","Wed Apr 26 2017 23:13:35 GMT-0400 (US Eastern Standard Time)","male","Asian","don't know/not political","",NA,"[{""page_index"":0,""viewing_time"":1254}]","instructions","","","","","","","","","","",""
"4",3098,"","","instructions",3,20362,"0.0-3.0","8rkxoo27fjcczmr2dvt4b1ktn6mog8n9","Wed Apr 26 2017 23:13:35 GMT-0400 (US Eastern Standard Time)","male","Asian","don't know/not political","",NA,"[{""page_index"":0,""viewing_time"":784},{""page_index"":1,""viewing_time"":850},{""page_index"":2,""viewing_time"":802},{""page_index"":3,""viewing_time"":662}]","instructions","","","","","","","","","","",""
"5",15161,"{""Q0"":56}","[object Object]","survey-likert",4,36579,"0.0-4.0","8rkxoo27fjcczmr2dvt4b1ktn6mog8n9","Wed Apr 26 2017 23:13:35 GMT-0400 (US Eastern Standard Time)","male","Asian","don't know/not political","",NA,"","offCivRatings","the officer shocked the civilian with a tazer","the civilian called the officer a ""pig""","tazer","nameCall","civilianOfficer","appropriateOff","56","","","",""
"6",12164,"{""Q0"":60}","[object Object]","survey-likert",5,48758,"0.0-5.0","8rkxoo27fjcczmr2dvt4b1ktn6mog8n9","Wed Apr 26 2017 23:13:35 GMT-0400 (US Eastern Standard Time)","male","Asian","don't know/not political","",NA,"","offCivRatings","the officer shocked the civilian with a tazer","the civilian called the officer a ""pig""","tazer","nameCall","civilianOfficer","acceptableOff","60","","","",""
"7",9205,"{""Q0"":100}","[object Object]","survey-likert",6,57974,"0.0-6.0","8rkxoo27fjcczmr2dvt4b1ktn6mog8n9","Wed Apr 26 2017 23:13:35 GMT-0400 (US Eastern Standard Time)","male","Asian","don't know/not political","",NA,"","offCivRatings","the officer shocked the civilian with a tazer","the civilian called the officer a ""pig""","tazer","nameCall","civilianOfficer","manipCheckHigh","100","","","",""
"8",4872,"{""Q0"":59}","[object Object]","survey-likert",7,62860,"0.0-7.0","8rkxoo27fjcczmr2dvt4b1ktn6mog8n9","Wed Apr 26 2017 23:13:35 GMT-0400 (US Eastern Standard Time)","male","Asian","don't know/not political","",NA,"","offCivRatings","the officer shocked the civilian with a tazer","the civilian called the officer a ""pig""","tazer","nameCall","civilianOfficer","punishOff","59","","","",""
"9",8087,"{""Q0"":87}","[object Object]","survey-likert",8,70963,"0.0-8.0","8rkxoo27fjcczmr2dvt4b1ktn6mog8n9","Wed Apr 26 2017 23:13:35 GMT-0400 (US Eastern Standard Time)","male","Asian","don't know/not political","",NA,"","offCivRatings","the officer shocked the civilian with a tazer","the civilian called the officer a ""pig""","tazer","nameCall","civilianOfficer","forceOff","87","","","",""
"10",1041,"","","instructions",9,72005,"0.0-9.0","8rkxoo27fjcczmr2dvt4b1ktn6mog8n9","Wed Apr 26 2017 23:13:35 GMT-0400 (US Eastern Standard Time)","male","Asian","don't know/not political","",NA,"[{""page_index"":0,""viewing_time"":1041}]","break","","","","","","","","","","",""
"11",13228,"{""Q0"":61}","[object Object]","survey-likert",10,85463,"0.0-10.0","8rkxoo27fjcczmr2dvt4b1ktn6mog8n9","Wed Apr 26 2017 23:13:35 GMT-0400 (US Eastern Standard Time)","male","Asian","don't know/not political","",NA,"","offCivRatings","the officer stood near the civilian","the civilian waved at the officer in greeting","stoodNear","waved","civilianOfficer","forceOff","61","","","",""
"12",3565,"{""Q0"":17}","[object Object]","survey-likert",11,89040,"0.0-11.0","8rkxoo27fjcczmr2dvt4b1ktn6mog8n9","Wed Apr 26 2017 23:13:35 GMT-0400 (US Eastern Standard Time)","male","Asian","don't know/not political","",NA,"","offCivRatings","the officer stood near the civilian","the civilian waved at the officer in greeting","stoodNear","waved","civilianOfficer","punishOff","17","","","",""
"13",3623,"{""Q0"":100}","[object Object]","survey-likert",12,92677,"0.0-12.0","8rkxoo27fjcczmr2dvt4b1ktn6mog8n9","Wed Apr 26 2017 23:13:35 GMT-0400 (US Eastern Standard Time)","male","Asian","don't know/not political","",NA,"","offCivRatings","the officer stood near the civilian","the civilian waved at the officer in greeting","stoodNear","waved","civilianOfficer","manipCheckHigh","100","","","",""
"14",6472,"{""Q0"":58}","[object Object]","survey-likert",13,99159,"0.0-13.0","8rkxoo27fjcczmr2dvt4b1ktn6mog8n9","Wed Apr 26 2017 23:13:35 GMT-0400 (US Eastern Standard Time)","male","Asian","don't know/not political","",NA,"","offCivRatings","the officer stood near the civilian","the civilian waved at the officer in greeting","stoodNear","waved","civilianOfficer","appropriateOff","58","","","",""
"15",4348,"{""Q0"":80}","[object Object]","survey-likert",14,103520,"0.0-14.0","8rkxoo27fjcczmr2dvt4b1ktn6mog8n9","Wed Apr 26 2017 23:13:35 GMT-0400 (US Eastern Standard Time)","male","Asian","don't know/not political","",NA,"","offCivRatings","the officer stood near the civilian","the civilian waved at the officer in greeting","stoodNear","waved","civilianOfficer","acceptableOff","80","","","",""
"16",1399,"","","instructions",15,104920,"0.0-15.0","8rkxoo27fjcczmr2dvt4b1ktn6mog8n9","Wed Apr 26 2017 23:13:35 GMT-0400 (US Eastern Standard Time)","male","Asian","don't know/not political","",NA,"[{""page_index"":0,""viewing_time"":1399}]","break","","","","","","","","","","",""
"17",13925,"{""Q0"":14}","[object Object]","survey-likert",16,119085,"0.0-16.0","8rkxoo27fjcczmr2dvt4b1ktn6mog8n9","Wed Apr 26 2017 23:13:35 GMT-0400 (US Eastern Standard Time)","male","Asian","don't know/not political","",NA,"","offCivRatings","the officer waved at the civilian in greeting","the civilian shocked the officer with a tazer","waved","tazer","civilianOfficer","acceptableOff","14","","","",""
"18",3342,"{""Q0"":1}","[object Object]","survey-likert",17,122436,"0.0-17.0","8rkxoo27fjcczmr2dvt4b1ktn6mog8n9","Wed Apr 26 2017 23:13:35 GMT-0400 (US Eastern Standard Time)","male","Asian","don't know/not political","",NA,"","offCivRatings","the officer waved at the civilian in greeting","the civilian shocked the officer with a tazer","waved","tazer","civilianOfficer","punishOff","1","","","",""
"19",4180,"{""Q0"":1}","[object Object]","survey-likert",18,126658,"0.0-18.0","8rkxoo27fjcczmr2dvt4b1ktn6mog8n9","Wed Apr 26 2017 23:13:35 GMT-0400 (US Eastern Standard Time)","male","Asian","don't know/not political","",NA,"","offCivRatings","the officer waved at the civilian in greeting","the civilian shocked the officer with a tazer","waved","tazer","civilianOfficer","forceOff","1","","","",""
"20",10118,"{""Q0"":3}","[object Object]","survey-likert",19,136792,"0.0-19.0","8rkxoo27fjcczmr2dvt4b1ktn6mog8n9","Wed Apr 26 2017 23:13:35 GMT-0400 (US Eastern Standard Time)","male","Asian","don't know/not political","",NA,"","offCivRatings","the officer waved at the civilian in greeting","the civilian shocked the officer with a tazer","waved","tazer","civilianOfficer","appropriateOff","3","","","",""
"21",642,"","","instructions",20,137434,"0.0-20.0","8rkxoo27fjcczmr2dvt4b1ktn6mog8n9","Wed Apr 26 2017 23:13:35 GMT-0400 (US Eastern Standard Time)","male","Asian","don't know/not political","",NA,"[{""page_index"":0,""viewing_time"":642}]","break","","","","","","","","","","",""
"22",11673,"{""Q0"":61}","[object Object]","survey-likert",21,149327,"0.0-21.0","8rkxoo27fjcczmr2dvt4b1ktn6mog8n9","Wed Apr 26 2017 23:13:35 GMT-0400 (US Eastern Standard Time)","male","Asian","don't know/not political","",NA,"","offCivRatings","the officer put handcuffs on the civilian","the civilian stood near the officer","handcuff","stoodNear","officerCivilian","appropriateCiv","61","","","",""
"23",4993,"{""Q0"":1}","[object Object]","survey-likert",22,154336,"0.0-22.0","8rkxoo27fjcczmr2dvt4b1ktn6mog8n9","Wed Apr 26 2017 23:13:35 GMT-0400 (US Eastern Standard Time)","male","Asian","don't know/not political","",NA,"","offCivRatings","the officer put handcuffs on the civilian","the civilian stood near the officer","handcuff","stoodNear","officerCivilian","forceCiv","1","","","",""
"24",2402,"{""Q0"":100}","[object Object]","survey-likert",23,156747,"0.0-23.0","8rkxoo27fjcczmr2dvt4b1ktn6mog8n9","Wed Apr 26 2017 23:13:35 GMT-0400 (US Eastern Standard Time)","male","Asian","don't know/not political","",NA,"","offCivRatings","the officer put handcuffs on the civilian","the civilian stood near the officer","handcuff","stoodNear","officerCivilian","acceptableCiv","100","","","",""
"25",6038,"{""Q0"":1}","[object Object]","survey-likert",24,162797,"0.0-24.0","8rkxoo27fjcczmr2dvt4b1ktn6mog8n9","Wed Apr 26 2017 23:13:35 GMT-0400 (US Eastern Standard Time)","male","Asian","don't know/not political","",NA,"","offCivRatings","the officer put handcuffs on the civilian","the civilian stood near the officer","handcuff","stoodNear","officerCivilian","punishCiv","1","","","",""
"26",1147,"","","instructions",25,163944,"0.0-25.0","8rkxoo27fjcczmr2dvt4b1ktn6mog8n9","Wed Apr 26 2017 23:13:35 GMT-0400 (US Eastern Standard Time)","male","Asian","don't know/not political","",NA,"[{""page_index"":0,""viewing_time"":1146}]","break","","","","","","","","","","",""
"27",10809,"{""Q0"":26}","[object Object]","survey-likert",26,174970,"0.0-26.0","8rkxoo27fjcczmr2dvt4b1ktn6mog8n9","Wed Apr 26 2017 23:13:35 GMT-0400 (US Eastern Standard Time)","male","Asian","don't know/not political","",NA,"","offCivRatings","the officer kicked the civilian in the stomach","the civilian twisted the arm of the officer, forcing him to the ground","kickStom","armbar","officerCivilian","acceptableCiv","26","","","",""
"28",18683,"{""Q0"":78}","[object Object]","survey-likert",27,193665,"0.0-27.0","8rkxoo27fjcczmr2dvt4b1ktn6mog8n9","Wed Apr 26 2017 23:13:35 GMT-0400 (US Eastern Standard Time)","male","Asian","don't know/not political","",NA,"","offCivRatings","the officer kicked the civilian in the stomach","the civilian twisted the arm of the officer, forcing him to the ground","kickStom","armbar","officerCivilian","forceCiv","78","","","",""
"29",6648,"{""Q0"":63}","[object Object]","survey-likert",28,200327,"0.0-28.0","8rkxoo27fjcczmr2dvt4b1ktn6mog8n9","Wed Apr 26 2017 23:13:35 GMT-0400 (US Eastern Standard Time)","male","Asian","don't know/not political","",NA,"","offCivRatings","the officer kicked the civilian in the stomach","the civilian twisted the arm of the officer, forcing him to the ground","kickStom","armbar","officerCivilian","punishCiv","63","","","",""
"30",9562,"{""Q0"":76}","[object Object]","survey-likert",29,209904,"0.0-29.0","8rkxoo27fjcczmr2dvt4b1ktn6mog8n9","Wed Apr 26 2017 23:13:35 GMT-0400 (US Eastern Standard Time)","male","Asian","don't know/not political","",NA,"","offCivRatings","the officer kicked the civilian in the stomach","the civilian twisted the arm of the officer, forcing him to the ground","kickStom","armbar","officerCivilian","appropriateCiv","76","","","",""
"31",887,"","","instructions",30,210791,"0.0-30.0","8rkxoo27fjcczmr2dvt4b1ktn6mog8n9","Wed Apr 26 2017 23:13:35 GMT-0400 (US Eastern Standard Time)","male","Asian","don't know/not political","",NA,"[{""page_index"":0,""viewing_time"":887}]","break","","","","","","","","","","",""
"32",9743,"{""Q0"":1}","[object Object]","survey-likert",31,220759,"0.0-31.0","8rkxoo27fjcczmr2dvt4b1ktn6mog8n9","Wed Apr 26 2017 23:13:35 GMT-0400 (US Eastern Standard Time)","male","Asian","don't know/not political","",NA,"","offCivRatings","the officer asked the civilian how he was doing","the civilian yelled ""get back!"" at the officer","asked","getBack","officerCivilian","acceptableCiv","1","","","",""
"33",3155,"{""Q0"":100}","[object Object]","survey-likert",32,223920,"0.0-32.0","8rkxoo27fjcczmr2dvt4b1ktn6mog8n9","Wed Apr 26 2017 23:13:35 GMT-0400 (US Eastern Standard Time)","male","Asian","don't know/not political","",NA,"","offCivRatings","the officer asked the civilian how he was doing","the civilian yelled ""get back!"" at the officer","asked","getBack","officerCivilian","appropriateCiv","100","","","",""
"34",4239,"{""Q0"":100}","[object Object]","survey-likert",33,228167,"0.0-33.0","8rkxoo27fjcczmr2dvt4b1ktn6mog8n9","Wed Apr 26 2017 23:13:35 GMT-0400 (US Eastern Standard Time)","male","Asian","don't know/not political","",NA,"","offCivRatings","the officer asked the civilian how he was doing","the civilian yelled ""get back!"" at the officer","asked","getBack","officerCivilian","forceCiv","100","","","",""
"35",5340,"{""Q0"":36}","[object Object]","survey-likert",34,233517,"0.0-34.0","8rkxoo27fjcczmr2dvt4b1ktn6mog8n9","Wed Apr 26 2017 23:13:35 GMT-0400 (US Eastern Standard Time)","male","Asian","don't know/not political","",NA,"","offCivRatings","the officer asked the civilian how he was doing","the civilian yelled ""get back!"" at the officer","asked","getBack","officerCivilian","punishCiv","36","","","",""
"36",628,"","","instructions",35,234146,"0.0-35.0","8rkxoo27fjcczmr2dvt4b1ktn6mog8n9","Wed Apr 26 2017 23:13:35 GMT-0400 (US Eastern Standard Time)","male","Asian","don't know/not political","",NA,"[{""page_index"":0,""viewing_time"":628}]","break","","","","","","","","","","",""
"37",9569,"{""Q0"":14}","[object Object]","survey-likert",36,243932,"0.0-36.0","8rkxoo27fjcczmr2dvt4b1ktn6mog8n9","Wed Apr 26 2017 23:13:35 GMT-0400 (US Eastern Standard Time)","male","Asian","don't know/not political","",NA,"","offCivRatings","the officer punched the civilian in the face","the civilian shot the officer in the head with a handgun","punchFace","handgunHead","civilianOfficer","appropriateOff","14","","","",""
"38",4121,"{""Q0"":64}","[object Object]","survey-likert",37,248064,"0.0-37.0","8rkxoo27fjcczmr2dvt4b1ktn6mog8n9","Wed Apr 26 2017 23:13:35 GMT-0400 (US Eastern Standard Time)","male","Asian","don't know/not political","",NA,"","offCivRatings","the officer punched the civilian in the face","the civilian shot the officer in the head with a handgun","punchFace","handgunHead","civilianOfficer","forceOff","64","","","",""
"39",5173,"{""Q0"":73}","[object Object]","survey-likert",38,253242,"0.0-38.0","8rkxoo27fjcczmr2dvt4b1ktn6mog8n9","Wed Apr 26 2017 23:13:35 GMT-0400 (US Eastern Standard Time)","male","Asian","don't know/not political","",NA,"","offCivRatings","the officer punched the civilian in the face","the civilian shot the officer in the head with a handgun","punchFace","handgunHead","civilianOfficer","acceptableOff","73","","","",""
"40",2737,"{""Q0"":8}","[object Object]","survey-likert",39,255993,"0.0-39.0","8rkxoo27fjcczmr2dvt4b1ktn6mog8n9","Wed Apr 26 2017 23:13:35 GMT-0400 (US Eastern Standard Time)","male","Asian","don't know/not political","",NA,"","offCivRatings","the officer punched the civilian in the face","the civilian shot the officer in the head with a handgun","punchFace","handgunHead","civilianOfficer","punishOff","8","","","",""
"41",557,"","","instructions",40,256551,"0.0-40.0","8rkxoo27fjcczmr2dvt4b1ktn6mog8n9","Wed Apr 26 2017 23:13:35 GMT-0400 (US Eastern Standard Time)","male","Asian","don't know/not political","",NA,"[{""page_index"":0,""viewing_time"":557}]","break","","","","","","","","","","",""
"42",7638,"{""Q0"":100}","[object Object]","survey-likert",41,264417,"0.0-41.0","8rkxoo27fjcczmr2dvt4b1ktn6mog8n9","Wed Apr 26 2017 23:13:35 GMT-0400 (US Eastern Standard Time)","male","Asian","don't know/not political","",NA,"","offCivRatings","the officer purposefully struck the civilian with a motor vehicle","the civilian asked the officer how he was doing","vehicle","asked","officerCivilian","manipCheckHigh","100","","","",""
"43",9905,"{""Q0"":1}","[object Object]","survey-likert",42,274335,"0.0-42.0","8rkxoo27fjcczmr2dvt4b1ktn6mog8n9","Wed Apr 26 2017 23:13:35 GMT-0400 (US Eastern Standard Time)","male","Asian","don't know/not political","",NA,"","offCivRatings","the officer purposefully struck the civilian with a motor vehicle","the civilian asked the officer how he was doing","vehicle","asked","officerCivilian","appropriateCiv","1","","","",""
"44",1961,"{""Q0"":1}","[object Object]","survey-likert",43,276309,"0.0-43.0","8rkxoo27fjcczmr2dvt4b1ktn6mog8n9","Wed Apr 26 2017 23:13:35 GMT-0400 (US Eastern Standard Time)","male","Asian","don't know/not political","",NA,"","offCivRatings","the officer purposefully struck the civilian with a motor vehicle","the civilian asked the officer how he was doing","vehicle","asked","officerCivilian","punishCiv","1","","","",""
"45",2731,"{""Q0"":1}","[object Object]","survey-likert",44,279047,"0.0-44.0","8rkxoo27fjcczmr2dvt4b1ktn6mog8n9","Wed Apr 26 2017 23:13:35 GMT-0400 (US Eastern Standard Time)","male","Asian","don't know/not political","",NA,"","offCivRatings","the officer purposefully struck the civilian with a motor vehicle","the civilian asked the officer how he was doing","vehicle","asked","officerCivilian","forceCiv","1","","","",""
"46",3963,"{""Q0"":14}","[object Object]","survey-likert",45,283016,"0.0-45.0","8rkxoo27fjcczmr2dvt4b1ktn6mog8n9","Wed Apr 26 2017 23:13:35 GMT-0400 (US Eastern Standard Time)","male","Asian","don't know/not political","",NA,"","offCivRatings","the officer purposefully struck the civilian with a motor vehicle","the civilian asked the officer how he was doing","vehicle","asked","officerCivilian","acceptableCiv","14","","","",""
"47",517,"","","instructions",46,283534,"0.0-46.0","8rkxoo27fjcczmr2dvt4b1ktn6mog8n9","Wed Apr 26 2017 23:13:35 GMT-0400 (US Eastern Standard Time)","male","Asian","don't know/not political","",NA,"[{""page_index"":0,""viewing_time"":517}]","break","","","","","","","","","","",""
"48",6507,"{""Q0"":78}","[object Object]","survey-likert",47,290256,"0.0-47.0","8rkxoo27fjcczmr2dvt4b1ktn6mog8n9","Wed Apr 26 2017 23:13:35 GMT-0400 (US Eastern Standard Time)","male","Asian","don't know/not political","",NA,"","offCivRatings","the officer headbutted the civilian in the face","the civilian slammed the officer's head into the concrete curb","headbutt","headSlam","civilianOfficer","acceptableOff","78","","","",""
"49",3003,"{""Q0"":1}","[object Object]","survey-likert",48,293265,"0.0-48.0","8rkxoo27fjcczmr2dvt4b1ktn6mog8n9","Wed Apr 26 2017 23:13:35 GMT-0400 (US Eastern Standard Time)","male","Asian","don't know/not political","",NA,"","offCivRatings","the officer headbutted the civilian in the face","the civilian slammed the officer's head into the concrete curb","headbutt","headSlam","civilianOfficer","manipCheckLow","1","","","",""
"50",5451,"{""Q0"":100}","[object Object]","survey-likert",49,298724,"0.0-49.0","8rkxoo27fjcczmr2dvt4b1ktn6mog8n9","Wed Apr 26 2017 23:13:35 GMT-0400 (US Eastern Standard Time)","male","Asian","don't know/not political","",NA,"","offCivRatings","the officer headbutted the civilian in the face","the civilian slammed the officer's head into the concrete curb","headbutt","headSlam","civilianOfficer","forceOff","100","","","",""
"51",10239,"{""Q0"":98}","[object Object]","survey-likert",50,308971,"0.0-50.0","8rkxoo27fjcczmr2dvt4b1ktn6mog8n9","Wed Apr 26 2017 23:13:35 GMT-0400 (US Eastern Standard Time)","male","Asian","don't know/not political","",NA,"","offCivRatings","the officer headbutted the civilian in the face","the civilian slammed the officer's head into the concrete curb","headbutt","headSlam","civilianOfficer","appropriateOff","98","","","",""
"52",3225,"{""Q0"":86}","[object Object]","survey-likert",51,312202,"0.0-51.0","8rkxoo27fjcczmr2dvt4b1ktn6mog8n9","Wed Apr 26 2017 23:13:35 GMT-0400 (US Eastern Standard Time)","male","Asian","don't know/not political","",NA,"","offCivRatings","the officer headbutted the civilian in the face","the civilian slammed the officer's head into the concrete curb","headbutt","headSlam","civilianOfficer","punishOff","86","","","",""
"53",843,"","","instructions",52,313046,"0.0-52.0","8rkxoo27fjcczmr2dvt4b1ktn6mog8n9","Wed Apr 26 2017 23:13:35 GMT-0400 (US Eastern Standard Time)","male","Asian","don't know/not political","",NA,"[{""page_index"":0,""viewing_time"":843}]","break","","","","","","","","","","",""
"54",39598,"{""Q0"":92}","[object Object]","survey-likert",53,352860,"0.0-53.0","8rkxoo27fjcczmr2dvt4b1ktn6mog8n9","Wed Apr 26 2017 23:13:35 GMT-0400 (US Eastern Standard Time)","male","Asian","don't know/not political","",NA,"","offCivRatings","the officer struck the civilian in the stomach with a metal flashlight","the civilian applied a chokehold to the officer","flashlight","choke","civilianOfficer","acceptableOff","92","","","",""
"55",4090,"{""Q0"":68}","[object Object]","survey-likert",54,356957,"0.0-54.0","8rkxoo27fjcczmr2dvt4b1ktn6mog8n9","Wed Apr 26 2017 23:13:35 GMT-0400 (US Eastern Standard Time)","male","Asian","don't know/not political","",NA,"","offCivRatings","the officer struck the civilian in the stomach with a metal flashlight","the civilian applied a chokehold to the officer","flashlight","choke","civilianOfficer","forceOff","68","","","",""
"56",2592,"{""Q0"":34}","[object Object]","survey-likert",55,359554,"0.0-55.0","8rkxoo27fjcczmr2dvt4b1ktn6mog8n9","Wed Apr 26 2017 23:13:35 GMT-0400 (US Eastern Standard Time)","male","Asian","don't know/not political","",NA,"","offCivRatings","the officer struck the civilian in the stomach with a metal flashlight","the civilian applied a chokehold to the officer","flashlight","choke","civilianOfficer","appropriateOff","34","","","",""
"57",2254,"{""Q0"":17}","[object Object]","survey-likert",56,361814,"0.0-56.0","8rkxoo27fjcczmr2dvt4b1ktn6mog8n9","Wed Apr 26 2017 23:13:35 GMT-0400 (US Eastern Standard Time)","male","Asian","don't know/not political","",NA,"","offCivRatings","the officer struck the civilian in the stomach with a metal flashlight","the civilian applied a chokehold to the officer","flashlight","choke","civilianOfficer","punishOff","17","","","",""
"58",513,"","","instructions",57,362327,"0.0-57.0","8rkxoo27fjcczmr2dvt4b1ktn6mog8n9","Wed Apr 26 2017 23:13:35 GMT-0400 (US Eastern Standard Time)","male","Asian","don't know/not political","",NA,"[{""page_index"":0,""viewing_time"":513}]","break","","","","","","","","","","",""
"59",11976,"{""Q0"":34}","[object Object]","survey-likert",58,374521,"0.0-58.0","8rkxoo27fjcczmr2dvt4b1ktn6mog8n9","Wed Apr 26 2017 23:13:35 GMT-0400 (US Eastern Standard Time)","male","Asian","don't know/not political","",NA,"","offCivRatings","the officer sprayed the civilian with pepper spray","the civilian shot the officer in the chest with a handgun","pepperSpray","handgunChest","officerCivilian","acceptableCiv","34","","","",""
"60",2966,"{""Q0"":61}","[object Object]","survey-likert",59,377492,"0.0-59.0","8rkxoo27fjcczmr2dvt4b1ktn6mog8n9","Wed Apr 26 2017 23:13:35 GMT-0400 (US Eastern Standard Time)","male","Asian","don't know/not political","",NA,"","offCivRatings","the officer sprayed the civilian with pepper spray","the civilian shot the officer in the chest with a handgun","pepperSpray","handgunChest","officerCivilian","appropriateCiv","61","","","",""
"61",2246,"{""Q0"":36}","[object Object]","survey-likert",60,379744,"0.0-60.0","8rkxoo27fjcczmr2dvt4b1ktn6mog8n9","Wed Apr 26 2017 23:13:35 GMT-0400 (US Eastern Standard Time)","male","Asian","don't know/not political","",NA,"","offCivRatings","the officer sprayed the civilian with pepper spray","the civilian shot the officer in the chest with a handgun","pepperSpray","handgunChest","officerCivilian","punishCiv","36","","","",""
"62",3994,"{""Q0"":89}","[object Object]","survey-likert",61,383745,"0.0-61.0","8rkxoo27fjcczmr2dvt4b1ktn6mog8n9","Wed Apr 26 2017 23:13:35 GMT-0400 (US Eastern Standard Time)","male","Asian","don't know/not political","",NA,"","offCivRatings","the officer sprayed the civilian with pepper spray","the civilian shot the officer in the chest with a handgun","pepperSpray","handgunChest","officerCivilian","forceCiv","89","","","",""
"63",2795,"{""Q0"":1}","[object Object]","survey-likert",62,386547,"0.0-62.0","8rkxoo27fjcczmr2dvt4b1ktn6mog8n9","Wed Apr 26 2017 23:13:35 GMT-0400 (US Eastern Standard Time)","male","Asian","don't know/not political","",NA,"","offCivRatings","the officer sprayed the civilian with pepper spray","the civilian shot the officer in the chest with a handgun","pepperSpray","handgunChest","officerCivilian","manipCheckLow","1","","","",""
"64",728,"","","instructions",63,387275,"0.0-63.0","8rkxoo27fjcczmr2dvt4b1ktn6mog8n9","Wed Apr 26 2017 23:13:35 GMT-0400 (US Eastern Standard Time)","male","Asian","don't know/not political","",NA,"[{""page_index"":0,""viewing_time"":728}]","break","","","","","","","","","","",""
"65",14081,"{""Q0"":29}","[object Object]","survey-likert",64,401561,"0.0-64.0","8rkxoo27fjcczmr2dvt4b1ktn6mog8n9","Wed Apr 26 2017 23:13:35 GMT-0400 (US Eastern Standard Time)","male","Asian","don't know/not political","",NA,"","offCivRatings","the officer shot the civilian in the chest with a handgun","the civilian kicked the officer in the stomach","handgunChest","kickStom","civilianOfficer","acceptableOff","29","","","",""
"66",2532,"{""Q0"":70}","[object Object]","survey-likert",65,404098,"0.0-65.0","8rkxoo27fjcczmr2dvt4b1ktn6mog8n9","Wed Apr 26 2017 23:13:35 GMT-0400 (US Eastern Standard Time)","male","Asian","don't know/not political","",NA,"","offCivRatings","the officer shot the civilian in the chest with a handgun","the civilian kicked the officer in the stomach","handgunChest","kickStom","civilianOfficer","forceOff","70","","","",""
"67",4030,"{""Q0"":78}","[object Object]","survey-likert",66,408135,"0.0-66.0","8rkxoo27fjcczmr2dvt4b1ktn6mog8n9","Wed Apr 26 2017 23:13:35 GMT-0400 (US Eastern Standard Time)","male","Asian","don't know/not political","",NA,"","offCivRatings","the officer shot the civilian in the chest with a handgun","the civilian kicked the officer in the stomach","handgunChest","kickStom","civilianOfficer","appropriateOff","78","","","",""
"68",3197,"{""Q0"":77}","[object Object]","survey-likert",67,411338,"0.0-67.0","8rkxoo27fjcczmr2dvt4b1ktn6mog8n9","Wed Apr 26 2017 23:13:35 GMT-0400 (US Eastern Standard Time)","male","Asian","don't know/not political","",NA,"","offCivRatings","the officer shot the civilian in the chest with a handgun","the civilian kicked the officer in the stomach","handgunChest","kickStom","civilianOfficer","punishOff","77","","","",""
"69",639,"","","instructions",68,411977,"0.0-68.0","8rkxoo27fjcczmr2dvt4b1ktn6mog8n9","Wed Apr 26 2017 23:13:35 GMT-0400 (US Eastern Standard Time)","male","Asian","don't know/not political","",NA,"[{""page_index"":0,""viewing_time"":639}]","break","","","","","","","","","","",""
"70",8557,"{""Q0"":46}","[object Object]","survey-likert",69,420749,"0.0-69.0","8rkxoo27fjcczmr2dvt4b1ktn6mog8n9","Wed Apr 26 2017 23:13:35 GMT-0400 (US Eastern Standard Time)","male","Asian","don't know/not political","",NA,"","offCivRatings","the officer twisted the arm of the civilian, forcing him to the ground","the civilian hit the officer in the chest with a baseball bat","armbar","ballBat","officerCivilian","punishCiv","46","","","",""
"71",2262,"{""Q0"":65}","[object Object]","survey-likert",70,423019,"0.0-70.0","8rkxoo27fjcczmr2dvt4b1ktn6mog8n9","Wed Apr 26 2017 23:13:35 GMT-0400 (US Eastern Standard Time)","male","Asian","don't know/not political","",NA,"","offCivRatings","the officer twisted the arm of the civilian, forcing him to the ground","the civilian hit the officer in the chest with a baseball bat","armbar","ballBat","officerCivilian","acceptableCiv","65","","","",""
"72",2223,"{""Q0"":65}","[object Object]","survey-likert",71,425249,"0.0-71.0","8rkxoo27fjcczmr2dvt4b1ktn6mog8n9","Wed Apr 26 2017 23:13:35 GMT-0400 (US Eastern Standard Time)","male","Asian","don't know/not political","",NA,"","offCivRatings","the officer twisted the arm of the civilian, forcing him to the ground","the civilian hit the officer in the chest with a baseball bat","armbar","ballBat","officerCivilian","forceCiv","65","","","",""
"73",1386,"{""Q0"":67}","[object Object]","survey-likert",72,426640,"0.0-72.0","8rkxoo27fjcczmr2dvt4b1ktn6mog8n9","Wed Apr 26 2017 23:13:35 GMT-0400 (US Eastern Standard Time)","male","Asian","don't know/not political","",NA,"","offCivRatings","the officer twisted the arm of the civilian, forcing him to the ground","the civilian hit the officer in the chest with a baseball bat","armbar","ballBat","officerCivilian","appropriateCiv","67","","","",""
"74",804,"","","instructions",73,427444,"0.0-73.0","8rkxoo27fjcczmr2dvt4b1ktn6mog8n9","Wed Apr 26 2017 23:13:35 GMT-0400 (US Eastern Standard Time)","male","Asian","don't know/not political","",NA,"[{""page_index"":0,""viewing_time"":803}]","break","","","","","","","","","","",""
"75",8800,"{""Q0"":1}","[object Object]","survey-likert",74,436457,"0.0-74.0","8rkxoo27fjcczmr2dvt4b1ktn6mog8n9","Wed Apr 26 2017 23:13:35 GMT-0400 (US Eastern Standard Time)","male","Asian","don't know/not political","",NA,"","offCivRatings","the officer shot the civilian in the chest with a beanbag shotgun round","the civilian shouted ""I don't have to fucking listen to you!"" at the officer","beanbag","dontListen","civilianOfficer","acceptableOff","1","","","",""
"76",1813,"{""Q0"":1}","[object Object]","survey-likert",75,438276,"0.0-75.0","8rkxoo27fjcczmr2dvt4b1ktn6mog8n9","Wed Apr 26 2017 23:13:35 GMT-0400 (US Eastern Standard Time)","male","Asian","don't know/not political","",NA,"","offCivRatings","the officer shot the civilian in the chest with a beanbag shotgun round","the civilian shouted ""I don't have to fucking listen to you!"" at the officer","beanbag","dontListen","civilianOfficer","manipCheckLow","1","","","",""
"77",2999,"{""Q0"":100}","[object Object]","survey-likert",76,441282,"0.0-76.0","8rkxoo27fjcczmr2dvt4b1ktn6mog8n9","Wed Apr 26 2017 23:13:35 GMT-0400 (US Eastern Standard Time)","male","Asian","don't know/not political","",NA,"","offCivRatings","the officer shot the civilian in the chest with a beanbag shotgun round","the civilian shouted ""I don't have to fucking listen to you!"" at the officer","beanbag","dontListen","civilianOfficer","forceOff","100","","","",""
"78",1957,"{""Q0"":100}","[object Object]","survey-likert",77,443244,"0.0-77.0","8rkxoo27fjcczmr2dvt4b1ktn6mog8n9","Wed Apr 26 2017 23:13:35 GMT-0400 (US Eastern Standard Time)","male","Asian","don't know/not political","",NA,"","offCivRatings","the officer shot the civilian in the chest with a beanbag shotgun round","the civilian shouted ""I don't have to fucking listen to you!"" at the officer","beanbag","dontListen","civilianOfficer","punishOff","100","","","",""
"79",4146,"{""Q0"":100}","[object Object]","survey-likert",78,447396,"0.0-78.0","8rkxoo27fjcczmr2dvt4b1ktn6mog8n9","Wed Apr 26 2017 23:13:35 GMT-0400 (US Eastern Standard Time)","male","Asian","don't know/not political","",NA,"","offCivRatings","the officer shot the civilian in the chest with a beanbag shotgun round","the civilian shouted ""I don't have to fucking listen to you!"" at the officer","beanbag","dontListen","civilianOfficer","appropriateOff","100","","","",""
"80",582,"","","instructions",79,447978,"0.0-79.0","8rkxoo27fjcczmr2dvt4b1ktn6mog8n9","Wed Apr 26 2017 23:13:35 GMT-0400 (US Eastern Standard Time)","male","Asian","don't know/not political","",NA,"[{""page_index"":0,""viewing_time"":581}]","break","","","","","","","","","","",""
"81",4464,"{""Q0"":86}","[object Object]","survey-likert",80,452657,"0.0-80.0","8rkxoo27fjcczmr2dvt4b1ktn6mog8n9","Wed Apr 26 2017 23:13:35 GMT-0400 (US Eastern Standard Time)","male","Asian","don't know/not political","",NA,"","offCivRatings","the officer shot the civilian in the head with a handgun","the civilian headbutted the officer in the face","handgunHead","headbutt","civilianOfficer","forceOff","86","","","",""
"82",1519,"{""Q0"":71}","[object Object]","survey-likert",81,454180,"0.0-81.0","8rkxoo27fjcczmr2dvt4b1ktn6mog8n9","Wed Apr 26 2017 23:13:35 GMT-0400 (US Eastern Standard Time)","male","Asian","don't know/not political","",NA,"","offCivRatings","the officer shot the civilian in the head with a handgun","the civilian headbutted the officer in the face","handgunHead","headbutt","civilianOfficer","punishOff","71","","","",""
"83",2179,"{""Q0"":77}","[object Object]","survey-likert",82,456364,"0.0-82.0","8rkxoo27fjcczmr2dvt4b1ktn6mog8n9","Wed Apr 26 2017 23:13:35 GMT-0400 (US Eastern Standard Time)","male","Asian","don't know/not political","",NA,"","offCivRatings","the officer shot the civilian in the head with a handgun","the civilian headbutted the officer in the face","handgunHead","headbutt","civilianOfficer","appropriateOff","77","","","",""
"84",2552,"{""Q0"":16}","[object Object]","survey-likert",83,458921,"0.0-83.0","8rkxoo27fjcczmr2dvt4b1ktn6mog8n9","Wed Apr 26 2017 23:13:35 GMT-0400 (US Eastern Standard Time)","male","Asian","don't know/not political","",NA,"","offCivRatings","the officer shot the civilian in the head with a handgun","the civilian headbutted the officer in the face","handgunHead","headbutt","civilianOfficer","acceptableOff","16","","","",""
"85",1028,"","","instructions",84,459949,"0.0-84.0","8rkxoo27fjcczmr2dvt4b1ktn6mog8n9","Wed Apr 26 2017 23:13:35 GMT-0400 (US Eastern Standard Time)","male","Asian","don't know/not political","",NA,"[{""page_index"":0,""viewing_time"":1027}]","break","","","","","","","","","","",""
"86",7179,"{""Q0"":61}","[object Object]","survey-likert",85,467339,"0.0-85.0","8rkxoo27fjcczmr2dvt4b1ktn6mog8n9","Wed Apr 26 2017 23:13:35 GMT-0400 (US Eastern Standard Time)","male","Asian","don't know/not political","",NA,"","offCivRatings","the officer slammed the civilian's head into the concrete curb","the civilian struck the officer on the leg with a metal pipe","headSlam","metalPipe","officerCivilian","forceCiv","61","","","",""
"87",3255,"{""Q0"":64}","[object Object]","survey-likert",86,470600,"0.0-86.0","8rkxoo27fjcczmr2dvt4b1ktn6mog8n9","Wed Apr 26 2017 23:13:35 GMT-0400 (US Eastern Standard Time)","male","Asian","don't know/not political","",NA,"","offCivRatings","the officer slammed the civilian's head into the concrete curb","the civilian struck the officer on the leg with a metal pipe","headSlam","metalPipe","officerCivilian","appropriateCiv","64","","","",""
"88",4961,"{""Q0"":100}","[object Object]","survey-likert",87,475566,"0.0-87.0","8rkxoo27fjcczmr2dvt4b1ktn6mog8n9","Wed Apr 26 2017 23:13:35 GMT-0400 (US Eastern Standard Time)","male","Asian","don't know/not political","",NA,"","offCivRatings","the officer slammed the civilian's head into the concrete curb","the civilian struck the officer on the leg with a metal pipe","headSlam","metalPipe","officerCivilian","manipCheckHigh","100","","","",""
"89",8498,"{""Q0"":54}","[object Object]","survey-likert",88,484068,"0.0-88.0","8rkxoo27fjcczmr2dvt4b1ktn6mog8n9","Wed Apr 26 2017 23:13:35 GMT-0400 (US Eastern Standard Time)","male","Asian","don't know/not political","",NA,"","offCivRatings","the officer slammed the civilian's head into the concrete curb","the civilian struck the officer on the leg with a metal pipe","headSlam","metalPipe","officerCivilian","acceptableCiv","54","","","",""
"90",2343,"{""Q0"":40}","[object Object]","survey-likert",89,486417,"0.0-89.0","8rkxoo27fjcczmr2dvt4b1ktn6mog8n9","Wed Apr 26 2017 23:13:35 GMT-0400 (US Eastern Standard Time)","male","Asian","don't know/not political","",NA,"","offCivRatings","the officer slammed the civilian's head into the concrete curb","the civilian struck the officer on the leg with a metal pipe","headSlam","metalPipe","officerCivilian","punishCiv","40","","","",""
"91",570,"","","instructions",90,486987,"0.0-90.0","8rkxoo27fjcczmr2dvt4b1ktn6mog8n9","Wed Apr 26 2017 23:13:35 GMT-0400 (US Eastern Standard Time)","male","Asian","don't know/not political","",NA,"[{""page_index"":0,""viewing_time"":569}]","break","","","","","","","","","","",""
"92",5591,"{""Q0"":6}","[object Object]","survey-likert",91,492787,"0.0-91.0","8rkxoo27fjcczmr2dvt4b1ktn6mog8n9","Wed Apr 26 2017 23:13:35 GMT-0400 (US Eastern Standard Time)","male","Asian","don't know/not political","",NA,"","offCivRatings","the officer called the civilian a ""thug""","the civilian sprayed the officer with pepper spray","nameCall","pepperSpray","civilianOfficer","appropriateOff","6","","","",""
"93",3157,"{""Q0"":1}","[object Object]","survey-likert",92,495951,"0.0-92.0","8rkxoo27fjcczmr2dvt4b1ktn6mog8n9","Wed Apr 26 2017 23:13:35 GMT-0400 (US Eastern Standard Time)","male","Asian","don't know/not political","",NA,"","offCivRatings","the officer called the civilian a ""thug""","the civilian sprayed the officer with pepper spray","nameCall","pepperSpray","civilianOfficer","punishOff","1","","","",""
"94",3133,"{""Q0"":14}","[object Object]","survey-likert",93,499090,"0.0-93.0","8rkxoo27fjcczmr2dvt4b1ktn6mog8n9","Wed Apr 26 2017 23:13:35 GMT-0400 (US Eastern Standard Time)","male","Asian","don't know/not political","",NA,"","offCivRatings","the officer called the civilian a ""thug""","the civilian sprayed the officer with pepper spray","nameCall","pepperSpray","civilianOfficer","forceOff","14","","","",""
"95",6484,"{""Q0"":49}","[object Object]","survey-likert",94,505580,"0.0-94.0","8rkxoo27fjcczmr2dvt4b1ktn6mog8n9","Wed Apr 26 2017 23:13:35 GMT-0400 (US Eastern Standard Time)","male","Asian","don't know/not political","",NA,"","offCivRatings","the officer called the civilian a ""thug""","the civilian sprayed the officer with pepper spray","nameCall","pepperSpray","civilianOfficer","acceptableOff","49","","","",""
"96",520,"","","instructions",95,506100,"0.0-95.0","8rkxoo27fjcczmr2dvt4b1ktn6mog8n9","Wed Apr 26 2017 23:13:35 GMT-0400 (US Eastern Standard Time)","male","Asian","don't know/not political","",NA,"[{""page_index"":0,""viewing_time"":520}]","break","","","","","","","","","","",""
"97",6108,"{""Q0"":72}","[object Object]","survey-likert",96,512423,"0.0-96.0","8rkxoo27fjcczmr2dvt4b1ktn6mog8n9","Wed Apr 26 2017 23:13:35 GMT-0400 (US Eastern Standard Time)","male","Asian","don't know/not political","",NA,"","offCivRatings","the officer applied a chokehold to the civilian","the civilian purposefully struck the officer with a motor vehicle","choke","vehicle","civilianOfficer","forceOff","72","","","",""
"98",2517,"{""Q0"":1}","[object Object]","survey-likert",97,514945,"0.0-97.0","8rkxoo27fjcczmr2dvt4b1ktn6mog8n9","Wed Apr 26 2017 23:13:35 GMT-0400 (US Eastern Standard Time)","male","Asian","don't know/not political","",NA,"","offCivRatings","the officer applied a chokehold to the civilian","the civilian purposefully struck the officer with a motor vehicle","choke","vehicle","civilianOfficer","manipCheckLow","1","","","",""
"99",2850,"{""Q0"":51}","[object Object]","survey-likert",98,517800,"0.0-98.0","8rkxoo27fjcczmr2dvt4b1ktn6mog8n9","Wed Apr 26 2017 23:13:35 GMT-0400 (US Eastern Standard Time)","male","Asian","don't know/not political","",NA,"","offCivRatings","the officer applied a chokehold to the civilian","the civilian purposefully struck the officer with a motor vehicle","choke","vehicle","civilianOfficer","appropriateOff","51","","","",""
"100",6735,"{""Q0"":81}","[object Object]","survey-likert",99,524540,"0.0-99.0","8rkxoo27fjcczmr2dvt4b1ktn6mog8n9","Wed Apr 26 2017 23:13:35 GMT-0400 (US Eastern Standard Time)","male","Asian","don't know/not political","",NA,"","offCivRatings","the officer applied a chokehold to the civilian","the civilian purposefully struck the officer with a motor vehicle","choke","vehicle","civilianOfficer","acceptableOff","81","","","",""
"101",4359,"{""Q0"":11}","[object Object]","survey-likert",100,528905,"0.0-100.0","8rkxoo27fjcczmr2dvt4b1ktn6mog8n9","Wed Apr 26 2017 23:13:35 GMT-0400 (US Eastern Standard Time)","male","Asian","don't know/not political","",NA,"","offCivRatings","the officer applied a chokehold to the civilian","the civilian purposefully struck the officer with a motor vehicle","choke","vehicle","civilianOfficer","punishOff","11","","","",""
"102",541,"","","instructions",101,529446,"0.0-101.0","8rkxoo27fjcczmr2dvt4b1ktn6mog8n9","Wed Apr 26 2017 23:13:35 GMT-0400 (US Eastern Standard Time)","male","Asian","don't know/not political","",NA,"[{""page_index"":0,""viewing_time"":540}]","break","","","","","","","","","","",""
"103",8446,"{""Q0"":82}","[object Object]","survey-likert",102,538107,"0.0-102.0","8rkxoo27fjcczmr2dvt4b1ktn6mog8n9","Wed Apr 26 2017 23:13:35 GMT-0400 (US Eastern Standard Time)","male","Asian","don't know/not political","",NA,"","offCivRatings","the officer yelled ""get back!"" at the civilian","the civilian said ""if you touch me, you're gonna get hurt"" to the officer","getBack","hurtThreat","officerCivilian","appropriateCiv","82","","","",""
"104",5413,"{""Q0"":69}","[object Object]","survey-likert",103,543526,"0.0-103.0","8rkxoo27fjcczmr2dvt4b1ktn6mog8n9","Wed Apr 26 2017 23:13:35 GMT-0400 (US Eastern Standard Time)","male","Asian","don't know/not political","",NA,"","offCivRatings","the officer yelled ""get back!"" at the civilian","the civilian said ""if you touch me, you're gonna get hurt"" to the officer","getBack","hurtThreat","officerCivilian","acceptableCiv","69","","","",""
"105",4005,"{""Q0"":70}","[object Object]","survey-likert",104,547536,"0.0-104.0","8rkxoo27fjcczmr2dvt4b1ktn6mog8n9","Wed Apr 26 2017 23:13:35 GMT-0400 (US Eastern Standard Time)","male","Asian","don't know/not political","",NA,"","offCivRatings","the officer yelled ""get back!"" at the civilian","the civilian said ""if you touch me, you're gonna get hurt"" to the officer","getBack","hurtThreat","officerCivilian","forceCiv","70","","","",""
"106",5199,"{""Q0"":21}","[object Object]","survey-likert",105,552740,"0.0-105.0","8rkxoo27fjcczmr2dvt4b1ktn6mog8n9","Wed Apr 26 2017 23:13:35 GMT-0400 (US Eastern Standard Time)","male","Asian","don't know/not political","",NA,"","offCivRatings","the officer yelled ""get back!"" at the civilian","the civilian said ""if you touch me, you're gonna get hurt"" to the officer","getBack","hurtThreat","officerCivilian","punishCiv","21","","","",""
"107",1100,"","","instructions",106,553842,"0.0-106.0","8rkxoo27fjcczmr2dvt4b1ktn6mog8n9","Wed Apr 26 2017 23:13:35 GMT-0400 (US Eastern Standard Time)","male","Asian","don't know/not political","",NA,"[{""page_index"":0,""viewing_time"":1100}]","break","","","","","","","","","","",""
"108",12421,"{""Q0"":1}","[object Object]","survey-likert",107,566481,"0.0-107.0","8rkxoo27fjcczmr2dvt4b1ktn6mog8n9","Wed Apr 26 2017 23:13:35 GMT-0400 (US Eastern Standard Time)","male","Asian","don't know/not political","",NA,"","offCivRatings","the officer shouted ""get your fucking hands up!"" at the civilian","the civilian pulled away from the officer","handsUp","pulledAway","officerCivilian","forceCiv","1","","","",""
"109",3831,"{""Q0"":1}","[object Object]","survey-likert",108,570318,"0.0-108.0","8rkxoo27fjcczmr2dvt4b1ktn6mog8n9","Wed Apr 26 2017 23:13:35 GMT-0400 (US Eastern Standard Time)","male","Asian","don't know/not political","",NA,"","offCivRatings","the officer shouted ""get your fucking hands up!"" at the civilian","the civilian pulled away from the officer","handsUp","pulledAway","officerCivilian","manipCheckLow","1","","","",""
"110",7561,"{""Q0"":50}","[object Object]","survey-likert",109,577885,"0.0-109.0","8rkxoo27fjcczmr2dvt4b1ktn6mog8n9","Wed Apr 26 2017 23:13:35 GMT-0400 (US Eastern Standard Time)","male","Asian","don't know/not political","",NA,"","offCivRatings","the officer shouted ""get your fucking hands up!"" at the civilian","the civilian pulled away from the officer","handsUp","pulledAway","officerCivilian","appropriateCiv","50","","","",""
"111",4429,"{""Q0"":100}","[object Object]","survey-likert",110,582319,"0.0-110.0","8rkxoo27fjcczmr2dvt4b1ktn6mog8n9","Wed Apr 26 2017 23:13:35 GMT-0400 (US Eastern Standard Time)","male","Asian","don't know/not political","",NA,"","offCivRatings","the officer shouted ""get your fucking hands up!"" at the civilian","the civilian pulled away from the officer","handsUp","pulledAway","officerCivilian","acceptableCiv","100","","","",""
"112",3057,"{""Q0"":1}","[object Object]","survey-likert",111,585384,"0.0-111.0","8rkxoo27fjcczmr2dvt4b1ktn6mog8n9","Wed Apr 26 2017 23:13:35 GMT-0400 (US Eastern Standard Time)","male","Asian","don't know/not political","",NA,"","offCivRatings","the officer shouted ""get your fucking hands up!"" at the civilian","the civilian pulled away from the officer","handsUp","pulledAway","officerCivilian","punishCiv","1","","","",""
"113",1101,"","","instructions",112,586485,"0.0-112.0","8rkxoo27fjcczmr2dvt4b1ktn6mog8n9","Wed Apr 26 2017 23:13:35 GMT-0400 (US Eastern Standard Time)","male","Asian","don't know/not political","",NA,"[{""page_index"":0,""viewing_time"":1101}]","break","","","","","","","","","","",""
"114",10251,"{""Q0"":65}","[object Object]","survey-likert",113,596950,"0.0-113.0","8rkxoo27fjcczmr2dvt4b1ktn6mog8n9","Wed Apr 26 2017 23:13:35 GMT-0400 (US Eastern Standard Time)","male","Asian","don't know/not political","",NA,"","offCivRatings","the officer struck the civilian on the leg with a collapsible baton","the civilian punched the officer in the face","batonLeg","punchFace","officerCivilian","appropriateCiv","65","","","",""
"115",2522,"{""Q0"":29}","[object Object]","survey-likert",114,599479,"0.0-114.0","8rkxoo27fjcczmr2dvt4b1ktn6mog8n9","Wed Apr 26 2017 23:13:35 GMT-0400 (US Eastern Standard Time)","male","Asian","don't know/not political","",NA,"","offCivRatings","the officer struck the civilian on the leg with a collapsible baton","the civilian punched the officer in the face","batonLeg","punchFace","officerCivilian","punishCiv","29","","","",""
"116",2208,"{""Q0"":100}","[object Object]","survey-likert",115,601692,"0.0-115.0","8rkxoo27fjcczmr2dvt4b1ktn6mog8n9","Wed Apr 26 2017 23:13:35 GMT-0400 (US Eastern Standard Time)","male","Asian","don't know/not political","",NA,"","offCivRatings","the officer struck the civilian on the leg with a collapsible baton","the civilian punched the officer in the face","batonLeg","punchFace","officerCivilian","manipCheckHigh","100","","","",""
"117",3248,"{""Q0"":67}","[object Object]","survey-likert",116,604945,"0.0-116.0","8rkxoo27fjcczmr2dvt4b1ktn6mog8n9","Wed Apr 26 2017 23:13:35 GMT-0400 (US Eastern Standard Time)","male","Asian","don't know/not political","",NA,"","offCivRatings","the officer struck the civilian on the leg with a collapsible baton","the civilian punched the officer in the face","batonLeg","punchFace","officerCivilian","acceptableCiv","67","","","",""
"118",2551,"{""Q0"":62}","[object Object]","survey-likert",117,607503,"0.0-117.0","8rkxoo27fjcczmr2dvt4b1ktn6mog8n9","Wed Apr 26 2017 23:13:35 GMT-0400 (US Eastern Standard Time)","male","Asian","don't know/not political","",NA,"","offCivRatings","the officer struck the civilian on the leg with a collapsible baton","the civilian punched the officer in the face","batonLeg","punchFace","officerCivilian","forceCiv","62","","","",""
"119",485,"","","instructions",118,607988,"0.0-118.0","8rkxoo27fjcczmr2dvt4b1ktn6mog8n9","Wed Apr 26 2017 23:13:35 GMT-0400 (US Eastern Standard Time)","male","Asian","don't know/not political","",NA,"[{""page_index"":0,""viewing_time"":485}]","break","","","","","","","","","","",""
"120",5862,"{""Q0"":100}","[object Object]","survey-likert",119,614062,"0.0-119.0","8rkxoo27fjcczmr2dvt4b1ktn6mog8n9","Wed Apr 26 2017 23:13:35 GMT-0400 (US Eastern Standard Time)","male","Asian","don't know/not political","",NA,"","offCivRatings","the officer said ""if you touch me, you're gonna get hurt"" to the civilian","the civilian struck the officer in the stomach with a metal flashlight","hurtThreat","flashlight","officerCivilian","forceCiv","100","","","",""
"121",4614,"{""Q0"":100}","[object Object]","survey-likert",120,618684,"0.0-120.0","8rkxoo27fjcczmr2dvt4b1ktn6mog8n9","Wed Apr 26 2017 23:13:35 GMT-0400 (US Eastern Standard Time)","male","Asian","don't know/not political","",NA,"","offCivRatings","the officer said ""if you touch me, you're gonna get hurt"" to the civilian","the civilian struck the officer in the stomach with a metal flashlight","hurtThreat","flashlight","officerCivilian","appropriateCiv","100","","","",""
"122",2361,"{""Q0"":81}","[object Object]","survey-likert",121,621051,"0.0-121.0","8rkxoo27fjcczmr2dvt4b1ktn6mog8n9","Wed Apr 26 2017 23:13:35 GMT-0400 (US Eastern Standard Time)","male","Asian","don't know/not political","",NA,"","offCivRatings","the officer said ""if you touch me, you're gonna get hurt"" to the civilian","the civilian struck the officer in the stomach with a metal flashlight","hurtThreat","flashlight","officerCivilian","punishCiv","81","","","",""
"123",2079,"{""Q0"":1}","[object Object]","survey-likert",122,623135,"0.0-122.0","8rkxoo27fjcczmr2dvt4b1ktn6mog8n9","Wed Apr 26 2017 23:13:35 GMT-0400 (US Eastern Standard Time)","male","Asian","don't know/not political","",NA,"","offCivRatings","the officer said ""if you touch me, you're gonna get hurt"" to the civilian","the civilian struck the officer in the stomach with a metal flashlight","hurtThreat","flashlight","officerCivilian","acceptableCiv","1","","","",""
"124",541,"","","instructions",123,623676,"0.0-123.0","8rkxoo27fjcczmr2dvt4b1ktn6mog8n9","Wed Apr 26 2017 23:13:35 GMT-0400 (US Eastern Standard Time)","male","Asian","don't know/not political","",NA,"[{""page_index"":0,""viewing_time"":541}]","break","","","","","","","","","","",""
"125",8860,"{""Q0"":28}","[object Object]","survey-likert",124,632746,"0.0-124.0","8rkxoo27fjcczmr2dvt4b1ktn6mog8n9","Wed Apr 26 2017 23:13:35 GMT-0400 (US Eastern Standard Time)","male","Asian","don't know/not political","",NA,"","policeLegitimacy","","","","","","","28","doReasons","feltObligation","",""
"126",4714,"{""Q0"":37}","[object Object]","survey-likert",125,637465,"0.0-125.0","8rkxoo27fjcczmr2dvt4b1ktn6mog8n9","Wed Apr 26 2017 23:13:35 GMT-0400 (US Eastern Standard Time)","male","Asian","don't know/not political","",NA,"","policeLegitimacy","","","","","","","37","rightWrong","normAlignment","",""
"127",4266,"{""Q0"":40}","[object Object]","survey-likert",126,641736,"0.0-126.0","8rkxoo27fjcczmr2dvt4b1ktn6mog8n9","Wed Apr 26 2017 23:13:35 GMT-0400 (US Eastern Standard Time)","male","Asian","don't know/not political","",NA,"","policeLegitimacy","","","","","","","40","support","feltObligation","",""
"128",7993,"{""Q0"":77}","[object Object]","survey-likert",127,649738,"0.0-127.0","8rkxoo27fjcczmr2dvt4b1ktn6mog8n9","Wed Apr 26 2017 23:13:35 GMT-0400 (US Eastern Standard Time)","male","Asian","don't know/not political","",NA,"","policeLegitimacy","","","","","","","77","communityWants","normAlignment","",""
"129",6248,"{""Q0"":61}","[object Object]","survey-likert",128,655994,"0.0-128.0","8rkxoo27fjcczmr2dvt4b1ktn6mog8n9","Wed Apr 26 2017 23:13:35 GMT-0400 (US Eastern Standard Time)","male","Asian","don't know/not political","",NA,"","policeLegitimacy","","","","","","","61","doTreat","feltObligation","",""
"130",2482,"{""Q0"":66}","[object Object]","survey-likert",129,658488,"0.0-129.0","8rkxoo27fjcczmr2dvt4b1ktn6mog8n9","Wed Apr 26 2017 23:13:35 GMT-0400 (US Eastern Standard Time)","male","Asian","don't know/not political","",NA,"","policeLegitimacy","","","","","","","66","importantValues","normAlignment","",""
"131",4452,"{""Q0"":""yes""}","[object Object]","survey-multi-choice2",130,662948,"0.0-130.0","8rkxoo27fjcczmr2dvt4b1ktn6mog8n9","Wed Apr 26 2017 23:13:35 GMT-0400 (US Eastern Standard Time)","male","Asian","don't know/not political","",NA,"","policeExperience","","","","","","","yes","stopped","","vicarious","Has anyone in your household ever been stopped on the street by the police without good reason?"
"132",3122,"{""Q0"":""no""}","[object Object]","survey-multi-choice2",131,666074,"0.0-131.0","8rkxoo27fjcczmr2dvt4b1ktn6mog8n9","Wed Apr 26 2017 23:13:35 GMT-0400 (US Eastern Standard Time)","male","Asian","don't know/not political","",NA,"","policeExperience","","","","","","","no","insultLang","","vicarious","Have the police ever used insulting language toward anyone in your household?"
"133",2238,"{""Q0"":""yes""}","[object Object]","survey-multi-choice2",132,668314,"0.0-132.0","8rkxoo27fjcczmr2dvt4b1ktn6mog8n9","Wed Apr 26 2017 23:13:35 GMT-0400 (US Eastern Standard Time)","male","Asian","don't know/not political","",NA,"","policeExperience","","","","","","","yes","stopped","","personal","Have you ever been stopped by the police on the street without good reason?"
"134",2195,"{""Q0"":""no""}","[object Object]","survey-multi-choice2",133,670513,"0.0-133.0","8rkxoo27fjcczmr2dvt4b1ktn6mog8n9","Wed Apr 26 2017 23:13:35 GMT-0400 (US Eastern Standard Time)","male","Asian","don't know/not political","",NA,"","policeExperience","","","","","","","no","excessForce","","vicarious","Have the police ever used excessive force against anyone in your household?"
"135",2469,"{""Q0"":""no""}","[object Object]","survey-multi-choice2",134,672985,"0.0-134.0","8rkxoo27fjcczmr2dvt4b1ktn6mog8n9","Wed Apr 26 2017 23:13:35 GMT-0400 (US Eastern Standard Time)","male","Asian","don't know/not political","",NA,"","policeExperience","","","","","","","no","excessForce","","personal","Have the police ever used excessive force against you?"
"136",3764,"{""Q0"":""yes""}","[object Object]","survey-multi-choice2",135,676751,"0.0-135.0","8rkxoo27fjcczmr2dvt4b1ktn6mog8n9","Wed Apr 26 2017 23:13:35 GMT-0400 (US Eastern Standard Time)","male","Asian","don't know/not political","",NA,"","policeExperience","","","","","","","yes","corrupt","","personal","Have you ever seen a police officer engage in any corrupt activities (e.g., taking bribes or involvement in the drug trade)?"
"137",3457,"{""Q0"":""no""}","[object Object]","survey-multi-choice2",136,680212,"0.0-136.0","8rkxoo27fjcczmr2dvt4b1ktn6mog8n9","Wed Apr 26 2017 23:13:35 GMT-0400 (US Eastern Standard Time)","male","Asian","don't know/not political","",NA,"","policeExperience","","","","","","","no","insultLang","","personal","Have the police ever used insulting language toward you?"
"138",19287,"{""Q0"":""male"",""Q1"":""Asian"",""Q2"":""don't know/not political""}","[object Object]","survey-multi-choice",137,699515,"0.0-137.0","8rkxoo27fjcczmr2dvt4b1ktn6mog8n9","Wed Apr 26 2017 23:13:35 GMT-0400 (US Eastern Standard Time)","male","Asian","don't know/not political","",NA,"","demographics","","","","","","","","","","",""
"139",4839,"","","instructions",138,705356,"0.0-138.0","8rkxoo27fjcczmr2dvt4b1ktn6mog8n9","Wed Apr 26 2017 23:13:35 GMT-0400 (US Eastern Standard Time)","male","Asian","don't know/not political","",NA,"[{""page_index"":0,""viewing_time"":2643},{""page_index"":1,""viewing_time"":1181},{""page_index"":2,""viewing_time"":282},{""page_index"":3,""viewing_time"":733}]","debriefing","","","","","","","","","","",""
