"","rt","responses","internalResp","trial_type","trial_index","time_elapsed","internal_node_id","randSubjectID","date","sex","race","polAff","stimulus","key_press","view_history","questionType","officerAction","civilianAction","offActName","civActName","order","questionName","response","name","dimension","person","question"
"1",15951,"","[object Object]","survey-text",0,15967,"0.0-0.0","941se31zgpf12n9sbmkwhxekngwtvn75","Tue Apr 18 2017 11:39:01 GMT-0400 (美国东部夏令时)","female","Asian","moderate/middle of the road","",NA,"","","","","","","","","","","","",""
"2",5921,"","","single-stim",1,22902,"0.0-1.0","941se31zgpf12n9sbmkwhxekngwtvn75","Tue Apr 18 2017 11:39:01 GMT-0400 (美国东部夏令时)","female","Asian","moderate/middle of the road","<img src='static/images/1602685960_ICS_Credit-0.png' alt='Consent 1' height=1100 width=850><img src='static/images/1602685960_ICS_Credit-1.png' alt='Consent 2' height=1100 width=850></p>",89,"","","","","","","","","","","","",""
"3",2702,"","","instructions",2,26612,"0.0-2.0","941se31zgpf12n9sbmkwhxekngwtvn75","Tue Apr 18 2017 11:39:01 GMT-0400 (美国东部夏令时)","female","Asian","moderate/middle of the road","",NA,"[{""page_index"":0,""viewing_time"":2700}]","instructions","","","","","","","","","","",""
"4",8439,"","","instructions",3,36064,"0.0-3.0","941se31zgpf12n9sbmkwhxekngwtvn75","Tue Apr 18 2017 11:39:01 GMT-0400 (美国东部夏令时)","female","Asian","moderate/middle of the road","",NA,"[{""page_index"":0,""viewing_time"":3692},{""page_index"":1,""viewing_time"":1648},{""page_index"":2,""viewing_time"":1846},{""page_index"":3,""viewing_time"":1252}]","instructions","","","","","","","","","","",""
"5",18861,"{""Q0"":57}","[object Object]","survey-likert",4,55989,"0.0-4.0","941se31zgpf12n9sbmkwhxekngwtvn75","Tue Apr 18 2017 11:39:01 GMT-0400 (美国东部夏令时)","female","Asian","moderate/middle of the road","",NA,"","offCivRatings","the officer applied a chokehold to the civilian","the civilian called the officer a ""pig""","choke","nameCall","civilianOfficer","punishOff","57","","","",""
"6",7464,"{""Q0"":31}","[object Object]","survey-likert",5,63485,"0.0-5.0","941se31zgpf12n9sbmkwhxekngwtvn75","Tue Apr 18 2017 11:39:01 GMT-0400 (美国东部夏令时)","female","Asian","moderate/middle of the road","",NA,"","offCivRatings","the officer applied a chokehold to the civilian","the civilian called the officer a ""pig""","choke","nameCall","civilianOfficer","appropriateOff","31","","","",""
"7",3490,"{""Q0"":33}","[object Object]","survey-likert",6,67018,"0.0-6.0","941se31zgpf12n9sbmkwhxekngwtvn75","Tue Apr 18 2017 11:39:01 GMT-0400 (美国东部夏令时)","female","Asian","moderate/middle of the road","",NA,"","offCivRatings","the officer applied a chokehold to the civilian","the civilian called the officer a ""pig""","choke","nameCall","civilianOfficer","acceptableOff","33","","","",""
"8",3816,"{""Q0"":24}","[object Object]","survey-likert",7,70867,"0.0-7.0","941se31zgpf12n9sbmkwhxekngwtvn75","Tue Apr 18 2017 11:39:01 GMT-0400 (美国东部夏令时)","female","Asian","moderate/middle of the road","",NA,"","offCivRatings","the officer applied a chokehold to the civilian","the civilian called the officer a ""pig""","choke","nameCall","civilianOfficer","manipCheckLow","24","","","",""
"9",2532,"{""Q0"":66}","[object Object]","survey-likert",8,73451,"0.0-8.0","941se31zgpf12n9sbmkwhxekngwtvn75","Tue Apr 18 2017 11:39:01 GMT-0400 (美国东部夏令时)","female","Asian","moderate/middle of the road","",NA,"","offCivRatings","the officer applied a chokehold to the civilian","the civilian called the officer a ""pig""","choke","nameCall","civilianOfficer","forceOff","66","","","",""
"10",1713,"","","instructions",9,75165,"0.0-9.0","941se31zgpf12n9sbmkwhxekngwtvn75","Tue Apr 18 2017 11:39:01 GMT-0400 (美国东部夏令时)","female","Asian","moderate/middle of the road","",NA,"[{""page_index"":0,""viewing_time"":1712}]","break","","","","","","","","","","",""
"11",2666,"{""Q0"":68}","[object Object]","survey-likert",10,78079,"0.0-10.0","941se31zgpf12n9sbmkwhxekngwtvn75","Tue Apr 18 2017 11:39:01 GMT-0400 (美国东部夏令时)","female","Asian","moderate/middle of the road","",NA,"","offCivRatings","the officer waved at the civilian in greeting","the civilian applied a chokehold to the officer","waved","choke","civilianOfficer","manipCheckLow","68","","","",""
"12",1900,"{""Q0"":70}","[object Object]","survey-likert",11,80012,"0.0-11.0","941se31zgpf12n9sbmkwhxekngwtvn75","Tue Apr 18 2017 11:39:01 GMT-0400 (美国东部夏令时)","female","Asian","moderate/middle of the road","",NA,"","offCivRatings","the officer waved at the civilian in greeting","the civilian applied a chokehold to the officer","waved","choke","civilianOfficer","punishOff","70","","","",""
"13",1787,"{""Q0"":73}","[object Object]","survey-likert",12,81828,"0.0-12.0","941se31zgpf12n9sbmkwhxekngwtvn75","Tue Apr 18 2017 11:39:01 GMT-0400 (美国东部夏令时)","female","Asian","moderate/middle of the road","",NA,"","offCivRatings","the officer waved at the civilian in greeting","the civilian applied a chokehold to the officer","waved","choke","civilianOfficer","acceptableOff","73","","","",""
"14",1629,"{""Q0"":30}","[object Object]","survey-likert",13,83486,"0.0-13.0","941se31zgpf12n9sbmkwhxekngwtvn75","Tue Apr 18 2017 11:39:01 GMT-0400 (美国东部夏令时)","female","Asian","moderate/middle of the road","",NA,"","offCivRatings","the officer waved at the civilian in greeting","the civilian applied a chokehold to the officer","waved","choke","civilianOfficer","forceOff","30","","","",""
"15",1708,"{""Q0"":41}","[object Object]","survey-likert",14,85223,"0.0-14.0","941se31zgpf12n9sbmkwhxekngwtvn75","Tue Apr 18 2017 11:39:01 GMT-0400 (美国东部夏令时)","female","Asian","moderate/middle of the road","",NA,"","offCivRatings","the officer waved at the civilian in greeting","the civilian applied a chokehold to the officer","waved","choke","civilianOfficer","appropriateOff","41","","","",""
"16",1003,"","","instructions",15,86226,"0.0-15.0","941se31zgpf12n9sbmkwhxekngwtvn75","Tue Apr 18 2017 11:39:01 GMT-0400 (美国东部夏令时)","female","Asian","moderate/middle of the road","",NA,"[{""page_index"":0,""viewing_time"":1002}]","break","","","","","","","","","","",""
"17",2547,"{""Q0"":59}","[object Object]","survey-likert",16,89012,"0.0-16.0","941se31zgpf12n9sbmkwhxekngwtvn75","Tue Apr 18 2017 11:39:01 GMT-0400 (美国东部夏令时)","female","Asian","moderate/middle of the road","",NA,"","offCivRatings","the officer yelled ""get back!"" at the civilian","the civilian struck the officer in the stomach with a metal flashlight","getBack","flashlight","civilianOfficer","forceOff","59","","","",""
"18",1748,"{""Q0"":35}","[object Object]","survey-likert",17,90796,"0.0-17.0","941se31zgpf12n9sbmkwhxekngwtvn75","Tue Apr 18 2017 11:39:01 GMT-0400 (美国东部夏令时)","female","Asian","moderate/middle of the road","",NA,"","offCivRatings","the officer yelled ""get back!"" at the civilian","the civilian struck the officer in the stomach with a metal flashlight","getBack","flashlight","civilianOfficer","manipCheckLow","35","","","",""
"19",1917,"{""Q0"":69}","[object Object]","survey-likert",18,92741,"0.0-18.0","941se31zgpf12n9sbmkwhxekngwtvn75","Tue Apr 18 2017 11:39:01 GMT-0400 (美国东部夏令时)","female","Asian","moderate/middle of the road","",NA,"","offCivRatings","the officer yelled ""get back!"" at the civilian","the civilian struck the officer in the stomach with a metal flashlight","getBack","flashlight","civilianOfficer","acceptableOff","69","","","",""
"20",1675,"{""Q0"":28}","[object Object]","survey-likert",19,94449,"0.0-19.0","941se31zgpf12n9sbmkwhxekngwtvn75","Tue Apr 18 2017 11:39:01 GMT-0400 (美国东部夏令时)","female","Asian","moderate/middle of the road","",NA,"","offCivRatings","the officer yelled ""get back!"" at the civilian","the civilian struck the officer in the stomach with a metal flashlight","getBack","flashlight","civilianOfficer","appropriateOff","28","","","",""
"21",1776,"{""Q0"":65}","[object Object]","survey-likert",20,96253,"0.0-20.0","941se31zgpf12n9sbmkwhxekngwtvn75","Tue Apr 18 2017 11:39:01 GMT-0400 (美国东部夏令时)","female","Asian","moderate/middle of the road","",NA,"","offCivRatings","the officer yelled ""get back!"" at the civilian","the civilian struck the officer in the stomach with a metal flashlight","getBack","flashlight","civilianOfficer","punishOff","65","","","",""
"22",995,"","","instructions",21,97248,"0.0-21.0","941se31zgpf12n9sbmkwhxekngwtvn75","Tue Apr 18 2017 11:39:01 GMT-0400 (美国东部夏令时)","female","Asian","moderate/middle of the road","",NA,"[{""page_index"":0,""viewing_time"":994}]","break","","","","","","","","","","",""
"23",1876,"{""Q0"":64}","[object Object]","survey-likert",22,99363,"0.0-22.0","941se31zgpf12n9sbmkwhxekngwtvn75","Tue Apr 18 2017 11:39:01 GMT-0400 (美国东部夏令时)","female","Asian","moderate/middle of the road","",NA,"","offCivRatings","the officer purposefully struck the civilian with a motor vehicle","the civilian shouted ""I don't have to fucking listen to you!"" at the officer","vehicle","dontListen","civilianOfficer","acceptableOff","64","","","",""
"24",1864,"{""Q0"":34}","[object Object]","survey-likert",23,101266,"0.0-23.0","941se31zgpf12n9sbmkwhxekngwtvn75","Tue Apr 18 2017 11:39:01 GMT-0400 (美国东部夏令时)","female","Asian","moderate/middle of the road","",NA,"","offCivRatings","the officer purposefully struck the civilian with a motor vehicle","the civilian shouted ""I don't have to fucking listen to you!"" at the officer","vehicle","dontListen","civilianOfficer","forceOff","34","","","",""
"25",3266,"{""Q0"":64}","[object Object]","survey-likert",24,104561,"0.0-24.0","941se31zgpf12n9sbmkwhxekngwtvn75","Tue Apr 18 2017 11:39:01 GMT-0400 (美国东部夏令时)","female","Asian","moderate/middle of the road","",NA,"","offCivRatings","the officer purposefully struck the civilian with a motor vehicle","the civilian shouted ""I don't have to fucking listen to you!"" at the officer","vehicle","dontListen","civilianOfficer","punishOff","64","","","",""
"26",11767,"{""Q0"":33}","[object Object]","survey-likert",25,116356,"0.0-25.0","941se31zgpf12n9sbmkwhxekngwtvn75","Tue Apr 18 2017 11:39:01 GMT-0400 (美国东部夏令时)","female","Asian","moderate/middle of the road","",NA,"","offCivRatings","the officer purposefully struck the civilian with a motor vehicle","the civilian shouted ""I don't have to fucking listen to you!"" at the officer","vehicle","dontListen","civilianOfficer","appropriateOff","33","","","",""
"27",1044,"","","instructions",26,117400,"0.0-26.0","941se31zgpf12n9sbmkwhxekngwtvn75","Tue Apr 18 2017 11:39:01 GMT-0400 (美国东部夏令时)","female","Asian","moderate/middle of the road","",NA,"[{""page_index"":0,""viewing_time"":1043}]","break","","","","","","","","","","",""
"28",1925,"{""Q0"":63}","[object Object]","survey-likert",27,119573,"0.0-27.0","941se31zgpf12n9sbmkwhxekngwtvn75","Tue Apr 18 2017 11:39:01 GMT-0400 (美国东部夏令时)","female","Asian","moderate/middle of the road","",NA,"","offCivRatings","the officer punched the civilian in the face","the civilian hit the officer in the chest with a baseball bat","punchFace","ballBat","officerCivilian","punishCiv","63","","","",""
"29",1984,"{""Q0"":64}","[object Object]","survey-likert",28,121587,"0.0-28.0","941se31zgpf12n9sbmkwhxekngwtvn75","Tue Apr 18 2017 11:39:01 GMT-0400 (美国东部夏令时)","female","Asian","moderate/middle of the road","",NA,"","offCivRatings","the officer punched the civilian in the face","the civilian hit the officer in the chest with a baseball bat","punchFace","ballBat","officerCivilian","acceptableCiv","64","","","",""
"30",1709,"{""Q0"":63}","[object Object]","survey-likert",29,123332,"0.0-29.0","941se31zgpf12n9sbmkwhxekngwtvn75","Tue Apr 18 2017 11:39:01 GMT-0400 (美国东部夏令时)","female","Asian","moderate/middle of the road","",NA,"","offCivRatings","the officer punched the civilian in the face","the civilian hit the officer in the chest with a baseball bat","punchFace","ballBat","officerCivilian","appropriateCiv","63","","","",""
"31",6072,"{""Q0"":32}","[object Object]","survey-likert",30,129431,"0.0-30.0","941se31zgpf12n9sbmkwhxekngwtvn75","Tue Apr 18 2017 11:39:01 GMT-0400 (美国东部夏令时)","female","Asian","moderate/middle of the road","",NA,"","offCivRatings","the officer punched the civilian in the face","the civilian hit the officer in the chest with a baseball bat","punchFace","ballBat","officerCivilian","forceCiv","32","","","",""
"32",1122,"","","instructions",31,130553,"0.0-31.0","941se31zgpf12n9sbmkwhxekngwtvn75","Tue Apr 18 2017 11:39:01 GMT-0400 (美国东部夏令时)","female","Asian","moderate/middle of the road","",NA,"[{""page_index"":0,""viewing_time"":1122}]","break","","","","","","","","","","",""
"33",2591,"{""Q0"":37}","[object Object]","survey-likert",32,133377,"0.0-32.0","941se31zgpf12n9sbmkwhxekngwtvn75","Tue Apr 18 2017 11:39:01 GMT-0400 (美国东部夏令时)","female","Asian","moderate/middle of the road","",NA,"","offCivRatings","the officer struck the civilian in the stomach with a metal flashlight","the civilian stood near the officer","flashlight","stoodNear","officerCivilian","manipCheckLow","37","","","",""
"34",3515,"{""Q0"":16}","[object Object]","survey-likert",33,136920,"0.0-33.0","941se31zgpf12n9sbmkwhxekngwtvn75","Tue Apr 18 2017 11:39:01 GMT-0400 (美国东部夏令时)","female","Asian","moderate/middle of the road","",NA,"","offCivRatings","the officer struck the civilian in the stomach with a metal flashlight","the civilian stood near the officer","flashlight","stoodNear","officerCivilian","appropriateCiv","16","","","",""
"35",2362,"{""Q0"":85}","[object Object]","survey-likert",34,139308,"0.0-34.0","941se31zgpf12n9sbmkwhxekngwtvn75","Tue Apr 18 2017 11:39:01 GMT-0400 (美国东部夏令时)","female","Asian","moderate/middle of the road","",NA,"","offCivRatings","the officer struck the civilian in the stomach with a metal flashlight","the civilian stood near the officer","flashlight","stoodNear","officerCivilian","forceCiv","85","","","",""
"36",1921,"{""Q0"":70}","[object Object]","survey-likert",35,141262,"0.0-35.0","941se31zgpf12n9sbmkwhxekngwtvn75","Tue Apr 18 2017 11:39:01 GMT-0400 (美国东部夏令时)","female","Asian","moderate/middle of the road","",NA,"","offCivRatings","the officer struck the civilian in the stomach with a metal flashlight","the civilian stood near the officer","flashlight","stoodNear","officerCivilian","punishCiv","70","","","",""
"37",1700,"{""Q0"":60}","[object Object]","survey-likert",36,142987,"0.0-36.0","941se31zgpf12n9sbmkwhxekngwtvn75","Tue Apr 18 2017 11:39:01 GMT-0400 (美国东部夏令时)","female","Asian","moderate/middle of the road","",NA,"","offCivRatings","the officer struck the civilian in the stomach with a metal flashlight","the civilian stood near the officer","flashlight","stoodNear","officerCivilian","acceptableCiv","60","","","",""
"38",1204,"","","instructions",37,144192,"0.0-37.0","941se31zgpf12n9sbmkwhxekngwtvn75","Tue Apr 18 2017 11:39:01 GMT-0400 (美国东部夏令时)","female","Asian","moderate/middle of the road","",NA,"[{""page_index"":0,""viewing_time"":1203}]","break","","","","","","","","","","",""
"39",2839,"{""Q0"":21}","[object Object]","survey-likert",38,147270,"0.0-38.0","941se31zgpf12n9sbmkwhxekngwtvn75","Tue Apr 18 2017 11:39:01 GMT-0400 (美国东部夏令时)","female","Asian","moderate/middle of the road","",NA,"","offCivRatings","the officer called the civilian a ""thug""","the civilian kicked the officer in the stomach","nameCall","kickStom","civilianOfficer","forceOff","21","","","",""
"40",3643,"{""Q0"":32}","[object Object]","survey-likert",39,150941,"0.0-39.0","941se31zgpf12n9sbmkwhxekngwtvn75","Tue Apr 18 2017 11:39:01 GMT-0400 (美国东部夏令时)","female","Asian","moderate/middle of the road","",NA,"","offCivRatings","the officer called the civilian a ""thug""","the civilian kicked the officer in the stomach","nameCall","kickStom","civilianOfficer","punishOff","32","","","",""
"41",1877,"{""Q0"":40}","[object Object]","survey-likert",40,152846,"0.0-40.0","941se31zgpf12n9sbmkwhxekngwtvn75","Tue Apr 18 2017 11:39:01 GMT-0400 (美国东部夏令时)","female","Asian","moderate/middle of the road","",NA,"","offCivRatings","the officer called the civilian a ""thug""","the civilian kicked the officer in the stomach","nameCall","kickStom","civilianOfficer","acceptableOff","40","","","",""
"42",1737,"{""Q0"":58}","[object Object]","survey-likert",41,154621,"0.0-41.0","941se31zgpf12n9sbmkwhxekngwtvn75","Tue Apr 18 2017 11:39:01 GMT-0400 (美国东部夏令时)","female","Asian","moderate/middle of the road","",NA,"","offCivRatings","the officer called the civilian a ""thug""","the civilian kicked the officer in the stomach","nameCall","kickStom","civilianOfficer","appropriateOff","58","","","",""
"43",1193,"","","instructions",42,155814,"0.0-42.0","941se31zgpf12n9sbmkwhxekngwtvn75","Tue Apr 18 2017 11:39:01 GMT-0400 (美国东部夏令时)","female","Asian","moderate/middle of the road","",NA,"[{""page_index"":0,""viewing_time"":1192}]","break","","","","","","","","","","",""
"44",3179,"{""Q0"":65}","[object Object]","survey-likert",43,159251,"0.0-43.0","941se31zgpf12n9sbmkwhxekngwtvn75","Tue Apr 18 2017 11:39:01 GMT-0400 (美国东部夏令时)","female","Asian","moderate/middle of the road","",NA,"","offCivRatings","the officer sprayed the civilian with pepper spray","the civilian struck the officer on the leg with a metal pipe","pepperSpray","metalPipe","officerCivilian","forceCiv","65","","","",""
"45",5312,"{""Q0"":75}","[object Object]","survey-likert",44,164590,"0.0-44.0","941se31zgpf12n9sbmkwhxekngwtvn75","Tue Apr 18 2017 11:39:01 GMT-0400 (美国东部夏令时)","female","Asian","moderate/middle of the road","",NA,"","offCivRatings","the officer sprayed the civilian with pepper spray","the civilian struck the officer on the leg with a metal pipe","pepperSpray","metalPipe","officerCivilian","punishCiv","75","","","",""
"46",2132,"{""Q0"":36}","[object Object]","survey-likert",45,166748,"0.0-45.0","941se31zgpf12n9sbmkwhxekngwtvn75","Tue Apr 18 2017 11:39:01 GMT-0400 (美国东部夏令时)","female","Asian","moderate/middle of the road","",NA,"","offCivRatings","the officer sprayed the civilian with pepper spray","the civilian struck the officer on the leg with a metal pipe","pepperSpray","metalPipe","officerCivilian","acceptableCiv","36","","","",""
"47",1906,"{""Q0"":33}","[object Object]","survey-likert",46,168683,"0.0-46.0","941se31zgpf12n9sbmkwhxekngwtvn75","Tue Apr 18 2017 11:39:01 GMT-0400 (美国东部夏令时)","female","Asian","moderate/middle of the road","",NA,"","offCivRatings","the officer sprayed the civilian with pepper spray","the civilian struck the officer on the leg with a metal pipe","pepperSpray","metalPipe","officerCivilian","appropriateCiv","33","","","",""
"48",1360,"","","instructions",47,170044,"0.0-47.0","941se31zgpf12n9sbmkwhxekngwtvn75","Tue Apr 18 2017 11:39:01 GMT-0400 (美国东部夏令时)","female","Asian","moderate/middle of the road","",NA,"[{""page_index"":0,""viewing_time"":1360}]","break","","","","","","","","","","",""
"49",2590,"{""Q0"":61}","[object Object]","survey-likert",48,172887,"0.0-48.0","941se31zgpf12n9sbmkwhxekngwtvn75","Tue Apr 18 2017 11:39:01 GMT-0400 (美国东部夏令时)","female","Asian","moderate/middle of the road","",NA,"","offCivRatings","the officer shot the civilian in the chest with a beanbag shotgun round","the civilian shot the officer in the chest with a handgun","beanbag","handgunChest","officerCivilian","appropriateCiv","61","","","",""
"50",2072,"{""Q0"":33}","[object Object]","survey-likert",49,174989,"0.0-49.0","941se31zgpf12n9sbmkwhxekngwtvn75","Tue Apr 18 2017 11:39:01 GMT-0400 (美国东部夏令时)","female","Asian","moderate/middle of the road","",NA,"","offCivRatings","the officer shot the civilian in the chest with a beanbag shotgun round","the civilian shot the officer in the chest with a handgun","beanbag","handgunChest","officerCivilian","punishCiv","33","","","",""
"51",2055,"{""Q0"":26}","[object Object]","survey-likert",50,177071,"0.0-50.0","941se31zgpf12n9sbmkwhxekngwtvn75","Tue Apr 18 2017 11:39:01 GMT-0400 (美国东部夏令时)","female","Asian","moderate/middle of the road","",NA,"","offCivRatings","the officer shot the civilian in the chest with a beanbag shotgun round","the civilian shot the officer in the chest with a handgun","beanbag","handgunChest","officerCivilian","manipCheckHigh","26","","","",""
"52",1608,"{""Q0"":45}","[object Object]","survey-likert",51,178707,"0.0-51.0","941se31zgpf12n9sbmkwhxekngwtvn75","Tue Apr 18 2017 11:39:01 GMT-0400 (美国东部夏令时)","female","Asian","moderate/middle of the road","",NA,"","offCivRatings","the officer shot the civilian in the chest with a beanbag shotgun round","the civilian shot the officer in the chest with a handgun","beanbag","handgunChest","officerCivilian","forceCiv","45","","","",""
"53",3772,"{""Q0"":61}","[object Object]","survey-likert",52,182507,"0.0-52.0","941se31zgpf12n9sbmkwhxekngwtvn75","Tue Apr 18 2017 11:39:01 GMT-0400 (美国东部夏令时)","female","Asian","moderate/middle of the road","",NA,"","offCivRatings","the officer shot the civilian in the chest with a beanbag shotgun round","the civilian shot the officer in the chest with a handgun","beanbag","handgunChest","officerCivilian","acceptableCiv","61","","","",""
"54",1450,"","","instructions",53,183957,"0.0-53.0","941se31zgpf12n9sbmkwhxekngwtvn75","Tue Apr 18 2017 11:39:01 GMT-0400 (美国东部夏令时)","female","Asian","moderate/middle of the road","",NA,"[{""page_index"":0,""viewing_time"":1449}]","break","","","","","","","","","","",""
"55",2665,"{""Q0"":61}","[object Object]","survey-likert",54,186869,"0.0-54.0","941se31zgpf12n9sbmkwhxekngwtvn75","Tue Apr 18 2017 11:39:01 GMT-0400 (美国东部夏令时)","female","Asian","moderate/middle of the road","",NA,"","offCivRatings","the officer slammed the civilian's head into the concrete curb","the civilian sprayed the officer with pepper spray","headSlam","pepperSpray","officerCivilian","manipCheckLow","61","","","",""
"56",1897,"{""Q0"":34}","[object Object]","survey-likert",55,188792,"0.0-55.0","941se31zgpf12n9sbmkwhxekngwtvn75","Tue Apr 18 2017 11:39:01 GMT-0400 (美国东部夏令时)","female","Asian","moderate/middle of the road","",NA,"","offCivRatings","the officer slammed the civilian's head into the concrete curb","the civilian sprayed the officer with pepper spray","headSlam","pepperSpray","officerCivilian","forceCiv","34","","","",""
"57",2042,"{""Q0"":27}","[object Object]","survey-likert",56,190866,"0.0-56.0","941se31zgpf12n9sbmkwhxekngwtvn75","Tue Apr 18 2017 11:39:01 GMT-0400 (美国东部夏令时)","female","Asian","moderate/middle of the road","",NA,"","offCivRatings","the officer slammed the civilian's head into the concrete curb","the civilian sprayed the officer with pepper spray","headSlam","pepperSpray","officerCivilian","acceptableCiv","27","","","",""
"58",1798,"{""Q0"":68}","[object Object]","survey-likert",57,192690,"0.0-57.0","941se31zgpf12n9sbmkwhxekngwtvn75","Tue Apr 18 2017 11:39:01 GMT-0400 (美国东部夏令时)","female","Asian","moderate/middle of the road","",NA,"","offCivRatings","the officer slammed the civilian's head into the concrete curb","the civilian sprayed the officer with pepper spray","headSlam","pepperSpray","officerCivilian","appropriateCiv","68","","","",""
"59",2654,"{""Q0"":63}","[object Object]","survey-likert",58,195373,"0.0-58.0","941se31zgpf12n9sbmkwhxekngwtvn75","Tue Apr 18 2017 11:39:01 GMT-0400 (美国东部夏令时)","female","Asian","moderate/middle of the road","",NA,"","offCivRatings","the officer slammed the civilian's head into the concrete curb","the civilian sprayed the officer with pepper spray","headSlam","pepperSpray","officerCivilian","punishCiv","63","","","",""
"60",1518,"","","instructions",59,196892,"0.0-59.0","941se31zgpf12n9sbmkwhxekngwtvn75","Tue Apr 18 2017 11:39:01 GMT-0400 (美国东部夏令时)","female","Asian","moderate/middle of the road","",NA,"[{""page_index"":0,""viewing_time"":1517}]","break","","","","","","","","","","",""
"61",2501,"{""Q0"":73}","[object Object]","survey-likert",60,199636,"0.0-60.0","941se31zgpf12n9sbmkwhxekngwtvn75","Tue Apr 18 2017 11:39:01 GMT-0400 (美国东部夏令时)","female","Asian","moderate/middle of the road","",NA,"","offCivRatings","the officer headbutted the civilian in the face","the civilian shot the officer in the head with a handgun","headbutt","handgunHead","officerCivilian","forceCiv","73","","","",""
"62",3807,"{""Q0"":73}","[object Object]","survey-likert",61,203475,"0.0-61.0","941se31zgpf12n9sbmkwhxekngwtvn75","Tue Apr 18 2017 11:39:01 GMT-0400 (美国东部夏令时)","female","Asian","moderate/middle of the road","",NA,"","offCivRatings","the officer headbutted the civilian in the face","the civilian shot the officer in the head with a handgun","headbutt","handgunHead","officerCivilian","punishCiv","73","","","",""
"63",3490,"{""Q0"":88}","[object Object]","survey-likert",62,206999,"0.0-62.0","941se31zgpf12n9sbmkwhxekngwtvn75","Tue Apr 18 2017 11:39:01 GMT-0400 (美国东部夏令时)","female","Asian","moderate/middle of the road","",NA,"","offCivRatings","the officer headbutted the civilian in the face","the civilian shot the officer in the head with a handgun","headbutt","handgunHead","officerCivilian","acceptableCiv","88","","","",""
"64",2226,"{""Q0"":61}","[object Object]","survey-likert",63,209267,"0.0-63.0","941se31zgpf12n9sbmkwhxekngwtvn75","Tue Apr 18 2017 11:39:01 GMT-0400 (美国东部夏令时)","female","Asian","moderate/middle of the road","",NA,"","offCivRatings","the officer headbutted the civilian in the face","the civilian shot the officer in the head with a handgun","headbutt","handgunHead","officerCivilian","appropriateCiv","61","","","",""
"65",1023,"","","instructions",64,210291,"0.0-64.0","941se31zgpf12n9sbmkwhxekngwtvn75","Tue Apr 18 2017 11:39:01 GMT-0400 (美国东部夏令时)","female","Asian","moderate/middle of the road","",NA,"[{""page_index"":0,""viewing_time"":1023}]","break","","","","","","","","","","",""
"66",2282,"{""Q0"":43}","[object Object]","survey-likert",65,212820,"0.0-65.0","941se31zgpf12n9sbmkwhxekngwtvn75","Tue Apr 18 2017 11:39:01 GMT-0400 (美国东部夏令时)","female","Asian","moderate/middle of the road","",NA,"","offCivRatings","the officer shot the civilian in the chest with a handgun","the civilian waved at the officer in greeting","handgunChest","waved","officerCivilian","acceptableCiv","43","","","",""
"67",1686,"{""Q0"":60}","[object Object]","survey-likert",66,214536,"0.0-66.0","941se31zgpf12n9sbmkwhxekngwtvn75","Tue Apr 18 2017 11:39:01 GMT-0400 (美国东部夏令时)","female","Asian","moderate/middle of the road","",NA,"","offCivRatings","the officer shot the civilian in the chest with a handgun","the civilian waved at the officer in greeting","handgunChest","waved","officerCivilian","appropriateCiv","60","","","",""
"68",4552,"{""Q0"":32}","[object Object]","survey-likert",67,219114,"0.0-67.0","941se31zgpf12n9sbmkwhxekngwtvn75","Tue Apr 18 2017 11:39:01 GMT-0400 (美国东部夏令时)","female","Asian","moderate/middle of the road","",NA,"","offCivRatings","the officer shot the civilian in the chest with a handgun","the civilian waved at the officer in greeting","handgunChest","waved","officerCivilian","forceCiv","32","","","",""
"69",3485,"{""Q0"":69}","[object Object]","survey-likert",68,222626,"0.0-68.0","941se31zgpf12n9sbmkwhxekngwtvn75","Tue Apr 18 2017 11:39:01 GMT-0400 (美国东部夏令时)","female","Asian","moderate/middle of the road","",NA,"","offCivRatings","the officer shot the civilian in the chest with a handgun","the civilian waved at the officer in greeting","handgunChest","waved","officerCivilian","punishCiv","69","","","",""
"70",2740,"{""Q0"":29}","[object Object]","survey-likert",69,225391,"0.0-69.0","941se31zgpf12n9sbmkwhxekngwtvn75","Tue Apr 18 2017 11:39:01 GMT-0400 (美国东部夏令时)","female","Asian","moderate/middle of the road","",NA,"","offCivRatings","the officer shot the civilian in the chest with a handgun","the civilian waved at the officer in greeting","handgunChest","waved","officerCivilian","manipCheckHigh","29","","","",""
"71",1673,"","","instructions",70,227065,"0.0-70.0","941se31zgpf12n9sbmkwhxekngwtvn75","Tue Apr 18 2017 11:39:01 GMT-0400 (美国东部夏令时)","female","Asian","moderate/middle of the road","",NA,"[{""page_index"":0,""viewing_time"":1672}]","break","","","","","","","","","","",""
"72",1826,"{""Q0"":66}","[object Object]","survey-likert",71,229119,"0.0-71.0","941se31zgpf12n9sbmkwhxekngwtvn75","Tue Apr 18 2017 11:39:01 GMT-0400 (美国东部夏令时)","female","Asian","moderate/middle of the road","",NA,"","offCivRatings","the officer shocked the civilian with a tazer","the civilian shocked the officer with a tazer","tazer","tazer","officerCivilian","punishCiv","66","","","",""
"73",2922,"{""Q0"":28}","[object Object]","survey-likert",72,232079,"0.0-72.0","941se31zgpf12n9sbmkwhxekngwtvn75","Tue Apr 18 2017 11:39:01 GMT-0400 (美国东部夏令时)","female","Asian","moderate/middle of the road","",NA,"","offCivRatings","the officer shocked the civilian with a tazer","the civilian shocked the officer with a tazer","tazer","tazer","officerCivilian","acceptableCiv","28","","","",""
"74",2775,"{""Q0"":74}","[object Object]","survey-likert",73,234881,"0.0-73.0","941se31zgpf12n9sbmkwhxekngwtvn75","Tue Apr 18 2017 11:39:01 GMT-0400 (美国东部夏令时)","female","Asian","moderate/middle of the road","",NA,"","offCivRatings","the officer shocked the civilian with a tazer","the civilian shocked the officer with a tazer","tazer","tazer","officerCivilian","appropriateCiv","74","","","",""
"75",2371,"{""Q0"":57}","[object Object]","survey-likert",74,237279,"0.0-74.0","941se31zgpf12n9sbmkwhxekngwtvn75","Tue Apr 18 2017 11:39:01 GMT-0400 (美国东部夏令时)","female","Asian","moderate/middle of the road","",NA,"","offCivRatings","the officer shocked the civilian with a tazer","the civilian shocked the officer with a tazer","tazer","tazer","officerCivilian","forceCiv","57","","","",""
"76",1072,"","","instructions",75,238352,"0.0-75.0","941se31zgpf12n9sbmkwhxekngwtvn75","Tue Apr 18 2017 11:39:01 GMT-0400 (美国东部夏令时)","female","Asian","moderate/middle of the road","",NA,"[{""page_index"":0,""viewing_time"":1072}]","break","","","","","","","","","","",""
"77",2611,"{""Q0"":41}","[object Object]","survey-likert",76,241206,"0.0-76.0","941se31zgpf12n9sbmkwhxekngwtvn75","Tue Apr 18 2017 11:39:01 GMT-0400 (美国东部夏令时)","female","Asian","moderate/middle of the road","",NA,"","offCivRatings","the officer twisted the arm of the civilian, forcing him to the ground","the civilian punched the officer in the face","armbar","punchFace","civilianOfficer","forceOff","41","","","",""
"78",2273,"{""Q0"":33}","[object Object]","survey-likert",77,243506,"0.0-77.0","941se31zgpf12n9sbmkwhxekngwtvn75","Tue Apr 18 2017 11:39:01 GMT-0400 (美国东部夏令时)","female","Asian","moderate/middle of the road","",NA,"","offCivRatings","the officer twisted the arm of the civilian, forcing him to the ground","the civilian punched the officer in the face","armbar","punchFace","civilianOfficer","appropriateOff","33","","","",""
"79",3139,"{""Q0"":30}","[object Object]","survey-likert",78,246672,"0.0-78.0","941se31zgpf12n9sbmkwhxekngwtvn75","Tue Apr 18 2017 11:39:01 GMT-0400 (美国东部夏令时)","female","Asian","moderate/middle of the road","",NA,"","offCivRatings","the officer twisted the arm of the civilian, forcing him to the ground","the civilian punched the officer in the face","armbar","punchFace","civilianOfficer","punishOff","30","","","",""
"80",3211,"{""Q0"":25}","[object Object]","survey-likert",79,249909,"0.0-79.0","941se31zgpf12n9sbmkwhxekngwtvn75","Tue Apr 18 2017 11:39:01 GMT-0400 (美国东部夏令时)","female","Asian","moderate/middle of the road","",NA,"","offCivRatings","the officer twisted the arm of the civilian, forcing him to the ground","the civilian punched the officer in the face","armbar","punchFace","civilianOfficer","acceptableOff","25","","","",""
"81",2389,"{""Q0"":60}","[object Object]","survey-likert",80,252327,"0.0-80.0","941se31zgpf12n9sbmkwhxekngwtvn75","Tue Apr 18 2017 11:39:01 GMT-0400 (美国东部夏令时)","female","Asian","moderate/middle of the road","",NA,"","offCivRatings","the officer twisted the arm of the civilian, forcing him to the ground","the civilian punched the officer in the face","armbar","punchFace","civilianOfficer","manipCheckHigh","60","","","",""
"82",1004,"","","instructions",81,253331,"0.0-81.0","941se31zgpf12n9sbmkwhxekngwtvn75","Tue Apr 18 2017 11:39:01 GMT-0400 (美国东部夏令时)","female","Asian","moderate/middle of the road","",NA,"[{""page_index"":0,""viewing_time"":1004}]","break","","","","","","","","","","",""
"83",3725,"{""Q0"":58}","[object Object]","survey-likert",82,257309,"0.0-82.0","941se31zgpf12n9sbmkwhxekngwtvn75","Tue Apr 18 2017 11:39:01 GMT-0400 (美国东部夏令时)","female","Asian","moderate/middle of the road","",NA,"","offCivRatings","the officer put handcuffs on the civilian","the civilian headbutted the officer in the face","handcuff","headbutt","officerCivilian","acceptableCiv","58","","","",""
"84",2541,"{""Q0"":68}","[object Object]","survey-likert",83,259886,"0.0-83.0","941se31zgpf12n9sbmkwhxekngwtvn75","Tue Apr 18 2017 11:39:01 GMT-0400 (美国东部夏令时)","female","Asian","moderate/middle of the road","",NA,"","offCivRatings","the officer put handcuffs on the civilian","the civilian headbutted the officer in the face","handcuff","headbutt","officerCivilian","punishCiv","68","","","",""
"85",2658,"{""Q0"":79}","[object Object]","survey-likert",84,262572,"0.0-84.0","941se31zgpf12n9sbmkwhxekngwtvn75","Tue Apr 18 2017 11:39:01 GMT-0400 (美国东部夏令时)","female","Asian","moderate/middle of the road","",NA,"","offCivRatings","the officer put handcuffs on the civilian","the civilian headbutted the officer in the face","handcuff","headbutt","officerCivilian","forceCiv","79","","","",""
"86",3433,"{""Q0"":45}","[object Object]","survey-likert",85,266033,"0.0-85.0","941se31zgpf12n9sbmkwhxekngwtvn75","Tue Apr 18 2017 11:39:01 GMT-0400 (美国东部夏令时)","female","Asian","moderate/middle of the road","",NA,"","offCivRatings","the officer put handcuffs on the civilian","the civilian headbutted the officer in the face","handcuff","headbutt","officerCivilian","appropriateCiv","45","","","",""
"87",1003,"","","instructions",86,267037,"0.0-86.0","941se31zgpf12n9sbmkwhxekngwtvn75","Tue Apr 18 2017 11:39:01 GMT-0400 (美国东部夏令时)","female","Asian","moderate/middle of the road","",NA,"[{""page_index"":0,""viewing_time"":1003}]","break","","","","","","","","","","",""
"88",5505,"{""Q0"":58}","[object Object]","survey-likert",87,272782,"0.0-87.0","941se31zgpf12n9sbmkwhxekngwtvn75","Tue Apr 18 2017 11:39:01 GMT-0400 (美国东部夏令时)","female","Asian","moderate/middle of the road","",NA,"","offCivRatings","the officer said ""if you touch me, you're gonna get hurt"" to the civilian","the civilian pulled away from the officer","hurtThreat","pulledAway","civilianOfficer","punishOff","58","","","",""
"89",2775,"{""Q0"":34}","[object Object]","survey-likert",88,275584,"0.0-88.0","941se31zgpf12n9sbmkwhxekngwtvn75","Tue Apr 18 2017 11:39:01 GMT-0400 (美国东部夏令时)","female","Asian","moderate/middle of the road","",NA,"","offCivRatings","the officer said ""if you touch me, you're gonna get hurt"" to the civilian","the civilian pulled away from the officer","hurtThreat","pulledAway","civilianOfficer","appropriateOff","34","","","",""
"90",2073,"{""Q0"":63}","[object Object]","survey-likert",89,277687,"0.0-89.0","941se31zgpf12n9sbmkwhxekngwtvn75","Tue Apr 18 2017 11:39:01 GMT-0400 (美国东部夏令时)","female","Asian","moderate/middle of the road","",NA,"","offCivRatings","the officer said ""if you touch me, you're gonna get hurt"" to the civilian","the civilian pulled away from the officer","hurtThreat","pulledAway","civilianOfficer","acceptableOff","63","","","",""
"91",2756,"{""Q0"":68}","[object Object]","survey-likert",90,280469,"0.0-90.0","941se31zgpf12n9sbmkwhxekngwtvn75","Tue Apr 18 2017 11:39:01 GMT-0400 (美国东部夏令时)","female","Asian","moderate/middle of the road","",NA,"","offCivRatings","the officer said ""if you touch me, you're gonna get hurt"" to the civilian","the civilian pulled away from the officer","hurtThreat","pulledAway","civilianOfficer","forceOff","68","","","",""
"92",1055,"","","instructions",91,281524,"0.0-91.0","941se31zgpf12n9sbmkwhxekngwtvn75","Tue Apr 18 2017 11:39:01 GMT-0400 (美国东部夏令时)","female","Asian","moderate/middle of the road","",NA,"[{""page_index"":0,""viewing_time"":1055}]","break","","","","","","","","","","",""
"93",2517,"{""Q0"":56}","[object Object]","survey-likert",92,284287,"0.0-92.0","941se31zgpf12n9sbmkwhxekngwtvn75","Tue Apr 18 2017 11:39:01 GMT-0400 (美国东部夏令时)","female","Asian","moderate/middle of the road","",NA,"","offCivRatings","the officer kicked the civilian in the stomach","the civilian said ""if you touch me, you're gonna get hurt"" to the officer","kickStom","hurtThreat","civilianOfficer","acceptableOff","56","","","",""
"94",3415,"{""Q0"":38}","[object Object]","survey-likert",93,287730,"0.0-93.0","941se31zgpf12n9sbmkwhxekngwtvn75","Tue Apr 18 2017 11:39:01 GMT-0400 (美国东部夏令时)","female","Asian","moderate/middle of the road","",NA,"","offCivRatings","the officer kicked the civilian in the stomach","the civilian said ""if you touch me, you're gonna get hurt"" to the officer","kickStom","hurtThreat","civilianOfficer","appropriateOff","38","","","",""
"95",1991,"{""Q0"":59}","[object Object]","survey-likert",94,289754,"0.0-94.0","941se31zgpf12n9sbmkwhxekngwtvn75","Tue Apr 18 2017 11:39:01 GMT-0400 (美国东部夏令时)","female","Asian","moderate/middle of the road","",NA,"","offCivRatings","the officer kicked the civilian in the stomach","the civilian said ""if you touch me, you're gonna get hurt"" to the officer","kickStom","hurtThreat","civilianOfficer","punishOff","59","","","",""
"96",2245,"{""Q0"":64}","[object Object]","survey-likert",95,292023,"0.0-95.0","941se31zgpf12n9sbmkwhxekngwtvn75","Tue Apr 18 2017 11:39:01 GMT-0400 (美国东部夏令时)","female","Asian","moderate/middle of the road","",NA,"","offCivRatings","the officer kicked the civilian in the stomach","the civilian said ""if you touch me, you're gonna get hurt"" to the officer","kickStom","hurtThreat","civilianOfficer","manipCheckHigh","64","","","",""
"97",2112,"{""Q0"":40}","[object Object]","survey-likert",96,294166,"0.0-96.0","941se31zgpf12n9sbmkwhxekngwtvn75","Tue Apr 18 2017 11:39:01 GMT-0400 (美国东部夏令时)","female","Asian","moderate/middle of the road","",NA,"","offCivRatings","the officer kicked the civilian in the stomach","the civilian said ""if you touch me, you're gonna get hurt"" to the officer","kickStom","hurtThreat","civilianOfficer","forceOff","40","","","",""
"98",1053,"","","instructions",97,295219,"0.0-97.0","941se31zgpf12n9sbmkwhxekngwtvn75","Tue Apr 18 2017 11:39:01 GMT-0400 (美国东部夏令时)","female","Asian","moderate/middle of the road","",NA,"[{""page_index"":0,""viewing_time"":1052}]","break","","","","","","","","","","",""
"99",1948,"{""Q0"":57}","[object Object]","survey-likert",98,297402,"0.0-98.0","941se31zgpf12n9sbmkwhxekngwtvn75","Tue Apr 18 2017 11:39:01 GMT-0400 (美国东部夏令时)","female","Asian","moderate/middle of the road","",NA,"","offCivRatings","the officer asked the civilian how he was doing","the civilian asked the officer how he was doing","asked","asked","civilianOfficer","acceptableOff","57","","","",""
"100",3506,"{""Q0"":36}","[object Object]","survey-likert",99,300934,"0.0-99.0","941se31zgpf12n9sbmkwhxekngwtvn75","Tue Apr 18 2017 11:39:01 GMT-0400 (美国东部夏令时)","female","Asian","moderate/middle of the road","",NA,"","offCivRatings","the officer asked the civilian how he was doing","the civilian asked the officer how he was doing","asked","asked","civilianOfficer","punishOff","36","","","",""
"101",1668,"{""Q0"":62}","[object Object]","survey-likert",100,302631,"0.0-100.0","941se31zgpf12n9sbmkwhxekngwtvn75","Tue Apr 18 2017 11:39:01 GMT-0400 (美国东部夏令时)","female","Asian","moderate/middle of the road","",NA,"","offCivRatings","the officer asked the civilian how he was doing","the civilian asked the officer how he was doing","asked","asked","civilianOfficer","forceOff","62","","","",""
"102",1837,"{""Q0"":35}","[object Object]","survey-likert",101,304497,"0.0-101.0","941se31zgpf12n9sbmkwhxekngwtvn75","Tue Apr 18 2017 11:39:01 GMT-0400 (美国东部夏令时)","female","Asian","moderate/middle of the road","",NA,"","offCivRatings","the officer asked the civilian how he was doing","the civilian asked the officer how he was doing","asked","asked","civilianOfficer","appropriateOff","35","","","",""
"103",984,"","","instructions",102,305481,"0.0-102.0","941se31zgpf12n9sbmkwhxekngwtvn75","Tue Apr 18 2017 11:39:01 GMT-0400 (美国东部夏令时)","female","Asian","moderate/middle of the road","",NA,"[{""page_index"":0,""viewing_time"":983}]","break","","","","","","","","","","",""
"104",2330,"{""Q0"":60}","[object Object]","survey-likert",103,308048,"0.0-103.0","941se31zgpf12n9sbmkwhxekngwtvn75","Tue Apr 18 2017 11:39:01 GMT-0400 (美国东部夏令时)","female","Asian","moderate/middle of the road","",NA,"","offCivRatings","the officer stood near the civilian","the civilian yelled ""get back!"" at the officer","stoodNear","getBack","civilianOfficer","appropriateOff","60","","","",""
"105",2846,"{""Q0"":36}","[object Object]","survey-likert",104,310920,"0.0-104.0","941se31zgpf12n9sbmkwhxekngwtvn75","Tue Apr 18 2017 11:39:01 GMT-0400 (美国东部夏令时)","female","Asian","moderate/middle of the road","",NA,"","offCivRatings","the officer stood near the civilian","the civilian yelled ""get back!"" at the officer","stoodNear","getBack","civilianOfficer","forceOff","36","","","",""
"106",2450,"{""Q0"":62}","[object Object]","survey-likert",105,313396,"0.0-105.0","941se31zgpf12n9sbmkwhxekngwtvn75","Tue Apr 18 2017 11:39:01 GMT-0400 (美国东部夏令时)","female","Asian","moderate/middle of the road","",NA,"","offCivRatings","the officer stood near the civilian","the civilian yelled ""get back!"" at the officer","stoodNear","getBack","civilianOfficer","punishOff","62","","","",""
"107",2865,"{""Q0"":66}","[object Object]","survey-likert",106,316288,"0.0-106.0","941se31zgpf12n9sbmkwhxekngwtvn75","Tue Apr 18 2017 11:39:01 GMT-0400 (美国东部夏令时)","female","Asian","moderate/middle of the road","",NA,"","offCivRatings","the officer stood near the civilian","the civilian yelled ""get back!"" at the officer","stoodNear","getBack","civilianOfficer","acceptableOff","66","","","",""
"108",1310,"","","instructions",107,317598,"0.0-107.0","941se31zgpf12n9sbmkwhxekngwtvn75","Tue Apr 18 2017 11:39:01 GMT-0400 (美国东部夏令时)","female","Asian","moderate/middle of the road","",NA,"[{""page_index"":0,""viewing_time"":1309}]","break","","","","","","","","","","",""
"109",5108,"{""Q0"":75}","[object Object]","survey-likert",108,322954,"0.0-108.0","941se31zgpf12n9sbmkwhxekngwtvn75","Tue Apr 18 2017 11:39:01 GMT-0400 (美国东部夏令时)","female","Asian","moderate/middle of the road","",NA,"","offCivRatings","the officer struck the civilian on the leg with a collapsible baton","the civilian purposefully struck the officer with a motor vehicle","batonLeg","vehicle","officerCivilian","acceptableCiv","75","","","",""
"110",4270,"{""Q0"":80}","[object Object]","survey-likert",109,327256,"0.0-109.0","941se31zgpf12n9sbmkwhxekngwtvn75","Tue Apr 18 2017 11:39:01 GMT-0400 (美国东部夏令时)","female","Asian","moderate/middle of the road","",NA,"","offCivRatings","the officer struck the civilian on the leg with a collapsible baton","the civilian purposefully struck the officer with a motor vehicle","batonLeg","vehicle","officerCivilian","manipCheckHigh","80","","","",""
"111",3259,"{""Q0"":38}","[object Object]","survey-likert",110,330541,"0.0-110.0","941se31zgpf12n9sbmkwhxekngwtvn75","Tue Apr 18 2017 11:39:01 GMT-0400 (美国东部夏令时)","female","Asian","moderate/middle of the road","",NA,"","offCivRatings","the officer struck the civilian on the leg with a collapsible baton","the civilian purposefully struck the officer with a motor vehicle","batonLeg","vehicle","officerCivilian","appropriateCiv","38","","","",""
"112",2972,"{""Q0"":58}","[object Object]","survey-likert",111,333541,"0.0-111.0","941se31zgpf12n9sbmkwhxekngwtvn75","Tue Apr 18 2017 11:39:01 GMT-0400 (美国东部夏令时)","female","Asian","moderate/middle of the road","",NA,"","offCivRatings","the officer struck the civilian on the leg with a collapsible baton","the civilian purposefully struck the officer with a motor vehicle","batonLeg","vehicle","officerCivilian","forceCiv","58","","","",""
"113",2906,"{""Q0"":30}","[object Object]","survey-likert",112,336483,"0.0-112.0","941se31zgpf12n9sbmkwhxekngwtvn75","Tue Apr 18 2017 11:39:01 GMT-0400 (美国东部夏令时)","female","Asian","moderate/middle of the road","",NA,"","offCivRatings","the officer struck the civilian on the leg with a collapsible baton","the civilian purposefully struck the officer with a motor vehicle","batonLeg","vehicle","officerCivilian","punishCiv","30","","","",""
"114",1003,"","","instructions",113,337486,"0.0-113.0","941se31zgpf12n9sbmkwhxekngwtvn75","Tue Apr 18 2017 11:39:01 GMT-0400 (美国东部夏令时)","female","Asian","moderate/middle of the road","",NA,"[{""page_index"":0,""viewing_time"":1003}]","break","","","","","","","","","","",""
"115",2138,"{""Q0"":67}","[object Object]","survey-likert",114,339866,"0.0-114.0","941se31zgpf12n9sbmkwhxekngwtvn75","Tue Apr 18 2017 11:39:01 GMT-0400 (美国东部夏令时)","female","Asian","moderate/middle of the road","",NA,"","offCivRatings","the officer shouted ""get your fucking hands up!"" at the civilian","the civilian twisted the arm of the officer, forcing him to the ground","handsUp","armbar","officerCivilian","punishCiv","67","","","",""
"116",3120,"{""Q0"":31}","[object Object]","survey-likert",115,343013,"0.0-115.0","941se31zgpf12n9sbmkwhxekngwtvn75","Tue Apr 18 2017 11:39:01 GMT-0400 (美国东部夏令时)","female","Asian","moderate/middle of the road","",NA,"","offCivRatings","the officer shouted ""get your fucking hands up!"" at the civilian","the civilian twisted the arm of the officer, forcing him to the ground","handsUp","armbar","officerCivilian","appropriateCiv","31","","","",""
"117",2106,"{""Q0"":79}","[object Object]","survey-likert",116,345145,"0.0-116.0","941se31zgpf12n9sbmkwhxekngwtvn75","Tue Apr 18 2017 11:39:01 GMT-0400 (美国东部夏令时)","female","Asian","moderate/middle of the road","",NA,"","offCivRatings","the officer shouted ""get your fucking hands up!"" at the civilian","the civilian twisted the arm of the officer, forcing him to the ground","handsUp","armbar","officerCivilian","acceptableCiv","79","","","",""
"118",4142,"{""Q0"":22}","[object Object]","survey-likert",117,349319,"0.0-117.0","941se31zgpf12n9sbmkwhxekngwtvn75","Tue Apr 18 2017 11:39:01 GMT-0400 (美国东部夏令时)","female","Asian","moderate/middle of the road","",NA,"","offCivRatings","the officer shouted ""get your fucking hands up!"" at the civilian","the civilian twisted the arm of the officer, forcing him to the ground","handsUp","armbar","officerCivilian","forceCiv","22","","","",""
"119",1182,"","","instructions",118,350502,"0.0-118.0","941se31zgpf12n9sbmkwhxekngwtvn75","Tue Apr 18 2017 11:39:01 GMT-0400 (美国东部夏令时)","female","Asian","moderate/middle of the road","",NA,"[{""page_index"":0,""viewing_time"":1181}]","break","","","","","","","","","","",""
"120",5195,"{""Q0"":32}","[object Object]","survey-likert",119,355941,"0.0-119.0","941se31zgpf12n9sbmkwhxekngwtvn75","Tue Apr 18 2017 11:39:01 GMT-0400 (美国东部夏令时)","female","Asian","moderate/middle of the road","",NA,"","offCivRatings","the officer shot the civilian in the head with a handgun","the civilian slammed the officer's head into the concrete curb","handgunHead","headSlam","civilianOfficer","punishOff","32","","","",""
"121",1860,"{""Q0"":41}","[object Object]","survey-likert",120,357835,"0.0-120.0","941se31zgpf12n9sbmkwhxekngwtvn75","Tue Apr 18 2017 11:39:01 GMT-0400 (美国东部夏令时)","female","Asian","moderate/middle of the road","",NA,"","offCivRatings","the officer shot the civilian in the head with a handgun","the civilian slammed the officer's head into the concrete curb","handgunHead","headSlam","civilianOfficer","appropriateOff","41","","","",""
"122",2269,"{""Q0"":22}","[object Object]","survey-likert",121,360134,"0.0-121.0","941se31zgpf12n9sbmkwhxekngwtvn75","Tue Apr 18 2017 11:39:01 GMT-0400 (美国东部夏令时)","female","Asian","moderate/middle of the road","",NA,"","offCivRatings","the officer shot the civilian in the head with a handgun","the civilian slammed the officer's head into the concrete curb","handgunHead","headSlam","civilianOfficer","acceptableOff","22","","","",""
"123",4533,"{""Q0"":67}","[object Object]","survey-likert",122,364693,"0.0-122.0","941se31zgpf12n9sbmkwhxekngwtvn75","Tue Apr 18 2017 11:39:01 GMT-0400 (美国东部夏令时)","female","Asian","moderate/middle of the road","",NA,"","offCivRatings","the officer shot the civilian in the head with a handgun","the civilian slammed the officer's head into the concrete curb","handgunHead","headSlam","civilianOfficer","forceOff","67","","","",""
"124",1369,"","","instructions",123,366063,"0.0-123.0","941se31zgpf12n9sbmkwhxekngwtvn75","Tue Apr 18 2017 11:39:01 GMT-0400 (美国东部夏令时)","female","Asian","moderate/middle of the road","",NA,"[{""page_index"":0,""viewing_time"":1369}]","break","","","","","","","","","","",""
"125",2742,"{""Q0"":71}","[object Object]","survey-likert",124,369044,"0.0-124.0","941se31zgpf12n9sbmkwhxekngwtvn75","Tue Apr 18 2017 11:39:01 GMT-0400 (美国东部夏令时)","female","Asian","moderate/middle of the road","",NA,"","policeLegitimacy","","","","","","","71","doTreat","feltObligation","",""
"126",2509,"{""Q0"":63}","[object Object]","survey-likert",125,371591,"0.0-125.0","941se31zgpf12n9sbmkwhxekngwtvn75","Tue Apr 18 2017 11:39:01 GMT-0400 (美国东部夏令时)","female","Asian","moderate/middle of the road","",NA,"","policeLegitimacy","","","","","","","63","support","feltObligation","",""
"127",2074,"{""Q0"":44}","[object Object]","survey-likert",126,373693,"0.0-126.0","941se31zgpf12n9sbmkwhxekngwtvn75","Tue Apr 18 2017 11:39:01 GMT-0400 (美国东部夏令时)","female","Asian","moderate/middle of the road","",NA,"","policeLegitimacy","","","","","","","44","rightWrong","normAlignment","",""
"128",2609,"{""Q0"":53}","[object Object]","survey-likert",127,376327,"0.0-127.0","941se31zgpf12n9sbmkwhxekngwtvn75","Tue Apr 18 2017 11:39:01 GMT-0400 (美国东部夏令时)","female","Asian","moderate/middle of the road","",NA,"","policeLegitimacy","","","","","","","53","importantValues","normAlignment","",""
"129",6704,"{""Q0"":32}","[object Object]","survey-likert",128,383056,"0.0-128.0","941se31zgpf12n9sbmkwhxekngwtvn75","Tue Apr 18 2017 11:39:01 GMT-0400 (美国东部夏令时)","female","Asian","moderate/middle of the road","",NA,"","policeLegitimacy","","","","","","","32","doReasons","feltObligation","",""
"130",8305,"{""Q0"":82}","[object Object]","survey-likert",129,391386,"0.0-129.0","941se31zgpf12n9sbmkwhxekngwtvn75","Tue Apr 18 2017 11:39:01 GMT-0400 (美国东部夏令时)","female","Asian","moderate/middle of the road","",NA,"","policeLegitimacy","","","","","","","82","communityWants","normAlignment","",""
"131",8534,"{""Q0"":""yes""}","[object Object]","survey-multi-choice2",130,399935,"0.0-130.0","941se31zgpf12n9sbmkwhxekngwtvn75","Tue Apr 18 2017 11:39:01 GMT-0400 (美国东部夏令时)","female","Asian","moderate/middle of the road","",NA,"","policeExperience","","","","","","","yes","insultLang","","vicarious","Have the police ever used insulting language toward anyone in your household?"
"132",4849,"{""Q0"":""no""}","[object Object]","survey-multi-choice2",131,404796,"0.0-131.0","941se31zgpf12n9sbmkwhxekngwtvn75","Tue Apr 18 2017 11:39:01 GMT-0400 (美国东部夏令时)","female","Asian","moderate/middle of the road","",NA,"","policeExperience","","","","","","","no","excessForce","","vicarious","Have the police ever used excessive force against anyone in your household?"
"133",6186,"{""Q0"":""no""}","[object Object]","survey-multi-choice2",132,410994,"0.0-132.0","941se31zgpf12n9sbmkwhxekngwtvn75","Tue Apr 18 2017 11:39:01 GMT-0400 (美国东部夏令时)","female","Asian","moderate/middle of the road","",NA,"","policeExperience","","","","","","","no","corrupt","","personal","Have you ever seen a police officer engage in any corrupt activities (e.g., taking bribes or involvement in the drug trade)?"
"134",6304,"{""Q0"":""yes""}","[object Object]","survey-multi-choice2",133,417309,"0.0-133.0","941se31zgpf12n9sbmkwhxekngwtvn75","Tue Apr 18 2017 11:39:01 GMT-0400 (美国东部夏令时)","female","Asian","moderate/middle of the road","",NA,"","policeExperience","","","","","","","yes","stopped","","vicarious","Has anyone in your household ever been stopped on the street by the police without good reason?"
"135",7291,"{""Q0"":""no""}","[object Object]","survey-multi-choice2",134,424610,"0.0-134.0","941se31zgpf12n9sbmkwhxekngwtvn75","Tue Apr 18 2017 11:39:01 GMT-0400 (美国东部夏令时)","female","Asian","moderate/middle of the road","",NA,"","policeExperience","","","","","","","no","excessForce","","personal","Have the police ever used excessive force against you?"
"136",5071,"{""Q0"":""no""}","[object Object]","survey-multi-choice2",135,429692,"0.0-135.0","941se31zgpf12n9sbmkwhxekngwtvn75","Tue Apr 18 2017 11:39:01 GMT-0400 (美国东部夏令时)","female","Asian","moderate/middle of the road","",NA,"","policeExperience","","","","","","","no","stopped","","personal","Have you ever been stopped by the police on the street without good reason?"
"137",4823,"{""Q0"":""no""}","[object Object]","survey-multi-choice2",136,434527,"0.0-136.0","941se31zgpf12n9sbmkwhxekngwtvn75","Tue Apr 18 2017 11:39:01 GMT-0400 (美国东部夏令时)","female","Asian","moderate/middle of the road","",NA,"","policeExperience","","","","","","","no","insultLang","","personal","Have the police ever used insulting language toward you?"
"138",21106,"{""Q0"":""female"",""Q1"":""Asian"",""Q2"":""moderate/middle of the road""}","[object Object]","survey-multi-choice",137,455705,"0.0-137.0","941se31zgpf12n9sbmkwhxekngwtvn75","Tue Apr 18 2017 11:39:01 GMT-0400 (美国东部夏令时)","female","Asian","moderate/middle of the road","",NA,"","demographics","","","","","","","","","","",""
"139",24447,"","","instructions",138,481179,"0.0-138.0","941se31zgpf12n9sbmkwhxekngwtvn75","Tue Apr 18 2017 11:39:01 GMT-0400 (美国东部夏令时)","female","Asian","moderate/middle of the road","",NA,"[{""page_index"":0,""viewing_time"":2320},{""page_index"":1,""viewing_time"":4167},{""page_index"":2,""viewing_time"":14714},{""page_index"":3,""viewing_time"":3246}]","debriefing","","","","","","","","","","",""
