"","rt","responses","internalResp","trial_type","trial_index","time_elapsed","internal_node_id","randSubjectID","date","sex","race","polAff","stimulus","key_press","view_history","questionType","officerAction","civilianAction","offActName","civActName","order","questionName","response","name","dimension","person","question"
"1",11065,"","[object Object]","survey-text",0,11071,"0.0-0.0","9jrlhda7j8jp8egw0n81xebscr74ujok","Sat Apr 01 2017 14:52:56 GMT-0400 (EDT)","male","Asian","liberal","",NA,"","","","","","","","","","","","",""
"2",1762,"","","single-stim",1,13842,"0.0-1.0","9jrlhda7j8jp8egw0n81xebscr74ujok","Sat Apr 01 2017 14:52:56 GMT-0400 (EDT)","male","Asian","liberal","<img src='static/images/1602685960_ICS_Credit-0.png' alt='Consent 1' height=1100 width=850><img src='static/images/1602685960_ICS_Credit-1.png' alt='Consent 2' height=1100 width=850></p>",89,"","","","","","","","","","","","",""
"3",2866,"","","instructions",2,17709,"0.0-2.0","9jrlhda7j8jp8egw0n81xebscr74ujok","Sat Apr 01 2017 14:52:56 GMT-0400 (EDT)","male","Asian","liberal","",NA,"[{""page_index"":0,""viewing_time"":2865}]","instructions","","","","","","","","","","",""
"4",23843,"","","instructions",3,42556,"0.0-3.0","9jrlhda7j8jp8egw0n81xebscr74ujok","Sat Apr 01 2017 14:52:56 GMT-0400 (EDT)","male","Asian","liberal","",NA,"[{""page_index"":0,""viewing_time"":3772},{""page_index"":1,""viewing_time"":5883},{""page_index"":2,""viewing_time"":7445},{""page_index"":3,""viewing_time"":6742}]","instructions","","","","","","","","","","",""
"5",26387,"{""Q0"":25}","[object Object]","survey-likert",4,69973,"0.0-4.0","9jrlhda7j8jp8egw0n81xebscr74ujok","Sat Apr 01 2017 14:52:56 GMT-0400 (EDT)","male","Asian","liberal","",NA,"","offCivRatings","the officer stood near the civilian","the civilian asked the officer how he was doing","stoodNear","asked","civilianOfficer","forceOff","25","","","",""
"6",4192,"{""Q0"":60}","[object Object]","survey-likert",5,74174,"0.0-5.0","9jrlhda7j8jp8egw0n81xebscr74ujok","Sat Apr 01 2017 14:52:56 GMT-0400 (EDT)","male","Asian","liberal","",NA,"","offCivRatings","the officer stood near the civilian","the civilian asked the officer how he was doing","stoodNear","asked","civilianOfficer","acceptableOff","60","","","",""
"7",4188,"{""Q0"":62}","[object Object]","survey-likert",6,78370,"0.0-6.0","9jrlhda7j8jp8egw0n81xebscr74ujok","Sat Apr 01 2017 14:52:56 GMT-0400 (EDT)","male","Asian","liberal","",NA,"","offCivRatings","the officer stood near the civilian","the civilian asked the officer how he was doing","stoodNear","asked","civilianOfficer","appropriateOff","62","","","",""
"8",5243,"{""Q0"":30}","[object Object]","survey-likert",7,83620,"0.0-7.0","9jrlhda7j8jp8egw0n81xebscr74ujok","Sat Apr 01 2017 14:52:56 GMT-0400 (EDT)","male","Asian","liberal","",NA,"","offCivRatings","the officer stood near the civilian","the civilian asked the officer how he was doing","stoodNear","asked","civilianOfficer","punishOff","30","","","",""
"9",874,"","","instructions",8,84494,"0.0-8.0","9jrlhda7j8jp8egw0n81xebscr74ujok","Sat Apr 01 2017 14:52:56 GMT-0400 (EDT)","male","Asian","liberal","",NA,"[{""page_index"":0,""viewing_time"":873}]","break","","","","","","","","","","",""
"10",8390,"{""Q0"":79}","[object Object]","survey-likert",9,93094,"0.0-9.0","9jrlhda7j8jp8egw0n81xebscr74ujok","Sat Apr 01 2017 14:52:56 GMT-0400 (EDT)","male","Asian","liberal","",NA,"","offCivRatings","the officer struck the civilian on the leg with a collapsible baton","the civilian slammed the officer's head into the concrete curb","batonLeg","headSlam","civilianOfficer","appropriateOff","79","","","",""
"11",3225,"{""Q0"":79}","[object Object]","survey-likert",10,96333,"0.0-10.0","9jrlhda7j8jp8egw0n81xebscr74ujok","Sat Apr 01 2017 14:52:56 GMT-0400 (EDT)","male","Asian","liberal","",NA,"","offCivRatings","the officer struck the civilian on the leg with a collapsible baton","the civilian slammed the officer's head into the concrete curb","batonLeg","headSlam","civilianOfficer","forceOff","79","","","",""
"12",2969,"{""Q0"":34}","[object Object]","survey-likert",11,99308,"0.0-11.0","9jrlhda7j8jp8egw0n81xebscr74ujok","Sat Apr 01 2017 14:52:56 GMT-0400 (EDT)","male","Asian","liberal","",NA,"","offCivRatings","the officer struck the civilian on the leg with a collapsible baton","the civilian slammed the officer's head into the concrete curb","batonLeg","headSlam","civilianOfficer","acceptableOff","34","","","",""
"13",2990,"{""Q0"":51}","[object Object]","survey-likert",12,102303,"0.0-12.0","9jrlhda7j8jp8egw0n81xebscr74ujok","Sat Apr 01 2017 14:52:56 GMT-0400 (EDT)","male","Asian","liberal","",NA,"","offCivRatings","the officer struck the civilian on the leg with a collapsible baton","the civilian slammed the officer's head into the concrete curb","batonLeg","headSlam","civilianOfficer","punishOff","51","","","",""
"14",807,"","","instructions",13,103110,"0.0-13.0","9jrlhda7j8jp8egw0n81xebscr74ujok","Sat Apr 01 2017 14:52:56 GMT-0400 (EDT)","male","Asian","liberal","",NA,"[{""page_index"":0,""viewing_time"":807}]","break","","","","","","","","","","",""
"15",15666,"{""Q0"":41}","[object Object]","survey-likert",14,119007,"0.0-14.0","9jrlhda7j8jp8egw0n81xebscr74ujok","Sat Apr 01 2017 14:52:56 GMT-0400 (EDT)","male","Asian","liberal","",NA,"","offCivRatings","the officer shouted ""get your fucking hands up!"" at the civilian","the civilian called the officer a ""pig""","handsUp","nameCall","civilianOfficer","punishOff","41","","","",""
"16",5885,"{""Q0"":39}","[object Object]","survey-likert",15,124909,"0.0-15.0","9jrlhda7j8jp8egw0n81xebscr74ujok","Sat Apr 01 2017 14:52:56 GMT-0400 (EDT)","male","Asian","liberal","",NA,"","offCivRatings","the officer shouted ""get your fucking hands up!"" at the civilian","the civilian called the officer a ""pig""","handsUp","nameCall","civilianOfficer","appropriateOff","39","","","",""
"17",5044,"{""Q0"":5}","[object Object]","survey-likert",16,129963,"0.0-16.0","9jrlhda7j8jp8egw0n81xebscr74ujok","Sat Apr 01 2017 14:52:56 GMT-0400 (EDT)","male","Asian","liberal","",NA,"","offCivRatings","the officer shouted ""get your fucking hands up!"" at the civilian","the civilian called the officer a ""pig""","handsUp","nameCall","civilianOfficer","forceOff","5","","","",""
"18",7192,"{""Q0"":80}","[object Object]","survey-likert",17,137163,"0.0-17.0","9jrlhda7j8jp8egw0n81xebscr74ujok","Sat Apr 01 2017 14:52:56 GMT-0400 (EDT)","male","Asian","liberal","",NA,"","offCivRatings","the officer shouted ""get your fucking hands up!"" at the civilian","the civilian called the officer a ""pig""","handsUp","nameCall","civilianOfficer","acceptableOff","80","","","",""
"19",838,"","","instructions",18,138001,"0.0-18.0","9jrlhda7j8jp8egw0n81xebscr74ujok","Sat Apr 01 2017 14:52:56 GMT-0400 (EDT)","male","Asian","liberal","",NA,"[{""page_index"":0,""viewing_time"":838}]","break","","","","","","","","","","",""
"20",8293,"{""Q0"":1}","[object Object]","survey-likert",19,146504,"0.0-19.0","9jrlhda7j8jp8egw0n81xebscr74ujok","Sat Apr 01 2017 14:52:56 GMT-0400 (EDT)","male","Asian","liberal","",NA,"","offCivRatings","the officer shot the civilian in the chest with a handgun","the civilian yelled ""get back!"" at the officer","handgunChest","getBack","civilianOfficer","acceptableOff","1","","","",""
"21",3925,"{""Q0"":100}","[object Object]","survey-likert",20,150436,"0.0-20.0","9jrlhda7j8jp8egw0n81xebscr74ujok","Sat Apr 01 2017 14:52:56 GMT-0400 (EDT)","male","Asian","liberal","",NA,"","offCivRatings","the officer shot the civilian in the chest with a handgun","the civilian yelled ""get back!"" at the officer","handgunChest","getBack","civilianOfficer","punishOff","100","","","",""
"22",11582,"{""Q0"":59}","[object Object]","survey-likert",21,162027,"0.0-21.0","9jrlhda7j8jp8egw0n81xebscr74ujok","Sat Apr 01 2017 14:52:56 GMT-0400 (EDT)","male","Asian","liberal","",NA,"","offCivRatings","the officer shot the civilian in the chest with a handgun","the civilian yelled ""get back!"" at the officer","handgunChest","getBack","civilianOfficer","appropriateOff","59","","","",""
"23",4623,"{""Q0"":100}","[object Object]","survey-likert",22,166657,"0.0-22.0","9jrlhda7j8jp8egw0n81xebscr74ujok","Sat Apr 01 2017 14:52:56 GMT-0400 (EDT)","male","Asian","liberal","",NA,"","offCivRatings","the officer shot the civilian in the chest with a handgun","the civilian yelled ""get back!"" at the officer","handgunChest","getBack","civilianOfficer","forceOff","100","","","",""
"24",821,"","","instructions",23,167478,"0.0-23.0","9jrlhda7j8jp8egw0n81xebscr74ujok","Sat Apr 01 2017 14:52:56 GMT-0400 (EDT)","male","Asian","liberal","",NA,"[{""page_index"":0,""viewing_time"":821}]","break","","","","","","","","","","",""
"25",10787,"{""Q0"":100}","[object Object]","survey-likert",24,178473,"0.0-24.0","9jrlhda7j8jp8egw0n81xebscr74ujok","Sat Apr 01 2017 14:52:56 GMT-0400 (EDT)","male","Asian","liberal","",NA,"","offCivRatings","the officer said ""if you touch me, you're gonna get hurt"" to the civilian","the civilian hit the officer in the chest with a baseball bat","hurtThreat","ballBat","civilianOfficer","acceptableOff","100","","","",""
"26",13234,"{""Q0"":100}","[object Object]","survey-likert",25,191713,"0.0-25.0","9jrlhda7j8jp8egw0n81xebscr74ujok","Sat Apr 01 2017 14:52:56 GMT-0400 (EDT)","male","Asian","liberal","",NA,"","offCivRatings","the officer said ""if you touch me, you're gonna get hurt"" to the civilian","the civilian hit the officer in the chest with a baseball bat","hurtThreat","ballBat","civilianOfficer","manipCheckHigh","100","","","",""
"27",10790,"{""Q0"":16}","[object Object]","survey-likert",26,202507,"0.0-26.0","9jrlhda7j8jp8egw0n81xebscr74ujok","Sat Apr 01 2017 14:52:56 GMT-0400 (EDT)","male","Asian","liberal","",NA,"","offCivRatings","the officer said ""if you touch me, you're gonna get hurt"" to the civilian","the civilian hit the officer in the chest with a baseball bat","hurtThreat","ballBat","civilianOfficer","forceOff","16","","","",""
"28",3608,"{""Q0"":1}","[object Object]","survey-likert",27,206121,"0.0-27.0","9jrlhda7j8jp8egw0n81xebscr74ujok","Sat Apr 01 2017 14:52:56 GMT-0400 (EDT)","male","Asian","liberal","",NA,"","offCivRatings","the officer said ""if you touch me, you're gonna get hurt"" to the civilian","the civilian hit the officer in the chest with a baseball bat","hurtThreat","ballBat","civilianOfficer","punishOff","1","","","",""
"29",2913,"{""Q0"":31}","[object Object]","survey-likert",28,209043,"0.0-28.0","9jrlhda7j8jp8egw0n81xebscr74ujok","Sat Apr 01 2017 14:52:56 GMT-0400 (EDT)","male","Asian","liberal","",NA,"","offCivRatings","the officer said ""if you touch me, you're gonna get hurt"" to the civilian","the civilian hit the officer in the chest with a baseball bat","hurtThreat","ballBat","civilianOfficer","appropriateOff","31","","","",""
"30",760,"","","instructions",29,209803,"0.0-29.0","9jrlhda7j8jp8egw0n81xebscr74ujok","Sat Apr 01 2017 14:52:56 GMT-0400 (EDT)","male","Asian","liberal","",NA,"[{""page_index"":0,""viewing_time"":759}]","break","","","","","","","","","","",""
"31",9947,"{""Q0"":66}","[object Object]","survey-likert",30,219960,"0.0-30.0","9jrlhda7j8jp8egw0n81xebscr74ujok","Sat Apr 01 2017 14:52:56 GMT-0400 (EDT)","male","Asian","liberal","",NA,"","offCivRatings","the officer called the civilian a ""thug""","the civilian pulled away from the officer","nameCall","pulledAway","officerCivilian","forceCiv","66","","","",""
"32",5007,"{""Q0"":67}","[object Object]","survey-likert",31,224974,"0.0-31.0","9jrlhda7j8jp8egw0n81xebscr74ujok","Sat Apr 01 2017 14:52:56 GMT-0400 (EDT)","male","Asian","liberal","",NA,"","offCivRatings","the officer called the civilian a ""thug""","the civilian pulled away from the officer","nameCall","pulledAway","officerCivilian","punishCiv","67","","","",""
"33",11913,"{""Q0"":29}","[object Object]","survey-likert",32,236893,"0.0-32.0","9jrlhda7j8jp8egw0n81xebscr74ujok","Sat Apr 01 2017 14:52:56 GMT-0400 (EDT)","male","Asian","liberal","",NA,"","offCivRatings","the officer called the civilian a ""thug""","the civilian pulled away from the officer","nameCall","pulledAway","officerCivilian","acceptableCiv","29","","","",""
"34",28755,"{""Q0"":32}","[object Object]","survey-likert",33,265653,"0.0-33.0","9jrlhda7j8jp8egw0n81xebscr74ujok","Sat Apr 01 2017 14:52:56 GMT-0400 (EDT)","male","Asian","liberal","",NA,"","offCivRatings","the officer called the civilian a ""thug""","the civilian pulled away from the officer","nameCall","pulledAway","officerCivilian","appropriateCiv","32","","","",""
"35",1380,"","","instructions",34,267033,"0.0-34.0","9jrlhda7j8jp8egw0n81xebscr74ujok","Sat Apr 01 2017 14:52:56 GMT-0400 (EDT)","male","Asian","liberal","",NA,"[{""page_index"":0,""viewing_time"":1380}]","break","","","","","","","","","","",""
"36",11373,"{""Q0"":37}","[object Object]","survey-likert",35,278614,"0.0-35.0","9jrlhda7j8jp8egw0n81xebscr74ujok","Sat Apr 01 2017 14:52:56 GMT-0400 (EDT)","male","Asian","liberal","",NA,"","offCivRatings","the officer yelled ""get back!"" at the civilian","the civilian said ""if you touch me, you're gonna get hurt"" to the officer","getBack","hurtThreat","officerCivilian","forceCiv","37","","","",""
"37",3228,"{""Q0"":100}","[object Object]","survey-likert",36,281847,"0.0-36.0","9jrlhda7j8jp8egw0n81xebscr74ujok","Sat Apr 01 2017 14:52:56 GMT-0400 (EDT)","male","Asian","liberal","",NA,"","offCivRatings","the officer yelled ""get back!"" at the civilian","the civilian said ""if you touch me, you're gonna get hurt"" to the officer","getBack","hurtThreat","officerCivilian","manipCheckHigh","100","","","",""
"38",7357,"{""Q0"":23}","[object Object]","survey-likert",37,289210,"0.0-37.0","9jrlhda7j8jp8egw0n81xebscr74ujok","Sat Apr 01 2017 14:52:56 GMT-0400 (EDT)","male","Asian","liberal","",NA,"","offCivRatings","the officer yelled ""get back!"" at the civilian","the civilian said ""if you touch me, you're gonna get hurt"" to the officer","getBack","hurtThreat","officerCivilian","punishCiv","23","","","",""
"39",4378,"{""Q0"":66}","[object Object]","survey-likert",38,293593,"0.0-38.0","9jrlhda7j8jp8egw0n81xebscr74ujok","Sat Apr 01 2017 14:52:56 GMT-0400 (EDT)","male","Asian","liberal","",NA,"","offCivRatings","the officer yelled ""get back!"" at the civilian","the civilian said ""if you touch me, you're gonna get hurt"" to the officer","getBack","hurtThreat","officerCivilian","appropriateCiv","66","","","",""
"40",3057,"{""Q0"":63}","[object Object]","survey-likert",39,296655,"0.0-39.0","9jrlhda7j8jp8egw0n81xebscr74ujok","Sat Apr 01 2017 14:52:56 GMT-0400 (EDT)","male","Asian","liberal","",NA,"","offCivRatings","the officer yelled ""get back!"" at the civilian","the civilian said ""if you touch me, you're gonna get hurt"" to the officer","getBack","hurtThreat","officerCivilian","acceptableCiv","63","","","",""
"41",895,"","","instructions",40,297550,"0.0-40.0","9jrlhda7j8jp8egw0n81xebscr74ujok","Sat Apr 01 2017 14:52:56 GMT-0400 (EDT)","male","Asian","liberal","",NA,"[{""page_index"":0,""viewing_time"":895}]","break","","","","","","","","","","",""
"42",12939,"{""Q0"":90}","[object Object]","survey-likert",41,310697,"0.0-41.0","9jrlhda7j8jp8egw0n81xebscr74ujok","Sat Apr 01 2017 14:52:56 GMT-0400 (EDT)","male","Asian","liberal","",NA,"","offCivRatings","the officer asked the civilian how he was doing","the civilian kicked the officer in the stomach","asked","kickStom","civilianOfficer","appropriateOff","90","","","",""
"43",5453,"{""Q0"":78}","[object Object]","survey-likert",42,316155,"0.0-42.0","9jrlhda7j8jp8egw0n81xebscr74ujok","Sat Apr 01 2017 14:52:56 GMT-0400 (EDT)","male","Asian","liberal","",NA,"","offCivRatings","the officer asked the civilian how he was doing","the civilian kicked the officer in the stomach","asked","kickStom","civilianOfficer","acceptableOff","78","","","",""
"44",3386,"{""Q0"":1}","[object Object]","survey-likert",43,319548,"0.0-43.0","9jrlhda7j8jp8egw0n81xebscr74ujok","Sat Apr 01 2017 14:52:56 GMT-0400 (EDT)","male","Asian","liberal","",NA,"","offCivRatings","the officer asked the civilian how he was doing","the civilian kicked the officer in the stomach","asked","kickStom","civilianOfficer","punishOff","1","","","",""
"45",7893,"{""Q0"":6}","[object Object]","survey-likert",44,327445,"0.0-44.0","9jrlhda7j8jp8egw0n81xebscr74ujok","Sat Apr 01 2017 14:52:56 GMT-0400 (EDT)","male","Asian","liberal","",NA,"","offCivRatings","the officer asked the civilian how he was doing","the civilian kicked the officer in the stomach","asked","kickStom","civilianOfficer","forceOff","6","","","",""
"46",775,"","","instructions",45,328220,"0.0-45.0","9jrlhda7j8jp8egw0n81xebscr74ujok","Sat Apr 01 2017 14:52:56 GMT-0400 (EDT)","male","Asian","liberal","",NA,"[{""page_index"":0,""viewing_time"":775}]","break","","","","","","","","","","",""
"47",19120,"{""Q0"":74}","[object Object]","survey-likert",46,347546,"0.0-46.0","9jrlhda7j8jp8egw0n81xebscr74ujok","Sat Apr 01 2017 14:52:56 GMT-0400 (EDT)","male","Asian","liberal","",NA,"","offCivRatings","the officer punched the civilian in the face","the civilian applied a chokehold to the officer","punchFace","choke","officerCivilian","appropriateCiv","74","","","",""
"48",2834,"{""Q0"":73}","[object Object]","survey-likert",47,350388,"0.0-47.0","9jrlhda7j8jp8egw0n81xebscr74ujok","Sat Apr 01 2017 14:52:56 GMT-0400 (EDT)","male","Asian","liberal","",NA,"","offCivRatings","the officer punched the civilian in the face","the civilian applied a chokehold to the officer","punchFace","choke","officerCivilian","punishCiv","73","","","",""
"49",2281,"{""Q0"":73}","[object Object]","survey-likert",48,352675,"0.0-48.0","9jrlhda7j8jp8egw0n81xebscr74ujok","Sat Apr 01 2017 14:52:56 GMT-0400 (EDT)","male","Asian","liberal","",NA,"","offCivRatings","the officer punched the civilian in the face","the civilian applied a chokehold to the officer","punchFace","choke","officerCivilian","forceCiv","73","","","",""
"50",4731,"{""Q0"":33}","[object Object]","survey-likert",49,357411,"0.0-49.0","9jrlhda7j8jp8egw0n81xebscr74ujok","Sat Apr 01 2017 14:52:56 GMT-0400 (EDT)","male","Asian","liberal","",NA,"","offCivRatings","the officer punched the civilian in the face","the civilian applied a chokehold to the officer","punchFace","choke","officerCivilian","acceptableCiv","33","","","",""
"51",826,"","","instructions",50,358237,"0.0-50.0","9jrlhda7j8jp8egw0n81xebscr74ujok","Sat Apr 01 2017 14:52:56 GMT-0400 (EDT)","male","Asian","liberal","",NA,"[{""page_index"":0,""viewing_time"":826}]","break","","","","","","","","","","",""
"52",2605,"{""Q0"":61}","[object Object]","survey-likert",51,361052,"0.0-51.0","9jrlhda7j8jp8egw0n81xebscr74ujok","Sat Apr 01 2017 14:52:56 GMT-0400 (EDT)","male","Asian","liberal","",NA,"","offCivRatings","the officer shocked the civilian with a tazer","the civilian shot the officer in the head with a handgun","tazer","handgunHead","officerCivilian","forceCiv","61","","","",""
"53",14235,"{""Q0"":17}","[object Object]","survey-likert",52,375293,"0.0-52.0","9jrlhda7j8jp8egw0n81xebscr74ujok","Sat Apr 01 2017 14:52:56 GMT-0400 (EDT)","male","Asian","liberal","",NA,"","offCivRatings","the officer shocked the civilian with a tazer","the civilian shot the officer in the head with a handgun","tazer","handgunHead","officerCivilian","appropriateCiv","17","","","",""
"54",4599,"{""Q0"":9}","[object Object]","survey-likert",53,379896,"0.0-53.0","9jrlhda7j8jp8egw0n81xebscr74ujok","Sat Apr 01 2017 14:52:56 GMT-0400 (EDT)","male","Asian","liberal","",NA,"","offCivRatings","the officer shocked the civilian with a tazer","the civilian shot the officer in the head with a handgun","tazer","handgunHead","officerCivilian","acceptableCiv","9","","","",""
"55",5136,"{""Q0"":89}","[object Object]","survey-likert",54,385039,"0.0-54.0","9jrlhda7j8jp8egw0n81xebscr74ujok","Sat Apr 01 2017 14:52:56 GMT-0400 (EDT)","male","Asian","liberal","",NA,"","offCivRatings","the officer shocked the civilian with a tazer","the civilian shot the officer in the head with a handgun","tazer","handgunHead","officerCivilian","punishCiv","89","","","",""
"56",779,"","","instructions",55,385818,"0.0-55.0","9jrlhda7j8jp8egw0n81xebscr74ujok","Sat Apr 01 2017 14:52:56 GMT-0400 (EDT)","male","Asian","liberal","",NA,"[{""page_index"":0,""viewing_time"":779}]","break","","","","","","","","","","",""
"57",8081,"{""Q0"":37}","[object Object]","survey-likert",56,394107,"0.0-56.0","9jrlhda7j8jp8egw0n81xebscr74ujok","Sat Apr 01 2017 14:52:56 GMT-0400 (EDT)","male","Asian","liberal","",NA,"","offCivRatings","the officer headbutted the civilian in the face","the civilian stood near the officer","headbutt","stoodNear","officerCivilian","forceCiv","37","","","",""
"58",3946,"{""Q0"":48}","[object Object]","survey-likert",57,398060,"0.0-57.0","9jrlhda7j8jp8egw0n81xebscr74ujok","Sat Apr 01 2017 14:52:56 GMT-0400 (EDT)","male","Asian","liberal","",NA,"","offCivRatings","the officer headbutted the civilian in the face","the civilian stood near the officer","headbutt","stoodNear","officerCivilian","acceptableCiv","48","","","",""
"59",4486,"{""Q0"":1}","[object Object]","survey-likert",58,402551,"0.0-58.0","9jrlhda7j8jp8egw0n81xebscr74ujok","Sat Apr 01 2017 14:52:56 GMT-0400 (EDT)","male","Asian","liberal","",NA,"","offCivRatings","the officer headbutted the civilian in the face","the civilian stood near the officer","headbutt","stoodNear","officerCivilian","manipCheckLow","1","","","",""
"60",7575,"{""Q0"":30}","[object Object]","survey-likert",59,410131,"0.0-59.0","9jrlhda7j8jp8egw0n81xebscr74ujok","Sat Apr 01 2017 14:52:56 GMT-0400 (EDT)","male","Asian","liberal","",NA,"","offCivRatings","the officer headbutted the civilian in the face","the civilian stood near the officer","headbutt","stoodNear","officerCivilian","punishCiv","30","","","",""
"61",4235,"{""Q0"":55}","[object Object]","survey-likert",60,414374,"0.0-60.0","9jrlhda7j8jp8egw0n81xebscr74ujok","Sat Apr 01 2017 14:52:56 GMT-0400 (EDT)","male","Asian","liberal","",NA,"","offCivRatings","the officer headbutted the civilian in the face","the civilian stood near the officer","headbutt","stoodNear","officerCivilian","appropriateCiv","55","","","",""
"62",773,"","","instructions",61,415147,"0.0-61.0","9jrlhda7j8jp8egw0n81xebscr74ujok","Sat Apr 01 2017 14:52:56 GMT-0400 (EDT)","male","Asian","liberal","",NA,"[{""page_index"":0,""viewing_time"":773}]","break","","","","","","","","","","",""
"63",13960,"{""Q0"":32}","[object Object]","survey-likert",62,429314,"0.0-62.0","9jrlhda7j8jp8egw0n81xebscr74ujok","Sat Apr 01 2017 14:52:56 GMT-0400 (EDT)","male","Asian","liberal","",NA,"","offCivRatings","the officer struck the civilian in the stomach with a metal flashlight","the civilian purposefully struck the officer with a motor vehicle","flashlight","vehicle","officerCivilian","acceptableCiv","32","","","",""
"64",5248,"{""Q0"":72}","[object Object]","survey-likert",63,434568,"0.0-63.0","9jrlhda7j8jp8egw0n81xebscr74ujok","Sat Apr 01 2017 14:52:56 GMT-0400 (EDT)","male","Asian","liberal","",NA,"","offCivRatings","the officer struck the civilian in the stomach with a metal flashlight","the civilian purposefully struck the officer with a motor vehicle","flashlight","vehicle","officerCivilian","forceCiv","72","","","",""
"65",27990,"{""Q0"":76}","[object Object]","survey-likert",64,462563,"0.0-64.0","9jrlhda7j8jp8egw0n81xebscr74ujok","Sat Apr 01 2017 14:52:56 GMT-0400 (EDT)","male","Asian","liberal","",NA,"","offCivRatings","the officer struck the civilian in the stomach with a metal flashlight","the civilian purposefully struck the officer with a motor vehicle","flashlight","vehicle","officerCivilian","punishCiv","76","","","",""
"66",4792,"{""Q0"":100}","[object Object]","survey-likert",65,467360,"0.0-65.0","9jrlhda7j8jp8egw0n81xebscr74ujok","Sat Apr 01 2017 14:52:56 GMT-0400 (EDT)","male","Asian","liberal","",NA,"","offCivRatings","the officer struck the civilian in the stomach with a metal flashlight","the civilian purposefully struck the officer with a motor vehicle","flashlight","vehicle","officerCivilian","manipCheckHigh","100","","","",""
"67",5749,"{""Q0"":25}","[object Object]","survey-likert",66,473115,"0.0-66.0","9jrlhda7j8jp8egw0n81xebscr74ujok","Sat Apr 01 2017 14:52:56 GMT-0400 (EDT)","male","Asian","liberal","",NA,"","offCivRatings","the officer struck the civilian in the stomach with a metal flashlight","the civilian purposefully struck the officer with a motor vehicle","flashlight","vehicle","officerCivilian","appropriateCiv","25","","","",""
"68",1309,"","","instructions",67,474424,"0.0-67.0","9jrlhda7j8jp8egw0n81xebscr74ujok","Sat Apr 01 2017 14:52:56 GMT-0400 (EDT)","male","Asian","liberal","",NA,"[{""page_index"":0,""viewing_time"":1309}]","break","","","","","","","","","","",""
"69",13701,"{""Q0"":80}","[object Object]","survey-likert",68,488336,"0.0-68.0","9jrlhda7j8jp8egw0n81xebscr74ujok","Sat Apr 01 2017 14:52:56 GMT-0400 (EDT)","male","Asian","liberal","",NA,"","offCivRatings","the officer put handcuffs on the civilian","the civilian twisted the arm of the officer, forcing him to the ground","handcuff","armbar","civilianOfficer","appropriateOff","80","","","",""
"70",41841,"{""Q0"":1}","[object Object]","survey-likert",69,530181,"0.0-69.0","9jrlhda7j8jp8egw0n81xebscr74ujok","Sat Apr 01 2017 14:52:56 GMT-0400 (EDT)","male","Asian","liberal","",NA,"","offCivRatings","the officer put handcuffs on the civilian","the civilian twisted the arm of the officer, forcing him to the ground","handcuff","armbar","civilianOfficer","manipCheckLow","1","","","",""
"71",4380,"{""Q0"":1}","[object Object]","survey-likert",70,534565,"0.0-70.0","9jrlhda7j8jp8egw0n81xebscr74ujok","Sat Apr 01 2017 14:52:56 GMT-0400 (EDT)","male","Asian","liberal","",NA,"","offCivRatings","the officer put handcuffs on the civilian","the civilian twisted the arm of the officer, forcing him to the ground","handcuff","armbar","civilianOfficer","punishOff","1","","","",""
"72",4948,"{""Q0"":44}","[object Object]","survey-likert",71,539520,"0.0-71.0","9jrlhda7j8jp8egw0n81xebscr74ujok","Sat Apr 01 2017 14:52:56 GMT-0400 (EDT)","male","Asian","liberal","",NA,"","offCivRatings","the officer put handcuffs on the civilian","the civilian twisted the arm of the officer, forcing him to the ground","handcuff","armbar","civilianOfficer","forceOff","44","","","",""
"73",1950,"{""Q0"":64}","[object Object]","survey-likert",72,541474,"0.0-72.0","9jrlhda7j8jp8egw0n81xebscr74ujok","Sat Apr 01 2017 14:52:56 GMT-0400 (EDT)","male","Asian","liberal","",NA,"","offCivRatings","the officer put handcuffs on the civilian","the civilian twisted the arm of the officer, forcing him to the ground","handcuff","armbar","civilianOfficer","acceptableOff","64","","","",""
"74",794,"","","instructions",73,542268,"0.0-73.0","9jrlhda7j8jp8egw0n81xebscr74ujok","Sat Apr 01 2017 14:52:56 GMT-0400 (EDT)","male","Asian","liberal","",NA,"[{""page_index"":0,""viewing_time"":793}]","break","","","","","","","","","","",""
"75",11715,"{""Q0"":17}","[object Object]","survey-likert",74,554261,"0.0-74.0","9jrlhda7j8jp8egw0n81xebscr74ujok","Sat Apr 01 2017 14:52:56 GMT-0400 (EDT)","male","Asian","liberal","",NA,"","offCivRatings","the officer applied a chokehold to the civilian","the civilian waved at the officer in greeting","choke","waved","officerCivilian","forceCiv","17","","","",""
"76",2473,"{""Q0"":65}","[object Object]","survey-likert",75,556739,"0.0-75.0","9jrlhda7j8jp8egw0n81xebscr74ujok","Sat Apr 01 2017 14:52:56 GMT-0400 (EDT)","male","Asian","liberal","",NA,"","offCivRatings","the officer applied a chokehold to the civilian","the civilian waved at the officer in greeting","choke","waved","officerCivilian","appropriateCiv","65","","","",""
"77",3484,"{""Q0"":1}","[object Object]","survey-likert",76,560228,"0.0-76.0","9jrlhda7j8jp8egw0n81xebscr74ujok","Sat Apr 01 2017 14:52:56 GMT-0400 (EDT)","male","Asian","liberal","",NA,"","offCivRatings","the officer applied a chokehold to the civilian","the civilian waved at the officer in greeting","choke","waved","officerCivilian","punishCiv","1","","","",""
"78",4098,"{""Q0"":100}","[object Object]","survey-likert",77,564331,"0.0-77.0","9jrlhda7j8jp8egw0n81xebscr74ujok","Sat Apr 01 2017 14:52:56 GMT-0400 (EDT)","male","Asian","liberal","",NA,"","offCivRatings","the officer applied a chokehold to the civilian","the civilian waved at the officer in greeting","choke","waved","officerCivilian","acceptableCiv","100","","","",""
"79",922,"","","instructions",78,565253,"0.0-78.0","9jrlhda7j8jp8egw0n81xebscr74ujok","Sat Apr 01 2017 14:52:56 GMT-0400 (EDT)","male","Asian","liberal","",NA,"[{""page_index"":0,""viewing_time"":922}]","break","","","","","","","","","","",""
"80",7109,"{""Q0"":1}","[object Object]","survey-likert",79,572571,"0.0-79.0","9jrlhda7j8jp8egw0n81xebscr74ujok","Sat Apr 01 2017 14:52:56 GMT-0400 (EDT)","male","Asian","liberal","",NA,"","offCivRatings","the officer shot the civilian in the chest with a beanbag shotgun round","the civilian struck the officer in the stomach with a metal flashlight","beanbag","flashlight","officerCivilian","manipCheckLow","1","","","",""
"81",13502,"{""Q0"":55}","[object Object]","survey-likert",80,586078,"0.0-80.0","9jrlhda7j8jp8egw0n81xebscr74ujok","Sat Apr 01 2017 14:52:56 GMT-0400 (EDT)","male","Asian","liberal","",NA,"","offCivRatings","the officer shot the civilian in the chest with a beanbag shotgun round","the civilian struck the officer in the stomach with a metal flashlight","beanbag","flashlight","officerCivilian","acceptableCiv","55","","","",""
"82",3146,"{""Q0"":41}","[object Object]","survey-likert",81,589228,"0.0-81.0","9jrlhda7j8jp8egw0n81xebscr74ujok","Sat Apr 01 2017 14:52:56 GMT-0400 (EDT)","male","Asian","liberal","",NA,"","offCivRatings","the officer shot the civilian in the chest with a beanbag shotgun round","the civilian struck the officer in the stomach with a metal flashlight","beanbag","flashlight","officerCivilian","punishCiv","41","","","",""
"83",5036,"{""Q0"":68}","[object Object]","survey-likert",82,594270,"0.0-82.0","9jrlhda7j8jp8egw0n81xebscr74ujok","Sat Apr 01 2017 14:52:56 GMT-0400 (EDT)","male","Asian","liberal","",NA,"","offCivRatings","the officer shot the civilian in the chest with a beanbag shotgun round","the civilian struck the officer in the stomach with a metal flashlight","beanbag","flashlight","officerCivilian","forceCiv","68","","","",""
"84",5453,"{""Q0"":49}","[object Object]","survey-likert",83,599729,"0.0-83.0","9jrlhda7j8jp8egw0n81xebscr74ujok","Sat Apr 01 2017 14:52:56 GMT-0400 (EDT)","male","Asian","liberal","",NA,"","offCivRatings","the officer shot the civilian in the chest with a beanbag shotgun round","the civilian struck the officer in the stomach with a metal flashlight","beanbag","flashlight","officerCivilian","appropriateCiv","49","","","",""
"85",816,"","","instructions",84,600545,"0.0-84.0","9jrlhda7j8jp8egw0n81xebscr74ujok","Sat Apr 01 2017 14:52:56 GMT-0400 (EDT)","male","Asian","liberal","",NA,"[{""page_index"":0,""viewing_time"":816}]","break","","","","","","","","","","",""
"86",7127,"{""Q0"":37}","[object Object]","survey-likert",85,607879,"0.0-85.0","9jrlhda7j8jp8egw0n81xebscr74ujok","Sat Apr 01 2017 14:52:56 GMT-0400 (EDT)","male","Asian","liberal","",NA,"","offCivRatings","the officer kicked the civilian in the stomach","the civilian shot the officer in the chest with a handgun","kickStom","handgunChest","officerCivilian","appropriateCiv","37","","","",""
"87",2728,"{""Q0"":79}","[object Object]","survey-likert",86,610613,"0.0-86.0","9jrlhda7j8jp8egw0n81xebscr74ujok","Sat Apr 01 2017 14:52:56 GMT-0400 (EDT)","male","Asian","liberal","",NA,"","offCivRatings","the officer kicked the civilian in the stomach","the civilian shot the officer in the chest with a handgun","kickStom","handgunChest","officerCivilian","punishCiv","79","","","",""
"88",5038,"{""Q0"":24}","[object Object]","survey-likert",87,615658,"0.0-87.0","9jrlhda7j8jp8egw0n81xebscr74ujok","Sat Apr 01 2017 14:52:56 GMT-0400 (EDT)","male","Asian","liberal","",NA,"","offCivRatings","the officer kicked the civilian in the stomach","the civilian shot the officer in the chest with a handgun","kickStom","handgunChest","officerCivilian","acceptableCiv","24","","","",""
"89",4967,"{""Q0"":89}","[object Object]","survey-likert",88,620631,"0.0-88.0","9jrlhda7j8jp8egw0n81xebscr74ujok","Sat Apr 01 2017 14:52:56 GMT-0400 (EDT)","male","Asian","liberal","",NA,"","offCivRatings","the officer kicked the civilian in the stomach","the civilian shot the officer in the chest with a handgun","kickStom","handgunChest","officerCivilian","forceCiv","89","","","",""
"90",794,"","","instructions",89,621425,"0.0-89.0","9jrlhda7j8jp8egw0n81xebscr74ujok","Sat Apr 01 2017 14:52:56 GMT-0400 (EDT)","male","Asian","liberal","",NA,"[{""page_index"":0,""viewing_time"":793}]","break","","","","","","","","","","",""
"91",5750,"{""Q0"":63}","[object Object]","survey-likert",90,627381,"0.0-90.0","9jrlhda7j8jp8egw0n81xebscr74ujok","Sat Apr 01 2017 14:52:56 GMT-0400 (EDT)","male","Asian","liberal","",NA,"","offCivRatings","the officer waved at the civilian in greeting","the civilian punched the officer in the face","waved","punchFace","officerCivilian","forceCiv","63","","","",""
"92",2087,"{""Q0"":1}","[object Object]","survey-likert",91,629474,"0.0-91.0","9jrlhda7j8jp8egw0n81xebscr74ujok","Sat Apr 01 2017 14:52:56 GMT-0400 (EDT)","male","Asian","liberal","",NA,"","offCivRatings","the officer waved at the civilian in greeting","the civilian punched the officer in the face","waved","punchFace","officerCivilian","manipCheckLow","1","","","",""
"93",5033,"{""Q0"":30}","[object Object]","survey-likert",92,634512,"0.0-92.0","9jrlhda7j8jp8egw0n81xebscr74ujok","Sat Apr 01 2017 14:52:56 GMT-0400 (EDT)","male","Asian","liberal","",NA,"","offCivRatings","the officer waved at the civilian in greeting","the civilian punched the officer in the face","waved","punchFace","officerCivilian","acceptableCiv","30","","","",""
"94",3456,"{""Q0"":73}","[object Object]","survey-likert",93,637973,"0.0-93.0","9jrlhda7j8jp8egw0n81xebscr74ujok","Sat Apr 01 2017 14:52:56 GMT-0400 (EDT)","male","Asian","liberal","",NA,"","offCivRatings","the officer waved at the civilian in greeting","the civilian punched the officer in the face","waved","punchFace","officerCivilian","punishCiv","73","","","",""
"95",6702,"{""Q0"":20}","[object Object]","survey-likert",94,644681,"0.0-94.0","9jrlhda7j8jp8egw0n81xebscr74ujok","Sat Apr 01 2017 14:52:56 GMT-0400 (EDT)","male","Asian","liberal","",NA,"","offCivRatings","the officer waved at the civilian in greeting","the civilian punched the officer in the face","waved","punchFace","officerCivilian","appropriateCiv","20","","","",""
"96",809,"","","instructions",95,645490,"0.0-95.0","9jrlhda7j8jp8egw0n81xebscr74ujok","Sat Apr 01 2017 14:52:56 GMT-0400 (EDT)","male","Asian","liberal","",NA,"[{""page_index"":0,""viewing_time"":808}]","break","","","","","","","","","","",""
"97",11836,"{""Q0"":35}","[object Object]","survey-likert",96,657534,"0.0-96.0","9jrlhda7j8jp8egw0n81xebscr74ujok","Sat Apr 01 2017 14:52:56 GMT-0400 (EDT)","male","Asian","liberal","",NA,"","offCivRatings","the officer purposefully struck the civilian with a motor vehicle","the civilian shouted ""I don't have to fucking listen to you!"" at the officer","vehicle","dontListen","officerCivilian","forceCiv","35","","","",""
"98",3964,"{""Q0"":55}","[object Object]","survey-likert",97,661503,"0.0-97.0","9jrlhda7j8jp8egw0n81xebscr74ujok","Sat Apr 01 2017 14:52:56 GMT-0400 (EDT)","male","Asian","liberal","",NA,"","offCivRatings","the officer purposefully struck the civilian with a motor vehicle","the civilian shouted ""I don't have to fucking listen to you!"" at the officer","vehicle","dontListen","officerCivilian","punishCiv","55","","","",""
"99",16392,"{""Q0"":35}","[object Object]","survey-likert",98,677899,"0.0-98.0","9jrlhda7j8jp8egw0n81xebscr74ujok","Sat Apr 01 2017 14:52:56 GMT-0400 (EDT)","male","Asian","liberal","",NA,"","offCivRatings","the officer purposefully struck the civilian with a motor vehicle","the civilian shouted ""I don't have to fucking listen to you!"" at the officer","vehicle","dontListen","officerCivilian","appropriateCiv","35","","","",""
"100",2648,"{""Q0"":62}","[object Object]","survey-likert",99,680554,"0.0-99.0","9jrlhda7j8jp8egw0n81xebscr74ujok","Sat Apr 01 2017 14:52:56 GMT-0400 (EDT)","male","Asian","liberal","",NA,"","offCivRatings","the officer purposefully struck the civilian with a motor vehicle","the civilian shouted ""I don't have to fucking listen to you!"" at the officer","vehicle","dontListen","officerCivilian","acceptableCiv","62","","","",""
"101",745,"","","instructions",100,681299,"0.0-100.0","9jrlhda7j8jp8egw0n81xebscr74ujok","Sat Apr 01 2017 14:52:56 GMT-0400 (EDT)","male","Asian","liberal","",NA,"[{""page_index"":0,""viewing_time"":744}]","break","","","","","","","","","","",""
"102",6135,"{""Q0"":84}","[object Object]","survey-likert",101,687640,"0.0-101.0","9jrlhda7j8jp8egw0n81xebscr74ujok","Sat Apr 01 2017 14:52:56 GMT-0400 (EDT)","male","Asian","liberal","",NA,"","offCivRatings","the officer slammed the civilian's head into the concrete curb","the civilian struck the officer on the leg with a metal pipe","headSlam","metalPipe","civilianOfficer","forceOff","84","","","",""
"103",5132,"{""Q0"":38}","[object Object]","survey-likert",102,692779,"0.0-102.0","9jrlhda7j8jp8egw0n81xebscr74ujok","Sat Apr 01 2017 14:52:56 GMT-0400 (EDT)","male","Asian","liberal","",NA,"","offCivRatings","the officer slammed the civilian's head into the concrete curb","the civilian struck the officer on the leg with a metal pipe","headSlam","metalPipe","civilianOfficer","appropriateOff","38","","","",""
"104",7608,"{""Q0"":100}","[object Object]","survey-likert",103,700394,"0.0-103.0","9jrlhda7j8jp8egw0n81xebscr74ujok","Sat Apr 01 2017 14:52:56 GMT-0400 (EDT)","male","Asian","liberal","",NA,"","offCivRatings","the officer slammed the civilian's head into the concrete curb","the civilian struck the officer on the leg with a metal pipe","headSlam","metalPipe","civilianOfficer","manipCheckHigh","100","","","",""
"105",3739,"{""Q0"":60}","[object Object]","survey-likert",104,704139,"0.0-104.0","9jrlhda7j8jp8egw0n81xebscr74ujok","Sat Apr 01 2017 14:52:56 GMT-0400 (EDT)","male","Asian","liberal","",NA,"","offCivRatings","the officer slammed the civilian's head into the concrete curb","the civilian struck the officer on the leg with a metal pipe","headSlam","metalPipe","civilianOfficer","acceptableOff","60","","","",""
"106",2581,"{""Q0"":38}","[object Object]","survey-likert",105,706726,"0.0-105.0","9jrlhda7j8jp8egw0n81xebscr74ujok","Sat Apr 01 2017 14:52:56 GMT-0400 (EDT)","male","Asian","liberal","",NA,"","offCivRatings","the officer slammed the civilian's head into the concrete curb","the civilian struck the officer on the leg with a metal pipe","headSlam","metalPipe","civilianOfficer","punishOff","38","","","",""
"107",783,"","","instructions",106,707509,"0.0-106.0","9jrlhda7j8jp8egw0n81xebscr74ujok","Sat Apr 01 2017 14:52:56 GMT-0400 (EDT)","male","Asian","liberal","",NA,"[{""page_index"":0,""viewing_time"":783}]","break","","","","","","","","","","",""
"108",17224,"{""Q0"":54}","[object Object]","survey-likert",107,724940,"0.0-107.0","9jrlhda7j8jp8egw0n81xebscr74ujok","Sat Apr 01 2017 14:52:56 GMT-0400 (EDT)","male","Asian","liberal","",NA,"","offCivRatings","the officer twisted the arm of the civilian, forcing him to the ground","the civilian shocked the officer with a tazer","armbar","tazer","civilianOfficer","appropriateOff","54","","","",""
"109",3412,"{""Q0"":58}","[object Object]","survey-likert",108,728357,"0.0-108.0","9jrlhda7j8jp8egw0n81xebscr74ujok","Sat Apr 01 2017 14:52:56 GMT-0400 (EDT)","male","Asian","liberal","",NA,"","offCivRatings","the officer twisted the arm of the civilian, forcing him to the ground","the civilian shocked the officer with a tazer","armbar","tazer","civilianOfficer","punishOff","58","","","",""
"110",2730,"{""Q0"":64}","[object Object]","survey-likert",109,731092,"0.0-109.0","9jrlhda7j8jp8egw0n81xebscr74ujok","Sat Apr 01 2017 14:52:56 GMT-0400 (EDT)","male","Asian","liberal","",NA,"","offCivRatings","the officer twisted the arm of the civilian, forcing him to the ground","the civilian shocked the officer with a tazer","armbar","tazer","civilianOfficer","acceptableOff","64","","","",""
"111",2607,"{""Q0"":1}","[object Object]","survey-likert",110,733704,"0.0-110.0","9jrlhda7j8jp8egw0n81xebscr74ujok","Sat Apr 01 2017 14:52:56 GMT-0400 (EDT)","male","Asian","liberal","",NA,"","offCivRatings","the officer twisted the arm of the civilian, forcing him to the ground","the civilian shocked the officer with a tazer","armbar","tazer","civilianOfficer","manipCheckLow","1","","","",""
"112",5118,"{""Q0"":68}","[object Object]","survey-likert",111,738828,"0.0-111.0","9jrlhda7j8jp8egw0n81xebscr74ujok","Sat Apr 01 2017 14:52:56 GMT-0400 (EDT)","male","Asian","liberal","",NA,"","offCivRatings","the officer twisted the arm of the civilian, forcing him to the ground","the civilian shocked the officer with a tazer","armbar","tazer","civilianOfficer","forceOff","68","","","",""
"113",855,"","","instructions",112,739683,"0.0-112.0","9jrlhda7j8jp8egw0n81xebscr74ujok","Sat Apr 01 2017 14:52:56 GMT-0400 (EDT)","male","Asian","liberal","",NA,"[{""page_index"":0,""viewing_time"":854}]","break","","","","","","","","","","",""
"114",11737,"{""Q0"":69}","[object Object]","survey-likert",113,751628,"0.0-113.0","9jrlhda7j8jp8egw0n81xebscr74ujok","Sat Apr 01 2017 14:52:56 GMT-0400 (EDT)","male","Asian","liberal","",NA,"","offCivRatings","the officer sprayed the civilian with pepper spray","the civilian headbutted the officer in the face","pepperSpray","headbutt","civilianOfficer","acceptableOff","69","","","",""
"115",1874,"{""Q0"":66}","[object Object]","survey-likert",114,753506,"0.0-114.0","9jrlhda7j8jp8egw0n81xebscr74ujok","Sat Apr 01 2017 14:52:56 GMT-0400 (EDT)","male","Asian","liberal","",NA,"","offCivRatings","the officer sprayed the civilian with pepper spray","the civilian headbutted the officer in the face","pepperSpray","headbutt","civilianOfficer","appropriateOff","66","","","",""
"116",2843,"{""Q0"":54}","[object Object]","survey-likert",115,756355,"0.0-115.0","9jrlhda7j8jp8egw0n81xebscr74ujok","Sat Apr 01 2017 14:52:56 GMT-0400 (EDT)","male","Asian","liberal","",NA,"","offCivRatings","the officer sprayed the civilian with pepper spray","the civilian headbutted the officer in the face","pepperSpray","headbutt","civilianOfficer","forceOff","54","","","",""
"117",2523,"{""Q0"":26}","[object Object]","survey-likert",116,758884,"0.0-116.0","9jrlhda7j8jp8egw0n81xebscr74ujok","Sat Apr 01 2017 14:52:56 GMT-0400 (EDT)","male","Asian","liberal","",NA,"","offCivRatings","the officer sprayed the civilian with pepper spray","the civilian headbutted the officer in the face","pepperSpray","headbutt","civilianOfficer","punishOff","26","","","",""
"118",727,"","","instructions",117,759611,"0.0-117.0","9jrlhda7j8jp8egw0n81xebscr74ujok","Sat Apr 01 2017 14:52:56 GMT-0400 (EDT)","male","Asian","liberal","",NA,"[{""page_index"":0,""viewing_time"":726}]","break","","","","","","","","","","",""
"119",8673,"{""Q0"":23}","[object Object]","survey-likert",118,768490,"0.0-118.0","9jrlhda7j8jp8egw0n81xebscr74ujok","Sat Apr 01 2017 14:52:56 GMT-0400 (EDT)","male","Asian","liberal","",NA,"","offCivRatings","the officer shot the civilian in the head with a handgun","the civilian sprayed the officer with pepper spray","handgunHead","pepperSpray","civilianOfficer","acceptableOff","23","","","",""
"120",2532,"{""Q0"":1}","[object Object]","survey-likert",119,771026,"0.0-119.0","9jrlhda7j8jp8egw0n81xebscr74ujok","Sat Apr 01 2017 14:52:56 GMT-0400 (EDT)","male","Asian","liberal","",NA,"","offCivRatings","the officer shot the civilian in the head with a handgun","the civilian sprayed the officer with pepper spray","handgunHead","pepperSpray","civilianOfficer","manipCheckLow","1","","","",""
"121",2992,"{""Q0"":98}","[object Object]","survey-likert",120,774024,"0.0-120.0","9jrlhda7j8jp8egw0n81xebscr74ujok","Sat Apr 01 2017 14:52:56 GMT-0400 (EDT)","male","Asian","liberal","",NA,"","offCivRatings","the officer shot the civilian in the head with a handgun","the civilian sprayed the officer with pepper spray","handgunHead","pepperSpray","civilianOfficer","forceOff","98","","","",""
"122",2684,"{""Q0"":91}","[object Object]","survey-likert",121,776713,"0.0-121.0","9jrlhda7j8jp8egw0n81xebscr74ujok","Sat Apr 01 2017 14:52:56 GMT-0400 (EDT)","male","Asian","liberal","",NA,"","offCivRatings","the officer shot the civilian in the head with a handgun","the civilian sprayed the officer with pepper spray","handgunHead","pepperSpray","civilianOfficer","punishOff","91","","","",""
"123",3309,"{""Q0"":17}","[object Object]","survey-likert",122,780026,"0.0-122.0","9jrlhda7j8jp8egw0n81xebscr74ujok","Sat Apr 01 2017 14:52:56 GMT-0400 (EDT)","male","Asian","liberal","",NA,"","offCivRatings","the officer shot the civilian in the head with a handgun","the civilian sprayed the officer with pepper spray","handgunHead","pepperSpray","civilianOfficer","appropriateOff","17","","","",""
"124",735,"","","instructions",123,780761,"0.0-123.0","9jrlhda7j8jp8egw0n81xebscr74ujok","Sat Apr 01 2017 14:52:56 GMT-0400 (EDT)","male","Asian","liberal","",NA,"[{""page_index"":0,""viewing_time"":734}]","break","","","","","","","","","","",""
"125",8093,"{""Q0"":59}","[object Object]","survey-likert",124,789062,"0.0-124.0","9jrlhda7j8jp8egw0n81xebscr74ujok","Sat Apr 01 2017 14:52:56 GMT-0400 (EDT)","male","Asian","liberal","",NA,"","policeLegitimacy","","","","","","","59","rightWrong","normAlignment","",""
"126",4610,"{""Q0"":69}","[object Object]","survey-likert",125,793678,"0.0-125.0","9jrlhda7j8jp8egw0n81xebscr74ujok","Sat Apr 01 2017 14:52:56 GMT-0400 (EDT)","male","Asian","liberal","",NA,"","policeLegitimacy","","","","","","","69","doReasons","feltObligation","",""
"127",4526,"{""Q0"":90}","[object Object]","survey-likert",126,798210,"0.0-126.0","9jrlhda7j8jp8egw0n81xebscr74ujok","Sat Apr 01 2017 14:52:56 GMT-0400 (EDT)","male","Asian","liberal","",NA,"","policeLegitimacy","","","","","","","90","importantValues","normAlignment","",""
"128",2854,"{""Q0"":81}","[object Object]","survey-likert",127,801068,"0.0-127.0","9jrlhda7j8jp8egw0n81xebscr74ujok","Sat Apr 01 2017 14:52:56 GMT-0400 (EDT)","male","Asian","liberal","",NA,"","policeLegitimacy","","","","","","","81","communityWants","normAlignment","",""
"129",5960,"{""Q0"":76}","[object Object]","survey-likert",128,807033,"0.0-128.0","9jrlhda7j8jp8egw0n81xebscr74ujok","Sat Apr 01 2017 14:52:56 GMT-0400 (EDT)","male","Asian","liberal","",NA,"","policeLegitimacy","","","","","","","76","doTreat","feltObligation","",""
"130",6097,"{""Q0"":46}","[object Object]","survey-likert",129,813134,"0.0-129.0","9jrlhda7j8jp8egw0n81xebscr74ujok","Sat Apr 01 2017 14:52:56 GMT-0400 (EDT)","male","Asian","liberal","",NA,"","policeLegitimacy","","","","","","","46","support","feltObligation","",""
"131",6356,"{""Q0"":""no""}","[object Object]","survey-multi-choice2",130,819501,"0.0-130.0","9jrlhda7j8jp8egw0n81xebscr74ujok","Sat Apr 01 2017 14:52:56 GMT-0400 (EDT)","male","Asian","liberal","",NA,"","policeExperience","","","","","","","no","excessForce","","vicarious","Have the police ever used excessive force against anyone in your household?"
"132",3493,"{""Q0"":""no""}","[object Object]","survey-multi-choice2",131,822999,"0.0-131.0","9jrlhda7j8jp8egw0n81xebscr74ujok","Sat Apr 01 2017 14:52:56 GMT-0400 (EDT)","male","Asian","liberal","",NA,"","policeExperience","","","","","","","no","corrupt","","personal","Have you ever seen a police officer engage in any corrupt activities (e.g., taking bribes or involvement in the drug trade)?"
"133",2224,"{""Q0"":""no""}","[object Object]","survey-multi-choice2",132,825225,"0.0-132.0","9jrlhda7j8jp8egw0n81xebscr74ujok","Sat Apr 01 2017 14:52:56 GMT-0400 (EDT)","male","Asian","liberal","",NA,"","policeExperience","","","","","","","no","excessForce","","personal","Have the police ever used excessive force against you?"
"134",6056,"{""Q0"":""no""}","[object Object]","survey-multi-choice2",133,831284,"0.0-133.0","9jrlhda7j8jp8egw0n81xebscr74ujok","Sat Apr 01 2017 14:52:56 GMT-0400 (EDT)","male","Asian","liberal","",NA,"","policeExperience","","","","","","","no","insultLang","","vicarious","Have the police ever used insulting language toward anyone in your household?"
"135",2636,"{""Q0"":""no""}","[object Object]","survey-multi-choice2",134,833922,"0.0-134.0","9jrlhda7j8jp8egw0n81xebscr74ujok","Sat Apr 01 2017 14:52:56 GMT-0400 (EDT)","male","Asian","liberal","",NA,"","policeExperience","","","","","","","no","insultLang","","personal","Have the police ever used insulting language toward you?"
"136",4074,"{""Q0"":""no""}","[object Object]","survey-multi-choice2",135,837998,"0.0-135.0","9jrlhda7j8jp8egw0n81xebscr74ujok","Sat Apr 01 2017 14:52:56 GMT-0400 (EDT)","male","Asian","liberal","",NA,"","policeExperience","","","","","","","no","stopped","","vicarious","Has anyone in your household ever been stopped on the street by the police without good reason?"
"137",5252,"{""Q0"":""no""}","[object Object]","survey-multi-choice2",136,843252,"0.0-136.0","9jrlhda7j8jp8egw0n81xebscr74ujok","Sat Apr 01 2017 14:52:56 GMT-0400 (EDT)","male","Asian","liberal","",NA,"","policeExperience","","","","","","","no","stopped","","personal","Have you ever been stopped by the police on the street without good reason?"
"138",10643,"{""Q0"":""male"",""Q1"":""Asian"",""Q2"":""liberal""}","[object Object]","survey-multi-choice",137,853905,"0.0-137.0","9jrlhda7j8jp8egw0n81xebscr74ujok","Sat Apr 01 2017 14:52:56 GMT-0400 (EDT)","male","Asian","liberal","",NA,"","demographics","","","","","","","","","","",""
"139",13965,"","","instructions",138,868875,"0.0-138.0","9jrlhda7j8jp8egw0n81xebscr74ujok","Sat Apr 01 2017 14:52:56 GMT-0400 (EDT)","male","Asian","liberal","",NA,"[{""page_index"":0,""viewing_time"":2048},{""page_index"":1,""viewing_time"":5612},{""page_index"":2,""viewing_time"":3512},{""page_index"":3,""viewing_time"":2793}]","debriefing","","","","","","","","","","",""
