"","rt","responses","internalResp","trial_type","trial_index","time_elapsed","internal_node_id","randSubjectID","date","sex","race","polAff","stimulus","key_press","view_history","questionType","officerAction","civilianAction","offActName","civActName","order","questionName","response","name","dimension","person","question"
"1",8413,"","[object Object]","survey-text",0,8421,"0.0-0.0","9r071vkl186uelr1apcmneq7lchcafxt","Sun Feb 05 2017 16:55:08 GMT-0500 (EST)","female","White","conservative","",NA,"","","","","","","","","","","","",""
"2",13179,"","","single-stim",1,22604,"0.0-1.0","9r071vkl186uelr1apcmneq7lchcafxt","Sun Feb 05 2017 16:55:08 GMT-0500 (EST)","female","White","conservative","<img src='static/images/1602685960_ICS_Credit-0.png' alt='Consent 1' height=1100 width=850><img src='static/images/1602685960_ICS_Credit-1.png' alt='Consent 2' height=1100 width=850></p>",89,"","","","","","","","","","","","",""
"3",22852,"","","instructions",2,46459,"0.0-2.0","9r071vkl186uelr1apcmneq7lchcafxt","Sun Feb 05 2017 16:55:08 GMT-0500 (EST)","female","White","conservative","",NA,"[{""page_index"":0,""viewing_time"":22851}]","instructions","","","","","","","","","","",""
"4",188800,"","","instructions",3,236260,"0.0-3.0","9r071vkl186uelr1apcmneq7lchcafxt","Sun Feb 05 2017 16:55:08 GMT-0500 (EST)","female","White","conservative","",NA,"[{""page_index"":0,""viewing_time"":161621},{""page_index"":1,""viewing_time"":5811},{""page_index"":2,""viewing_time"":13266},{""page_index"":3,""viewing_time"":8102}]","instructions","","","","","","","","","","",""
"5",33514,"{""Q0"":36}","[object Object]","survey-likert",4,270802,"0.0-4.0","9r071vkl186uelr1apcmneq7lchcafxt","Sun Feb 05 2017 16:55:08 GMT-0500 (EST)","female","White","conservative","",NA,"","offCivRatings","the officer shouted ""get your fucking hands up!"" at the civilian","the civilian sprayed the officer with pepper spray","handsUp","pepperSpray","civilianOfficer","punishOff","36","","","",""
"6",3977,"{""Q0"":60}","[object Object]","survey-likert",5,274786,"0.0-5.0","9r071vkl186uelr1apcmneq7lchcafxt","Sun Feb 05 2017 16:55:08 GMT-0500 (EST)","female","White","conservative","",NA,"","offCivRatings","the officer shouted ""get your fucking hands up!"" at the civilian","the civilian sprayed the officer with pepper spray","handsUp","pepperSpray","civilianOfficer","forceOff","60","","","",""
"7",7692,"{""Q0"":41}","[object Object]","survey-likert",6,282484,"0.0-6.0","9r071vkl186uelr1apcmneq7lchcafxt","Sun Feb 05 2017 16:55:08 GMT-0500 (EST)","female","White","conservative","",NA,"","offCivRatings","the officer shouted ""get your fucking hands up!"" at the civilian","the civilian sprayed the officer with pepper spray","handsUp","pepperSpray","civilianOfficer","manipCheckLow","41","","","",""
"8",3339,"{""Q0"":56}","[object Object]","survey-likert",7,285833,"0.0-7.0","9r071vkl186uelr1apcmneq7lchcafxt","Sun Feb 05 2017 16:55:08 GMT-0500 (EST)","female","White","conservative","",NA,"","offCivRatings","the officer shouted ""get your fucking hands up!"" at the civilian","the civilian sprayed the officer with pepper spray","handsUp","pepperSpray","civilianOfficer","acceptableOff","56","","","",""
"9",4348,"{""Q0"":30}","[object Object]","survey-likert",8,290188,"0.0-8.0","9r071vkl186uelr1apcmneq7lchcafxt","Sun Feb 05 2017 16:55:08 GMT-0500 (EST)","female","White","conservative","",NA,"","offCivRatings","the officer shouted ""get your fucking hands up!"" at the civilian","the civilian sprayed the officer with pepper spray","handsUp","pepperSpray","civilianOfficer","appropriateOff","30","","","",""
"10",1940,"","","instructions",9,292128,"0.0-9.0","9r071vkl186uelr1apcmneq7lchcafxt","Sun Feb 05 2017 16:55:08 GMT-0500 (EST)","female","White","conservative","",NA,"[{""page_index"":0,""viewing_time"":1940}]","break","","","","","","","","","","",""
"11",11515,"{""Q0"":70}","[object Object]","survey-likert",10,303850,"0.0-10.0","9r071vkl186uelr1apcmneq7lchcafxt","Sun Feb 05 2017 16:55:08 GMT-0500 (EST)","female","White","conservative","",NA,"","offCivRatings","the officer shot the civilian in the chest with a beanbag shotgun round","the civilian punched the officer in the face","beanbag","punchFace","civilianOfficer","manipCheckHigh","70","","","",""
"12",27958,"{""Q0"":42}","[object Object]","survey-likert",11,331813,"0.0-11.0","9r071vkl186uelr1apcmneq7lchcafxt","Sun Feb 05 2017 16:55:08 GMT-0500 (EST)","female","White","conservative","",NA,"","offCivRatings","the officer shot the civilian in the chest with a beanbag shotgun round","the civilian punched the officer in the face","beanbag","punchFace","civilianOfficer","forceOff","42","","","",""
"13",1992,"{""Q0"":44}","[object Object]","survey-likert",12,333810,"0.0-12.0","9r071vkl186uelr1apcmneq7lchcafxt","Sun Feb 05 2017 16:55:08 GMT-0500 (EST)","female","White","conservative","",NA,"","offCivRatings","the officer shot the civilian in the chest with a beanbag shotgun round","the civilian punched the officer in the face","beanbag","punchFace","civilianOfficer","appropriateOff","44","","","",""
"14",2255,"{""Q0"":55}","[object Object]","survey-likert",13,336070,"0.0-13.0","9r071vkl186uelr1apcmneq7lchcafxt","Sun Feb 05 2017 16:55:08 GMT-0500 (EST)","female","White","conservative","",NA,"","offCivRatings","the officer shot the civilian in the chest with a beanbag shotgun round","the civilian punched the officer in the face","beanbag","punchFace","civilianOfficer","acceptableOff","55","","","",""
"15",1613,"{""Q0"":45}","[object Object]","survey-likert",14,337688,"0.0-14.0","9r071vkl186uelr1apcmneq7lchcafxt","Sun Feb 05 2017 16:55:08 GMT-0500 (EST)","female","White","conservative","",NA,"","offCivRatings","the officer shot the civilian in the chest with a beanbag shotgun round","the civilian punched the officer in the face","beanbag","punchFace","civilianOfficer","punishOff","45","","","",""
"16",875,"","","instructions",15,338563,"0.0-15.0","9r071vkl186uelr1apcmneq7lchcafxt","Sun Feb 05 2017 16:55:08 GMT-0500 (EST)","female","White","conservative","",NA,"[{""page_index"":0,""viewing_time"":875}]","break","","","","","","","","","","",""
"17",1857,"{""Q0"":57}","[object Object]","survey-likert",16,340627,"0.0-16.0","9r071vkl186uelr1apcmneq7lchcafxt","Sun Feb 05 2017 16:55:08 GMT-0500 (EST)","female","White","conservative","",NA,"","offCivRatings","the officer shocked the civilian with a tazer","the civilian applied a chokehold to the officer","tazer","choke","officerCivilian","acceptableCiv","57","","","",""
"18",3071,"{""Q0"":26}","[object Object]","survey-likert",17,343703,"0.0-17.0","9r071vkl186uelr1apcmneq7lchcafxt","Sun Feb 05 2017 16:55:08 GMT-0500 (EST)","female","White","conservative","",NA,"","offCivRatings","the officer shocked the civilian with a tazer","the civilian applied a chokehold to the officer","tazer","choke","officerCivilian","forceCiv","26","","","",""
"19",1610,"{""Q0"":41}","[object Object]","survey-likert",18,345320,"0.0-18.0","9r071vkl186uelr1apcmneq7lchcafxt","Sun Feb 05 2017 16:55:08 GMT-0500 (EST)","female","White","conservative","",NA,"","offCivRatings","the officer shocked the civilian with a tazer","the civilian applied a chokehold to the officer","tazer","choke","officerCivilian","manipCheckHigh","41","","","",""
"20",1686,"{""Q0"":37}","[object Object]","survey-likert",19,347013,"0.0-19.0","9r071vkl186uelr1apcmneq7lchcafxt","Sun Feb 05 2017 16:55:08 GMT-0500 (EST)","female","White","conservative","",NA,"","offCivRatings","the officer shocked the civilian with a tazer","the civilian applied a chokehold to the officer","tazer","choke","officerCivilian","punishCiv","37","","","",""
"21",1667,"{""Q0"":53}","[object Object]","survey-likert",20,348687,"0.0-20.0","9r071vkl186uelr1apcmneq7lchcafxt","Sun Feb 05 2017 16:55:08 GMT-0500 (EST)","female","White","conservative","",NA,"","offCivRatings","the officer shocked the civilian with a tazer","the civilian applied a chokehold to the officer","tazer","choke","officerCivilian","appropriateCiv","53","","","",""
"22",742,"","","instructions",21,349429,"0.0-21.0","9r071vkl186uelr1apcmneq7lchcafxt","Sun Feb 05 2017 16:55:08 GMT-0500 (EST)","female","White","conservative","",NA,"[{""page_index"":0,""viewing_time"":741}]","break","","","","","","","","","","",""
"23",1815,"{""Q0"":33}","[object Object]","survey-likert",22,351451,"0.0-22.0","9r071vkl186uelr1apcmneq7lchcafxt","Sun Feb 05 2017 16:55:08 GMT-0500 (EST)","female","White","conservative","",NA,"","offCivRatings","the officer kicked the civilian in the stomach","the civilian hit the officer in the chest with a baseball bat","kickStom","ballBat","civilianOfficer","punishOff","33","","","",""
"24",1585,"{""Q0"":55}","[object Object]","survey-likert",23,353042,"0.0-23.0","9r071vkl186uelr1apcmneq7lchcafxt","Sun Feb 05 2017 16:55:08 GMT-0500 (EST)","female","White","conservative","",NA,"","offCivRatings","the officer kicked the civilian in the stomach","the civilian hit the officer in the chest with a baseball bat","kickStom","ballBat","civilianOfficer","acceptableOff","55","","","",""
"25",1969,"{""Q0"":40}","[object Object]","survey-likert",24,355017,"0.0-24.0","9r071vkl186uelr1apcmneq7lchcafxt","Sun Feb 05 2017 16:55:08 GMT-0500 (EST)","female","White","conservative","",NA,"","offCivRatings","the officer kicked the civilian in the stomach","the civilian hit the officer in the chest with a baseball bat","kickStom","ballBat","civilianOfficer","appropriateOff","40","","","",""
"26",5843,"{""Q0"":71}","[object Object]","survey-likert",25,360866,"0.0-25.0","9r071vkl186uelr1apcmneq7lchcafxt","Sun Feb 05 2017 16:55:08 GMT-0500 (EST)","female","White","conservative","",NA,"","offCivRatings","the officer kicked the civilian in the stomach","the civilian hit the officer in the chest with a baseball bat","kickStom","ballBat","civilianOfficer","forceOff","71","","","",""
"27",768,"","","instructions",26,361634,"0.0-26.0","9r071vkl186uelr1apcmneq7lchcafxt","Sun Feb 05 2017 16:55:08 GMT-0500 (EST)","female","White","conservative","",NA,"[{""page_index"":0,""viewing_time"":767}]","break","","","","","","","","","","",""
"28",6741,"{""Q0"":29}","[object Object]","survey-likert",27,368582,"0.0-27.0","9r071vkl186uelr1apcmneq7lchcafxt","Sun Feb 05 2017 16:55:08 GMT-0500 (EST)","female","White","conservative","",NA,"","offCivRatings","the officer twisted the arm of the civilian, forcing him to the ground","the civilian struck the officer in the stomach with a metal flashlight","armbar","flashlight","civilianOfficer","acceptableOff","29","","","",""
"29",5650,"{""Q0"":24}","[object Object]","survey-likert",28,374236,"0.0-28.0","9r071vkl186uelr1apcmneq7lchcafxt","Sun Feb 05 2017 16:55:08 GMT-0500 (EST)","female","White","conservative","",NA,"","offCivRatings","the officer twisted the arm of the civilian, forcing him to the ground","the civilian struck the officer in the stomach with a metal flashlight","armbar","flashlight","civilianOfficer","manipCheckLow","24","","","",""
"30",7242,"{""Q0"":23}","[object Object]","survey-likert",29,381483,"0.0-29.0","9r071vkl186uelr1apcmneq7lchcafxt","Sun Feb 05 2017 16:55:08 GMT-0500 (EST)","female","White","conservative","",NA,"","offCivRatings","the officer twisted the arm of the civilian, forcing him to the ground","the civilian struck the officer in the stomach with a metal flashlight","armbar","flashlight","civilianOfficer","appropriateOff","23","","","",""
"31",2070,"{""Q0"":38}","[object Object]","survey-likert",30,383557,"0.0-30.0","9r071vkl186uelr1apcmneq7lchcafxt","Sun Feb 05 2017 16:55:08 GMT-0500 (EST)","female","White","conservative","",NA,"","offCivRatings","the officer twisted the arm of the civilian, forcing him to the ground","the civilian struck the officer in the stomach with a metal flashlight","armbar","flashlight","civilianOfficer","punishOff","38","","","",""
"32",2827,"{""Q0"":59}","[object Object]","survey-likert",31,386389,"0.0-31.0","9r071vkl186uelr1apcmneq7lchcafxt","Sun Feb 05 2017 16:55:08 GMT-0500 (EST)","female","White","conservative","",NA,"","offCivRatings","the officer twisted the arm of the civilian, forcing him to the ground","the civilian struck the officer in the stomach with a metal flashlight","armbar","flashlight","civilianOfficer","forceOff","59","","","",""
"33",869,"","","instructions",32,387259,"0.0-32.0","9r071vkl186uelr1apcmneq7lchcafxt","Sun Feb 05 2017 16:55:08 GMT-0500 (EST)","female","White","conservative","",NA,"[{""page_index"":0,""viewing_time"":869}]","break","","","","","","","","","","",""
"34",1655,"{""Q0"":36}","[object Object]","survey-likert",33,389122,"0.0-33.0","9r071vkl186uelr1apcmneq7lchcafxt","Sun Feb 05 2017 16:55:08 GMT-0500 (EST)","female","White","conservative","",NA,"","offCivRatings","the officer yelled ""get back!"" at the civilian","the civilian said ""if you touch me, you're gonna get hurt"" to the officer","getBack","hurtThreat","civilianOfficer","acceptableOff","36","","","",""
"35",3236,"{""Q0"":65}","[object Object]","survey-likert",34,392363,"0.0-34.0","9r071vkl186uelr1apcmneq7lchcafxt","Sun Feb 05 2017 16:55:08 GMT-0500 (EST)","female","White","conservative","",NA,"","offCivRatings","the officer yelled ""get back!"" at the civilian","the civilian said ""if you touch me, you're gonna get hurt"" to the officer","getBack","hurtThreat","civilianOfficer","punishOff","65","","","",""
"36",5889,"{""Q0"":56}","[object Object]","survey-likert",35,398257,"0.0-35.0","9r071vkl186uelr1apcmneq7lchcafxt","Sun Feb 05 2017 16:55:08 GMT-0500 (EST)","female","White","conservative","",NA,"","offCivRatings","the officer yelled ""get back!"" at the civilian","the civilian said ""if you touch me, you're gonna get hurt"" to the officer","getBack","hurtThreat","civilianOfficer","manipCheckLow","56","","","",""
"37",1683,"{""Q0"":39}","[object Object]","survey-likert",36,399946,"0.0-36.0","9r071vkl186uelr1apcmneq7lchcafxt","Sun Feb 05 2017 16:55:08 GMT-0500 (EST)","female","White","conservative","",NA,"","offCivRatings","the officer yelled ""get back!"" at the civilian","the civilian said ""if you touch me, you're gonna get hurt"" to the officer","getBack","hurtThreat","civilianOfficer","forceOff","39","","","",""
"38",1951,"{""Q0"":76}","[object Object]","survey-likert",37,401903,"0.0-37.0","9r071vkl186uelr1apcmneq7lchcafxt","Sun Feb 05 2017 16:55:08 GMT-0500 (EST)","female","White","conservative","",NA,"","offCivRatings","the officer yelled ""get back!"" at the civilian","the civilian said ""if you touch me, you're gonna get hurt"" to the officer","getBack","hurtThreat","civilianOfficer","appropriateOff","76","","","",""
"39",675,"","","instructions",38,402578,"0.0-38.0","9r071vkl186uelr1apcmneq7lchcafxt","Sun Feb 05 2017 16:55:08 GMT-0500 (EST)","female","White","conservative","",NA,"[{""page_index"":0,""viewing_time"":675}]","break","","","","","","","","","","",""
"40",1645,"{""Q0"":32}","[object Object]","survey-likert",39,404429,"0.0-39.0","9r071vkl186uelr1apcmneq7lchcafxt","Sun Feb 05 2017 16:55:08 GMT-0500 (EST)","female","White","conservative","",NA,"","offCivRatings","the officer sprayed the civilian with pepper spray","the civilian kicked the officer in the stomach","pepperSpray","kickStom","officerCivilian","acceptableCiv","32","","","",""
"41",1379,"{""Q0"":57}","[object Object]","survey-likert",40,405814,"0.0-40.0","9r071vkl186uelr1apcmneq7lchcafxt","Sun Feb 05 2017 16:55:08 GMT-0500 (EST)","female","White","conservative","",NA,"","offCivRatings","the officer sprayed the civilian with pepper spray","the civilian kicked the officer in the stomach","pepperSpray","kickStom","officerCivilian","appropriateCiv","57","","","",""
"42",3252,"{""Q0"":23}","[object Object]","survey-likert",41,409070,"0.0-41.0","9r071vkl186uelr1apcmneq7lchcafxt","Sun Feb 05 2017 16:55:08 GMT-0500 (EST)","female","White","conservative","",NA,"","offCivRatings","the officer sprayed the civilian with pepper spray","the civilian kicked the officer in the stomach","pepperSpray","kickStom","officerCivilian","punishCiv","23","","","",""
"43",2583,"{""Q0"":63}","[object Object]","survey-likert",42,411658,"0.0-42.0","9r071vkl186uelr1apcmneq7lchcafxt","Sun Feb 05 2017 16:55:08 GMT-0500 (EST)","female","White","conservative","",NA,"","offCivRatings","the officer sprayed the civilian with pepper spray","the civilian kicked the officer in the stomach","pepperSpray","kickStom","officerCivilian","forceCiv","63","","","",""
"44",1073,"","","instructions",43,412731,"0.0-43.0","9r071vkl186uelr1apcmneq7lchcafxt","Sun Feb 05 2017 16:55:08 GMT-0500 (EST)","female","White","conservative","",NA,"[{""page_index"":0,""viewing_time"":1072}]","break","","","","","","","","","","",""
"45",3470,"{""Q0"":64}","[object Object]","survey-likert",44,416407,"0.0-44.0","9r071vkl186uelr1apcmneq7lchcafxt","Sun Feb 05 2017 16:55:08 GMT-0500 (EST)","female","White","conservative","",NA,"","offCivRatings","the officer shot the civilian in the head with a handgun","the civilian pulled away from the officer","handgunHead","pulledAway","civilianOfficer","forceOff","64","","","",""
"46",1710,"{""Q0"":38}","[object Object]","survey-likert",45,418123,"0.0-45.0","9r071vkl186uelr1apcmneq7lchcafxt","Sun Feb 05 2017 16:55:08 GMT-0500 (EST)","female","White","conservative","",NA,"","offCivRatings","the officer shot the civilian in the head with a handgun","the civilian pulled away from the officer","handgunHead","pulledAway","civilianOfficer","punishOff","38","","","",""
"47",15686,"{""Q0"":57}","[object Object]","survey-likert",46,433814,"0.0-46.0","9r071vkl186uelr1apcmneq7lchcafxt","Sun Feb 05 2017 16:55:08 GMT-0500 (EST)","female","White","conservative","",NA,"","offCivRatings","the officer shot the civilian in the head with a handgun","the civilian pulled away from the officer","handgunHead","pulledAway","civilianOfficer","appropriateOff","57","","","",""
"48",1798,"{""Q0"":62}","[object Object]","survey-likert",47,435616,"0.0-47.0","9r071vkl186uelr1apcmneq7lchcafxt","Sun Feb 05 2017 16:55:08 GMT-0500 (EST)","female","White","conservative","",NA,"","offCivRatings","the officer shot the civilian in the head with a handgun","the civilian pulled away from the officer","handgunHead","pulledAway","civilianOfficer","acceptableOff","62","","","",""
"49",1176,"","","instructions",48,436793,"0.0-48.0","9r071vkl186uelr1apcmneq7lchcafxt","Sun Feb 05 2017 16:55:08 GMT-0500 (EST)","female","White","conservative","",NA,"[{""page_index"":0,""viewing_time"":1176}]","break","","","","","","","","","","",""
"50",2023,"{""Q0"":34}","[object Object]","survey-likert",49,439023,"0.0-49.0","9r071vkl186uelr1apcmneq7lchcafxt","Sun Feb 05 2017 16:55:08 GMT-0500 (EST)","female","White","conservative","",NA,"","offCivRatings","the officer punched the civilian in the face","the civilian yelled ""get back!"" at the officer","punchFace","getBack","officerCivilian","appropriateCiv","34","","","",""
"51",2247,"{""Q0"":29}","[object Object]","survey-likert",50,441275,"0.0-50.0","9r071vkl186uelr1apcmneq7lchcafxt","Sun Feb 05 2017 16:55:08 GMT-0500 (EST)","female","White","conservative","",NA,"","offCivRatings","the officer punched the civilian in the face","the civilian yelled ""get back!"" at the officer","punchFace","getBack","officerCivilian","acceptableCiv","29","","","",""
"52",1690,"{""Q0"":62}","[object Object]","survey-likert",51,442969,"0.0-51.0","9r071vkl186uelr1apcmneq7lchcafxt","Sun Feb 05 2017 16:55:08 GMT-0500 (EST)","female","White","conservative","",NA,"","offCivRatings","the officer punched the civilian in the face","the civilian yelled ""get back!"" at the officer","punchFace","getBack","officerCivilian","punishCiv","62","","","",""
"53",1807,"{""Q0"":56}","[object Object]","survey-likert",52,444780,"0.0-52.0","9r071vkl186uelr1apcmneq7lchcafxt","Sun Feb 05 2017 16:55:08 GMT-0500 (EST)","female","White","conservative","",NA,"","offCivRatings","the officer punched the civilian in the face","the civilian yelled ""get back!"" at the officer","punchFace","getBack","officerCivilian","forceCiv","56","","","",""
"54",656,"","","instructions",53,445436,"0.0-53.0","9r071vkl186uelr1apcmneq7lchcafxt","Sun Feb 05 2017 16:55:08 GMT-0500 (EST)","female","White","conservative","",NA,"[{""page_index"":0,""viewing_time"":656}]","break","","","","","","","","","","",""
"55",1904,"{""Q0"":34}","[object Object]","survey-likert",54,447548,"0.0-54.0","9r071vkl186uelr1apcmneq7lchcafxt","Sun Feb 05 2017 16:55:08 GMT-0500 (EST)","female","White","conservative","",NA,"","offCivRatings","the officer struck the civilian in the stomach with a metal flashlight","the civilian shot the officer in the chest with a handgun","flashlight","handgunChest","officerCivilian","forceCiv","34","","","",""
"56",2354,"{""Q0"":26}","[object Object]","survey-likert",55,449908,"0.0-55.0","9r071vkl186uelr1apcmneq7lchcafxt","Sun Feb 05 2017 16:55:08 GMT-0500 (EST)","female","White","conservative","",NA,"","offCivRatings","the officer struck the civilian in the stomach with a metal flashlight","the civilian shot the officer in the chest with a handgun","flashlight","handgunChest","officerCivilian","appropriateCiv","26","","","",""
"57",2782,"{""Q0"":59}","[object Object]","survey-likert",56,452697,"0.0-56.0","9r071vkl186uelr1apcmneq7lchcafxt","Sun Feb 05 2017 16:55:08 GMT-0500 (EST)","female","White","conservative","",NA,"","offCivRatings","the officer struck the civilian in the stomach with a metal flashlight","the civilian shot the officer in the chest with a handgun","flashlight","handgunChest","officerCivilian","acceptableCiv","59","","","",""
"58",1734,"{""Q0"":42}","[object Object]","survey-likert",57,454436,"0.0-57.0","9r071vkl186uelr1apcmneq7lchcafxt","Sun Feb 05 2017 16:55:08 GMT-0500 (EST)","female","White","conservative","",NA,"","offCivRatings","the officer struck the civilian in the stomach with a metal flashlight","the civilian shot the officer in the chest with a handgun","flashlight","handgunChest","officerCivilian","punishCiv","42","","","",""
"59",731,"","","instructions",58,455167,"0.0-58.0","9r071vkl186uelr1apcmneq7lchcafxt","Sun Feb 05 2017 16:55:08 GMT-0500 (EST)","female","White","conservative","",NA,"[{""page_index"":0,""viewing_time"":731}]","break","","","","","","","","","","",""
"60",7030,"{""Q0"":1}","[object Object]","survey-likert",59,462404,"0.0-59.0","9r071vkl186uelr1apcmneq7lchcafxt","Sun Feb 05 2017 16:55:08 GMT-0500 (EST)","female","White","conservative","",NA,"","offCivRatings","the officer asked the civilian how he was doing","the civilian asked the officer how he was doing","asked","asked","officerCivilian","forceCiv","1","","","",""
"61",11999,"{""Q0"":18}","[object Object]","survey-likert",60,474408,"0.0-60.0","9r071vkl186uelr1apcmneq7lchcafxt","Sun Feb 05 2017 16:55:08 GMT-0500 (EST)","female","White","conservative","",NA,"","offCivRatings","the officer asked the civilian how he was doing","the civilian asked the officer how he was doing","asked","asked","officerCivilian","manipCheckHigh","18","","","",""
"62",10280,"{""Q0"":100}","[object Object]","survey-likert",61,484694,"0.0-61.0","9r071vkl186uelr1apcmneq7lchcafxt","Sun Feb 05 2017 16:55:08 GMT-0500 (EST)","female","White","conservative","",NA,"","offCivRatings","the officer asked the civilian how he was doing","the civilian asked the officer how he was doing","asked","asked","officerCivilian","acceptableCiv","100","","","",""
"63",3697,"{""Q0"":1}","[object Object]","survey-likert",62,488396,"0.0-62.0","9r071vkl186uelr1apcmneq7lchcafxt","Sun Feb 05 2017 16:55:08 GMT-0500 (EST)","female","White","conservative","",NA,"","offCivRatings","the officer asked the civilian how he was doing","the civilian asked the officer how he was doing","asked","asked","officerCivilian","punishCiv","1","","","",""
"64",14122,"{""Q0"":48}","[object Object]","survey-likert",63,502523,"0.0-63.0","9r071vkl186uelr1apcmneq7lchcafxt","Sun Feb 05 2017 16:55:08 GMT-0500 (EST)","female","White","conservative","",NA,"","offCivRatings","the officer asked the civilian how he was doing","the civilian asked the officer how he was doing","asked","asked","officerCivilian","appropriateCiv","48","","","",""
"65",1314,"","","instructions",64,503837,"0.0-64.0","9r071vkl186uelr1apcmneq7lchcafxt","Sun Feb 05 2017 16:55:08 GMT-0500 (EST)","female","White","conservative","",NA,"[{""page_index"":0,""viewing_time"":1314}]","break","","","","","","","","","","",""
"66",19263,"{""Q0"":60}","[object Object]","survey-likert",65,523307,"0.0-65.0","9r071vkl186uelr1apcmneq7lchcafxt","Sun Feb 05 2017 16:55:08 GMT-0500 (EST)","female","White","conservative","",NA,"","offCivRatings","the officer shot the civilian in the chest with a handgun","the civilian shocked the officer with a tazer","handgunChest","tazer","civilianOfficer","appropriateOff","60","","","",""
"67",7492,"{""Q0"":91}","[object Object]","survey-likert",66,530804,"0.0-66.0","9r071vkl186uelr1apcmneq7lchcafxt","Sun Feb 05 2017 16:55:08 GMT-0500 (EST)","female","White","conservative","",NA,"","offCivRatings","the officer shot the civilian in the chest with a handgun","the civilian shocked the officer with a tazer","handgunChest","tazer","civilianOfficer","punishOff","91","","","",""
"68",2963,"{""Q0"":78}","[object Object]","survey-likert",67,533772,"0.0-67.0","9r071vkl186uelr1apcmneq7lchcafxt","Sun Feb 05 2017 16:55:08 GMT-0500 (EST)","female","White","conservative","",NA,"","offCivRatings","the officer shot the civilian in the chest with a handgun","the civilian shocked the officer with a tazer","handgunChest","tazer","civilianOfficer","forceOff","78","","","",""
"69",6029,"{""Q0"":13}","[object Object]","survey-likert",68,539806,"0.0-68.0","9r071vkl186uelr1apcmneq7lchcafxt","Sun Feb 05 2017 16:55:08 GMT-0500 (EST)","female","White","conservative","",NA,"","offCivRatings","the officer shot the civilian in the chest with a handgun","the civilian shocked the officer with a tazer","handgunChest","tazer","civilianOfficer","acceptableOff","13","","","",""
"70",1211,"","","instructions",69,541018,"0.0-69.0","9r071vkl186uelr1apcmneq7lchcafxt","Sun Feb 05 2017 16:55:08 GMT-0500 (EST)","female","White","conservative","",NA,"[{""page_index"":0,""viewing_time"":1211}]","break","","","","","","","","","","",""
"71",9434,"{""Q0"":1}","[object Object]","survey-likert",70,550658,"0.0-70.0","9r071vkl186uelr1apcmneq7lchcafxt","Sun Feb 05 2017 16:55:08 GMT-0500 (EST)","female","White","conservative","",NA,"","offCivRatings","the officer waved at the civilian in greeting","the civilian stood near the officer","waved","stoodNear","officerCivilian","forceCiv","1","","","",""
"72",5035,"{""Q0"":1}","[object Object]","survey-likert",71,555699,"0.0-71.0","9r071vkl186uelr1apcmneq7lchcafxt","Sun Feb 05 2017 16:55:08 GMT-0500 (EST)","female","White","conservative","",NA,"","offCivRatings","the officer waved at the civilian in greeting","the civilian stood near the officer","waved","stoodNear","officerCivilian","punishCiv","1","","","",""
"73",6222,"{""Q0"":48}","[object Object]","survey-likert",72,561926,"0.0-72.0","9r071vkl186uelr1apcmneq7lchcafxt","Sun Feb 05 2017 16:55:08 GMT-0500 (EST)","female","White","conservative","",NA,"","offCivRatings","the officer waved at the civilian in greeting","the civilian stood near the officer","waved","stoodNear","officerCivilian","appropriateCiv","48","","","",""
"74",4210,"{""Q0"":48}","[object Object]","survey-likert",73,566141,"0.0-73.0","9r071vkl186uelr1apcmneq7lchcafxt","Sun Feb 05 2017 16:55:08 GMT-0500 (EST)","female","White","conservative","",NA,"","offCivRatings","the officer waved at the civilian in greeting","the civilian stood near the officer","waved","stoodNear","officerCivilian","manipCheckLow","48","","","",""
"75",3048,"{""Q0"":100}","[object Object]","survey-likert",74,569196,"0.0-74.0","9r071vkl186uelr1apcmneq7lchcafxt","Sun Feb 05 2017 16:55:08 GMT-0500 (EST)","female","White","conservative","",NA,"","offCivRatings","the officer waved at the civilian in greeting","the civilian stood near the officer","waved","stoodNear","officerCivilian","acceptableCiv","100","","","",""
"76",1107,"","","instructions",75,570303,"0.0-75.0","9r071vkl186uelr1apcmneq7lchcafxt","Sun Feb 05 2017 16:55:08 GMT-0500 (EST)","female","White","conservative","",NA,"[{""page_index"":0,""viewing_time"":1107}]","break","","","","","","","","","","",""
"77",40116,"{""Q0"":100}","[object Object]","survey-likert",76,610627,"0.0-76.0","9r071vkl186uelr1apcmneq7lchcafxt","Sun Feb 05 2017 16:55:08 GMT-0500 (EST)","female","White","conservative","",NA,"","offCivRatings","the officer purposefully struck the civilian with a motor vehicle","the civilian headbutted the officer in the face","vehicle","headbutt","officerCivilian","forceCiv","100","","","",""
"78",9551,"{""Q0"":26}","[object Object]","survey-likert",77,620183,"0.0-77.0","9r071vkl186uelr1apcmneq7lchcafxt","Sun Feb 05 2017 16:55:08 GMT-0500 (EST)","female","White","conservative","",NA,"","offCivRatings","the officer purposefully struck the civilian with a motor vehicle","the civilian headbutted the officer in the face","vehicle","headbutt","officerCivilian","punishCiv","26","","","",""
"79",5185,"{""Q0"":59}","[object Object]","survey-likert",78,625372,"0.0-78.0","9r071vkl186uelr1apcmneq7lchcafxt","Sun Feb 05 2017 16:55:08 GMT-0500 (EST)","female","White","conservative","",NA,"","offCivRatings","the officer purposefully struck the civilian with a motor vehicle","the civilian headbutted the officer in the face","vehicle","headbutt","officerCivilian","appropriateCiv","59","","","",""
"80",8111,"{""Q0"":60}","[object Object]","survey-likert",79,633489,"0.0-79.0","9r071vkl186uelr1apcmneq7lchcafxt","Sun Feb 05 2017 16:55:08 GMT-0500 (EST)","female","White","conservative","",NA,"","offCivRatings","the officer purposefully struck the civilian with a motor vehicle","the civilian headbutted the officer in the face","vehicle","headbutt","officerCivilian","acceptableCiv","60","","","",""
"81",4245,"{""Q0"":61}","[object Object]","survey-likert",80,637738,"0.0-80.0","9r071vkl186uelr1apcmneq7lchcafxt","Sun Feb 05 2017 16:55:08 GMT-0500 (EST)","female","White","conservative","",NA,"","offCivRatings","the officer purposefully struck the civilian with a motor vehicle","the civilian headbutted the officer in the face","vehicle","headbutt","officerCivilian","manipCheckLow","61","","","",""
"82",1967,"","","instructions",81,639705,"0.0-81.0","9r071vkl186uelr1apcmneq7lchcafxt","Sun Feb 05 2017 16:55:08 GMT-0500 (EST)","female","White","conservative","",NA,"[{""page_index"":0,""viewing_time"":1966}]","break","","","","","","","","","","",""
"83",4658,"{""Q0"":38}","[object Object]","survey-likert",82,644570,"0.0-82.0","9r071vkl186uelr1apcmneq7lchcafxt","Sun Feb 05 2017 16:55:08 GMT-0500 (EST)","female","White","conservative","",NA,"","offCivRatings","the officer put handcuffs on the civilian","the civilian purposefully struck the officer with a motor vehicle","handcuff","vehicle","officerCivilian","appropriateCiv","38","","","",""
"84",1660,"{""Q0"":66}","[object Object]","survey-likert",83,646237,"0.0-83.0","9r071vkl186uelr1apcmneq7lchcafxt","Sun Feb 05 2017 16:55:08 GMT-0500 (EST)","female","White","conservative","",NA,"","offCivRatings","the officer put handcuffs on the civilian","the civilian purposefully struck the officer with a motor vehicle","handcuff","vehicle","officerCivilian","punishCiv","66","","","",""
"85",1641,"{""Q0"":34}","[object Object]","survey-likert",84,647884,"0.0-84.0","9r071vkl186uelr1apcmneq7lchcafxt","Sun Feb 05 2017 16:55:08 GMT-0500 (EST)","female","White","conservative","",NA,"","offCivRatings","the officer put handcuffs on the civilian","the civilian purposefully struck the officer with a motor vehicle","handcuff","vehicle","officerCivilian","forceCiv","34","","","",""
"86",3414,"{""Q0"":28}","[object Object]","survey-likert",85,651302,"0.0-85.0","9r071vkl186uelr1apcmneq7lchcafxt","Sun Feb 05 2017 16:55:08 GMT-0500 (EST)","female","White","conservative","",NA,"","offCivRatings","the officer put handcuffs on the civilian","the civilian purposefully struck the officer with a motor vehicle","handcuff","vehicle","officerCivilian","acceptableCiv","28","","","",""
"87",823,"","","instructions",86,652126,"0.0-86.0","9r071vkl186uelr1apcmneq7lchcafxt","Sun Feb 05 2017 16:55:08 GMT-0500 (EST)","female","White","conservative","",NA,"[{""page_index"":0,""viewing_time"":822}]","break","","","","","","","","","","",""
"88",1386,"{""Q0"":31}","[object Object]","survey-likert",87,653719,"0.0-87.0","9r071vkl186uelr1apcmneq7lchcafxt","Sun Feb 05 2017 16:55:08 GMT-0500 (EST)","female","White","conservative","",NA,"","offCivRatings","the officer stood near the civilian","the civilian called the officer a ""pig""","stoodNear","nameCall","civilianOfficer","appropriateOff","31","","","",""
"89",1678,"{""Q0"":37}","[object Object]","survey-likert",88,655402,"0.0-88.0","9r071vkl186uelr1apcmneq7lchcafxt","Sun Feb 05 2017 16:55:08 GMT-0500 (EST)","female","White","conservative","",NA,"","offCivRatings","the officer stood near the civilian","the civilian called the officer a ""pig""","stoodNear","nameCall","civilianOfficer","forceOff","37","","","",""
"90",3101,"{""Q0"":41}","[object Object]","survey-likert",89,658509,"0.0-89.0","9r071vkl186uelr1apcmneq7lchcafxt","Sun Feb 05 2017 16:55:08 GMT-0500 (EST)","female","White","conservative","",NA,"","offCivRatings","the officer stood near the civilian","the civilian called the officer a ""pig""","stoodNear","nameCall","civilianOfficer","punishOff","41","","","",""
"91",2583,"{""Q0"":35}","[object Object]","survey-likert",90,661096,"0.0-90.0","9r071vkl186uelr1apcmneq7lchcafxt","Sun Feb 05 2017 16:55:08 GMT-0500 (EST)","female","White","conservative","",NA,"","offCivRatings","the officer stood near the civilian","the civilian called the officer a ""pig""","stoodNear","nameCall","civilianOfficer","acceptableOff","35","","","",""
"92",768,"","","instructions",91,661864,"0.0-91.0","9r071vkl186uelr1apcmneq7lchcafxt","Sun Feb 05 2017 16:55:08 GMT-0500 (EST)","female","White","conservative","",NA,"[{""page_index"":0,""viewing_time"":768}]","break","","","","","","","","","","",""
"93",1638,"{""Q0"":40}","[object Object]","survey-likert",92,663709,"0.0-92.0","9r071vkl186uelr1apcmneq7lchcafxt","Sun Feb 05 2017 16:55:08 GMT-0500 (EST)","female","White","conservative","",NA,"","offCivRatings","the officer applied a chokehold to the civilian","the civilian slammed the officer's head into the concrete curb","choke","headSlam","officerCivilian","punishCiv","40","","","",""
"94",4524,"{""Q0"":77}","[object Object]","survey-likert",93,668238,"0.0-93.0","9r071vkl186uelr1apcmneq7lchcafxt","Sun Feb 05 2017 16:55:08 GMT-0500 (EST)","female","White","conservative","",NA,"","offCivRatings","the officer applied a chokehold to the civilian","the civilian slammed the officer's head into the concrete curb","choke","headSlam","officerCivilian","forceCiv","77","","","",""
"95",3640,"{""Q0"":34}","[object Object]","survey-likert",94,671884,"0.0-94.0","9r071vkl186uelr1apcmneq7lchcafxt","Sun Feb 05 2017 16:55:08 GMT-0500 (EST)","female","White","conservative","",NA,"","offCivRatings","the officer applied a chokehold to the civilian","the civilian slammed the officer's head into the concrete curb","choke","headSlam","officerCivilian","acceptableCiv","34","","","",""
"96",6126,"{""Q0"":78}","[object Object]","survey-likert",95,678016,"0.0-95.0","9r071vkl186uelr1apcmneq7lchcafxt","Sun Feb 05 2017 16:55:08 GMT-0500 (EST)","female","White","conservative","",NA,"","offCivRatings","the officer applied a chokehold to the civilian","the civilian slammed the officer's head into the concrete curb","choke","headSlam","officerCivilian","appropriateCiv","78","","","",""
"97",756,"","","instructions",96,678772,"0.0-96.0","9r071vkl186uelr1apcmneq7lchcafxt","Sun Feb 05 2017 16:55:08 GMT-0500 (EST)","female","White","conservative","",NA,"[{""page_index"":0,""viewing_time"":756}]","break","","","","","","","","","","",""
"98",3133,"{""Q0"":46}","[object Object]","survey-likert",97,682112,"0.0-97.0","9r071vkl186uelr1apcmneq7lchcafxt","Sun Feb 05 2017 16:55:08 GMT-0500 (EST)","female","White","conservative","",NA,"","offCivRatings","the officer called the civilian a ""thug""","the civilian struck the officer on the leg with a metal pipe","nameCall","metalPipe","civilianOfficer","forceOff","46","","","",""
"99",3761,"{""Q0"":27}","[object Object]","survey-likert",98,685877,"0.0-98.0","9r071vkl186uelr1apcmneq7lchcafxt","Sun Feb 05 2017 16:55:08 GMT-0500 (EST)","female","White","conservative","",NA,"","offCivRatings","the officer called the civilian a ""thug""","the civilian struck the officer on the leg with a metal pipe","nameCall","metalPipe","civilianOfficer","acceptableOff","27","","","",""
"100",2901,"{""Q0"":37}","[object Object]","survey-likert",99,688784,"0.0-99.0","9r071vkl186uelr1apcmneq7lchcafxt","Sun Feb 05 2017 16:55:08 GMT-0500 (EST)","female","White","conservative","",NA,"","offCivRatings","the officer called the civilian a ""thug""","the civilian struck the officer on the leg with a metal pipe","nameCall","metalPipe","civilianOfficer","appropriateOff","37","","","",""
"101",1759,"{""Q0"":34}","[object Object]","survey-likert",100,690547,"0.0-100.0","9r071vkl186uelr1apcmneq7lchcafxt","Sun Feb 05 2017 16:55:08 GMT-0500 (EST)","female","White","conservative","",NA,"","offCivRatings","the officer called the civilian a ""thug""","the civilian struck the officer on the leg with a metal pipe","nameCall","metalPipe","civilianOfficer","punishOff","34","","","",""
"102",865,"","","instructions",101,691412,"0.0-101.0","9r071vkl186uelr1apcmneq7lchcafxt","Sun Feb 05 2017 16:55:08 GMT-0500 (EST)","female","White","conservative","",NA,"[{""page_index"":0,""viewing_time"":865}]","break","","","","","","","","","","",""
"103",2231,"{""Q0"":64}","[object Object]","survey-likert",102,693849,"0.0-102.0","9r071vkl186uelr1apcmneq7lchcafxt","Sun Feb 05 2017 16:55:08 GMT-0500 (EST)","female","White","conservative","",NA,"","offCivRatings","the officer headbutted the civilian in the face","the civilian shouted ""I don't have to fucking listen to you!"" at the officer","headbutt","dontListen","civilianOfficer","appropriateOff","64","","","",""
"104",4665,"{""Q0"":62}","[object Object]","survey-likert",103,698519,"0.0-103.0","9r071vkl186uelr1apcmneq7lchcafxt","Sun Feb 05 2017 16:55:08 GMT-0500 (EST)","female","White","conservative","",NA,"","offCivRatings","the officer headbutted the civilian in the face","the civilian shouted ""I don't have to fucking listen to you!"" at the officer","headbutt","dontListen","civilianOfficer","punishOff","62","","","",""
"105",3502,"{""Q0"":36}","[object Object]","survey-likert",104,702025,"0.0-104.0","9r071vkl186uelr1apcmneq7lchcafxt","Sun Feb 05 2017 16:55:08 GMT-0500 (EST)","female","White","conservative","",NA,"","offCivRatings","the officer headbutted the civilian in the face","the civilian shouted ""I don't have to fucking listen to you!"" at the officer","headbutt","dontListen","civilianOfficer","forceOff","36","","","",""
"106",2155,"{""Q0"":21}","[object Object]","survey-likert",105,704185,"0.0-105.0","9r071vkl186uelr1apcmneq7lchcafxt","Sun Feb 05 2017 16:55:08 GMT-0500 (EST)","female","White","conservative","",NA,"","offCivRatings","the officer headbutted the civilian in the face","the civilian shouted ""I don't have to fucking listen to you!"" at the officer","headbutt","dontListen","civilianOfficer","acceptableOff","21","","","",""
"107",720,"","","instructions",106,704905,"0.0-106.0","9r071vkl186uelr1apcmneq7lchcafxt","Sun Feb 05 2017 16:55:08 GMT-0500 (EST)","female","White","conservative","",NA,"[{""page_index"":0,""viewing_time"":720}]","break","","","","","","","","","","",""
"108",1881,"{""Q0"":36}","[object Object]","survey-likert",107,706991,"0.0-107.0","9r071vkl186uelr1apcmneq7lchcafxt","Sun Feb 05 2017 16:55:08 GMT-0500 (EST)","female","White","conservative","",NA,"","offCivRatings","the officer said ""if you touch me, you're gonna get hurt"" to the civilian","the civilian waved at the officer in greeting","hurtThreat","waved","officerCivilian","punishCiv","36","","","",""
"109",1786,"{""Q0"":63}","[object Object]","survey-likert",108,708782,"0.0-108.0","9r071vkl186uelr1apcmneq7lchcafxt","Sun Feb 05 2017 16:55:08 GMT-0500 (EST)","female","White","conservative","",NA,"","offCivRatings","the officer said ""if you touch me, you're gonna get hurt"" to the civilian","the civilian waved at the officer in greeting","hurtThreat","waved","officerCivilian","appropriateCiv","63","","","",""
"110",1774,"{""Q0"":37}","[object Object]","survey-likert",109,710561,"0.0-109.0","9r071vkl186uelr1apcmneq7lchcafxt","Sun Feb 05 2017 16:55:08 GMT-0500 (EST)","female","White","conservative","",NA,"","offCivRatings","the officer said ""if you touch me, you're gonna get hurt"" to the civilian","the civilian waved at the officer in greeting","hurtThreat","waved","officerCivilian","acceptableCiv","37","","","",""
"111",1472,"{""Q0"":31}","[object Object]","survey-likert",110,712038,"0.0-110.0","9r071vkl186uelr1apcmneq7lchcafxt","Sun Feb 05 2017 16:55:08 GMT-0500 (EST)","female","White","conservative","",NA,"","offCivRatings","the officer said ""if you touch me, you're gonna get hurt"" to the civilian","the civilian waved at the officer in greeting","hurtThreat","waved","officerCivilian","forceCiv","31","","","",""
"112",667,"","","instructions",111,712705,"0.0-111.0","9r071vkl186uelr1apcmneq7lchcafxt","Sun Feb 05 2017 16:55:08 GMT-0500 (EST)","female","White","conservative","",NA,"[{""page_index"":0,""viewing_time"":666}]","break","","","","","","","","","","",""
"113",1770,"{""Q0"":29}","[object Object]","survey-likert",112,714682,"0.0-112.0","9r071vkl186uelr1apcmneq7lchcafxt","Sun Feb 05 2017 16:55:08 GMT-0500 (EST)","female","White","conservative","",NA,"","offCivRatings","the officer slammed the civilian's head into the concrete curb","the civilian shot the officer in the head with a handgun","headSlam","handgunHead","officerCivilian","acceptableCiv","29","","","",""
"114",1723,"{""Q0"":58}","[object Object]","survey-likert",113,716411,"0.0-113.0","9r071vkl186uelr1apcmneq7lchcafxt","Sun Feb 05 2017 16:55:08 GMT-0500 (EST)","female","White","conservative","",NA,"","offCivRatings","the officer slammed the civilian's head into the concrete curb","the civilian shot the officer in the head with a handgun","headSlam","handgunHead","officerCivilian","appropriateCiv","58","","","",""
"115",2170,"{""Q0"":33}","[object Object]","survey-likert",114,718585,"0.0-114.0","9r071vkl186uelr1apcmneq7lchcafxt","Sun Feb 05 2017 16:55:08 GMT-0500 (EST)","female","White","conservative","",NA,"","offCivRatings","the officer slammed the civilian's head into the concrete curb","the civilian shot the officer in the head with a handgun","headSlam","handgunHead","officerCivilian","forceCiv","33","","","",""
"116",4375,"{""Q0"":73}","[object Object]","survey-likert",115,722965,"0.0-115.0","9r071vkl186uelr1apcmneq7lchcafxt","Sun Feb 05 2017 16:55:08 GMT-0500 (EST)","female","White","conservative","",NA,"","offCivRatings","the officer slammed the civilian's head into the concrete curb","the civilian shot the officer in the head with a handgun","headSlam","handgunHead","officerCivilian","punishCiv","73","","","",""
"117",3519,"{""Q0"":36}","[object Object]","survey-likert",116,726489,"0.0-116.0","9r071vkl186uelr1apcmneq7lchcafxt","Sun Feb 05 2017 16:55:08 GMT-0500 (EST)","female","White","conservative","",NA,"","offCivRatings","the officer slammed the civilian's head into the concrete curb","the civilian shot the officer in the head with a handgun","headSlam","handgunHead","officerCivilian","manipCheckLow","36","","","",""
"118",945,"","","instructions",117,727434,"0.0-117.0","9r071vkl186uelr1apcmneq7lchcafxt","Sun Feb 05 2017 16:55:08 GMT-0500 (EST)","female","White","conservative","",NA,"[{""page_index"":0,""viewing_time"":945}]","break","","","","","","","","","","",""
"119",1376,"{""Q0"":69}","[object Object]","survey-likert",118,729017,"0.0-118.0","9r071vkl186uelr1apcmneq7lchcafxt","Sun Feb 05 2017 16:55:08 GMT-0500 (EST)","female","White","conservative","",NA,"","offCivRatings","the officer struck the civilian on the leg with a collapsible baton","the civilian twisted the arm of the officer, forcing him to the ground","batonLeg","armbar","civilianOfficer","forceOff","69","","","",""
"120",1583,"{""Q0"":59}","[object Object]","survey-likert",119,730605,"0.0-119.0","9r071vkl186uelr1apcmneq7lchcafxt","Sun Feb 05 2017 16:55:08 GMT-0500 (EST)","female","White","conservative","",NA,"","offCivRatings","the officer struck the civilian on the leg with a collapsible baton","the civilian twisted the arm of the officer, forcing him to the ground","batonLeg","armbar","civilianOfficer","punishOff","59","","","",""
"121",1546,"{""Q0"":40}","[object Object]","survey-likert",120,732156,"0.0-120.0","9r071vkl186uelr1apcmneq7lchcafxt","Sun Feb 05 2017 16:55:08 GMT-0500 (EST)","female","White","conservative","",NA,"","offCivRatings","the officer struck the civilian on the leg with a collapsible baton","the civilian twisted the arm of the officer, forcing him to the ground","batonLeg","armbar","civilianOfficer","appropriateOff","40","","","",""
"122",1812,"{""Q0"":61}","[object Object]","survey-likert",121,733972,"0.0-121.0","9r071vkl186uelr1apcmneq7lchcafxt","Sun Feb 05 2017 16:55:08 GMT-0500 (EST)","female","White","conservative","",NA,"","offCivRatings","the officer struck the civilian on the leg with a collapsible baton","the civilian twisted the arm of the officer, forcing him to the ground","batonLeg","armbar","civilianOfficer","acceptableOff","61","","","",""
"123",1648,"{""Q0"":43}","[object Object]","survey-likert",122,735625,"0.0-122.0","9r071vkl186uelr1apcmneq7lchcafxt","Sun Feb 05 2017 16:55:08 GMT-0500 (EST)","female","White","conservative","",NA,"","offCivRatings","the officer struck the civilian on the leg with a collapsible baton","the civilian twisted the arm of the officer, forcing him to the ground","batonLeg","armbar","civilianOfficer","manipCheckHigh","43","","","",""
"124",828,"","","instructions",123,736453,"0.0-123.0","9r071vkl186uelr1apcmneq7lchcafxt","Sun Feb 05 2017 16:55:08 GMT-0500 (EST)","female","White","conservative","",NA,"[{""page_index"":0,""viewing_time"":827}]","break","","","","","","","","","","",""
"125",10614,"{""Q0"":24}","[object Object]","survey-likert",124,747274,"0.0-124.0","9r071vkl186uelr1apcmneq7lchcafxt","Sun Feb 05 2017 16:55:08 GMT-0500 (EST)","female","White","conservative","",NA,"","policeLegitimacy","","","","","","","24","support","feltObligation","",""
"126",10208,"{""Q0"":56}","[object Object]","survey-likert",125,757487,"0.0-125.0","9r071vkl186uelr1apcmneq7lchcafxt","Sun Feb 05 2017 16:55:08 GMT-0500 (EST)","female","White","conservative","",NA,"","policeLegitimacy","","","","","","","56","doTreat","feltObligation","",""
"127",6260,"{""Q0"":74}","[object Object]","survey-likert",126,763752,"0.0-126.0","9r071vkl186uelr1apcmneq7lchcafxt","Sun Feb 05 2017 16:55:08 GMT-0500 (EST)","female","White","conservative","",NA,"","policeLegitimacy","","","","","","","74","importantValues","normAlignment","",""
"128",7851,"{""Q0"":65}","[object Object]","survey-likert",127,771607,"0.0-127.0","9r071vkl186uelr1apcmneq7lchcafxt","Sun Feb 05 2017 16:55:08 GMT-0500 (EST)","female","White","conservative","",NA,"","policeLegitimacy","","","","","","","65","doReasons","feltObligation","",""
"129",4615,"{""Q0"":85}","[object Object]","survey-likert",128,776226,"0.0-128.0","9r071vkl186uelr1apcmneq7lchcafxt","Sun Feb 05 2017 16:55:08 GMT-0500 (EST)","female","White","conservative","",NA,"","policeLegitimacy","","","","","","","85","rightWrong","normAlignment","",""
"130",4840,"{""Q0"":86}","[object Object]","survey-likert",129,781070,"0.0-129.0","9r071vkl186uelr1apcmneq7lchcafxt","Sun Feb 05 2017 16:55:08 GMT-0500 (EST)","female","White","conservative","",NA,"","policeLegitimacy","","","","","","","86","communityWants","normAlignment","",""
"131",44152,"{""Q0"":""no""}","[object Object]","survey-multi-choice2",130,825229,"0.0-130.0","9r071vkl186uelr1apcmneq7lchcafxt","Sun Feb 05 2017 16:55:08 GMT-0500 (EST)","female","White","conservative","",NA,"","policeExperience","","","","","","","no","excessForce","","personal","Have the police ever used excessive force against you?"
"132",4061,"{""Q0"":""no""}","[object Object]","survey-multi-choice2",131,829292,"0.0-131.0","9r071vkl186uelr1apcmneq7lchcafxt","Sun Feb 05 2017 16:55:08 GMT-0500 (EST)","female","White","conservative","",NA,"","policeExperience","","","","","","","no","insultLang","","personal","Have the police ever used insulting language toward you?"
"133",3307,"{""Q0"":""no""}","[object Object]","survey-multi-choice2",132,832601,"0.0-132.0","9r071vkl186uelr1apcmneq7lchcafxt","Sun Feb 05 2017 16:55:08 GMT-0500 (EST)","female","White","conservative","",NA,"","policeExperience","","","","","","","no","excessForce","","vicarious","Have the police ever used excessive force against anyone in your household?"
"134",18355,"{""Q0"":""no""}","[object Object]","survey-multi-choice2",133,850958,"0.0-133.0","9r071vkl186uelr1apcmneq7lchcafxt","Sun Feb 05 2017 16:55:08 GMT-0500 (EST)","female","White","conservative","",NA,"","policeExperience","","","","","","","no","corrupt","","personal","Have you ever seen a police officer engage in any corrupt activities (e.g., taking bribes or involvement in the drug trade)?"
"135",5925,"{""Q0"":""no""}","[object Object]","survey-multi-choice2",134,856885,"0.0-134.0","9r071vkl186uelr1apcmneq7lchcafxt","Sun Feb 05 2017 16:55:08 GMT-0500 (EST)","female","White","conservative","",NA,"","policeExperience","","","","","","","no","stopped","","personal","Have you ever been stopped by the police on the street without good reason?"
"136",3899,"{""Q0"":""no""}","[object Object]","survey-multi-choice2",135,860786,"0.0-135.0","9r071vkl186uelr1apcmneq7lchcafxt","Sun Feb 05 2017 16:55:08 GMT-0500 (EST)","female","White","conservative","",NA,"","policeExperience","","","","","","","no","stopped","","vicarious","Has anyone in your household ever been stopped on the street by the police without good reason?"
"137",3075,"{""Q0"":""no""}","[object Object]","survey-multi-choice2",136,863863,"0.0-136.0","9r071vkl186uelr1apcmneq7lchcafxt","Sun Feb 05 2017 16:55:08 GMT-0500 (EST)","female","White","conservative","",NA,"","policeExperience","","","","","","","no","insultLang","","vicarious","Have the police ever used insulting language toward anyone in your household?"
"138",14474,"{""Q0"":""female"",""Q1"":""White"",""Q2"":""conservative""}","[object Object]","survey-multi-choice",137,878344,"0.0-137.0","9r071vkl186uelr1apcmneq7lchcafxt","Sun Feb 05 2017 16:55:08 GMT-0500 (EST)","female","White","conservative","",NA,"","demographics","","","","","","","","","","",""
"139",13139,"","","instructions",138,892485,"0.0-138.0","9r071vkl186uelr1apcmneq7lchcafxt","Sun Feb 05 2017 16:55:08 GMT-0500 (EST)","female","White","conservative","",NA,"[{""page_index"":0,""viewing_time"":6491},{""page_index"":1,""viewing_time"":3021},{""page_index"":2,""viewing_time"":977},{""page_index"":3,""viewing_time"":2649}]","debriefing","","","","","","","","","","",""
