"","rt","responses","internalResp","trial_type","trial_index","time_elapsed","internal_node_id","randSubjectID","date","sex","race","polAff","stimulus","key_press","view_history","questionType","officerAction","civilianAction","offActName","civActName","order","questionName","response","name","dimension","person","question"
"1",8227,"","[object Object]","survey-text",0,8231,"0.0-0.0","at09ahl8x6uj896kqvcd03ampzl3ydrj","Mon Apr 10 2017 14:36:59 GMT-0400 (EDT)","female","Asian","don't know/not political","",NA,"","","","","","","","","","","","",""
"2",6855,"","","single-stim",1,16092,"0.0-1.0","at09ahl8x6uj896kqvcd03ampzl3ydrj","Mon Apr 10 2017 14:36:59 GMT-0400 (EDT)","female","Asian","don't know/not political","<img src='static/images/1602685960_ICS_Credit-0.png' alt='Consent 1' height=1100 width=850><img src='static/images/1602685960_ICS_Credit-1.png' alt='Consent 2' height=1100 width=850></p>",89,"","","","","","","","","","","","",""
"3",2528,"","","instructions",2,19622,"0.0-2.0","at09ahl8x6uj896kqvcd03ampzl3ydrj","Mon Apr 10 2017 14:36:59 GMT-0400 (EDT)","female","Asian","don't know/not political","",NA,"[{""page_index"":0,""viewing_time"":2527}]","instructions","","","","","","","","","","",""
"4",56007,"","","instructions",3,76631,"0.0-3.0","at09ahl8x6uj896kqvcd03ampzl3ydrj","Mon Apr 10 2017 14:36:59 GMT-0400 (EDT)","female","Asian","don't know/not political","",NA,"[{""page_index"":0,""viewing_time"":899},{""page_index"":1,""viewing_time"":14685},{""page_index"":2,""viewing_time"":32137},{""page_index"":3,""viewing_time"":8285}]","instructions","","","","","","","","","","",""
"5",17623,"{""Q0"":60}","[object Object]","survey-likert",4,95288,"0.0-4.0","at09ahl8x6uj896kqvcd03ampzl3ydrj","Mon Apr 10 2017 14:36:59 GMT-0400 (EDT)","female","Asian","don't know/not political","",NA,"","offCivRatings","the officer put handcuffs on the civilian","the civilian called the officer a ""pig""","handcuff","nameCall","civilianOfficer","punishOff","60","","","",""
"6",49684,"{""Q0"":71}","[object Object]","survey-likert",5,144985,"0.0-5.0","at09ahl8x6uj896kqvcd03ampzl3ydrj","Mon Apr 10 2017 14:36:59 GMT-0400 (EDT)","female","Asian","don't know/not political","",NA,"","offCivRatings","the officer put handcuffs on the civilian","the civilian called the officer a ""pig""","handcuff","nameCall","civilianOfficer","appropriateOff","71","","","",""
"7",12089,"{""Q0"":30}","[object Object]","survey-likert",6,157083,"0.0-6.0","at09ahl8x6uj896kqvcd03ampzl3ydrj","Mon Apr 10 2017 14:36:59 GMT-0400 (EDT)","female","Asian","don't know/not political","",NA,"","offCivRatings","the officer put handcuffs on the civilian","the civilian called the officer a ""pig""","handcuff","nameCall","civilianOfficer","forceOff","30","","","",""
"8",6977,"{""Q0"":60}","[object Object]","survey-likert",7,164073,"0.0-7.0","at09ahl8x6uj896kqvcd03ampzl3ydrj","Mon Apr 10 2017 14:36:59 GMT-0400 (EDT)","female","Asian","don't know/not political","",NA,"","offCivRatings","the officer put handcuffs on the civilian","the civilian called the officer a ""pig""","handcuff","nameCall","civilianOfficer","acceptableOff","60","","","",""
"9",1422,"","","instructions",8,165496,"0.0-8.0","at09ahl8x6uj896kqvcd03ampzl3ydrj","Mon Apr 10 2017 14:36:59 GMT-0400 (EDT)","female","Asian","don't know/not political","",NA,"[{""page_index"":0,""viewing_time"":1422}]","break","","","","","","","","","","",""
"10",24632,"{""Q0"":1}","[object Object]","survey-likert",9,190340,"0.0-9.0","at09ahl8x6uj896kqvcd03ampzl3ydrj","Mon Apr 10 2017 14:36:59 GMT-0400 (EDT)","female","Asian","don't know/not political","",NA,"","offCivRatings","the officer twisted the arm of the civilian, forcing him to the ground","the civilian shot the officer in the head with a handgun","armbar","handgunHead","officerCivilian","appropriateCiv","1","","","",""
"11",3967,"{""Q0"":3}","[object Object]","survey-likert",10,194318,"0.0-10.0","at09ahl8x6uj896kqvcd03ampzl3ydrj","Mon Apr 10 2017 14:36:59 GMT-0400 (EDT)","female","Asian","don't know/not political","",NA,"","offCivRatings","the officer twisted the arm of the civilian, forcing him to the ground","the civilian shot the officer in the head with a handgun","armbar","handgunHead","officerCivilian","acceptableCiv","3","","","",""
"12",10835,"{""Q0"":3}","[object Object]","survey-likert",11,205163,"0.0-11.0","at09ahl8x6uj896kqvcd03ampzl3ydrj","Mon Apr 10 2017 14:36:59 GMT-0400 (EDT)","female","Asian","don't know/not political","",NA,"","offCivRatings","the officer twisted the arm of the civilian, forcing him to the ground","the civilian shot the officer in the head with a handgun","armbar","handgunHead","officerCivilian","manipCheckLow","3","","","",""
"13",5178,"{""Q0"":98}","[object Object]","survey-likert",12,210351,"0.0-12.0","at09ahl8x6uj896kqvcd03ampzl3ydrj","Mon Apr 10 2017 14:36:59 GMT-0400 (EDT)","female","Asian","don't know/not political","",NA,"","offCivRatings","the officer twisted the arm of the civilian, forcing him to the ground","the civilian shot the officer in the head with a handgun","armbar","handgunHead","officerCivilian","punishCiv","98","","","",""
"14",3919,"{""Q0"":91}","[object Object]","survey-likert",13,214280,"0.0-13.0","at09ahl8x6uj896kqvcd03ampzl3ydrj","Mon Apr 10 2017 14:36:59 GMT-0400 (EDT)","female","Asian","don't know/not political","",NA,"","offCivRatings","the officer twisted the arm of the civilian, forcing him to the ground","the civilian shot the officer in the head with a handgun","armbar","handgunHead","officerCivilian","forceCiv","91","","","",""
"15",1360,"","","instructions",14,215640,"0.0-14.0","at09ahl8x6uj896kqvcd03ampzl3ydrj","Mon Apr 10 2017 14:36:59 GMT-0400 (EDT)","female","Asian","don't know/not political","",NA,"[{""page_index"":0,""viewing_time"":1360}]","break","","","","","","","","","","",""
"16",28762,"{""Q0"":60}","[object Object]","survey-likert",15,244612,"0.0-15.0","at09ahl8x6uj896kqvcd03ampzl3ydrj","Mon Apr 10 2017 14:36:59 GMT-0400 (EDT)","female","Asian","don't know/not political","",NA,"","offCivRatings","the officer purposefully struck the civilian with a motor vehicle","the civilian shot the officer in the chest with a handgun","vehicle","handgunChest","civilianOfficer","appropriateOff","60","","","",""
"17",4545,"{""Q0"":21}","[object Object]","survey-likert",16,249166,"0.0-16.0","at09ahl8x6uj896kqvcd03ampzl3ydrj","Mon Apr 10 2017 14:36:59 GMT-0400 (EDT)","female","Asian","don't know/not political","",NA,"","offCivRatings","the officer purposefully struck the civilian with a motor vehicle","the civilian shot the officer in the chest with a handgun","vehicle","handgunChest","civilianOfficer","punishOff","21","","","",""
"18",8096,"{""Q0"":53}","[object Object]","survey-likert",17,257272,"0.0-17.0","at09ahl8x6uj896kqvcd03ampzl3ydrj","Mon Apr 10 2017 14:36:59 GMT-0400 (EDT)","female","Asian","don't know/not political","",NA,"","offCivRatings","the officer purposefully struck the civilian with a motor vehicle","the civilian shot the officer in the chest with a handgun","vehicle","handgunChest","civilianOfficer","forceOff","53","","","",""
"19",5229,"{""Q0"":99}","[object Object]","survey-likert",18,262512,"0.0-18.0","at09ahl8x6uj896kqvcd03ampzl3ydrj","Mon Apr 10 2017 14:36:59 GMT-0400 (EDT)","female","Asian","don't know/not political","",NA,"","offCivRatings","the officer purposefully struck the civilian with a motor vehicle","the civilian shot the officer in the chest with a handgun","vehicle","handgunChest","civilianOfficer","manipCheckHigh","99","","","",""
"20",5416,"{""Q0"":71}","[object Object]","survey-likert",19,267937,"0.0-19.0","at09ahl8x6uj896kqvcd03ampzl3ydrj","Mon Apr 10 2017 14:36:59 GMT-0400 (EDT)","female","Asian","don't know/not political","",NA,"","offCivRatings","the officer purposefully struck the civilian with a motor vehicle","the civilian shot the officer in the chest with a handgun","vehicle","handgunChest","civilianOfficer","acceptableOff","71","","","",""
"21",1611,"","","instructions",20,269549,"0.0-20.0","at09ahl8x6uj896kqvcd03ampzl3ydrj","Mon Apr 10 2017 14:36:59 GMT-0400 (EDT)","female","Asian","don't know/not political","",NA,"[{""page_index"":0,""viewing_time"":1611}]","break","","","","","","","","","","",""
"22",53315,"{""Q0"":21}","[object Object]","survey-likert",21,323075,"0.0-21.0","at09ahl8x6uj896kqvcd03ampzl3ydrj","Mon Apr 10 2017 14:36:59 GMT-0400 (EDT)","female","Asian","don't know/not political","",NA,"","offCivRatings","the officer kicked the civilian in the stomach","the civilian sprayed the officer with pepper spray","kickStom","pepperSpray","civilianOfficer","appropriateOff","21","","","",""
"23",4825,"{""Q0"":73}","[object Object]","survey-likert",22,327913,"0.0-22.0","at09ahl8x6uj896kqvcd03ampzl3ydrj","Mon Apr 10 2017 14:36:59 GMT-0400 (EDT)","female","Asian","don't know/not political","",NA,"","offCivRatings","the officer kicked the civilian in the stomach","the civilian sprayed the officer with pepper spray","kickStom","pepperSpray","civilianOfficer","punishOff","73","","","",""
"24",4398,"{""Q0"":31}","[object Object]","survey-likert",23,332321,"0.0-23.0","at09ahl8x6uj896kqvcd03ampzl3ydrj","Mon Apr 10 2017 14:36:59 GMT-0400 (EDT)","female","Asian","don't know/not political","",NA,"","offCivRatings","the officer kicked the civilian in the stomach","the civilian sprayed the officer with pepper spray","kickStom","pepperSpray","civilianOfficer","acceptableOff","31","","","",""
"25",3576,"{""Q0"":2}","[object Object]","survey-likert",24,335907,"0.0-24.0","at09ahl8x6uj896kqvcd03ampzl3ydrj","Mon Apr 10 2017 14:36:59 GMT-0400 (EDT)","female","Asian","don't know/not political","",NA,"","offCivRatings","the officer kicked the civilian in the stomach","the civilian sprayed the officer with pepper spray","kickStom","pepperSpray","civilianOfficer","manipCheckLow","2","","","",""
"26",4353,"{""Q0"":80}","[object Object]","survey-likert",25,340269,"0.0-25.0","at09ahl8x6uj896kqvcd03ampzl3ydrj","Mon Apr 10 2017 14:36:59 GMT-0400 (EDT)","female","Asian","don't know/not political","",NA,"","offCivRatings","the officer kicked the civilian in the stomach","the civilian sprayed the officer with pepper spray","kickStom","pepperSpray","civilianOfficer","forceOff","80","","","",""
"27",1171,"","","instructions",26,341441,"0.0-26.0","at09ahl8x6uj896kqvcd03ampzl3ydrj","Mon Apr 10 2017 14:36:59 GMT-0400 (EDT)","female","Asian","don't know/not political","",NA,"[{""page_index"":0,""viewing_time"":1171}]","break","","","","","","","","","","",""
"28",10387,"{""Q0"":62}","[object Object]","survey-likert",27,352038,"0.0-27.0","at09ahl8x6uj896kqvcd03ampzl3ydrj","Mon Apr 10 2017 14:36:59 GMT-0400 (EDT)","female","Asian","don't know/not political","",NA,"","offCivRatings","the officer sprayed the civilian with pepper spray","the civilian pulled away from the officer","pepperSpray","pulledAway","civilianOfficer","forceOff","62","","","",""
"29",3950,"{""Q0"":81}","[object Object]","survey-likert",28,355998,"0.0-28.0","at09ahl8x6uj896kqvcd03ampzl3ydrj","Mon Apr 10 2017 14:36:59 GMT-0400 (EDT)","female","Asian","don't know/not political","",NA,"","offCivRatings","the officer sprayed the civilian with pepper spray","the civilian pulled away from the officer","pepperSpray","pulledAway","civilianOfficer","punishOff","81","","","",""
"30",5449,"{""Q0"":29}","[object Object]","survey-likert",29,361458,"0.0-29.0","at09ahl8x6uj896kqvcd03ampzl3ydrj","Mon Apr 10 2017 14:36:59 GMT-0400 (EDT)","female","Asian","don't know/not political","",NA,"","offCivRatings","the officer sprayed the civilian with pepper spray","the civilian pulled away from the officer","pepperSpray","pulledAway","civilianOfficer","appropriateOff","29","","","",""
"31",12391,"{""Q0"":30}","[object Object]","survey-likert",30,373858,"0.0-30.0","at09ahl8x6uj896kqvcd03ampzl3ydrj","Mon Apr 10 2017 14:36:59 GMT-0400 (EDT)","female","Asian","don't know/not political","",NA,"","offCivRatings","the officer sprayed the civilian with pepper spray","the civilian pulled away from the officer","pepperSpray","pulledAway","civilianOfficer","acceptableOff","30","","","",""
"32",1435,"","","instructions",31,375293,"0.0-31.0","at09ahl8x6uj896kqvcd03ampzl3ydrj","Mon Apr 10 2017 14:36:59 GMT-0400 (EDT)","female","Asian","don't know/not political","",NA,"[{""page_index"":0,""viewing_time"":1435}]","break","","","","","","","","","","",""
"33",13588,"{""Q0"":30}","[object Object]","survey-likert",32,389091,"0.0-32.0","at09ahl8x6uj896kqvcd03ampzl3ydrj","Mon Apr 10 2017 14:36:59 GMT-0400 (EDT)","female","Asian","don't know/not political","",NA,"","offCivRatings","the officer asked the civilian how he was doing","the civilian punched the officer in the face","asked","punchFace","civilianOfficer","forceOff","30","","","",""
"34",6286,"{""Q0"":94}","[object Object]","survey-likert",33,395388,"0.0-33.0","at09ahl8x6uj896kqvcd03ampzl3ydrj","Mon Apr 10 2017 14:36:59 GMT-0400 (EDT)","female","Asian","don't know/not political","",NA,"","offCivRatings","the officer asked the civilian how he was doing","the civilian punched the officer in the face","asked","punchFace","civilianOfficer","acceptableOff","94","","","",""
"35",7770,"{""Q0"":26}","[object Object]","survey-likert",34,403166,"0.0-34.0","at09ahl8x6uj896kqvcd03ampzl3ydrj","Mon Apr 10 2017 14:36:59 GMT-0400 (EDT)","female","Asian","don't know/not political","",NA,"","offCivRatings","the officer asked the civilian how he was doing","the civilian punched the officer in the face","asked","punchFace","civilianOfficer","punishOff","26","","","",""
"36",3540,"{""Q0"":72}","[object Object]","survey-likert",35,406714,"0.0-35.0","at09ahl8x6uj896kqvcd03ampzl3ydrj","Mon Apr 10 2017 14:36:59 GMT-0400 (EDT)","female","Asian","don't know/not political","",NA,"","offCivRatings","the officer asked the civilian how he was doing","the civilian punched the officer in the face","asked","punchFace","civilianOfficer","appropriateOff","72","","","",""
"37",1125,"","","instructions",36,407839,"0.0-36.0","at09ahl8x6uj896kqvcd03ampzl3ydrj","Mon Apr 10 2017 14:36:59 GMT-0400 (EDT)","female","Asian","don't know/not political","",NA,"[{""page_index"":0,""viewing_time"":1124}]","break","","","","","","","","","","",""
"38",21229,"{""Q0"":31}","[object Object]","survey-likert",37,429279,"0.0-37.0","at09ahl8x6uj896kqvcd03ampzl3ydrj","Mon Apr 10 2017 14:36:59 GMT-0400 (EDT)","female","Asian","don't know/not political","",NA,"","offCivRatings","the officer waved at the civilian in greeting","the civilian kicked the officer in the stomach","waved","kickStom","civilianOfficer","appropriateOff","31","","","",""
"39",6498,"{""Q0"":88}","[object Object]","survey-likert",38,435786,"0.0-38.0","at09ahl8x6uj896kqvcd03ampzl3ydrj","Mon Apr 10 2017 14:36:59 GMT-0400 (EDT)","female","Asian","don't know/not political","",NA,"","offCivRatings","the officer waved at the civilian in greeting","the civilian kicked the officer in the stomach","waved","kickStom","civilianOfficer","acceptableOff","88","","","",""
"40",4300,"{""Q0"":25}","[object Object]","survey-likert",39,440095,"0.0-39.0","at09ahl8x6uj896kqvcd03ampzl3ydrj","Mon Apr 10 2017 14:36:59 GMT-0400 (EDT)","female","Asian","don't know/not political","",NA,"","offCivRatings","the officer waved at the civilian in greeting","the civilian kicked the officer in the stomach","waved","kickStom","civilianOfficer","forceOff","25","","","",""
"41",3961,"{""Q0"":17}","[object Object]","survey-likert",40,444065,"0.0-40.0","at09ahl8x6uj896kqvcd03ampzl3ydrj","Mon Apr 10 2017 14:36:59 GMT-0400 (EDT)","female","Asian","don't know/not political","",NA,"","offCivRatings","the officer waved at the civilian in greeting","the civilian kicked the officer in the stomach","waved","kickStom","civilianOfficer","punishOff","17","","","",""
"42",2169,"","","instructions",41,446234,"0.0-41.0","at09ahl8x6uj896kqvcd03ampzl3ydrj","Mon Apr 10 2017 14:36:59 GMT-0400 (EDT)","female","Asian","don't know/not political","",NA,"[{""page_index"":0,""viewing_time"":2169}]","break","","","","","","","","","","",""
"43",16535,"{""Q0"":79}","[object Object]","survey-likert",42,462979,"0.0-42.0","at09ahl8x6uj896kqvcd03ampzl3ydrj","Mon Apr 10 2017 14:36:59 GMT-0400 (EDT)","female","Asian","don't know/not political","",NA,"","offCivRatings","the officer applied a chokehold to the civilian","the civilian shouted ""I don't have to fucking listen to you!"" at the officer","choke","dontListen","civilianOfficer","acceptableOff","79","","","",""
"44",3913,"{""Q0"":75}","[object Object]","survey-likert",43,466900,"0.0-43.0","at09ahl8x6uj896kqvcd03ampzl3ydrj","Mon Apr 10 2017 14:36:59 GMT-0400 (EDT)","female","Asian","don't know/not political","",NA,"","offCivRatings","the officer applied a chokehold to the civilian","the civilian shouted ""I don't have to fucking listen to you!"" at the officer","choke","dontListen","civilianOfficer","forceOff","75","","","",""
"45",2831,"{""Q0"":20}","[object Object]","survey-likert",44,469740,"0.0-44.0","at09ahl8x6uj896kqvcd03ampzl3ydrj","Mon Apr 10 2017 14:36:59 GMT-0400 (EDT)","female","Asian","don't know/not political","",NA,"","offCivRatings","the officer applied a chokehold to the civilian","the civilian shouted ""I don't have to fucking listen to you!"" at the officer","choke","dontListen","civilianOfficer","punishOff","20","","","",""
"46",3448,"{""Q0"":85}","[object Object]","survey-likert",45,473196,"0.0-45.0","at09ahl8x6uj896kqvcd03ampzl3ydrj","Mon Apr 10 2017 14:36:59 GMT-0400 (EDT)","female","Asian","don't know/not political","",NA,"","offCivRatings","the officer applied a chokehold to the civilian","the civilian shouted ""I don't have to fucking listen to you!"" at the officer","choke","dontListen","civilianOfficer","appropriateOff","85","","","",""
"47",1096,"","","instructions",46,474293,"0.0-46.0","at09ahl8x6uj896kqvcd03ampzl3ydrj","Mon Apr 10 2017 14:36:59 GMT-0400 (EDT)","female","Asian","don't know/not political","",NA,"[{""page_index"":0,""viewing_time"":1095}]","break","","","","","","","","","","",""
"48",9854,"{""Q0"":80}","[object Object]","survey-likert",47,484355,"0.0-47.0","at09ahl8x6uj896kqvcd03ampzl3ydrj","Mon Apr 10 2017 14:36:59 GMT-0400 (EDT)","female","Asian","don't know/not political","",NA,"","offCivRatings","the officer called the civilian a ""thug""","the civilian waved at the officer in greeting","nameCall","waved","officerCivilian","appropriateCiv","80","","","",""
"49",4346,"{""Q0"":100}","[object Object]","survey-likert",48,488709,"0.0-48.0","at09ahl8x6uj896kqvcd03ampzl3ydrj","Mon Apr 10 2017 14:36:59 GMT-0400 (EDT)","female","Asian","don't know/not political","",NA,"","offCivRatings","the officer called the civilian a ""thug""","the civilian waved at the officer in greeting","nameCall","waved","officerCivilian","manipCheckHigh","100","","","",""
"50",6784,"{""Q0"":79}","[object Object]","survey-likert",49,495503,"0.0-49.0","at09ahl8x6uj896kqvcd03ampzl3ydrj","Mon Apr 10 2017 14:36:59 GMT-0400 (EDT)","female","Asian","don't know/not political","",NA,"","offCivRatings","the officer called the civilian a ""thug""","the civilian waved at the officer in greeting","nameCall","waved","officerCivilian","acceptableCiv","79","","","",""
"51",3807,"{""Q0"":25}","[object Object]","survey-likert",50,499318,"0.0-50.0","at09ahl8x6uj896kqvcd03ampzl3ydrj","Mon Apr 10 2017 14:36:59 GMT-0400 (EDT)","female","Asian","don't know/not political","",NA,"","offCivRatings","the officer called the civilian a ""thug""","the civilian waved at the officer in greeting","nameCall","waved","officerCivilian","forceCiv","25","","","",""
"52",3346,"{""Q0"":22}","[object Object]","survey-likert",51,502671,"0.0-51.0","at09ahl8x6uj896kqvcd03ampzl3ydrj","Mon Apr 10 2017 14:36:59 GMT-0400 (EDT)","female","Asian","don't know/not political","",NA,"","offCivRatings","the officer called the civilian a ""thug""","the civilian waved at the officer in greeting","nameCall","waved","officerCivilian","punishCiv","22","","","",""
"53",1222,"","","instructions",52,503894,"0.0-52.0","at09ahl8x6uj896kqvcd03ampzl3ydrj","Mon Apr 10 2017 14:36:59 GMT-0400 (EDT)","female","Asian","don't know/not political","",NA,"[{""page_index"":0,""viewing_time"":1222}]","break","","","","","","","","","","",""
"54",12980,"{""Q0"":31}","[object Object]","survey-likert",53,517084,"0.0-53.0","at09ahl8x6uj896kqvcd03ampzl3ydrj","Mon Apr 10 2017 14:36:59 GMT-0400 (EDT)","female","Asian","don't know/not political","",NA,"","offCivRatings","the officer yelled ""get back!"" at the civilian","the civilian struck the officer in the stomach with a metal flashlight","getBack","flashlight","officerCivilian","acceptableCiv","31","","","",""
"55",6511,"{""Q0"":66}","[object Object]","survey-likert",54,523604,"0.0-54.0","at09ahl8x6uj896kqvcd03ampzl3ydrj","Mon Apr 10 2017 14:36:59 GMT-0400 (EDT)","female","Asian","don't know/not political","",NA,"","offCivRatings","the officer yelled ""get back!"" at the civilian","the civilian struck the officer in the stomach with a metal flashlight","getBack","flashlight","officerCivilian","forceCiv","66","","","",""
"56",4195,"{""Q0"":71}","[object Object]","survey-likert",55,527808,"0.0-55.0","at09ahl8x6uj896kqvcd03ampzl3ydrj","Mon Apr 10 2017 14:36:59 GMT-0400 (EDT)","female","Asian","don't know/not political","",NA,"","offCivRatings","the officer yelled ""get back!"" at the civilian","the civilian struck the officer in the stomach with a metal flashlight","getBack","flashlight","officerCivilian","punishCiv","71","","","",""
"57",2797,"{""Q0"":30}","[object Object]","survey-likert",56,530613,"0.0-56.0","at09ahl8x6uj896kqvcd03ampzl3ydrj","Mon Apr 10 2017 14:36:59 GMT-0400 (EDT)","female","Asian","don't know/not political","",NA,"","offCivRatings","the officer yelled ""get back!"" at the civilian","the civilian struck the officer in the stomach with a metal flashlight","getBack","flashlight","officerCivilian","appropriateCiv","30","","","",""
"58",1132,"","","instructions",57,531745,"0.0-57.0","at09ahl8x6uj896kqvcd03ampzl3ydrj","Mon Apr 10 2017 14:36:59 GMT-0400 (EDT)","female","Asian","don't know/not political","",NA,"[{""page_index"":0,""viewing_time"":1131}]","break","","","","","","","","","","",""
"59",10240,"{""Q0"":60}","[object Object]","survey-likert",58,542194,"0.0-58.0","at09ahl8x6uj896kqvcd03ampzl3ydrj","Mon Apr 10 2017 14:36:59 GMT-0400 (EDT)","female","Asian","don't know/not political","",NA,"","offCivRatings","the officer struck the civilian in the stomach with a metal flashlight","the civilian stood near the officer","flashlight","stoodNear","officerCivilian","acceptableCiv","60","","","",""
"60",3282,"{""Q0"":37}","[object Object]","survey-likert",59,545483,"0.0-59.0","at09ahl8x6uj896kqvcd03ampzl3ydrj","Mon Apr 10 2017 14:36:59 GMT-0400 (EDT)","female","Asian","don't know/not political","",NA,"","offCivRatings","the officer struck the civilian in the stomach with a metal flashlight","the civilian stood near the officer","flashlight","stoodNear","officerCivilian","punishCiv","37","","","",""
"61",5292,"{""Q0"":68}","[object Object]","survey-likert",60,550783,"0.0-60.0","at09ahl8x6uj896kqvcd03ampzl3ydrj","Mon Apr 10 2017 14:36:59 GMT-0400 (EDT)","female","Asian","don't know/not political","",NA,"","offCivRatings","the officer struck the civilian in the stomach with a metal flashlight","the civilian stood near the officer","flashlight","stoodNear","officerCivilian","appropriateCiv","68","","","",""
"62",4255,"{""Q0"":45}","[object Object]","survey-likert",61,555046,"0.0-61.0","at09ahl8x6uj896kqvcd03ampzl3ydrj","Mon Apr 10 2017 14:36:59 GMT-0400 (EDT)","female","Asian","don't know/not political","",NA,"","offCivRatings","the officer struck the civilian in the stomach with a metal flashlight","the civilian stood near the officer","flashlight","stoodNear","officerCivilian","forceCiv","45","","","",""
"63",1421,"","","instructions",62,556467,"0.0-62.0","at09ahl8x6uj896kqvcd03ampzl3ydrj","Mon Apr 10 2017 14:36:59 GMT-0400 (EDT)","female","Asian","don't know/not political","",NA,"[{""page_index"":0,""viewing_time"":1421}]","break","","","","","","","","","","",""
"64",12696,"{""Q0"":41}","[object Object]","survey-likert",63,569373,"0.0-63.0","at09ahl8x6uj896kqvcd03ampzl3ydrj","Mon Apr 10 2017 14:36:59 GMT-0400 (EDT)","female","Asian","don't know/not political","",NA,"","offCivRatings","the officer slammed the civilian's head into the concrete curb","the civilian said ""if you touch me, you're gonna get hurt"" to the officer","headSlam","hurtThreat","officerCivilian","forceCiv","41","","","",""
"65",3498,"{""Q0"":40}","[object Object]","survey-likert",64,572877,"0.0-64.0","at09ahl8x6uj896kqvcd03ampzl3ydrj","Mon Apr 10 2017 14:36:59 GMT-0400 (EDT)","female","Asian","don't know/not political","",NA,"","offCivRatings","the officer slammed the civilian's head into the concrete curb","the civilian said ""if you touch me, you're gonna get hurt"" to the officer","headSlam","hurtThreat","officerCivilian","acceptableCiv","40","","","",""
"66",4209,"{""Q0"":54}","[object Object]","survey-likert",65,577095,"0.0-65.0","at09ahl8x6uj896kqvcd03ampzl3ydrj","Mon Apr 10 2017 14:36:59 GMT-0400 (EDT)","female","Asian","don't know/not political","",NA,"","offCivRatings","the officer slammed the civilian's head into the concrete curb","the civilian said ""if you touch me, you're gonna get hurt"" to the officer","headSlam","hurtThreat","officerCivilian","punishCiv","54","","","",""
"67",3153,"{""Q0"":44}","[object Object]","survey-likert",66,580254,"0.0-66.0","at09ahl8x6uj896kqvcd03ampzl3ydrj","Mon Apr 10 2017 14:36:59 GMT-0400 (EDT)","female","Asian","don't know/not political","",NA,"","offCivRatings","the officer slammed the civilian's head into the concrete curb","the civilian said ""if you touch me, you're gonna get hurt"" to the officer","headSlam","hurtThreat","officerCivilian","appropriateCiv","44","","","",""
"68",2290,"","","instructions",67,582545,"0.0-67.0","at09ahl8x6uj896kqvcd03ampzl3ydrj","Mon Apr 10 2017 14:36:59 GMT-0400 (EDT)","female","Asian","don't know/not political","",NA,"[{""page_index"":0,""viewing_time"":2290}]","break","","","","","","","","","","",""
"69",18232,"{""Q0"":36}","[object Object]","survey-likert",68,600985,"0.0-68.0","at09ahl8x6uj896kqvcd03ampzl3ydrj","Mon Apr 10 2017 14:36:59 GMT-0400 (EDT)","female","Asian","don't know/not political","",NA,"","offCivRatings","the officer struck the civilian on the leg with a collapsible baton","the civilian twisted the arm of the officer, forcing him to the ground","batonLeg","armbar","civilianOfficer","punishOff","36","","","",""
"70",4553,"{""Q0"":79}","[object Object]","survey-likert",69,605546,"0.0-69.0","at09ahl8x6uj896kqvcd03ampzl3ydrj","Mon Apr 10 2017 14:36:59 GMT-0400 (EDT)","female","Asian","don't know/not political","",NA,"","offCivRatings","the officer struck the civilian on the leg with a collapsible baton","the civilian twisted the arm of the officer, forcing him to the ground","batonLeg","armbar","civilianOfficer","acceptableOff","79","","","",""
"71",4566,"{""Q0"":79}","[object Object]","survey-likert",70,610119,"0.0-70.0","at09ahl8x6uj896kqvcd03ampzl3ydrj","Mon Apr 10 2017 14:36:59 GMT-0400 (EDT)","female","Asian","don't know/not political","",NA,"","offCivRatings","the officer struck the civilian on the leg with a collapsible baton","the civilian twisted the arm of the officer, forcing him to the ground","batonLeg","armbar","civilianOfficer","appropriateOff","79","","","",""
"72",3928,"{""Q0"":78}","[object Object]","survey-likert",71,614055,"0.0-71.0","at09ahl8x6uj896kqvcd03ampzl3ydrj","Mon Apr 10 2017 14:36:59 GMT-0400 (EDT)","female","Asian","don't know/not political","",NA,"","offCivRatings","the officer struck the civilian on the leg with a collapsible baton","the civilian twisted the arm of the officer, forcing him to the ground","batonLeg","armbar","civilianOfficer","forceOff","78","","","",""
"73",5268,"{""Q0"":100}","[object Object]","survey-likert",72,619330,"0.0-72.0","at09ahl8x6uj896kqvcd03ampzl3ydrj","Mon Apr 10 2017 14:36:59 GMT-0400 (EDT)","female","Asian","don't know/not political","",NA,"","offCivRatings","the officer struck the civilian on the leg with a collapsible baton","the civilian twisted the arm of the officer, forcing him to the ground","batonLeg","armbar","civilianOfficer","manipCheckHigh","100","","","",""
"74",1520,"","","instructions",73,620850,"0.0-73.0","at09ahl8x6uj896kqvcd03ampzl3ydrj","Mon Apr 10 2017 14:36:59 GMT-0400 (EDT)","female","Asian","don't know/not political","",NA,"[{""page_index"":0,""viewing_time"":1520}]","break","","","","","","","","","","",""
"75",10992,"{""Q0"":77}","[object Object]","survey-likert",74,632052,"0.0-74.0","at09ahl8x6uj896kqvcd03ampzl3ydrj","Mon Apr 10 2017 14:36:59 GMT-0400 (EDT)","female","Asian","don't know/not political","",NA,"","offCivRatings","the officer shouted ""get your fucking hands up!"" at the civilian","the civilian struck the officer on the leg with a metal pipe","handsUp","metalPipe","officerCivilian","punishCiv","77","","","",""
"76",4121,"{""Q0"":71}","[object Object]","survey-likert",75,636180,"0.0-75.0","at09ahl8x6uj896kqvcd03ampzl3ydrj","Mon Apr 10 2017 14:36:59 GMT-0400 (EDT)","female","Asian","don't know/not political","",NA,"","offCivRatings","the officer shouted ""get your fucking hands up!"" at the civilian","the civilian struck the officer on the leg with a metal pipe","handsUp","metalPipe","officerCivilian","forceCiv","71","","","",""
"77",3705,"{""Q0"":2}","[object Object]","survey-likert",76,639893,"0.0-76.0","at09ahl8x6uj896kqvcd03ampzl3ydrj","Mon Apr 10 2017 14:36:59 GMT-0400 (EDT)","female","Asian","don't know/not political","",NA,"","offCivRatings","the officer shouted ""get your fucking hands up!"" at the civilian","the civilian struck the officer on the leg with a metal pipe","handsUp","metalPipe","officerCivilian","manipCheckLow","2","","","",""
"78",5108,"{""Q0"":41}","[object Object]","survey-likert",77,645008,"0.0-77.0","at09ahl8x6uj896kqvcd03ampzl3ydrj","Mon Apr 10 2017 14:36:59 GMT-0400 (EDT)","female","Asian","don't know/not political","",NA,"","offCivRatings","the officer shouted ""get your fucking hands up!"" at the civilian","the civilian struck the officer on the leg with a metal pipe","handsUp","metalPipe","officerCivilian","acceptableCiv","41","","","",""
"79",3632,"{""Q0"":38}","[object Object]","survey-likert",78,648648,"0.0-78.0","at09ahl8x6uj896kqvcd03ampzl3ydrj","Mon Apr 10 2017 14:36:59 GMT-0400 (EDT)","female","Asian","don't know/not political","",NA,"","offCivRatings","the officer shouted ""get your fucking hands up!"" at the civilian","the civilian struck the officer on the leg with a metal pipe","handsUp","metalPipe","officerCivilian","appropriateCiv","38","","","",""
"80",1520,"","","instructions",79,650168,"0.0-79.0","at09ahl8x6uj896kqvcd03ampzl3ydrj","Mon Apr 10 2017 14:36:59 GMT-0400 (EDT)","female","Asian","don't know/not political","",NA,"[{""page_index"":0,""viewing_time"":1519}]","break","","","","","","","","","","",""
"81",10872,"{""Q0"":44}","[object Object]","survey-likert",80,661248,"0.0-80.0","at09ahl8x6uj896kqvcd03ampzl3ydrj","Mon Apr 10 2017 14:36:59 GMT-0400 (EDT)","female","Asian","don't know/not political","",NA,"","offCivRatings","the officer headbutted the civilian in the face","the civilian yelled ""get back!"" at the officer","headbutt","getBack","officerCivilian","appropriateCiv","44","","","",""
"82",2714,"{""Q0"":42}","[object Object]","survey-likert",81,663969,"0.0-81.0","at09ahl8x6uj896kqvcd03ampzl3ydrj","Mon Apr 10 2017 14:36:59 GMT-0400 (EDT)","female","Asian","don't know/not political","",NA,"","offCivRatings","the officer headbutted the civilian in the face","the civilian yelled ""get back!"" at the officer","headbutt","getBack","officerCivilian","punishCiv","42","","","",""
"83",3472,"{""Q0"":61}","[object Object]","survey-likert",82,667449,"0.0-82.0","at09ahl8x6uj896kqvcd03ampzl3ydrj","Mon Apr 10 2017 14:36:59 GMT-0400 (EDT)","female","Asian","don't know/not political","",NA,"","offCivRatings","the officer headbutted the civilian in the face","the civilian yelled ""get back!"" at the officer","headbutt","getBack","officerCivilian","acceptableCiv","61","","","",""
"84",4245,"{""Q0"":100}","[object Object]","survey-likert",83,671702,"0.0-83.0","at09ahl8x6uj896kqvcd03ampzl3ydrj","Mon Apr 10 2017 14:36:59 GMT-0400 (EDT)","female","Asian","don't know/not political","",NA,"","offCivRatings","the officer headbutted the civilian in the face","the civilian yelled ""get back!"" at the officer","headbutt","getBack","officerCivilian","manipCheckHigh","100","","","",""
"85",3692,"{""Q0"":41}","[object Object]","survey-likert",84,675403,"0.0-84.0","at09ahl8x6uj896kqvcd03ampzl3ydrj","Mon Apr 10 2017 14:36:59 GMT-0400 (EDT)","female","Asian","don't know/not political","",NA,"","offCivRatings","the officer headbutted the civilian in the face","the civilian yelled ""get back!"" at the officer","headbutt","getBack","officerCivilian","forceCiv","41","","","",""
"86",1075,"","","instructions",85,676478,"0.0-85.0","at09ahl8x6uj896kqvcd03ampzl3ydrj","Mon Apr 10 2017 14:36:59 GMT-0400 (EDT)","female","Asian","don't know/not political","",NA,"[{""page_index"":0,""viewing_time"":1075}]","break","","","","","","","","","","",""
"87",9896,"{""Q0"":57}","[object Object]","survey-likert",86,686583,"0.0-86.0","at09ahl8x6uj896kqvcd03ampzl3ydrj","Mon Apr 10 2017 14:36:59 GMT-0400 (EDT)","female","Asian","don't know/not political","",NA,"","offCivRatings","the officer shot the civilian in the head with a handgun","the civilian slammed the officer's head into the concrete curb","handgunHead","headSlam","civilianOfficer","acceptableOff","57","","","",""
"88",3224,"{""Q0"":45}","[object Object]","survey-likert",87,689814,"0.0-87.0","at09ahl8x6uj896kqvcd03ampzl3ydrj","Mon Apr 10 2017 14:36:59 GMT-0400 (EDT)","female","Asian","don't know/not political","",NA,"","offCivRatings","the officer shot the civilian in the head with a handgun","the civilian slammed the officer's head into the concrete curb","handgunHead","headSlam","civilianOfficer","punishOff","45","","","",""
"89",4946,"{""Q0"":62}","[object Object]","survey-likert",88,694768,"0.0-88.0","at09ahl8x6uj896kqvcd03ampzl3ydrj","Mon Apr 10 2017 14:36:59 GMT-0400 (EDT)","female","Asian","don't know/not political","",NA,"","offCivRatings","the officer shot the civilian in the head with a handgun","the civilian slammed the officer's head into the concrete curb","handgunHead","headSlam","civilianOfficer","forceOff","62","","","",""
"90",3579,"{""Q0"":62}","[object Object]","survey-likert",89,698355,"0.0-89.0","at09ahl8x6uj896kqvcd03ampzl3ydrj","Mon Apr 10 2017 14:36:59 GMT-0400 (EDT)","female","Asian","don't know/not political","",NA,"","offCivRatings","the officer shot the civilian in the head with a handgun","the civilian slammed the officer's head into the concrete curb","handgunHead","headSlam","civilianOfficer","appropriateOff","62","","","",""
"91",1201,"","","instructions",90,699556,"0.0-90.0","at09ahl8x6uj896kqvcd03ampzl3ydrj","Mon Apr 10 2017 14:36:59 GMT-0400 (EDT)","female","Asian","don't know/not political","",NA,"[{""page_index"":0,""viewing_time"":1200}]","break","","","","","","","","","","",""
"92",14413,"{""Q0"":69}","[object Object]","survey-likert",91,714177,"0.0-91.0","at09ahl8x6uj896kqvcd03ampzl3ydrj","Mon Apr 10 2017 14:36:59 GMT-0400 (EDT)","female","Asian","don't know/not political","",NA,"","offCivRatings","the officer shot the civilian in the chest with a beanbag shotgun round","the civilian hit the officer in the chest with a baseball bat","beanbag","ballBat","officerCivilian","forceCiv","69","","","",""
"93",3354,"{""Q0"":64}","[object Object]","survey-likert",92,717538,"0.0-92.0","at09ahl8x6uj896kqvcd03ampzl3ydrj","Mon Apr 10 2017 14:36:59 GMT-0400 (EDT)","female","Asian","don't know/not political","",NA,"","offCivRatings","the officer shot the civilian in the chest with a beanbag shotgun round","the civilian hit the officer in the chest with a baseball bat","beanbag","ballBat","officerCivilian","punishCiv","64","","","",""
"94",5788,"{""Q0"":43}","[object Object]","survey-likert",93,723333,"0.0-93.0","at09ahl8x6uj896kqvcd03ampzl3ydrj","Mon Apr 10 2017 14:36:59 GMT-0400 (EDT)","female","Asian","don't know/not political","",NA,"","offCivRatings","the officer shot the civilian in the chest with a beanbag shotgun round","the civilian hit the officer in the chest with a baseball bat","beanbag","ballBat","officerCivilian","acceptableCiv","43","","","",""
"95",3426,"{""Q0"":39}","[object Object]","survey-likert",94,726765,"0.0-94.0","at09ahl8x6uj896kqvcd03ampzl3ydrj","Mon Apr 10 2017 14:36:59 GMT-0400 (EDT)","female","Asian","don't know/not political","",NA,"","offCivRatings","the officer shot the civilian in the chest with a beanbag shotgun round","the civilian hit the officer in the chest with a baseball bat","beanbag","ballBat","officerCivilian","appropriateCiv","39","","","",""
"96",1136,"","","instructions",95,727901,"0.0-95.0","at09ahl8x6uj896kqvcd03ampzl3ydrj","Mon Apr 10 2017 14:36:59 GMT-0400 (EDT)","female","Asian","don't know/not political","",NA,"[{""page_index"":0,""viewing_time"":1135}]","break","","","","","","","","","","",""
"97",13540,"{""Q0"":73}","[object Object]","survey-likert",96,741649,"0.0-96.0","at09ahl8x6uj896kqvcd03ampzl3ydrj","Mon Apr 10 2017 14:36:59 GMT-0400 (EDT)","female","Asian","don't know/not political","",NA,"","offCivRatings","the officer said ""if you touch me, you're gonna get hurt"" to the civilian","the civilian purposefully struck the officer with a motor vehicle","hurtThreat","vehicle","officerCivilian","punishCiv","73","","","",""
"98",5470,"{""Q0"":68}","[object Object]","survey-likert",97,747126,"0.0-97.0","at09ahl8x6uj896kqvcd03ampzl3ydrj","Mon Apr 10 2017 14:36:59 GMT-0400 (EDT)","female","Asian","don't know/not political","",NA,"","offCivRatings","the officer said ""if you touch me, you're gonna get hurt"" to the civilian","the civilian purposefully struck the officer with a motor vehicle","hurtThreat","vehicle","officerCivilian","forceCiv","68","","","",""
"99",3222,"{""Q0"":32}","[object Object]","survey-likert",98,750355,"0.0-98.0","at09ahl8x6uj896kqvcd03ampzl3ydrj","Mon Apr 10 2017 14:36:59 GMT-0400 (EDT)","female","Asian","don't know/not political","",NA,"","offCivRatings","the officer said ""if you touch me, you're gonna get hurt"" to the civilian","the civilian purposefully struck the officer with a motor vehicle","hurtThreat","vehicle","officerCivilian","acceptableCiv","32","","","",""
"100",4808,"{""Q0"":3}","[object Object]","survey-likert",99,755168,"0.0-99.0","at09ahl8x6uj896kqvcd03ampzl3ydrj","Mon Apr 10 2017 14:36:59 GMT-0400 (EDT)","female","Asian","don't know/not political","",NA,"","offCivRatings","the officer said ""if you touch me, you're gonna get hurt"" to the civilian","the civilian purposefully struck the officer with a motor vehicle","hurtThreat","vehicle","officerCivilian","manipCheckLow","3","","","",""
"101",6920,"{""Q0"":33}","[object Object]","survey-likert",100,762096,"0.0-100.0","at09ahl8x6uj896kqvcd03ampzl3ydrj","Mon Apr 10 2017 14:36:59 GMT-0400 (EDT)","female","Asian","don't know/not political","",NA,"","offCivRatings","the officer said ""if you touch me, you're gonna get hurt"" to the civilian","the civilian purposefully struck the officer with a motor vehicle","hurtThreat","vehicle","officerCivilian","appropriateCiv","33","","","",""
"102",1241,"","","instructions",101,763337,"0.0-101.0","at09ahl8x6uj896kqvcd03ampzl3ydrj","Mon Apr 10 2017 14:36:59 GMT-0400 (EDT)","female","Asian","don't know/not political","",NA,"[{""page_index"":0,""viewing_time"":1240}]","break","","","","","","","","","","",""
"103",8817,"{""Q0"":72}","[object Object]","survey-likert",102,772363,"0.0-102.0","at09ahl8x6uj896kqvcd03ampzl3ydrj","Mon Apr 10 2017 14:36:59 GMT-0400 (EDT)","female","Asian","don't know/not political","",NA,"","offCivRatings","the officer punched the civilian in the face","the civilian headbutted the officer in the face","punchFace","headbutt","officerCivilian","punishCiv","72","","","",""
"104",4194,"{""Q0"":48}","[object Object]","survey-likert",103,776564,"0.0-103.0","at09ahl8x6uj896kqvcd03ampzl3ydrj","Mon Apr 10 2017 14:36:59 GMT-0400 (EDT)","female","Asian","don't know/not political","",NA,"","offCivRatings","the officer punched the civilian in the face","the civilian headbutted the officer in the face","punchFace","headbutt","officerCivilian","appropriateCiv","48","","","",""
"105",3154,"{""Q0"":71}","[object Object]","survey-likert",104,779723,"0.0-104.0","at09ahl8x6uj896kqvcd03ampzl3ydrj","Mon Apr 10 2017 14:36:59 GMT-0400 (EDT)","female","Asian","don't know/not political","",NA,"","offCivRatings","the officer punched the civilian in the face","the civilian headbutted the officer in the face","punchFace","headbutt","officerCivilian","forceCiv","71","","","",""
"106",2920,"{""Q0"":66}","[object Object]","survey-likert",105,782651,"0.0-105.0","at09ahl8x6uj896kqvcd03ampzl3ydrj","Mon Apr 10 2017 14:36:59 GMT-0400 (EDT)","female","Asian","don't know/not political","",NA,"","offCivRatings","the officer punched the civilian in the face","the civilian headbutted the officer in the face","punchFace","headbutt","officerCivilian","acceptableCiv","66","","","",""
"107",1057,"","","instructions",106,783708,"0.0-106.0","at09ahl8x6uj896kqvcd03ampzl3ydrj","Mon Apr 10 2017 14:36:59 GMT-0400 (EDT)","female","Asian","don't know/not political","",NA,"[{""page_index"":0,""viewing_time"":1056}]","break","","","","","","","","","","",""
"108",7600,"{""Q0"":30}","[object Object]","survey-likert",107,791516,"0.0-107.0","at09ahl8x6uj896kqvcd03ampzl3ydrj","Mon Apr 10 2017 14:36:59 GMT-0400 (EDT)","female","Asian","don't know/not political","",NA,"","offCivRatings","the officer stood near the civilian","the civilian asked the officer how he was doing","stoodNear","asked","officerCivilian","punishCiv","30","","","",""
"109",4651,"{""Q0"":73}","[object Object]","survey-likert",108,796173,"0.0-108.0","at09ahl8x6uj896kqvcd03ampzl3ydrj","Mon Apr 10 2017 14:36:59 GMT-0400 (EDT)","female","Asian","don't know/not political","",NA,"","offCivRatings","the officer stood near the civilian","the civilian asked the officer how he was doing","stoodNear","asked","officerCivilian","appropriateCiv","73","","","",""
"110",4458,"{""Q0"":89}","[object Object]","survey-likert",109,800640,"0.0-109.0","at09ahl8x6uj896kqvcd03ampzl3ydrj","Mon Apr 10 2017 14:36:59 GMT-0400 (EDT)","female","Asian","don't know/not political","",NA,"","offCivRatings","the officer stood near the civilian","the civilian asked the officer how he was doing","stoodNear","asked","officerCivilian","acceptableCiv","89","","","",""
"111",3287,"{""Q0"":2}","[object Object]","survey-likert",110,803936,"0.0-110.0","at09ahl8x6uj896kqvcd03ampzl3ydrj","Mon Apr 10 2017 14:36:59 GMT-0400 (EDT)","female","Asian","don't know/not political","",NA,"","offCivRatings","the officer stood near the civilian","the civilian asked the officer how he was doing","stoodNear","asked","officerCivilian","forceCiv","2","","","",""
"112",1272,"","","instructions",111,805208,"0.0-111.0","at09ahl8x6uj896kqvcd03ampzl3ydrj","Mon Apr 10 2017 14:36:59 GMT-0400 (EDT)","female","Asian","don't know/not political","",NA,"[{""page_index"":0,""viewing_time"":1271}]","break","","","","","","","","","","",""
"113",10969,"{""Q0"":80}","[object Object]","survey-likert",112,816386,"0.0-112.0","at09ahl8x6uj896kqvcd03ampzl3ydrj","Mon Apr 10 2017 14:36:59 GMT-0400 (EDT)","female","Asian","don't know/not political","",NA,"","offCivRatings","the officer shot the civilian in the chest with a handgun","the civilian applied a chokehold to the officer","handgunChest","choke","civilianOfficer","acceptableOff","80","","","",""
"114",3218,"{""Q0"":28}","[object Object]","survey-likert",113,819610,"0.0-113.0","at09ahl8x6uj896kqvcd03ampzl3ydrj","Mon Apr 10 2017 14:36:59 GMT-0400 (EDT)","female","Asian","don't know/not political","",NA,"","offCivRatings","the officer shot the civilian in the chest with a handgun","the civilian applied a chokehold to the officer","handgunChest","choke","civilianOfficer","punishOff","28","","","",""
"115",4235,"{""Q0"":2}","[object Object]","survey-likert",114,823851,"0.0-114.0","at09ahl8x6uj896kqvcd03ampzl3ydrj","Mon Apr 10 2017 14:36:59 GMT-0400 (EDT)","female","Asian","don't know/not political","",NA,"","offCivRatings","the officer shot the civilian in the chest with a handgun","the civilian applied a chokehold to the officer","handgunChest","choke","civilianOfficer","manipCheckLow","2","","","",""
"116",4528,"{""Q0"":76}","[object Object]","survey-likert",115,828385,"0.0-115.0","at09ahl8x6uj896kqvcd03ampzl3ydrj","Mon Apr 10 2017 14:36:59 GMT-0400 (EDT)","female","Asian","don't know/not political","",NA,"","offCivRatings","the officer shot the civilian in the chest with a handgun","the civilian applied a chokehold to the officer","handgunChest","choke","civilianOfficer","appropriateOff","76","","","",""
"117",3432,"{""Q0"":64}","[object Object]","survey-likert",116,831823,"0.0-116.0","at09ahl8x6uj896kqvcd03ampzl3ydrj","Mon Apr 10 2017 14:36:59 GMT-0400 (EDT)","female","Asian","don't know/not political","",NA,"","offCivRatings","the officer shot the civilian in the chest with a handgun","the civilian applied a chokehold to the officer","handgunChest","choke","civilianOfficer","forceOff","64","","","",""
"118",1251,"","","instructions",117,833074,"0.0-117.0","at09ahl8x6uj896kqvcd03ampzl3ydrj","Mon Apr 10 2017 14:36:59 GMT-0400 (EDT)","female","Asian","don't know/not political","",NA,"[{""page_index"":0,""viewing_time"":1251}]","break","","","","","","","","","","",""
"119",7932,"{""Q0"":32}","[object Object]","survey-likert",118,841215,"0.0-118.0","at09ahl8x6uj896kqvcd03ampzl3ydrj","Mon Apr 10 2017 14:36:59 GMT-0400 (EDT)","female","Asian","don't know/not political","",NA,"","offCivRatings","the officer shocked the civilian with a tazer","the civilian shocked the officer with a tazer","tazer","tazer","civilianOfficer","punishOff","32","","","",""
"120",2349,"{""Q0"":67}","[object Object]","survey-likert",119,843570,"0.0-119.0","at09ahl8x6uj896kqvcd03ampzl3ydrj","Mon Apr 10 2017 14:36:59 GMT-0400 (EDT)","female","Asian","don't know/not political","",NA,"","offCivRatings","the officer shocked the civilian with a tazer","the civilian shocked the officer with a tazer","tazer","tazer","civilianOfficer","appropriateOff","67","","","",""
"121",2863,"{""Q0"":70}","[object Object]","survey-likert",120,846440,"0.0-120.0","at09ahl8x6uj896kqvcd03ampzl3ydrj","Mon Apr 10 2017 14:36:59 GMT-0400 (EDT)","female","Asian","don't know/not political","",NA,"","offCivRatings","the officer shocked the civilian with a tazer","the civilian shocked the officer with a tazer","tazer","tazer","civilianOfficer","acceptableOff","70","","","",""
"122",4443,"{""Q0"":99}","[object Object]","survey-likert",121,850891,"0.0-121.0","at09ahl8x6uj896kqvcd03ampzl3ydrj","Mon Apr 10 2017 14:36:59 GMT-0400 (EDT)","female","Asian","don't know/not political","",NA,"","offCivRatings","the officer shocked the civilian with a tazer","the civilian shocked the officer with a tazer","tazer","tazer","civilianOfficer","manipCheckHigh","99","","","",""
"123",6065,"{""Q0"":66}","[object Object]","survey-likert",122,856962,"0.0-122.0","at09ahl8x6uj896kqvcd03ampzl3ydrj","Mon Apr 10 2017 14:36:59 GMT-0400 (EDT)","female","Asian","don't know/not political","",NA,"","offCivRatings","the officer shocked the civilian with a tazer","the civilian shocked the officer with a tazer","tazer","tazer","civilianOfficer","forceOff","66","","","",""
"124",1505,"","","instructions",123,858467,"0.0-123.0","at09ahl8x6uj896kqvcd03ampzl3ydrj","Mon Apr 10 2017 14:36:59 GMT-0400 (EDT)","female","Asian","don't know/not political","",NA,"[{""page_index"":0,""viewing_time"":1505}]","break","","","","","","","","","","",""
"125",17112,"{""Q0"":72}","[object Object]","survey-likert",124,875786,"0.0-124.0","at09ahl8x6uj896kqvcd03ampzl3ydrj","Mon Apr 10 2017 14:36:59 GMT-0400 (EDT)","female","Asian","don't know/not political","",NA,"","policeLegitimacy","","","","","","","72","rightWrong","normAlignment","",""
"126",8027,"{""Q0"":80}","[object Object]","survey-likert",125,883820,"0.0-125.0","at09ahl8x6uj896kqvcd03ampzl3ydrj","Mon Apr 10 2017 14:36:59 GMT-0400 (EDT)","female","Asian","don't know/not political","",NA,"","policeLegitimacy","","","","","","","80","communityWants","normAlignment","",""
"127",7110,"{""Q0"":67}","[object Object]","survey-likert",126,890936,"0.0-126.0","at09ahl8x6uj896kqvcd03ampzl3ydrj","Mon Apr 10 2017 14:36:59 GMT-0400 (EDT)","female","Asian","don't know/not political","",NA,"","policeLegitimacy","","","","","","","67","doReasons","feltObligation","",""
"128",5468,"{""Q0"":32}","[object Object]","survey-likert",127,896411,"0.0-127.0","at09ahl8x6uj896kqvcd03ampzl3ydrj","Mon Apr 10 2017 14:36:59 GMT-0400 (EDT)","female","Asian","don't know/not political","",NA,"","policeLegitimacy","","","","","","","32","support","feltObligation","",""
"129",7526,"{""Q0"":61}","[object Object]","survey-likert",128,903944,"0.0-128.0","at09ahl8x6uj896kqvcd03ampzl3ydrj","Mon Apr 10 2017 14:36:59 GMT-0400 (EDT)","female","Asian","don't know/not political","",NA,"","policeLegitimacy","","","","","","","61","doTreat","feltObligation","",""
"130",4917,"{""Q0"":62}","[object Object]","survey-likert",129,908867,"0.0-129.0","at09ahl8x6uj896kqvcd03ampzl3ydrj","Mon Apr 10 2017 14:36:59 GMT-0400 (EDT)","female","Asian","don't know/not political","",NA,"","policeLegitimacy","","","","","","","62","importantValues","normAlignment","",""
"131",9543,"{""Q0"":""no""}","[object Object]","survey-multi-choice2",130,918416,"0.0-130.0","at09ahl8x6uj896kqvcd03ampzl3ydrj","Mon Apr 10 2017 14:36:59 GMT-0400 (EDT)","female","Asian","don't know/not political","",NA,"","policeExperience","","","","","","","no","stopped","","vicarious","Has anyone in your household ever been stopped on the street by the police without good reason?"
"132",4827,"{""Q0"":""no""}","[object Object]","survey-multi-choice2",131,923246,"0.0-131.0","at09ahl8x6uj896kqvcd03ampzl3ydrj","Mon Apr 10 2017 14:36:59 GMT-0400 (EDT)","female","Asian","don't know/not political","",NA,"","policeExperience","","","","","","","no","corrupt","","personal","Have you ever seen a police officer engage in any corrupt activities (e.g., taking bribes or involvement in the drug trade)?"
"133",4102,"{""Q0"":""no""}","[object Object]","survey-multi-choice2",132,927351,"0.0-132.0","at09ahl8x6uj896kqvcd03ampzl3ydrj","Mon Apr 10 2017 14:36:59 GMT-0400 (EDT)","female","Asian","don't know/not political","",NA,"","policeExperience","","","","","","","no","excessForce","","vicarious","Have the police ever used excessive force against anyone in your household?"
"134",2784,"{""Q0"":""no""}","[object Object]","survey-multi-choice2",133,930138,"0.0-133.0","at09ahl8x6uj896kqvcd03ampzl3ydrj","Mon Apr 10 2017 14:36:59 GMT-0400 (EDT)","female","Asian","don't know/not political","",NA,"","policeExperience","","","","","","","no","insultLang","","vicarious","Have the police ever used insulting language toward anyone in your household?"
"135",2348,"{""Q0"":""no""}","[object Object]","survey-multi-choice2",134,932489,"0.0-134.0","at09ahl8x6uj896kqvcd03ampzl3ydrj","Mon Apr 10 2017 14:36:59 GMT-0400 (EDT)","female","Asian","don't know/not political","",NA,"","policeExperience","","","","","","","no","stopped","","personal","Have you ever been stopped by the police on the street without good reason?"
"136",3365,"{""Q0"":""no""}","[object Object]","survey-multi-choice2",135,935857,"0.0-135.0","at09ahl8x6uj896kqvcd03ampzl3ydrj","Mon Apr 10 2017 14:36:59 GMT-0400 (EDT)","female","Asian","don't know/not political","",NA,"","policeExperience","","","","","","","no","excessForce","","personal","Have the police ever used excessive force against you?"
"137",1775,"{""Q0"":""no""}","[object Object]","survey-multi-choice2",136,937635,"0.0-136.0","at09ahl8x6uj896kqvcd03ampzl3ydrj","Mon Apr 10 2017 14:36:59 GMT-0400 (EDT)","female","Asian","don't know/not political","",NA,"","policeExperience","","","","","","","no","insultLang","","personal","Have the police ever used insulting language toward you?"
"138",11817,"{""Q0"":""female"",""Q1"":""Asian"",""Q2"":""don't know/not political""}","[object Object]","survey-multi-choice",137,949464,"0.0-137.0","at09ahl8x6uj896kqvcd03ampzl3ydrj","Mon Apr 10 2017 14:36:59 GMT-0400 (EDT)","female","Asian","don't know/not political","",NA,"","demographics","","","","","","","","","","",""
"139",4348,"","","instructions",138,954814,"0.0-138.0","at09ahl8x6uj896kqvcd03ampzl3ydrj","Mon Apr 10 2017 14:36:59 GMT-0400 (EDT)","female","Asian","don't know/not political","",NA,"[{""page_index"":0,""viewing_time"":1452},{""page_index"":1,""viewing_time"":1338},{""page_index"":2,""viewing_time"":556},{""page_index"":3,""viewing_time"":1001}]","debriefing","","","","","","","","","","",""
