"","rt","responses","internalResp","trial_type","trial_index","time_elapsed","internal_node_id","randSubjectID","date","sex","race","polAff","stimulus","key_press","view_history","questionType","officerAction","civilianAction","offActName","civActName","order","questionName","response","name","dimension","person","question"
"1",6236,"","[object Object]","survey-text",0,6258,"0.0-0.0","b4gk72xtcfpsqeya30ug8l7hvvypvhhs","Tue Jan 31 2017 22:27:40 GMT-0500 (EST)","female","White","slightly conservative","",NA,"","","","","","","","","","","","",""
"2",8201,"","","single-stim",1,15470,"0.0-1.0","b4gk72xtcfpsqeya30ug8l7hvvypvhhs","Tue Jan 31 2017 22:27:40 GMT-0500 (EST)","female","White","slightly conservative","<img src='static/images/1602685960_ICS_Credit-0.png' alt='Consent 1' height=1100 width=850><img src='static/images/1602685960_ICS_Credit-1.png' alt='Consent 2' height=1100 width=850></p>",89,"","","","","","","","","","","","",""
"3",2219,"","","instructions",2,18694,"0.0-2.0","b4gk72xtcfpsqeya30ug8l7hvvypvhhs","Tue Jan 31 2017 22:27:40 GMT-0500 (EST)","female","White","slightly conservative","",NA,"[{""page_index"":0,""viewing_time"":2217}]","instructions","","","","","","","","","","",""
"4",123112,"","","instructions",3,142807,"0.0-3.0","b4gk72xtcfpsqeya30ug8l7hvvypvhhs","Tue Jan 31 2017 22:27:40 GMT-0500 (EST)","female","White","slightly conservative","",NA,"[{""page_index"":0,""viewing_time"":38708},{""page_index"":1,""viewing_time"":13391},{""page_index"":2,""viewing_time"":56788},{""page_index"":3,""viewing_time"":14224}]","instructions","","","","","","","","","","",""
"5",29672,"{""Q0"":3}","[object Object]","survey-likert",4,173591,"0.0-4.0","b4gk72xtcfpsqeya30ug8l7hvvypvhhs","Tue Jan 31 2017 22:27:40 GMT-0500 (EST)","female","White","slightly conservative","",NA,"","offCivRatings","the officer slammed the civilian's head into the concrete curb","the civilian called the officer a ""pig""","headSlam","nameCall","civilianOfficer","acceptableOff","3","","","",""
"6",6917,"{""Q0"":89}","[object Object]","survey-likert",5,180537,"0.0-5.0","b4gk72xtcfpsqeya30ug8l7hvvypvhhs","Tue Jan 31 2017 22:27:40 GMT-0500 (EST)","female","White","slightly conservative","",NA,"","offCivRatings","the officer slammed the civilian's head into the concrete curb","the civilian called the officer a ""pig""","headSlam","nameCall","civilianOfficer","punishOff","89","","","",""
"7",11305,"{""Q0"":95}","[object Object]","survey-likert",6,191870,"0.0-6.0","b4gk72xtcfpsqeya30ug8l7hvvypvhhs","Tue Jan 31 2017 22:27:40 GMT-0500 (EST)","female","White","slightly conservative","",NA,"","offCivRatings","the officer slammed the civilian's head into the concrete curb","the civilian called the officer a ""pig""","headSlam","nameCall","civilianOfficer","appropriateOff","95","","","",""
"8",10448,"{""Q0"":2}","[object Object]","survey-likert",7,202355,"0.0-7.0","b4gk72xtcfpsqeya30ug8l7hvvypvhhs","Tue Jan 31 2017 22:27:40 GMT-0500 (EST)","female","White","slightly conservative","",NA,"","offCivRatings","the officer slammed the civilian's head into the concrete curb","the civilian called the officer a ""pig""","headSlam","nameCall","civilianOfficer","manipCheckLow","2","","","",""
"9",8494,"{""Q0"":100}","[object Object]","survey-likert",8,210885,"0.0-8.0","b4gk72xtcfpsqeya30ug8l7hvvypvhhs","Tue Jan 31 2017 22:27:40 GMT-0500 (EST)","female","White","slightly conservative","",NA,"","offCivRatings","the officer slammed the civilian's head into the concrete curb","the civilian called the officer a ""pig""","headSlam","nameCall","civilianOfficer","forceOff","100","","","",""
"10",1389,"","","instructions",9,212277,"0.0-9.0","b4gk72xtcfpsqeya30ug8l7hvvypvhhs","Tue Jan 31 2017 22:27:40 GMT-0500 (EST)","female","White","slightly conservative","",NA,"[{""page_index"":0,""viewing_time"":1387}]","break","","","","","","","","","","",""
"11",15336,"{""Q0"":2}","[object Object]","survey-likert",10,227867,"0.0-10.0","b4gk72xtcfpsqeya30ug8l7hvvypvhhs","Tue Jan 31 2017 22:27:40 GMT-0500 (EST)","female","White","slightly conservative","",NA,"","offCivRatings","the officer yelled ""get back!"" at the civilian","the civilian hit the officer in the chest with a baseball bat","getBack","ballBat","civilianOfficer","punishOff","2","","","",""
"12",8469,"{""Q0"":56}","[object Object]","survey-likert",11,236377,"0.0-11.0","b4gk72xtcfpsqeya30ug8l7hvvypvhhs","Tue Jan 31 2017 22:27:40 GMT-0500 (EST)","female","White","slightly conservative","",NA,"","offCivRatings","the officer yelled ""get back!"" at the civilian","the civilian hit the officer in the chest with a baseball bat","getBack","ballBat","civilianOfficer","forceOff","56","","","",""
"13",4139,"{""Q0"":99}","[object Object]","survey-likert",12,240550,"0.0-12.0","b4gk72xtcfpsqeya30ug8l7hvvypvhhs","Tue Jan 31 2017 22:27:40 GMT-0500 (EST)","female","White","slightly conservative","",NA,"","offCivRatings","the officer yelled ""get back!"" at the civilian","the civilian hit the officer in the chest with a baseball bat","getBack","ballBat","civilianOfficer","acceptableOff","99","","","",""
"14",5418,"{""Q0"":17}","[object Object]","survey-likert",13,245990,"0.0-13.0","b4gk72xtcfpsqeya30ug8l7hvvypvhhs","Tue Jan 31 2017 22:27:40 GMT-0500 (EST)","female","White","slightly conservative","",NA,"","offCivRatings","the officer yelled ""get back!"" at the civilian","the civilian hit the officer in the chest with a baseball bat","getBack","ballBat","civilianOfficer","appropriateOff","17","","","",""
"15",1525,"","","instructions",14,247517,"0.0-14.0","b4gk72xtcfpsqeya30ug8l7hvvypvhhs","Tue Jan 31 2017 22:27:40 GMT-0500 (EST)","female","White","slightly conservative","",NA,"[{""page_index"":0,""viewing_time"":1524}]","break","","","","","","","","","","",""
"16",15041,"{""Q0"":53}","[object Object]","survey-likert",15,262782,"0.0-15.0","b4gk72xtcfpsqeya30ug8l7hvvypvhhs","Tue Jan 31 2017 22:27:40 GMT-0500 (EST)","female","White","slightly conservative","",NA,"","offCivRatings","the officer shocked the civilian with a tazer","the civilian yelled ""get back!"" at the officer","tazer","getBack","officerCivilian","forceCiv","53","","","",""
"17",4617,"{""Q0"":1}","[object Object]","survey-likert",16,267423,"0.0-16.0","b4gk72xtcfpsqeya30ug8l7hvvypvhhs","Tue Jan 31 2017 22:27:40 GMT-0500 (EST)","female","White","slightly conservative","",NA,"","offCivRatings","the officer shocked the civilian with a tazer","the civilian yelled ""get back!"" at the officer","tazer","getBack","officerCivilian","punishCiv","1","","","",""
"18",6403,"{""Q0"":99}","[object Object]","survey-likert",17,273859,"0.0-17.0","b4gk72xtcfpsqeya30ug8l7hvvypvhhs","Tue Jan 31 2017 22:27:40 GMT-0500 (EST)","female","White","slightly conservative","",NA,"","offCivRatings","the officer shocked the civilian with a tazer","the civilian yelled ""get back!"" at the officer","tazer","getBack","officerCivilian","acceptableCiv","99","","","",""
"19",8487,"{""Q0"":40}","[object Object]","survey-likert",18,282385,"0.0-18.0","b4gk72xtcfpsqeya30ug8l7hvvypvhhs","Tue Jan 31 2017 22:27:40 GMT-0500 (EST)","female","White","slightly conservative","",NA,"","offCivRatings","the officer shocked the civilian with a tazer","the civilian yelled ""get back!"" at the officer","tazer","getBack","officerCivilian","appropriateCiv","40","","","",""
"20",1691,"","","instructions",19,284076,"0.0-19.0","b4gk72xtcfpsqeya30ug8l7hvvypvhhs","Tue Jan 31 2017 22:27:40 GMT-0500 (EST)","female","White","slightly conservative","",NA,"[{""page_index"":0,""viewing_time"":1690}]","break","","","","","","","","","","",""
"21",16690,"{""Q0"":99}","[object Object]","survey-likert",20,301010,"0.0-20.0","b4gk72xtcfpsqeya30ug8l7hvvypvhhs","Tue Jan 31 2017 22:27:40 GMT-0500 (EST)","female","White","slightly conservative","",NA,"","offCivRatings","the officer stood near the civilian","the civilian shot the officer in the head with a handgun","stoodNear","handgunHead","officerCivilian","punishCiv","99","","","",""
"22",4320,"{""Q0"":100}","[object Object]","survey-likert",21,305369,"0.0-21.0","b4gk72xtcfpsqeya30ug8l7hvvypvhhs","Tue Jan 31 2017 22:27:40 GMT-0500 (EST)","female","White","slightly conservative","",NA,"","offCivRatings","the officer stood near the civilian","the civilian shot the officer in the head with a handgun","stoodNear","handgunHead","officerCivilian","manipCheckHigh","100","","","",""
"23",4350,"{""Q0"":1}","[object Object]","survey-likert",22,309767,"0.0-22.0","b4gk72xtcfpsqeya30ug8l7hvvypvhhs","Tue Jan 31 2017 22:27:40 GMT-0500 (EST)","female","White","slightly conservative","",NA,"","offCivRatings","the officer stood near the civilian","the civilian shot the officer in the head with a handgun","stoodNear","handgunHead","officerCivilian","acceptableCiv","1","","","",""
"24",4168,"{""Q0"":100}","[object Object]","survey-likert",23,313967,"0.0-23.0","b4gk72xtcfpsqeya30ug8l7hvvypvhhs","Tue Jan 31 2017 22:27:40 GMT-0500 (EST)","female","White","slightly conservative","",NA,"","offCivRatings","the officer stood near the civilian","the civilian shot the officer in the head with a handgun","stoodNear","handgunHead","officerCivilian","appropriateCiv","100","","","",""
"25",4687,"{""Q0"":99}","[object Object]","survey-likert",24,318673,"0.0-24.0","b4gk72xtcfpsqeya30ug8l7hvvypvhhs","Tue Jan 31 2017 22:27:40 GMT-0500 (EST)","female","White","slightly conservative","",NA,"","offCivRatings","the officer stood near the civilian","the civilian shot the officer in the head with a handgun","stoodNear","handgunHead","officerCivilian","forceCiv","99","","","",""
"26",1564,"","","instructions",25,320237,"0.0-25.0","b4gk72xtcfpsqeya30ug8l7hvvypvhhs","Tue Jan 31 2017 22:27:40 GMT-0500 (EST)","female","White","slightly conservative","",NA,"[{""page_index"":0,""viewing_time"":1563}]","break","","","","","","","","","","",""
"27",11494,"{""Q0"":50}","[object Object]","survey-likert",26,331953,"0.0-26.0","b4gk72xtcfpsqeya30ug8l7hvvypvhhs","Tue Jan 31 2017 22:27:40 GMT-0500 (EST)","female","White","slightly conservative","",NA,"","offCivRatings","the officer punched the civilian in the face","the civilian twisted the arm of the officer, forcing him to the ground","punchFace","armbar","officerCivilian","acceptableCiv","50","","","",""
"28",4843,"{""Q0"":53}","[object Object]","survey-likert",27,336828,"0.0-27.0","b4gk72xtcfpsqeya30ug8l7hvvypvhhs","Tue Jan 31 2017 22:27:40 GMT-0500 (EST)","female","White","slightly conservative","",NA,"","offCivRatings","the officer punched the civilian in the face","the civilian twisted the arm of the officer, forcing him to the ground","punchFace","armbar","officerCivilian","forceCiv","53","","","",""
"29",8006,"{""Q0"":55}","[object Object]","survey-likert",28,344853,"0.0-28.0","b4gk72xtcfpsqeya30ug8l7hvvypvhhs","Tue Jan 31 2017 22:27:40 GMT-0500 (EST)","female","White","slightly conservative","",NA,"","offCivRatings","the officer punched the civilian in the face","the civilian twisted the arm of the officer, forcing him to the ground","punchFace","armbar","officerCivilian","appropriateCiv","55","","","",""
"30",5473,"{""Q0"":38}","[object Object]","survey-likert",29,350345,"0.0-29.0","b4gk72xtcfpsqeya30ug8l7hvvypvhhs","Tue Jan 31 2017 22:27:40 GMT-0500 (EST)","female","White","slightly conservative","",NA,"","offCivRatings","the officer punched the civilian in the face","the civilian twisted the arm of the officer, forcing him to the ground","punchFace","armbar","officerCivilian","punishCiv","38","","","",""
"31",1423,"","","instructions",30,351768,"0.0-30.0","b4gk72xtcfpsqeya30ug8l7hvvypvhhs","Tue Jan 31 2017 22:27:40 GMT-0500 (EST)","female","White","slightly conservative","",NA,"[{""page_index"":0,""viewing_time"":1423}]","break","","","","","","","","","","",""
"32",16046,"{""Q0"":87}","[object Object]","survey-likert",31,368031,"0.0-31.0","b4gk72xtcfpsqeya30ug8l7hvvypvhhs","Tue Jan 31 2017 22:27:40 GMT-0500 (EST)","female","White","slightly conservative","",NA,"","offCivRatings","the officer kicked the civilian in the stomach","the civilian purposefully struck the officer with a motor vehicle","kickStom","vehicle","civilianOfficer","forceOff","87","","","",""
"33",6594,"{""Q0"":56}","[object Object]","survey-likert",32,374646,"0.0-32.0","b4gk72xtcfpsqeya30ug8l7hvvypvhhs","Tue Jan 31 2017 22:27:40 GMT-0500 (EST)","female","White","slightly conservative","",NA,"","offCivRatings","the officer kicked the civilian in the stomach","the civilian purposefully struck the officer with a motor vehicle","kickStom","vehicle","civilianOfficer","acceptableOff","56","","","",""
"34",6446,"{""Q0"":41}","[object Object]","survey-likert",33,381124,"0.0-33.0","b4gk72xtcfpsqeya30ug8l7hvvypvhhs","Tue Jan 31 2017 22:27:40 GMT-0500 (EST)","female","White","slightly conservative","",NA,"","offCivRatings","the officer kicked the civilian in the stomach","the civilian purposefully struck the officer with a motor vehicle","kickStom","vehicle","civilianOfficer","punishOff","41","","","",""
"35",4396,"{""Q0"":53}","[object Object]","survey-likert",34,385546,"0.0-34.0","b4gk72xtcfpsqeya30ug8l7hvvypvhhs","Tue Jan 31 2017 22:27:40 GMT-0500 (EST)","female","White","slightly conservative","",NA,"","offCivRatings","the officer kicked the civilian in the stomach","the civilian purposefully struck the officer with a motor vehicle","kickStom","vehicle","civilianOfficer","appropriateOff","53","","","",""
"36",1358,"","","instructions",35,386905,"0.0-35.0","b4gk72xtcfpsqeya30ug8l7hvvypvhhs","Tue Jan 31 2017 22:27:40 GMT-0500 (EST)","female","White","slightly conservative","",NA,"[{""page_index"":0,""viewing_time"":1357}]","break","","","","","","","","","","",""
"37",10815,"{""Q0"":20}","[object Object]","survey-likert",36,397938,"0.0-36.0","b4gk72xtcfpsqeya30ug8l7hvvypvhhs","Tue Jan 31 2017 22:27:40 GMT-0500 (EST)","female","White","slightly conservative","",NA,"","offCivRatings","the officer called the civilian a ""thug""","the civilian applied a chokehold to the officer","nameCall","choke","civilianOfficer","punishOff","20","","","",""
"38",6263,"{""Q0"":100}","[object Object]","survey-likert",37,404227,"0.0-37.0","b4gk72xtcfpsqeya30ug8l7hvvypvhhs","Tue Jan 31 2017 22:27:40 GMT-0500 (EST)","female","White","slightly conservative","",NA,"","offCivRatings","the officer called the civilian a ""thug""","the civilian applied a chokehold to the officer","nameCall","choke","civilianOfficer","manipCheckHigh","100","","","",""
"39",9557,"{""Q0"":28}","[object Object]","survey-likert",38,413826,"0.0-38.0","b4gk72xtcfpsqeya30ug8l7hvvypvhhs","Tue Jan 31 2017 22:27:40 GMT-0500 (EST)","female","White","slightly conservative","",NA,"","offCivRatings","the officer called the civilian a ""thug""","the civilian applied a chokehold to the officer","nameCall","choke","civilianOfficer","appropriateOff","28","","","",""
"40",5804,"{""Q0"":19}","[object Object]","survey-likert",39,419654,"0.0-39.0","b4gk72xtcfpsqeya30ug8l7hvvypvhhs","Tue Jan 31 2017 22:27:40 GMT-0500 (EST)","female","White","slightly conservative","",NA,"","offCivRatings","the officer called the civilian a ""thug""","the civilian applied a chokehold to the officer","nameCall","choke","civilianOfficer","forceOff","19","","","",""
"41",6403,"{""Q0"":84}","[object Object]","survey-likert",40,426082,"0.0-40.0","b4gk72xtcfpsqeya30ug8l7hvvypvhhs","Tue Jan 31 2017 22:27:40 GMT-0500 (EST)","female","White","slightly conservative","",NA,"","offCivRatings","the officer called the civilian a ""thug""","the civilian applied a chokehold to the officer","nameCall","choke","civilianOfficer","acceptableOff","84","","","",""
"42",1513,"","","instructions",41,427596,"0.0-41.0","b4gk72xtcfpsqeya30ug8l7hvvypvhhs","Tue Jan 31 2017 22:27:40 GMT-0500 (EST)","female","White","slightly conservative","",NA,"[{""page_index"":0,""viewing_time"":1512}]","break","","","","","","","","","","",""
"43",9190,"{""Q0"":100}","[object Object]","survey-likert",42,437015,"0.0-42.0","b4gk72xtcfpsqeya30ug8l7hvvypvhhs","Tue Jan 31 2017 22:27:40 GMT-0500 (EST)","female","White","slightly conservative","",NA,"","offCivRatings","the officer purposefully struck the civilian with a motor vehicle","the civilian pulled away from the officer","vehicle","pulledAway","officerCivilian","acceptableCiv","100","","","",""
"44",4996,"{""Q0"":1}","[object Object]","survey-likert",43,442044,"0.0-43.0","b4gk72xtcfpsqeya30ug8l7hvvypvhhs","Tue Jan 31 2017 22:27:40 GMT-0500 (EST)","female","White","slightly conservative","",NA,"","offCivRatings","the officer purposefully struck the civilian with a motor vehicle","the civilian pulled away from the officer","vehicle","pulledAway","officerCivilian","appropriateCiv","1","","","",""
"45",11691,"{""Q0"":1}","[object Object]","survey-likert",44,453761,"0.0-44.0","b4gk72xtcfpsqeya30ug8l7hvvypvhhs","Tue Jan 31 2017 22:27:40 GMT-0500 (EST)","female","White","slightly conservative","",NA,"","offCivRatings","the officer purposefully struck the civilian with a motor vehicle","the civilian pulled away from the officer","vehicle","pulledAway","officerCivilian","punishCiv","1","","","",""
"46",9736,"{""Q0"":1}","[object Object]","survey-likert",45,463532,"0.0-45.0","b4gk72xtcfpsqeya30ug8l7hvvypvhhs","Tue Jan 31 2017 22:27:40 GMT-0500 (EST)","female","White","slightly conservative","",NA,"","offCivRatings","the officer purposefully struck the civilian with a motor vehicle","the civilian pulled away from the officer","vehicle","pulledAway","officerCivilian","forceCiv","1","","","",""
"47",1370,"","","instructions",46,464903,"0.0-46.0","b4gk72xtcfpsqeya30ug8l7hvvypvhhs","Tue Jan 31 2017 22:27:40 GMT-0500 (EST)","female","White","slightly conservative","",NA,"[{""page_index"":0,""viewing_time"":1368}]","break","","","","","","","","","","",""
"48",10106,"{""Q0"":99}","[object Object]","survey-likert",47,475247,"0.0-47.0","b4gk72xtcfpsqeya30ug8l7hvvypvhhs","Tue Jan 31 2017 22:27:40 GMT-0500 (EST)","female","White","slightly conservative","",NA,"","offCivRatings","the officer put handcuffs on the civilian","the civilian headbutted the officer in the face","handcuff","headbutt","officerCivilian","appropriateCiv","99","","","",""
"49",6472,"{""Q0"":6}","[object Object]","survey-likert",48,481758,"0.0-48.0","b4gk72xtcfpsqeya30ug8l7hvvypvhhs","Tue Jan 31 2017 22:27:40 GMT-0500 (EST)","female","White","slightly conservative","",NA,"","offCivRatings","the officer put handcuffs on the civilian","the civilian headbutted the officer in the face","handcuff","headbutt","officerCivilian","acceptableCiv","6","","","",""
"50",7173,"{""Q0"":61}","[object Object]","survey-likert",49,488968,"0.0-49.0","b4gk72xtcfpsqeya30ug8l7hvvypvhhs","Tue Jan 31 2017 22:27:40 GMT-0500 (EST)","female","White","slightly conservative","",NA,"","offCivRatings","the officer put handcuffs on the civilian","the civilian headbutted the officer in the face","handcuff","headbutt","officerCivilian","punishCiv","61","","","",""
"51",3086,"{""Q0"":64}","[object Object]","survey-likert",50,492092,"0.0-50.0","b4gk72xtcfpsqeya30ug8l7hvvypvhhs","Tue Jan 31 2017 22:27:40 GMT-0500 (EST)","female","White","slightly conservative","",NA,"","offCivRatings","the officer put handcuffs on the civilian","the civilian headbutted the officer in the face","handcuff","headbutt","officerCivilian","forceCiv","64","","","",""
"52",2047,"","","instructions",51,494140,"0.0-51.0","b4gk72xtcfpsqeya30ug8l7hvvypvhhs","Tue Jan 31 2017 22:27:40 GMT-0500 (EST)","female","White","slightly conservative","",NA,"[{""page_index"":0,""viewing_time"":2045}]","break","","","","","","","","","","",""
"53",9345,"{""Q0"":38}","[object Object]","survey-likert",52,503713,"0.0-52.0","b4gk72xtcfpsqeya30ug8l7hvvypvhhs","Tue Jan 31 2017 22:27:40 GMT-0500 (EST)","female","White","slightly conservative","",NA,"","offCivRatings","the officer struck the civilian in the stomach with a metal flashlight","the civilian punched the officer in the face","flashlight","punchFace","officerCivilian","acceptableCiv","38","","","",""
"54",2681,"{""Q0"":60}","[object Object]","survey-likert",53,506428,"0.0-53.0","b4gk72xtcfpsqeya30ug8l7hvvypvhhs","Tue Jan 31 2017 22:27:40 GMT-0500 (EST)","female","White","slightly conservative","",NA,"","offCivRatings","the officer struck the civilian in the stomach with a metal flashlight","the civilian punched the officer in the face","flashlight","punchFace","officerCivilian","forceCiv","60","","","",""
"55",4408,"{""Q0"":100}","[object Object]","survey-likert",54,510867,"0.0-54.0","b4gk72xtcfpsqeya30ug8l7hvvypvhhs","Tue Jan 31 2017 22:27:40 GMT-0500 (EST)","female","White","slightly conservative","",NA,"","offCivRatings","the officer struck the civilian in the stomach with a metal flashlight","the civilian punched the officer in the face","flashlight","punchFace","officerCivilian","manipCheckHigh","100","","","",""
"56",9504,"{""Q0"":71}","[object Object]","survey-likert",55,520395,"0.0-55.0","b4gk72xtcfpsqeya30ug8l7hvvypvhhs","Tue Jan 31 2017 22:27:40 GMT-0500 (EST)","female","White","slightly conservative","",NA,"","offCivRatings","the officer struck the civilian in the stomach with a metal flashlight","the civilian punched the officer in the face","flashlight","punchFace","officerCivilian","appropriateCiv","71","","","",""
"57",9009,"{""Q0"":61}","[object Object]","survey-likert",56,529435,"0.0-56.0","b4gk72xtcfpsqeya30ug8l7hvvypvhhs","Tue Jan 31 2017 22:27:40 GMT-0500 (EST)","female","White","slightly conservative","",NA,"","offCivRatings","the officer struck the civilian in the stomach with a metal flashlight","the civilian punched the officer in the face","flashlight","punchFace","officerCivilian","punishCiv","61","","","",""
"58",1528,"","","instructions",57,530964,"0.0-57.0","b4gk72xtcfpsqeya30ug8l7hvvypvhhs","Tue Jan 31 2017 22:27:40 GMT-0500 (EST)","female","White","slightly conservative","",NA,"[{""page_index"":0,""viewing_time"":1527}]","break","","","","","","","","","","",""
"59",9387,"{""Q0"":99}","[object Object]","survey-likert",58,540570,"0.0-58.0","b4gk72xtcfpsqeya30ug8l7hvvypvhhs","Tue Jan 31 2017 22:27:40 GMT-0500 (EST)","female","White","slightly conservative","",NA,"","offCivRatings","the officer shot the civilian in the head with a handgun","the civilian said ""if you touch me, you're gonna get hurt"" to the officer","handgunHead","hurtThreat","civilianOfficer","punishOff","99","","","",""
"60",4556,"{""Q0"":2}","[object Object]","survey-likert",59,545144,"0.0-59.0","b4gk72xtcfpsqeya30ug8l7hvvypvhhs","Tue Jan 31 2017 22:27:40 GMT-0500 (EST)","female","White","slightly conservative","",NA,"","offCivRatings","the officer shot the civilian in the head with a handgun","the civilian said ""if you touch me, you're gonna get hurt"" to the officer","handgunHead","hurtThreat","civilianOfficer","acceptableOff","2","","","",""
"61",5182,"{""Q0"":99}","[object Object]","survey-likert",60,550344,"0.0-60.0","b4gk72xtcfpsqeya30ug8l7hvvypvhhs","Tue Jan 31 2017 22:27:40 GMT-0500 (EST)","female","White","slightly conservative","",NA,"","offCivRatings","the officer shot the civilian in the head with a handgun","the civilian said ""if you touch me, you're gonna get hurt"" to the officer","handgunHead","hurtThreat","civilianOfficer","appropriateOff","99","","","",""
"62",3852,"{""Q0"":100}","[object Object]","survey-likert",61,554216,"0.0-61.0","b4gk72xtcfpsqeya30ug8l7hvvypvhhs","Tue Jan 31 2017 22:27:40 GMT-0500 (EST)","female","White","slightly conservative","",NA,"","offCivRatings","the officer shot the civilian in the head with a handgun","the civilian said ""if you touch me, you're gonna get hurt"" to the officer","handgunHead","hurtThreat","civilianOfficer","forceOff","100","","","",""
"63",2244,"","","instructions",62,556460,"0.0-62.0","b4gk72xtcfpsqeya30ug8l7hvvypvhhs","Tue Jan 31 2017 22:27:40 GMT-0500 (EST)","female","White","slightly conservative","",NA,"[{""page_index"":0,""viewing_time"":2241}]","break","","","","","","","","","","",""
"64",6536,"{""Q0"":99}","[object Object]","survey-likert",63,563225,"0.0-63.0","b4gk72xtcfpsqeya30ug8l7hvvypvhhs","Tue Jan 31 2017 22:27:40 GMT-0500 (EST)","female","White","slightly conservative","",NA,"","offCivRatings","the officer struck the civilian on the leg with a collapsible baton","the civilian struck the officer in the stomach with a metal flashlight","batonLeg","flashlight","civilianOfficer","manipCheckHigh","99","","","",""
"65",17495,"{""Q0"":84}","[object Object]","survey-likert",64,580739,"0.0-64.0","b4gk72xtcfpsqeya30ug8l7hvvypvhhs","Tue Jan 31 2017 22:27:40 GMT-0500 (EST)","female","White","slightly conservative","",NA,"","offCivRatings","the officer struck the civilian on the leg with a collapsible baton","the civilian struck the officer in the stomach with a metal flashlight","batonLeg","flashlight","civilianOfficer","acceptableOff","84","","","",""
"66",5382,"{""Q0"":50}","[object Object]","survey-likert",65,586141,"0.0-65.0","b4gk72xtcfpsqeya30ug8l7hvvypvhhs","Tue Jan 31 2017 22:27:40 GMT-0500 (EST)","female","White","slightly conservative","",NA,"","offCivRatings","the officer struck the civilian on the leg with a collapsible baton","the civilian struck the officer in the stomach with a metal flashlight","batonLeg","flashlight","civilianOfficer","appropriateOff","50","","","",""
"67",7116,"{""Q0"":2}","[object Object]","survey-likert",66,593279,"0.0-66.0","b4gk72xtcfpsqeya30ug8l7hvvypvhhs","Tue Jan 31 2017 22:27:40 GMT-0500 (EST)","female","White","slightly conservative","",NA,"","offCivRatings","the officer struck the civilian on the leg with a collapsible baton","the civilian struck the officer in the stomach with a metal flashlight","batonLeg","flashlight","civilianOfficer","punishOff","2","","","",""
"68",6942,"{""Q0"":28}","[object Object]","survey-likert",67,600251,"0.0-67.0","b4gk72xtcfpsqeya30ug8l7hvvypvhhs","Tue Jan 31 2017 22:27:40 GMT-0500 (EST)","female","White","slightly conservative","",NA,"","offCivRatings","the officer struck the civilian on the leg with a collapsible baton","the civilian struck the officer in the stomach with a metal flashlight","batonLeg","flashlight","civilianOfficer","forceOff","28","","","",""
"69",2039,"","","instructions",68,602290,"0.0-68.0","b4gk72xtcfpsqeya30ug8l7hvvypvhhs","Tue Jan 31 2017 22:27:40 GMT-0500 (EST)","female","White","slightly conservative","",NA,"[{""page_index"":0,""viewing_time"":2038}]","break","","","","","","","","","","",""
"70",14337,"{""Q0"":40}","[object Object]","survey-likert",69,616849,"0.0-69.0","b4gk72xtcfpsqeya30ug8l7hvvypvhhs","Tue Jan 31 2017 22:27:40 GMT-0500 (EST)","female","White","slightly conservative","",NA,"","offCivRatings","the officer sprayed the civilian with pepper spray","the civilian shouted ""I don't have to fucking listen to you!"" at the officer","pepperSpray","dontListen","officerCivilian","acceptableCiv","40","","","",""
"71",3594,"{""Q0"":100}","[object Object]","survey-likert",70,620481,"0.0-70.0","b4gk72xtcfpsqeya30ug8l7hvvypvhhs","Tue Jan 31 2017 22:27:40 GMT-0500 (EST)","female","White","slightly conservative","",NA,"","offCivRatings","the officer sprayed the civilian with pepper spray","the civilian shouted ""I don't have to fucking listen to you!"" at the officer","pepperSpray","dontListen","officerCivilian","manipCheckHigh","100","","","",""
"72",4611,"{""Q0"":32}","[object Object]","survey-likert",71,625126,"0.0-71.0","b4gk72xtcfpsqeya30ug8l7hvvypvhhs","Tue Jan 31 2017 22:27:40 GMT-0500 (EST)","female","White","slightly conservative","",NA,"","offCivRatings","the officer sprayed the civilian with pepper spray","the civilian shouted ""I don't have to fucking listen to you!"" at the officer","pepperSpray","dontListen","officerCivilian","forceCiv","32","","","",""
"73",3230,"{""Q0"":12}","[object Object]","survey-likert",72,628393,"0.0-72.0","b4gk72xtcfpsqeya30ug8l7hvvypvhhs","Tue Jan 31 2017 22:27:40 GMT-0500 (EST)","female","White","slightly conservative","",NA,"","offCivRatings","the officer sprayed the civilian with pepper spray","the civilian shouted ""I don't have to fucking listen to you!"" at the officer","pepperSpray","dontListen","officerCivilian","punishCiv","12","","","",""
"74",3471,"{""Q0"":66}","[object Object]","survey-likert",73,631894,"0.0-73.0","b4gk72xtcfpsqeya30ug8l7hvvypvhhs","Tue Jan 31 2017 22:27:40 GMT-0500 (EST)","female","White","slightly conservative","",NA,"","offCivRatings","the officer sprayed the civilian with pepper spray","the civilian shouted ""I don't have to fucking listen to you!"" at the officer","pepperSpray","dontListen","officerCivilian","appropriateCiv","66","","","",""
"75",1313,"","","instructions",74,633207,"0.0-74.0","b4gk72xtcfpsqeya30ug8l7hvvypvhhs","Tue Jan 31 2017 22:27:40 GMT-0500 (EST)","female","White","slightly conservative","",NA,"[{""page_index"":0,""viewing_time"":1312}]","break","","","","","","","","","","",""
"76",12096,"{""Q0"":1}","[object Object]","survey-likert",75,645532,"0.0-75.0","b4gk72xtcfpsqeya30ug8l7hvvypvhhs","Tue Jan 31 2017 22:27:40 GMT-0500 (EST)","female","White","slightly conservative","",NA,"","offCivRatings","the officer twisted the arm of the civilian, forcing him to the ground","the civilian stood near the officer","armbar","stoodNear","officerCivilian","punishCiv","1","","","",""
"77",3480,"{""Q0"":100}","[object Object]","survey-likert",76,649043,"0.0-76.0","b4gk72xtcfpsqeya30ug8l7hvvypvhhs","Tue Jan 31 2017 22:27:40 GMT-0500 (EST)","female","White","slightly conservative","",NA,"","offCivRatings","the officer twisted the arm of the civilian, forcing him to the ground","the civilian stood near the officer","armbar","stoodNear","officerCivilian","acceptableCiv","100","","","",""
"78",4857,"{""Q0"":1}","[object Object]","survey-likert",77,653924,"0.0-77.0","b4gk72xtcfpsqeya30ug8l7hvvypvhhs","Tue Jan 31 2017 22:27:40 GMT-0500 (EST)","female","White","slightly conservative","",NA,"","offCivRatings","the officer twisted the arm of the civilian, forcing him to the ground","the civilian stood near the officer","armbar","stoodNear","officerCivilian","forceCiv","1","","","",""
"79",4934,"{""Q0"":50}","[object Object]","survey-likert",78,658890,"0.0-78.0","b4gk72xtcfpsqeya30ug8l7hvvypvhhs","Tue Jan 31 2017 22:27:40 GMT-0500 (EST)","female","White","slightly conservative","",NA,"","offCivRatings","the officer twisted the arm of the civilian, forcing him to the ground","the civilian stood near the officer","armbar","stoodNear","officerCivilian","appropriateCiv","50","","","",""
"80",4524,"{""Q0"":1}","[object Object]","survey-likert",79,663435,"0.0-79.0","b4gk72xtcfpsqeya30ug8l7hvvypvhhs","Tue Jan 31 2017 22:27:40 GMT-0500 (EST)","female","White","slightly conservative","",NA,"","offCivRatings","the officer twisted the arm of the civilian, forcing him to the ground","the civilian stood near the officer","armbar","stoodNear","officerCivilian","manipCheckLow","1","","","",""
"81",1981,"","","instructions",80,665416,"0.0-80.0","b4gk72xtcfpsqeya30ug8l7hvvypvhhs","Tue Jan 31 2017 22:27:40 GMT-0500 (EST)","female","White","slightly conservative","",NA,"[{""page_index"":0,""viewing_time"":1979}]","break","","","","","","","","","","",""
"82",9091,"{""Q0"":100}","[object Object]","survey-likert",81,674730,"0.0-81.0","b4gk72xtcfpsqeya30ug8l7hvvypvhhs","Tue Jan 31 2017 22:27:40 GMT-0500 (EST)","female","White","slightly conservative","",NA,"","offCivRatings","the officer said ""if you touch me, you're gonna get hurt"" to the civilian","the civilian slammed the officer's head into the concrete curb","hurtThreat","headSlam","civilianOfficer","acceptableOff","100","","","",""
"83",3676,"{""Q0"":1}","[object Object]","survey-likert",82,678425,"0.0-82.0","b4gk72xtcfpsqeya30ug8l7hvvypvhhs","Tue Jan 31 2017 22:27:40 GMT-0500 (EST)","female","White","slightly conservative","",NA,"","offCivRatings","the officer said ""if you touch me, you're gonna get hurt"" to the civilian","the civilian slammed the officer's head into the concrete curb","hurtThreat","headSlam","civilianOfficer","punishOff","1","","","",""
"84",4415,"{""Q0"":2}","[object Object]","survey-likert",83,682864,"0.0-83.0","b4gk72xtcfpsqeya30ug8l7hvvypvhhs","Tue Jan 31 2017 22:27:40 GMT-0500 (EST)","female","White","slightly conservative","",NA,"","offCivRatings","the officer said ""if you touch me, you're gonna get hurt"" to the civilian","the civilian slammed the officer's head into the concrete curb","hurtThreat","headSlam","civilianOfficer","forceOff","2","","","",""
"85",6625,"{""Q0"":2}","[object Object]","survey-likert",84,689520,"0.0-84.0","b4gk72xtcfpsqeya30ug8l7hvvypvhhs","Tue Jan 31 2017 22:27:40 GMT-0500 (EST)","female","White","slightly conservative","",NA,"","offCivRatings","the officer said ""if you touch me, you're gonna get hurt"" to the civilian","the civilian slammed the officer's head into the concrete curb","hurtThreat","headSlam","civilianOfficer","appropriateOff","2","","","",""
"86",1452,"","","instructions",85,690973,"0.0-85.0","b4gk72xtcfpsqeya30ug8l7hvvypvhhs","Tue Jan 31 2017 22:27:40 GMT-0500 (EST)","female","White","slightly conservative","",NA,"[{""page_index"":0,""viewing_time"":1451}]","break","","","","","","","","","","",""
"87",11475,"{""Q0"":20}","[object Object]","survey-likert",86,702677,"0.0-86.0","b4gk72xtcfpsqeya30ug8l7hvvypvhhs","Tue Jan 31 2017 22:27:40 GMT-0500 (EST)","female","White","slightly conservative","",NA,"","offCivRatings","the officer applied a chokehold to the civilian","the civilian kicked the officer in the stomach","choke","kickStom","officerCivilian","acceptableCiv","20","","","",""
"88",7430,"{""Q0"":70}","[object Object]","survey-likert",87,710138,"0.0-87.0","b4gk72xtcfpsqeya30ug8l7hvvypvhhs","Tue Jan 31 2017 22:27:40 GMT-0500 (EST)","female","White","slightly conservative","",NA,"","offCivRatings","the officer applied a chokehold to the civilian","the civilian kicked the officer in the stomach","choke","kickStom","officerCivilian","forceCiv","70","","","",""
"89",6648,"{""Q0"":69}","[object Object]","survey-likert",88,716823,"0.0-88.0","b4gk72xtcfpsqeya30ug8l7hvvypvhhs","Tue Jan 31 2017 22:27:40 GMT-0500 (EST)","female","White","slightly conservative","",NA,"","offCivRatings","the officer applied a chokehold to the civilian","the civilian kicked the officer in the stomach","choke","kickStom","officerCivilian","punishCiv","69","","","",""
"90",4717,"{""Q0"":70}","[object Object]","survey-likert",89,721569,"0.0-89.0","b4gk72xtcfpsqeya30ug8l7hvvypvhhs","Tue Jan 31 2017 22:27:40 GMT-0500 (EST)","female","White","slightly conservative","",NA,"","offCivRatings","the officer applied a chokehold to the civilian","the civilian kicked the officer in the stomach","choke","kickStom","officerCivilian","appropriateCiv","70","","","",""
"91",1354,"","","instructions",90,722923,"0.0-90.0","b4gk72xtcfpsqeya30ug8l7hvvypvhhs","Tue Jan 31 2017 22:27:40 GMT-0500 (EST)","female","White","slightly conservative","",NA,"[{""page_index"":0,""viewing_time"":1352}]","break","","","","","","","","","","",""
"92",10905,"{""Q0"":99}","[object Object]","survey-likert",91,734060,"0.0-91.0","b4gk72xtcfpsqeya30ug8l7hvvypvhhs","Tue Jan 31 2017 22:27:40 GMT-0500 (EST)","female","White","slightly conservative","",NA,"","offCivRatings","the officer shot the civilian in the chest with a beanbag shotgun round","the civilian asked the officer how he was doing","beanbag","asked","civilianOfficer","appropriateOff","99","","","",""
"93",3800,"{""Q0"":1}","[object Object]","survey-likert",92,737887,"0.0-92.0","b4gk72xtcfpsqeya30ug8l7hvvypvhhs","Tue Jan 31 2017 22:27:40 GMT-0500 (EST)","female","White","slightly conservative","",NA,"","offCivRatings","the officer shot the civilian in the chest with a beanbag shotgun round","the civilian asked the officer how he was doing","beanbag","asked","civilianOfficer","acceptableOff","1","","","",""
"94",3721,"{""Q0"":100}","[object Object]","survey-likert",93,741642,"0.0-93.0","b4gk72xtcfpsqeya30ug8l7hvvypvhhs","Tue Jan 31 2017 22:27:40 GMT-0500 (EST)","female","White","slightly conservative","",NA,"","offCivRatings","the officer shot the civilian in the chest with a beanbag shotgun round","the civilian asked the officer how he was doing","beanbag","asked","civilianOfficer","punishOff","100","","","",""
"95",4746,"{""Q0"":2}","[object Object]","survey-likert",94,746426,"0.0-94.0","b4gk72xtcfpsqeya30ug8l7hvvypvhhs","Tue Jan 31 2017 22:27:40 GMT-0500 (EST)","female","White","slightly conservative","",NA,"","offCivRatings","the officer shot the civilian in the chest with a beanbag shotgun round","the civilian asked the officer how he was doing","beanbag","asked","civilianOfficer","manipCheckLow","2","","","",""
"96",7753,"{""Q0"":100}","[object Object]","survey-likert",95,754211,"0.0-95.0","b4gk72xtcfpsqeya30ug8l7hvvypvhhs","Tue Jan 31 2017 22:27:40 GMT-0500 (EST)","female","White","slightly conservative","",NA,"","offCivRatings","the officer shot the civilian in the chest with a beanbag shotgun round","the civilian asked the officer how he was doing","beanbag","asked","civilianOfficer","forceOff","100","","","",""
"97",1319,"","","instructions",96,755530,"0.0-96.0","b4gk72xtcfpsqeya30ug8l7hvvypvhhs","Tue Jan 31 2017 22:27:40 GMT-0500 (EST)","female","White","slightly conservative","",NA,"[{""page_index"":0,""viewing_time"":1317}]","break","","","","","","","","","","",""
"98",8772,"{""Q0"":12}","[object Object]","survey-likert",97,764536,"0.0-97.0","b4gk72xtcfpsqeya30ug8l7hvvypvhhs","Tue Jan 31 2017 22:27:40 GMT-0500 (EST)","female","White","slightly conservative","",NA,"","offCivRatings","the officer headbutted the civilian in the face","the civilian shot the officer in the chest with a handgun","headbutt","handgunChest","civilianOfficer","punishOff","12","","","",""
"99",6360,"{""Q0"":61}","[object Object]","survey-likert",98,770934,"0.0-98.0","b4gk72xtcfpsqeya30ug8l7hvvypvhhs","Tue Jan 31 2017 22:27:40 GMT-0500 (EST)","female","White","slightly conservative","",NA,"","offCivRatings","the officer headbutted the civilian in the face","the civilian shot the officer in the chest with a handgun","headbutt","handgunChest","civilianOfficer","acceptableOff","61","","","",""
"100",9795,"{""Q0"":43}","[object Object]","survey-likert",99,780768,"0.0-99.0","b4gk72xtcfpsqeya30ug8l7hvvypvhhs","Tue Jan 31 2017 22:27:40 GMT-0500 (EST)","female","White","slightly conservative","",NA,"","offCivRatings","the officer headbutted the civilian in the face","the civilian shot the officer in the chest with a handgun","headbutt","handgunChest","civilianOfficer","appropriateOff","43","","","",""
"101",6468,"{""Q0"":22}","[object Object]","survey-likert",100,787272,"0.0-100.0","b4gk72xtcfpsqeya30ug8l7hvvypvhhs","Tue Jan 31 2017 22:27:40 GMT-0500 (EST)","female","White","slightly conservative","",NA,"","offCivRatings","the officer headbutted the civilian in the face","the civilian shot the officer in the chest with a handgun","headbutt","handgunChest","civilianOfficer","forceOff","22","","","",""
"102",1245,"","","instructions",101,788518,"0.0-101.0","b4gk72xtcfpsqeya30ug8l7hvvypvhhs","Tue Jan 31 2017 22:27:40 GMT-0500 (EST)","female","White","slightly conservative","",NA,"[{""page_index"":0,""viewing_time"":1243}]","break","","","","","","","","","","",""
"103",12267,"{""Q0"":100}","[object Object]","survey-likert",102,801020,"0.0-102.0","b4gk72xtcfpsqeya30ug8l7hvvypvhhs","Tue Jan 31 2017 22:27:40 GMT-0500 (EST)","female","White","slightly conservative","",NA,"","offCivRatings","the officer waved at the civilian in greeting","the civilian struck the officer on the leg with a metal pipe","waved","metalPipe","officerCivilian","manipCheckHigh","100","","","",""
"104",11548,"{""Q0"":99}","[object Object]","survey-likert",103,812595,"0.0-103.0","b4gk72xtcfpsqeya30ug8l7hvvypvhhs","Tue Jan 31 2017 22:27:40 GMT-0500 (EST)","female","White","slightly conservative","",NA,"","offCivRatings","the officer waved at the civilian in greeting","the civilian struck the officer on the leg with a metal pipe","waved","metalPipe","officerCivilian","appropriateCiv","99","","","",""
"105",10315,"{""Q0"":100}","[object Object]","survey-likert",104,822937,"0.0-104.0","b4gk72xtcfpsqeya30ug8l7hvvypvhhs","Tue Jan 31 2017 22:27:40 GMT-0500 (EST)","female","White","slightly conservative","",NA,"","offCivRatings","the officer waved at the civilian in greeting","the civilian struck the officer on the leg with a metal pipe","waved","metalPipe","officerCivilian","punishCiv","100","","","",""
"106",4925,"{""Q0"":99}","[object Object]","survey-likert",105,827884,"0.0-105.0","b4gk72xtcfpsqeya30ug8l7hvvypvhhs","Tue Jan 31 2017 22:27:40 GMT-0500 (EST)","female","White","slightly conservative","",NA,"","offCivRatings","the officer waved at the civilian in greeting","the civilian struck the officer on the leg with a metal pipe","waved","metalPipe","officerCivilian","forceCiv","99","","","",""
"107",3351,"{""Q0"":1}","[object Object]","survey-likert",106,831263,"0.0-106.0","b4gk72xtcfpsqeya30ug8l7hvvypvhhs","Tue Jan 31 2017 22:27:40 GMT-0500 (EST)","female","White","slightly conservative","",NA,"","offCivRatings","the officer waved at the civilian in greeting","the civilian struck the officer on the leg with a metal pipe","waved","metalPipe","officerCivilian","acceptableCiv","1","","","",""
"108",1377,"","","instructions",107,832640,"0.0-107.0","b4gk72xtcfpsqeya30ug8l7hvvypvhhs","Tue Jan 31 2017 22:27:40 GMT-0500 (EST)","female","White","slightly conservative","",NA,"[{""page_index"":0,""viewing_time"":1376}]","break","","","","","","","","","","",""
"109",8546,"{""Q0"":100}","[object Object]","survey-likert",108,841408,"0.0-108.0","b4gk72xtcfpsqeya30ug8l7hvvypvhhs","Tue Jan 31 2017 22:27:40 GMT-0500 (EST)","female","White","slightly conservative","",NA,"","offCivRatings","the officer shot the civilian in the chest with a handgun","the civilian shocked the officer with a tazer","handgunChest","tazer","civilianOfficer","manipCheckHigh","100","","","",""
"110",4215,"{""Q0"":21}","[object Object]","survey-likert",109,845641,"0.0-109.0","b4gk72xtcfpsqeya30ug8l7hvvypvhhs","Tue Jan 31 2017 22:27:40 GMT-0500 (EST)","female","White","slightly conservative","",NA,"","offCivRatings","the officer shot the civilian in the chest with a handgun","the civilian shocked the officer with a tazer","handgunChest","tazer","civilianOfficer","acceptableOff","21","","","",""
"111",6489,"{""Q0"":100}","[object Object]","survey-likert",110,852148,"0.0-110.0","b4gk72xtcfpsqeya30ug8l7hvvypvhhs","Tue Jan 31 2017 22:27:40 GMT-0500 (EST)","female","White","slightly conservative","",NA,"","offCivRatings","the officer shot the civilian in the chest with a handgun","the civilian shocked the officer with a tazer","handgunChest","tazer","civilianOfficer","forceOff","100","","","",""
"112",4225,"{""Q0"":69}","[object Object]","survey-likert",111,856391,"0.0-111.0","b4gk72xtcfpsqeya30ug8l7hvvypvhhs","Tue Jan 31 2017 22:27:40 GMT-0500 (EST)","female","White","slightly conservative","",NA,"","offCivRatings","the officer shot the civilian in the chest with a handgun","the civilian shocked the officer with a tazer","handgunChest","tazer","civilianOfficer","appropriateOff","69","","","",""
"113",3039,"{""Q0"":86}","[object Object]","survey-likert",112,859453,"0.0-112.0","b4gk72xtcfpsqeya30ug8l7hvvypvhhs","Tue Jan 31 2017 22:27:40 GMT-0500 (EST)","female","White","slightly conservative","",NA,"","offCivRatings","the officer shot the civilian in the chest with a handgun","the civilian shocked the officer with a tazer","handgunChest","tazer","civilianOfficer","punishOff","86","","","",""
"114",1264,"","","instructions",113,860719,"0.0-113.0","b4gk72xtcfpsqeya30ug8l7hvvypvhhs","Tue Jan 31 2017 22:27:40 GMT-0500 (EST)","female","White","slightly conservative","",NA,"[{""page_index"":0,""viewing_time"":1262}]","break","","","","","","","","","","",""
"115",13567,"{""Q0"":100}","[object Object]","survey-likert",114,874514,"0.0-114.0","b4gk72xtcfpsqeya30ug8l7hvvypvhhs","Tue Jan 31 2017 22:27:40 GMT-0500 (EST)","female","White","slightly conservative","",NA,"","offCivRatings","the officer asked the civilian how he was doing","the civilian waved at the officer in greeting","asked","waved","civilianOfficer","acceptableOff","100","","","",""
"116",3583,"{""Q0"":2}","[object Object]","survey-likert",115,878131,"0.0-115.0","b4gk72xtcfpsqeya30ug8l7hvvypvhhs","Tue Jan 31 2017 22:27:40 GMT-0500 (EST)","female","White","slightly conservative","",NA,"","offCivRatings","the officer asked the civilian how he was doing","the civilian waved at the officer in greeting","asked","waved","civilianOfficer","forceOff","2","","","",""
"117",3861,"{""Q0"":1}","[object Object]","survey-likert",116,882022,"0.0-116.0","b4gk72xtcfpsqeya30ug8l7hvvypvhhs","Tue Jan 31 2017 22:27:40 GMT-0500 (EST)","female","White","slightly conservative","",NA,"","offCivRatings","the officer asked the civilian how he was doing","the civilian waved at the officer in greeting","asked","waved","civilianOfficer","punishOff","1","","","",""
"118",5628,"{""Q0"":50}","[object Object]","survey-likert",117,887670,"0.0-117.0","b4gk72xtcfpsqeya30ug8l7hvvypvhhs","Tue Jan 31 2017 22:27:40 GMT-0500 (EST)","female","White","slightly conservative","",NA,"","offCivRatings","the officer asked the civilian how he was doing","the civilian waved at the officer in greeting","asked","waved","civilianOfficer","appropriateOff","50","","","",""
"119",1381,"","","instructions",118,889052,"0.0-118.0","b4gk72xtcfpsqeya30ug8l7hvvypvhhs","Tue Jan 31 2017 22:27:40 GMT-0500 (EST)","female","White","slightly conservative","",NA,"[{""page_index"":0,""viewing_time"":1380}]","break","","","","","","","","","","",""
"120",7930,"{""Q0"":85}","[object Object]","survey-likert",119,897207,"0.0-119.0","b4gk72xtcfpsqeya30ug8l7hvvypvhhs","Tue Jan 31 2017 22:27:40 GMT-0500 (EST)","female","White","slightly conservative","",NA,"","offCivRatings","the officer shouted ""get your fucking hands up!"" at the civilian","the civilian sprayed the officer with pepper spray","handsUp","pepperSpray","officerCivilian","appropriateCiv","85","","","",""
"121",6567,"{""Q0"":67}","[object Object]","survey-likert",120,903804,"0.0-120.0","b4gk72xtcfpsqeya30ug8l7hvvypvhhs","Tue Jan 31 2017 22:27:40 GMT-0500 (EST)","female","White","slightly conservative","",NA,"","offCivRatings","the officer shouted ""get your fucking hands up!"" at the civilian","the civilian sprayed the officer with pepper spray","handsUp","pepperSpray","officerCivilian","punishCiv","67","","","",""
"122",3072,"{""Q0"":66}","[object Object]","survey-likert",121,906900,"0.0-121.0","b4gk72xtcfpsqeya30ug8l7hvvypvhhs","Tue Jan 31 2017 22:27:40 GMT-0500 (EST)","female","White","slightly conservative","",NA,"","offCivRatings","the officer shouted ""get your fucking hands up!"" at the civilian","the civilian sprayed the officer with pepper spray","handsUp","pepperSpray","officerCivilian","forceCiv","66","","","",""
"123",3867,"{""Q0"":21}","[object Object]","survey-likert",122,910806,"0.0-122.0","b4gk72xtcfpsqeya30ug8l7hvvypvhhs","Tue Jan 31 2017 22:27:40 GMT-0500 (EST)","female","White","slightly conservative","",NA,"","offCivRatings","the officer shouted ""get your fucking hands up!"" at the civilian","the civilian sprayed the officer with pepper spray","handsUp","pepperSpray","officerCivilian","acceptableCiv","21","","","",""
"124",1157,"","","instructions",123,911965,"0.0-123.0","b4gk72xtcfpsqeya30ug8l7hvvypvhhs","Tue Jan 31 2017 22:27:40 GMT-0500 (EST)","female","White","slightly conservative","",NA,"[{""page_index"":0,""viewing_time"":1156}]","break","","","","","","","","","","",""
"125",11518,"{""Q0"":50}","[object Object]","survey-likert",124,923715,"0.0-124.0","b4gk72xtcfpsqeya30ug8l7hvvypvhhs","Tue Jan 31 2017 22:27:40 GMT-0500 (EST)","female","White","slightly conservative","",NA,"","policeLegitimacy","","","","","","","50","importantValues","normAlignment","",""
"126",6476,"{""Q0"":41}","[object Object]","survey-likert",125,930223,"0.0-125.0","b4gk72xtcfpsqeya30ug8l7hvvypvhhs","Tue Jan 31 2017 22:27:40 GMT-0500 (EST)","female","White","slightly conservative","",NA,"","policeLegitimacy","","","","","","","41","rightWrong","normAlignment","",""
"127",6956,"{""Q0"":79}","[object Object]","survey-likert",126,937203,"0.0-126.0","b4gk72xtcfpsqeya30ug8l7hvvypvhhs","Tue Jan 31 2017 22:27:40 GMT-0500 (EST)","female","White","slightly conservative","",NA,"","policeLegitimacy","","","","","","","79","doTreat","feltObligation","",""
"128",6201,"{""Q0"":38}","[object Object]","survey-likert",127,943419,"0.0-127.0","b4gk72xtcfpsqeya30ug8l7hvvypvhhs","Tue Jan 31 2017 22:27:40 GMT-0500 (EST)","female","White","slightly conservative","",NA,"","policeLegitimacy","","","","","","","38","communityWants","normAlignment","",""
"129",9023,"{""Q0"":50}","[object Object]","survey-likert",128,952462,"0.0-128.0","b4gk72xtcfpsqeya30ug8l7hvvypvhhs","Tue Jan 31 2017 22:27:40 GMT-0500 (EST)","female","White","slightly conservative","",NA,"","policeLegitimacy","","","","","","","50","doReasons","feltObligation","",""
"130",5573,"{""Q0"":8}","[object Object]","survey-likert",129,958061,"0.0-129.0","b4gk72xtcfpsqeya30ug8l7hvvypvhhs","Tue Jan 31 2017 22:27:40 GMT-0500 (EST)","female","White","slightly conservative","",NA,"","policeLegitimacy","","","","","","","8","support","feltObligation","",""
"131",5360,"{""Q0"":""no""}","[object Object]","survey-multi-choice2",130,963447,"0.0-130.0","b4gk72xtcfpsqeya30ug8l7hvvypvhhs","Tue Jan 31 2017 22:27:40 GMT-0500 (EST)","female","White","slightly conservative","",NA,"","policeExperience","","","","","","","no","insultLang","","vicarious","Have the police ever used insulting language toward anyone in your household?"
"132",4403,"{""Q0"":""no""}","[object Object]","survey-multi-choice2",131,967864,"0.0-131.0","b4gk72xtcfpsqeya30ug8l7hvvypvhhs","Tue Jan 31 2017 22:27:40 GMT-0500 (EST)","female","White","slightly conservative","",NA,"","policeExperience","","","","","","","no","excessForce","","personal","Have the police ever used excessive force against you?"
"133",3555,"{""Q0"":""no""}","[object Object]","survey-multi-choice2",132,971434,"0.0-132.0","b4gk72xtcfpsqeya30ug8l7hvvypvhhs","Tue Jan 31 2017 22:27:40 GMT-0500 (EST)","female","White","slightly conservative","",NA,"","policeExperience","","","","","","","no","excessForce","","vicarious","Have the police ever used excessive force against anyone in your household?"
"134",6261,"{""Q0"":""no""}","[object Object]","survey-multi-choice2",133,977708,"0.0-133.0","b4gk72xtcfpsqeya30ug8l7hvvypvhhs","Tue Jan 31 2017 22:27:40 GMT-0500 (EST)","female","White","slightly conservative","",NA,"","policeExperience","","","","","","","no","stopped","","personal","Have you ever been stopped by the police on the street without good reason?"
"135",8504,"{""Q0"":""no""}","[object Object]","survey-multi-choice2",134,986225,"0.0-134.0","b4gk72xtcfpsqeya30ug8l7hvvypvhhs","Tue Jan 31 2017 22:27:40 GMT-0500 (EST)","female","White","slightly conservative","",NA,"","policeExperience","","","","","","","no","corrupt","","personal","Have you ever seen a police officer engage in any corrupt activities (e.g., taking bribes or involvement in the drug trade)?"
"136",3599,"{""Q0"":""no""}","[object Object]","survey-multi-choice2",135,989839,"0.0-135.0","b4gk72xtcfpsqeya30ug8l7hvvypvhhs","Tue Jan 31 2017 22:27:40 GMT-0500 (EST)","female","White","slightly conservative","",NA,"","policeExperience","","","","","","","no","insultLang","","personal","Have the police ever used insulting language toward you?"
"137",9747,"{""Q0"":""no""}","[object Object]","survey-multi-choice2",136,999597,"0.0-136.0","b4gk72xtcfpsqeya30ug8l7hvvypvhhs","Tue Jan 31 2017 22:27:40 GMT-0500 (EST)","female","White","slightly conservative","",NA,"","policeExperience","","","","","","","no","stopped","","vicarious","Has anyone in your household ever been stopped on the street by the police without good reason?"
"138",67552,"{""Q0"":""female"",""Q1"":""White"",""Q2"":""slightly conservative""}","[object Object]","survey-multi-choice",137,1067195,"0.0-137.0","b4gk72xtcfpsqeya30ug8l7hvvypvhhs","Tue Jan 31 2017 22:27:40 GMT-0500 (EST)","female","White","slightly conservative","",NA,"","demographics","","","","","","","","","","",""
"139",7398,"","","instructions",138,1075597,"0.0-138.0","b4gk72xtcfpsqeya30ug8l7hvvypvhhs","Tue Jan 31 2017 22:27:40 GMT-0500 (EST)","female","White","slightly conservative","",NA,"[{""page_index"":0,""viewing_time"":2593},{""page_index"":1,""viewing_time"":2847},{""page_index"":2,""viewing_time"":622},{""page_index"":3,""viewing_time"":1334}]","debriefing","","","","","","","","","","",""
