"","rt","responses","internalResp","trial_type","trial_index","time_elapsed","internal_node_id","randSubjectID","date","sex","race","polAff","stimulus","key_press","view_history","questionType","officerAction","civilianAction","offActName","civActName","order","questionName","response","name","dimension","person","question"
"1",9785,"","[object Object]","survey-text",0,9790,"0.0-0.0","cn72lnv1r0grokc1t1wm82ofcz8wes2r","Sun Apr 23 2017 23:50:23 GMT-0400 (EDT)","female","Asian","moderate/middle of the road","",NA,"","","","","","","","","","","","",""
"2",4640,"","","single-stim",1,15435,"0.0-1.0","cn72lnv1r0grokc1t1wm82ofcz8wes2r","Sun Apr 23 2017 23:50:23 GMT-0400 (EDT)","female","Asian","moderate/middle of the road","<img src='static/images/1602685960_ICS_Credit-0.png' alt='Consent 1' height=1100 width=850><img src='static/images/1602685960_ICS_Credit-1.png' alt='Consent 2' height=1100 width=850></p>",89,"","","","","","","","","","","","",""
"3",2392,"","","instructions",2,18833,"0.0-2.0","cn72lnv1r0grokc1t1wm82ofcz8wes2r","Sun Apr 23 2017 23:50:23 GMT-0400 (EDT)","female","Asian","moderate/middle of the road","",NA,"[{""page_index"":0,""viewing_time"":2392}]","instructions","","","","","","","","","","",""
"4",6574,"","","instructions",3,26409,"0.0-3.0","cn72lnv1r0grokc1t1wm82ofcz8wes2r","Sun Apr 23 2017 23:50:23 GMT-0400 (EDT)","female","Asian","moderate/middle of the road","",NA,"[{""page_index"":0,""viewing_time"":2412},{""page_index"":1,""viewing_time"":2036},{""page_index"":2,""viewing_time"":1117},{""page_index"":3,""viewing_time"":1008}]","instructions","","","","","","","","","","",""
"5",31521,"{""Q0"":66}","[object Object]","survey-likert",4,58953,"0.0-4.0","cn72lnv1r0grokc1t1wm82ofcz8wes2r","Sun Apr 23 2017 23:50:23 GMT-0400 (EDT)","female","Asian","moderate/middle of the road","",NA,"","offCivRatings","the officer stood near the civilian","the civilian applied a chokehold to the officer","stoodNear","choke","officerCivilian","punishCiv","66","","","",""
"6",4539,"{""Q0"":52}","[object Object]","survey-likert",5,63498,"0.0-5.0","cn72lnv1r0grokc1t1wm82ofcz8wes2r","Sun Apr 23 2017 23:50:23 GMT-0400 (EDT)","female","Asian","moderate/middle of the road","",NA,"","offCivRatings","the officer stood near the civilian","the civilian applied a chokehold to the officer","stoodNear","choke","officerCivilian","acceptableCiv","52","","","",""
"7",2216,"{""Q0"":59}","[object Object]","survey-likert",6,65721,"0.0-6.0","cn72lnv1r0grokc1t1wm82ofcz8wes2r","Sun Apr 23 2017 23:50:23 GMT-0400 (EDT)","female","Asian","moderate/middle of the road","",NA,"","offCivRatings","the officer stood near the civilian","the civilian applied a chokehold to the officer","stoodNear","choke","officerCivilian","appropriateCiv","59","","","",""
"8",3173,"{""Q0"":48}","[object Object]","survey-likert",7,68901,"0.0-7.0","cn72lnv1r0grokc1t1wm82ofcz8wes2r","Sun Apr 23 2017 23:50:23 GMT-0400 (EDT)","female","Asian","moderate/middle of the road","",NA,"","offCivRatings","the officer stood near the civilian","the civilian applied a chokehold to the officer","stoodNear","choke","officerCivilian","forceCiv","48","","","",""
"9",901,"","","instructions",8,69802,"0.0-8.0","cn72lnv1r0grokc1t1wm82ofcz8wes2r","Sun Apr 23 2017 23:50:23 GMT-0400 (EDT)","female","Asian","moderate/middle of the road","",NA,"[{""page_index"":0,""viewing_time"":901}]","break","","","","","","","","","","",""
"10",2360,"{""Q0"":54}","[object Object]","survey-likert",9,72370,"0.0-9.0","cn72lnv1r0grokc1t1wm82ofcz8wes2r","Sun Apr 23 2017 23:50:23 GMT-0400 (EDT)","female","Asian","moderate/middle of the road","",NA,"","offCivRatings","the officer shot the civilian in the chest with a beanbag shotgun round","the civilian said ""if you touch me, you're gonna get hurt"" to the officer","beanbag","hurtThreat","officerCivilian","punishCiv","54","","","",""
"11",1684,"{""Q0"":49}","[object Object]","survey-likert",10,74059,"0.0-10.0","cn72lnv1r0grokc1t1wm82ofcz8wes2r","Sun Apr 23 2017 23:50:23 GMT-0400 (EDT)","female","Asian","moderate/middle of the road","",NA,"","offCivRatings","the officer shot the civilian in the chest with a beanbag shotgun round","the civilian said ""if you touch me, you're gonna get hurt"" to the officer","beanbag","hurtThreat","officerCivilian","forceCiv","49","","","",""
"12",4789,"{""Q0"":51}","[object Object]","survey-likert",11,78854,"0.0-11.0","cn72lnv1r0grokc1t1wm82ofcz8wes2r","Sun Apr 23 2017 23:50:23 GMT-0400 (EDT)","female","Asian","moderate/middle of the road","",NA,"","offCivRatings","the officer shot the civilian in the chest with a beanbag shotgun round","the civilian said ""if you touch me, you're gonna get hurt"" to the officer","beanbag","hurtThreat","officerCivilian","acceptableCiv","51","","","",""
"13",1699,"{""Q0"":49}","[object Object]","survey-likert",12,80560,"0.0-12.0","cn72lnv1r0grokc1t1wm82ofcz8wes2r","Sun Apr 23 2017 23:50:23 GMT-0400 (EDT)","female","Asian","moderate/middle of the road","",NA,"","offCivRatings","the officer shot the civilian in the chest with a beanbag shotgun round","the civilian said ""if you touch me, you're gonna get hurt"" to the officer","beanbag","hurtThreat","officerCivilian","manipCheckLow","49","","","",""
"14",1658,"{""Q0"":55}","[object Object]","survey-likert",13,82222,"0.0-13.0","cn72lnv1r0grokc1t1wm82ofcz8wes2r","Sun Apr 23 2017 23:50:23 GMT-0400 (EDT)","female","Asian","moderate/middle of the road","",NA,"","offCivRatings","the officer shot the civilian in the chest with a beanbag shotgun round","the civilian said ""if you touch me, you're gonna get hurt"" to the officer","beanbag","hurtThreat","officerCivilian","appropriateCiv","55","","","",""
"15",1746,"","","instructions",14,83969,"0.0-14.0","cn72lnv1r0grokc1t1wm82ofcz8wes2r","Sun Apr 23 2017 23:50:23 GMT-0400 (EDT)","female","Asian","moderate/middle of the road","",NA,"[{""page_index"":0,""viewing_time"":1746}]","break","","","","","","","","","","",""
"16",4824,"{""Q0"":53}","[object Object]","survey-likert",15,88999,"0.0-15.0","cn72lnv1r0grokc1t1wm82ofcz8wes2r","Sun Apr 23 2017 23:50:23 GMT-0400 (EDT)","female","Asian","moderate/middle of the road","",NA,"","offCivRatings","the officer waved at the civilian in greeting","the civilian twisted the arm of the officer, forcing him to the ground","waved","armbar","officerCivilian","acceptableCiv","53","","","",""
"17",1924,"{""Q0"":45}","[object Object]","survey-likert",16,90929,"0.0-16.0","cn72lnv1r0grokc1t1wm82ofcz8wes2r","Sun Apr 23 2017 23:50:23 GMT-0400 (EDT)","female","Asian","moderate/middle of the road","",NA,"","offCivRatings","the officer waved at the civilian in greeting","the civilian twisted the arm of the officer, forcing him to the ground","waved","armbar","officerCivilian","forceCiv","45","","","",""
"18",2508,"{""Q0"":58}","[object Object]","survey-likert",17,93442,"0.0-17.0","cn72lnv1r0grokc1t1wm82ofcz8wes2r","Sun Apr 23 2017 23:50:23 GMT-0400 (EDT)","female","Asian","moderate/middle of the road","",NA,"","offCivRatings","the officer waved at the civilian in greeting","the civilian twisted the arm of the officer, forcing him to the ground","waved","armbar","officerCivilian","punishCiv","58","","","",""
"19",1680,"{""Q0"":56}","[object Object]","survey-likert",18,95129,"0.0-18.0","cn72lnv1r0grokc1t1wm82ofcz8wes2r","Sun Apr 23 2017 23:50:23 GMT-0400 (EDT)","female","Asian","moderate/middle of the road","",NA,"","offCivRatings","the officer waved at the civilian in greeting","the civilian twisted the arm of the officer, forcing him to the ground","waved","armbar","officerCivilian","appropriateCiv","56","","","",""
"20",673,"","","instructions",19,95803,"0.0-19.0","cn72lnv1r0grokc1t1wm82ofcz8wes2r","Sun Apr 23 2017 23:50:23 GMT-0400 (EDT)","female","Asian","moderate/middle of the road","",NA,"[{""page_index"":0,""viewing_time"":673}]","break","","","","","","","","","","",""
"21",1898,"{""Q0"":45}","[object Object]","survey-likert",20,97911,"0.0-20.0","cn72lnv1r0grokc1t1wm82ofcz8wes2r","Sun Apr 23 2017 23:50:23 GMT-0400 (EDT)","female","Asian","moderate/middle of the road","",NA,"","offCivRatings","the officer punched the civilian in the face","the civilian struck the officer on the leg with a metal pipe","punchFace","metalPipe","officerCivilian","acceptableCiv","45","","","",""
"22",14231,"{""Q0"":55}","[object Object]","survey-likert",21,112148,"0.0-21.0","cn72lnv1r0grokc1t1wm82ofcz8wes2r","Sun Apr 23 2017 23:50:23 GMT-0400 (EDT)","female","Asian","moderate/middle of the road","",NA,"","offCivRatings","the officer punched the civilian in the face","the civilian struck the officer on the leg with a metal pipe","punchFace","metalPipe","officerCivilian","appropriateCiv","55","","","",""
"23",2223,"{""Q0"":48}","[object Object]","survey-likert",22,114376,"0.0-22.0","cn72lnv1r0grokc1t1wm82ofcz8wes2r","Sun Apr 23 2017 23:50:23 GMT-0400 (EDT)","female","Asian","moderate/middle of the road","",NA,"","offCivRatings","the officer punched the civilian in the face","the civilian struck the officer on the leg with a metal pipe","punchFace","metalPipe","officerCivilian","forceCiv","48","","","",""
"24",1682,"{""Q0"":53}","[object Object]","survey-likert",23,116062,"0.0-23.0","cn72lnv1r0grokc1t1wm82ofcz8wes2r","Sun Apr 23 2017 23:50:23 GMT-0400 (EDT)","female","Asian","moderate/middle of the road","",NA,"","offCivRatings","the officer punched the civilian in the face","the civilian struck the officer on the leg with a metal pipe","punchFace","metalPipe","officerCivilian","punishCiv","53","","","",""
"25",8027,"{""Q0"":54}","[object Object]","survey-likert",24,124094,"0.0-24.0","cn72lnv1r0grokc1t1wm82ofcz8wes2r","Sun Apr 23 2017 23:50:23 GMT-0400 (EDT)","female","Asian","moderate/middle of the road","",NA,"","offCivRatings","the officer punched the civilian in the face","the civilian struck the officer on the leg with a metal pipe","punchFace","metalPipe","officerCivilian","manipCheckLow","54","","","",""
"26",714,"","","instructions",25,124808,"0.0-25.0","cn72lnv1r0grokc1t1wm82ofcz8wes2r","Sun Apr 23 2017 23:50:23 GMT-0400 (EDT)","female","Asian","moderate/middle of the road","",NA,"[{""page_index"":0,""viewing_time"":714}]","break","","","","","","","","","","",""
"27",1842,"{""Q0"":43}","[object Object]","survey-likert",26,126861,"0.0-26.0","cn72lnv1r0grokc1t1wm82ofcz8wes2r","Sun Apr 23 2017 23:50:23 GMT-0400 (EDT)","female","Asian","moderate/middle of the road","",NA,"","offCivRatings","the officer put handcuffs on the civilian","the civilian shot the officer in the head with a handgun","handcuff","handgunHead","officerCivilian","forceCiv","43","","","",""
"28",1402,"{""Q0"":57}","[object Object]","survey-likert",27,128267,"0.0-27.0","cn72lnv1r0grokc1t1wm82ofcz8wes2r","Sun Apr 23 2017 23:50:23 GMT-0400 (EDT)","female","Asian","moderate/middle of the road","",NA,"","offCivRatings","the officer put handcuffs on the civilian","the civilian shot the officer in the head with a handgun","handcuff","handgunHead","officerCivilian","acceptableCiv","57","","","",""
"29",1478,"{""Q0"":54}","[object Object]","survey-likert",28,129750,"0.0-28.0","cn72lnv1r0grokc1t1wm82ofcz8wes2r","Sun Apr 23 2017 23:50:23 GMT-0400 (EDT)","female","Asian","moderate/middle of the road","",NA,"","offCivRatings","the officer put handcuffs on the civilian","the civilian shot the officer in the head with a handgun","handcuff","handgunHead","officerCivilian","punishCiv","54","","","",""
"30",3457,"{""Q0"":55}","[object Object]","survey-likert",29,133211,"0.0-29.0","cn72lnv1r0grokc1t1wm82ofcz8wes2r","Sun Apr 23 2017 23:50:23 GMT-0400 (EDT)","female","Asian","moderate/middle of the road","",NA,"","offCivRatings","the officer put handcuffs on the civilian","the civilian shot the officer in the head with a handgun","handcuff","handgunHead","officerCivilian","appropriateCiv","55","","","",""
"31",675,"","","instructions",30,133886,"0.0-30.0","cn72lnv1r0grokc1t1wm82ofcz8wes2r","Sun Apr 23 2017 23:50:23 GMT-0400 (EDT)","female","Asian","moderate/middle of the road","",NA,"[{""page_index"":0,""viewing_time"":675}]","break","","","","","","","","","","",""
"32",1351,"{""Q0"":57}","[object Object]","survey-likert",31,135445,"0.0-31.0","cn72lnv1r0grokc1t1wm82ofcz8wes2r","Sun Apr 23 2017 23:50:23 GMT-0400 (EDT)","female","Asian","moderate/middle of the road","",NA,"","offCivRatings","the officer twisted the arm of the civilian, forcing him to the ground","the civilian sprayed the officer with pepper spray","armbar","pepperSpray","officerCivilian","appropriateCiv","57","","","",""
"33",1527,"{""Q0"":54}","[object Object]","survey-likert",32,136977,"0.0-32.0","cn72lnv1r0grokc1t1wm82ofcz8wes2r","Sun Apr 23 2017 23:50:23 GMT-0400 (EDT)","female","Asian","moderate/middle of the road","",NA,"","offCivRatings","the officer twisted the arm of the civilian, forcing him to the ground","the civilian sprayed the officer with pepper spray","armbar","pepperSpray","officerCivilian","acceptableCiv","54","","","",""
"34",1808,"{""Q0"":58}","[object Object]","survey-likert",33,138789,"0.0-33.0","cn72lnv1r0grokc1t1wm82ofcz8wes2r","Sun Apr 23 2017 23:50:23 GMT-0400 (EDT)","female","Asian","moderate/middle of the road","",NA,"","offCivRatings","the officer twisted the arm of the civilian, forcing him to the ground","the civilian sprayed the officer with pepper spray","armbar","pepperSpray","officerCivilian","forceCiv","58","","","",""
"35",1459,"{""Q0"":52}","[object Object]","survey-likert",34,140255,"0.0-34.0","cn72lnv1r0grokc1t1wm82ofcz8wes2r","Sun Apr 23 2017 23:50:23 GMT-0400 (EDT)","female","Asian","moderate/middle of the road","",NA,"","offCivRatings","the officer twisted the arm of the civilian, forcing him to the ground","the civilian sprayed the officer with pepper spray","armbar","pepperSpray","officerCivilian","punishCiv","52","","","",""
"36",664,"","","instructions",35,140919,"0.0-35.0","cn72lnv1r0grokc1t1wm82ofcz8wes2r","Sun Apr 23 2017 23:50:23 GMT-0400 (EDT)","female","Asian","moderate/middle of the road","",NA,"[{""page_index"":0,""viewing_time"":663}]","break","","","","","","","","","","",""
"37",1620,"{""Q0"":52}","[object Object]","survey-likert",36,142746,"0.0-36.0","cn72lnv1r0grokc1t1wm82ofcz8wes2r","Sun Apr 23 2017 23:50:23 GMT-0400 (EDT)","female","Asian","moderate/middle of the road","",NA,"","offCivRatings","the officer asked the civilian how he was doing","the civilian asked the officer how he was doing","asked","asked","civilianOfficer","forceOff","52","","","",""
"38",2140,"{""Q0"":49}","[object Object]","survey-likert",37,144890,"0.0-37.0","cn72lnv1r0grokc1t1wm82ofcz8wes2r","Sun Apr 23 2017 23:50:23 GMT-0400 (EDT)","female","Asian","moderate/middle of the road","",NA,"","offCivRatings","the officer asked the civilian how he was doing","the civilian asked the officer how he was doing","asked","asked","civilianOfficer","acceptableOff","49","","","",""
"39",1816,"{""Q0"":55}","[object Object]","survey-likert",38,146712,"0.0-38.0","cn72lnv1r0grokc1t1wm82ofcz8wes2r","Sun Apr 23 2017 23:50:23 GMT-0400 (EDT)","female","Asian","moderate/middle of the road","",NA,"","offCivRatings","the officer asked the civilian how he was doing","the civilian asked the officer how he was doing","asked","asked","civilianOfficer","punishOff","55","","","",""
"40",6812,"{""Q0"":56}","[object Object]","survey-likert",39,153529,"0.0-39.0","cn72lnv1r0grokc1t1wm82ofcz8wes2r","Sun Apr 23 2017 23:50:23 GMT-0400 (EDT)","female","Asian","moderate/middle of the road","",NA,"","offCivRatings","the officer asked the civilian how he was doing","the civilian asked the officer how he was doing","asked","asked","civilianOfficer","manipCheckLow","56","","","",""
"41",1697,"{""Q0"":52}","[object Object]","survey-likert",40,155231,"0.0-40.0","cn72lnv1r0grokc1t1wm82ofcz8wes2r","Sun Apr 23 2017 23:50:23 GMT-0400 (EDT)","female","Asian","moderate/middle of the road","",NA,"","offCivRatings","the officer asked the civilian how he was doing","the civilian asked the officer how he was doing","asked","asked","civilianOfficer","appropriateOff","52","","","",""
"42",623,"","","instructions",41,155855,"0.0-41.0","cn72lnv1r0grokc1t1wm82ofcz8wes2r","Sun Apr 23 2017 23:50:23 GMT-0400 (EDT)","female","Asian","moderate/middle of the road","",NA,"[{""page_index"":0,""viewing_time"":623}]","break","","","","","","","","","","",""
"43",1524,"{""Q0"":58}","[object Object]","survey-likert",42,157585,"0.0-42.0","cn72lnv1r0grokc1t1wm82ofcz8wes2r","Sun Apr 23 2017 23:50:23 GMT-0400 (EDT)","female","Asian","moderate/middle of the road","",NA,"","offCivRatings","the officer slammed the civilian's head into the concrete curb","the civilian shouted ""I don't have to fucking listen to you!"" at the officer","headSlam","dontListen","officerCivilian","appropriateCiv","58","","","",""
"44",1412,"{""Q0"":57}","[object Object]","survey-likert",43,159002,"0.0-43.0","cn72lnv1r0grokc1t1wm82ofcz8wes2r","Sun Apr 23 2017 23:50:23 GMT-0400 (EDT)","female","Asian","moderate/middle of the road","",NA,"","offCivRatings","the officer slammed the civilian's head into the concrete curb","the civilian shouted ""I don't have to fucking listen to you!"" at the officer","headSlam","dontListen","officerCivilian","forceCiv","57","","","",""
"45",1420,"{""Q0"":54}","[object Object]","survey-likert",44,160427,"0.0-44.0","cn72lnv1r0grokc1t1wm82ofcz8wes2r","Sun Apr 23 2017 23:50:23 GMT-0400 (EDT)","female","Asian","moderate/middle of the road","",NA,"","offCivRatings","the officer slammed the civilian's head into the concrete curb","the civilian shouted ""I don't have to fucking listen to you!"" at the officer","headSlam","dontListen","officerCivilian","manipCheckHigh","54","","","",""
"46",1543,"{""Q0"":56}","[object Object]","survey-likert",45,161976,"0.0-45.0","cn72lnv1r0grokc1t1wm82ofcz8wes2r","Sun Apr 23 2017 23:50:23 GMT-0400 (EDT)","female","Asian","moderate/middle of the road","",NA,"","offCivRatings","the officer slammed the civilian's head into the concrete curb","the civilian shouted ""I don't have to fucking listen to you!"" at the officer","headSlam","dontListen","officerCivilian","punishCiv","56","","","",""
"47",1696,"{""Q0"":57}","[object Object]","survey-likert",46,163678,"0.0-46.0","cn72lnv1r0grokc1t1wm82ofcz8wes2r","Sun Apr 23 2017 23:50:23 GMT-0400 (EDT)","female","Asian","moderate/middle of the road","",NA,"","offCivRatings","the officer slammed the civilian's head into the concrete curb","the civilian shouted ""I don't have to fucking listen to you!"" at the officer","headSlam","dontListen","officerCivilian","acceptableCiv","57","","","",""
"48",1752,"","","instructions",47,165430,"0.0-47.0","cn72lnv1r0grokc1t1wm82ofcz8wes2r","Sun Apr 23 2017 23:50:23 GMT-0400 (EDT)","female","Asian","moderate/middle of the road","",NA,"[{""page_index"":0,""viewing_time"":1752}]","break","","","","","","","","","","",""
"49",3646,"{""Q0"":55}","[object Object]","survey-likert",48,169285,"0.0-48.0","cn72lnv1r0grokc1t1wm82ofcz8wes2r","Sun Apr 23 2017 23:50:23 GMT-0400 (EDT)","female","Asian","moderate/middle of the road","",NA,"","offCivRatings","the officer yelled ""get back!"" at the civilian","the civilian struck the officer in the stomach with a metal flashlight","getBack","flashlight","civilianOfficer","appropriateOff","55","","","",""
"50",8421,"{""Q0"":54}","[object Object]","survey-likert",49,177710,"0.0-49.0","cn72lnv1r0grokc1t1wm82ofcz8wes2r","Sun Apr 23 2017 23:50:23 GMT-0400 (EDT)","female","Asian","moderate/middle of the road","",NA,"","offCivRatings","the officer yelled ""get back!"" at the civilian","the civilian struck the officer in the stomach with a metal flashlight","getBack","flashlight","civilianOfficer","acceptableOff","54","","","",""
"51",2244,"{""Q0"":55}","[object Object]","survey-likert",50,179958,"0.0-50.0","cn72lnv1r0grokc1t1wm82ofcz8wes2r","Sun Apr 23 2017 23:50:23 GMT-0400 (EDT)","female","Asian","moderate/middle of the road","",NA,"","offCivRatings","the officer yelled ""get back!"" at the civilian","the civilian struck the officer in the stomach with a metal flashlight","getBack","flashlight","civilianOfficer","punishOff","55","","","",""
"52",1475,"{""Q0"":54}","[object Object]","survey-likert",51,181438,"0.0-51.0","cn72lnv1r0grokc1t1wm82ofcz8wes2r","Sun Apr 23 2017 23:50:23 GMT-0400 (EDT)","female","Asian","moderate/middle of the road","",NA,"","offCivRatings","the officer yelled ""get back!"" at the civilian","the civilian struck the officer in the stomach with a metal flashlight","getBack","flashlight","civilianOfficer","forceOff","54","","","",""
"53",1942,"{""Q0"":57}","[object Object]","survey-likert",52,183384,"0.0-52.0","cn72lnv1r0grokc1t1wm82ofcz8wes2r","Sun Apr 23 2017 23:50:23 GMT-0400 (EDT)","female","Asian","moderate/middle of the road","",NA,"","offCivRatings","the officer yelled ""get back!"" at the civilian","the civilian struck the officer in the stomach with a metal flashlight","getBack","flashlight","civilianOfficer","manipCheckHigh","57","","","",""
"54",838,"","","instructions",53,184222,"0.0-53.0","cn72lnv1r0grokc1t1wm82ofcz8wes2r","Sun Apr 23 2017 23:50:23 GMT-0400 (EDT)","female","Asian","moderate/middle of the road","",NA,"[{""page_index"":0,""viewing_time"":837}]","break","","","","","","","","","","",""
"55",1553,"{""Q0"":47}","[object Object]","survey-likert",54,185985,"0.0-54.0","cn72lnv1r0grokc1t1wm82ofcz8wes2r","Sun Apr 23 2017 23:50:23 GMT-0400 (EDT)","female","Asian","moderate/middle of the road","",NA,"","offCivRatings","the officer shocked the civilian with a tazer","the civilian called the officer a ""pig""","tazer","nameCall","civilianOfficer","forceOff","47","","","",""
"56",1687,"{""Q0"":53}","[object Object]","survey-likert",55,187677,"0.0-55.0","cn72lnv1r0grokc1t1wm82ofcz8wes2r","Sun Apr 23 2017 23:50:23 GMT-0400 (EDT)","female","Asian","moderate/middle of the road","",NA,"","offCivRatings","the officer shocked the civilian with a tazer","the civilian called the officer a ""pig""","tazer","nameCall","civilianOfficer","acceptableOff","53","","","",""
"57",1832,"{""Q0"":52}","[object Object]","survey-likert",56,189513,"0.0-56.0","cn72lnv1r0grokc1t1wm82ofcz8wes2r","Sun Apr 23 2017 23:50:23 GMT-0400 (EDT)","female","Asian","moderate/middle of the road","",NA,"","offCivRatings","the officer shocked the civilian with a tazer","the civilian called the officer a ""pig""","tazer","nameCall","civilianOfficer","appropriateOff","52","","","",""
"58",1756,"{""Q0"":54}","[object Object]","survey-likert",57,191275,"0.0-57.0","cn72lnv1r0grokc1t1wm82ofcz8wes2r","Sun Apr 23 2017 23:50:23 GMT-0400 (EDT)","female","Asian","moderate/middle of the road","",NA,"","offCivRatings","the officer shocked the civilian with a tazer","the civilian called the officer a ""pig""","tazer","nameCall","civilianOfficer","punishOff","54","","","",""
"59",1915,"","","instructions",58,193190,"0.0-58.0","cn72lnv1r0grokc1t1wm82ofcz8wes2r","Sun Apr 23 2017 23:50:23 GMT-0400 (EDT)","female","Asian","moderate/middle of the road","",NA,"[{""page_index"":0,""viewing_time"":1915}]","break","","","","","","","","","","",""
"60",10695,"{""Q0"":52}","[object Object]","survey-likert",59,204092,"0.0-59.0","cn72lnv1r0grokc1t1wm82ofcz8wes2r","Sun Apr 23 2017 23:50:23 GMT-0400 (EDT)","female","Asian","moderate/middle of the road","",NA,"","offCivRatings","the officer applied a chokehold to the civilian","the civilian hit the officer in the chest with a baseball bat","choke","ballBat","officerCivilian","acceptableCiv","52","","","",""
"61",4084,"{""Q0"":53}","[object Object]","survey-likert",60,208180,"0.0-60.0","cn72lnv1r0grokc1t1wm82ofcz8wes2r","Sun Apr 23 2017 23:50:23 GMT-0400 (EDT)","female","Asian","moderate/middle of the road","",NA,"","offCivRatings","the officer applied a chokehold to the civilian","the civilian hit the officer in the chest with a baseball bat","choke","ballBat","officerCivilian","punishCiv","53","","","",""
"62",2052,"{""Q0"":54}","[object Object]","survey-likert",61,210238,"0.0-61.0","cn72lnv1r0grokc1t1wm82ofcz8wes2r","Sun Apr 23 2017 23:50:23 GMT-0400 (EDT)","female","Asian","moderate/middle of the road","",NA,"","offCivRatings","the officer applied a chokehold to the civilian","the civilian hit the officer in the chest with a baseball bat","choke","ballBat","officerCivilian","appropriateCiv","54","","","",""
"63",1768,"{""Q0"":53}","[object Object]","survey-likert",62,212009,"0.0-62.0","cn72lnv1r0grokc1t1wm82ofcz8wes2r","Sun Apr 23 2017 23:50:23 GMT-0400 (EDT)","female","Asian","moderate/middle of the road","",NA,"","offCivRatings","the officer applied a chokehold to the civilian","the civilian hit the officer in the chest with a baseball bat","choke","ballBat","officerCivilian","forceCiv","53","","","",""
"64",686,"","","instructions",63,212695,"0.0-63.0","cn72lnv1r0grokc1t1wm82ofcz8wes2r","Sun Apr 23 2017 23:50:23 GMT-0400 (EDT)","female","Asian","moderate/middle of the road","",NA,"[{""page_index"":0,""viewing_time"":686}]","break","","","","","","","","","","",""
"65",1651,"{""Q0"":54}","[object Object]","survey-likert",64,214552,"0.0-64.0","cn72lnv1r0grokc1t1wm82ofcz8wes2r","Sun Apr 23 2017 23:50:23 GMT-0400 (EDT)","female","Asian","moderate/middle of the road","",NA,"","offCivRatings","the officer kicked the civilian in the stomach","the civilian yelled ""get back!"" at the officer","kickStom","getBack","civilianOfficer","acceptableOff","54","","","",""
"66",1764,"{""Q0"":53}","[object Object]","survey-likert",65,216320,"0.0-65.0","cn72lnv1r0grokc1t1wm82ofcz8wes2r","Sun Apr 23 2017 23:50:23 GMT-0400 (EDT)","female","Asian","moderate/middle of the road","",NA,"","offCivRatings","the officer kicked the civilian in the stomach","the civilian yelled ""get back!"" at the officer","kickStom","getBack","civilianOfficer","appropriateOff","53","","","",""
"67",1781,"{""Q0"":54}","[object Object]","survey-likert",66,218105,"0.0-66.0","cn72lnv1r0grokc1t1wm82ofcz8wes2r","Sun Apr 23 2017 23:50:23 GMT-0400 (EDT)","female","Asian","moderate/middle of the road","",NA,"","offCivRatings","the officer kicked the civilian in the stomach","the civilian yelled ""get back!"" at the officer","kickStom","getBack","civilianOfficer","forceOff","54","","","",""
"68",3239,"{""Q0"":53}","[object Object]","survey-likert",67,221348,"0.0-67.0","cn72lnv1r0grokc1t1wm82ofcz8wes2r","Sun Apr 23 2017 23:50:23 GMT-0400 (EDT)","female","Asian","moderate/middle of the road","",NA,"","offCivRatings","the officer kicked the civilian in the stomach","the civilian yelled ""get back!"" at the officer","kickStom","getBack","civilianOfficer","punishOff","53","","","",""
"69",722,"","","instructions",68,222070,"0.0-68.0","cn72lnv1r0grokc1t1wm82ofcz8wes2r","Sun Apr 23 2017 23:50:23 GMT-0400 (EDT)","female","Asian","moderate/middle of the road","",NA,"[{""page_index"":0,""viewing_time"":722}]","break","","","","","","","","","","",""
"70",1658,"{""Q0"":54}","[object Object]","survey-likert",69,223939,"0.0-69.0","cn72lnv1r0grokc1t1wm82ofcz8wes2r","Sun Apr 23 2017 23:50:23 GMT-0400 (EDT)","female","Asian","moderate/middle of the road","",NA,"","offCivRatings","the officer shot the civilian in the chest with a handgun","the civilian waved at the officer in greeting","handgunChest","waved","officerCivilian","appropriateCiv","54","","","",""
"71",3483,"{""Q0"":54}","[object Object]","survey-likert",70,227427,"0.0-70.0","cn72lnv1r0grokc1t1wm82ofcz8wes2r","Sun Apr 23 2017 23:50:23 GMT-0400 (EDT)","female","Asian","moderate/middle of the road","",NA,"","offCivRatings","the officer shot the civilian in the chest with a handgun","the civilian waved at the officer in greeting","handgunChest","waved","officerCivilian","manipCheckLow","54","","","",""
"72",1650,"{""Q0"":55}","[object Object]","survey-likert",71,229081,"0.0-71.0","cn72lnv1r0grokc1t1wm82ofcz8wes2r","Sun Apr 23 2017 23:50:23 GMT-0400 (EDT)","female","Asian","moderate/middle of the road","",NA,"","offCivRatings","the officer shot the civilian in the chest with a handgun","the civilian waved at the officer in greeting","handgunChest","waved","officerCivilian","forceCiv","55","","","",""
"73",2754,"{""Q0"":55}","[object Object]","survey-likert",72,231839,"0.0-72.0","cn72lnv1r0grokc1t1wm82ofcz8wes2r","Sun Apr 23 2017 23:50:23 GMT-0400 (EDT)","female","Asian","moderate/middle of the road","",NA,"","offCivRatings","the officer shot the civilian in the chest with a handgun","the civilian waved at the officer in greeting","handgunChest","waved","officerCivilian","punishCiv","55","","","",""
"74",1581,"{""Q0"":42}","[object Object]","survey-likert",73,233424,"0.0-73.0","cn72lnv1r0grokc1t1wm82ofcz8wes2r","Sun Apr 23 2017 23:50:23 GMT-0400 (EDT)","female","Asian","moderate/middle of the road","",NA,"","offCivRatings","the officer shot the civilian in the chest with a handgun","the civilian waved at the officer in greeting","handgunChest","waved","officerCivilian","acceptableCiv","42","","","",""
"75",699,"","","instructions",74,234123,"0.0-74.0","cn72lnv1r0grokc1t1wm82ofcz8wes2r","Sun Apr 23 2017 23:50:23 GMT-0400 (EDT)","female","Asian","moderate/middle of the road","",NA,"[{""page_index"":0,""viewing_time"":699}]","break","","","","","","","","","","",""
"76",3393,"{""Q0"":57}","[object Object]","survey-likert",75,237725,"0.0-75.0","cn72lnv1r0grokc1t1wm82ofcz8wes2r","Sun Apr 23 2017 23:50:23 GMT-0400 (EDT)","female","Asian","moderate/middle of the road","",NA,"","offCivRatings","the officer struck the civilian on the leg with a collapsible baton","the civilian pulled away from the officer","batonLeg","pulledAway","civilianOfficer","manipCheckHigh","57","","","",""
"77",2573,"{""Q0"":55}","[object Object]","survey-likert",76,240302,"0.0-76.0","cn72lnv1r0grokc1t1wm82ofcz8wes2r","Sun Apr 23 2017 23:50:23 GMT-0400 (EDT)","female","Asian","moderate/middle of the road","",NA,"","offCivRatings","the officer struck the civilian on the leg with a collapsible baton","the civilian pulled away from the officer","batonLeg","pulledAway","civilianOfficer","punishOff","55","","","",""
"78",1765,"{""Q0"":56}","[object Object]","survey-likert",77,242073,"0.0-77.0","cn72lnv1r0grokc1t1wm82ofcz8wes2r","Sun Apr 23 2017 23:50:23 GMT-0400 (EDT)","female","Asian","moderate/middle of the road","",NA,"","offCivRatings","the officer struck the civilian on the leg with a collapsible baton","the civilian pulled away from the officer","batonLeg","pulledAway","civilianOfficer","acceptableOff","56","","","",""
"79",2201,"{""Q0"":53}","[object Object]","survey-likert",78,244278,"0.0-78.0","cn72lnv1r0grokc1t1wm82ofcz8wes2r","Sun Apr 23 2017 23:50:23 GMT-0400 (EDT)","female","Asian","moderate/middle of the road","",NA,"","offCivRatings","the officer struck the civilian on the leg with a collapsible baton","the civilian pulled away from the officer","batonLeg","pulledAway","civilianOfficer","forceOff","53","","","",""
"80",1604,"{""Q0"":58}","[object Object]","survey-likert",79,245886,"0.0-79.0","cn72lnv1r0grokc1t1wm82ofcz8wes2r","Sun Apr 23 2017 23:50:23 GMT-0400 (EDT)","female","Asian","moderate/middle of the road","",NA,"","offCivRatings","the officer struck the civilian on the leg with a collapsible baton","the civilian pulled away from the officer","batonLeg","pulledAway","civilianOfficer","appropriateOff","58","","","",""
"81",839,"","","instructions",80,246725,"0.0-80.0","cn72lnv1r0grokc1t1wm82ofcz8wes2r","Sun Apr 23 2017 23:50:23 GMT-0400 (EDT)","female","Asian","moderate/middle of the road","",NA,"[{""page_index"":0,""viewing_time"":839}]","break","","","","","","","","","","",""
"82",1369,"{""Q0"":61}","[object Object]","survey-likert",81,248304,"0.0-81.0","cn72lnv1r0grokc1t1wm82ofcz8wes2r","Sun Apr 23 2017 23:50:23 GMT-0400 (EDT)","female","Asian","moderate/middle of the road","",NA,"","offCivRatings","the officer shouted ""get your fucking hands up!"" at the civilian","the civilian shot the officer in the chest with a handgun","handsUp","handgunChest","civilianOfficer","manipCheckLow","61","","","",""
"83",1745,"{""Q0"":45}","[object Object]","survey-likert",82,250054,"0.0-82.0","cn72lnv1r0grokc1t1wm82ofcz8wes2r","Sun Apr 23 2017 23:50:23 GMT-0400 (EDT)","female","Asian","moderate/middle of the road","",NA,"","offCivRatings","the officer shouted ""get your fucking hands up!"" at the civilian","the civilian shot the officer in the chest with a handgun","handsUp","handgunChest","civilianOfficer","appropriateOff","45","","","",""
"84",2683,"{""Q0"":56}","[object Object]","survey-likert",83,252742,"0.0-83.0","cn72lnv1r0grokc1t1wm82ofcz8wes2r","Sun Apr 23 2017 23:50:23 GMT-0400 (EDT)","female","Asian","moderate/middle of the road","",NA,"","offCivRatings","the officer shouted ""get your fucking hands up!"" at the civilian","the civilian shot the officer in the chest with a handgun","handsUp","handgunChest","civilianOfficer","acceptableOff","56","","","",""
"85",1490,"{""Q0"":46}","[object Object]","survey-likert",84,254237,"0.0-84.0","cn72lnv1r0grokc1t1wm82ofcz8wes2r","Sun Apr 23 2017 23:50:23 GMT-0400 (EDT)","female","Asian","moderate/middle of the road","",NA,"","offCivRatings","the officer shouted ""get your fucking hands up!"" at the civilian","the civilian shot the officer in the chest with a handgun","handsUp","handgunChest","civilianOfficer","punishOff","46","","","",""
"86",1583,"{""Q0"":56}","[object Object]","survey-likert",85,255826,"0.0-85.0","cn72lnv1r0grokc1t1wm82ofcz8wes2r","Sun Apr 23 2017 23:50:23 GMT-0400 (EDT)","female","Asian","moderate/middle of the road","",NA,"","offCivRatings","the officer shouted ""get your fucking hands up!"" at the civilian","the civilian shot the officer in the chest with a handgun","handsUp","handgunChest","civilianOfficer","forceOff","56","","","",""
"87",1548,"","","instructions",86,257375,"0.0-86.0","cn72lnv1r0grokc1t1wm82ofcz8wes2r","Sun Apr 23 2017 23:50:23 GMT-0400 (EDT)","female","Asian","moderate/middle of the road","",NA,"[{""page_index"":0,""viewing_time"":1548}]","break","","","","","","","","","","",""
"88",1115,"{""Q0"":46}","[object Object]","survey-likert",87,258695,"0.0-87.0","cn72lnv1r0grokc1t1wm82ofcz8wes2r","Sun Apr 23 2017 23:50:23 GMT-0400 (EDT)","female","Asian","moderate/middle of the road","",NA,"","offCivRatings","the officer struck the civilian in the stomach with a metal flashlight","the civilian shocked the officer with a tazer","flashlight","tazer","civilianOfficer","punishOff","46","","","",""
"89",5240,"{""Q0"":56}","[object Object]","survey-likert",88,263940,"0.0-88.0","cn72lnv1r0grokc1t1wm82ofcz8wes2r","Sun Apr 23 2017 23:50:23 GMT-0400 (EDT)","female","Asian","moderate/middle of the road","",NA,"","offCivRatings","the officer struck the civilian in the stomach with a metal flashlight","the civilian shocked the officer with a tazer","flashlight","tazer","civilianOfficer","acceptableOff","56","","","",""
"90",1522,"{""Q0"":57}","[object Object]","survey-likert",89,265466,"0.0-89.0","cn72lnv1r0grokc1t1wm82ofcz8wes2r","Sun Apr 23 2017 23:50:23 GMT-0400 (EDT)","female","Asian","moderate/middle of the road","",NA,"","offCivRatings","the officer struck the civilian in the stomach with a metal flashlight","the civilian shocked the officer with a tazer","flashlight","tazer","civilianOfficer","appropriateOff","57","","","",""
"91",2555,"{""Q0"":47}","[object Object]","survey-likert",90,268026,"0.0-90.0","cn72lnv1r0grokc1t1wm82ofcz8wes2r","Sun Apr 23 2017 23:50:23 GMT-0400 (EDT)","female","Asian","moderate/middle of the road","",NA,"","offCivRatings","the officer struck the civilian in the stomach with a metal flashlight","the civilian shocked the officer with a tazer","flashlight","tazer","civilianOfficer","manipCheckLow","47","","","",""
"92",1802,"{""Q0"":54}","[object Object]","survey-likert",91,269832,"0.0-91.0","cn72lnv1r0grokc1t1wm82ofcz8wes2r","Sun Apr 23 2017 23:50:23 GMT-0400 (EDT)","female","Asian","moderate/middle of the road","",NA,"","offCivRatings","the officer struck the civilian in the stomach with a metal flashlight","the civilian shocked the officer with a tazer","flashlight","tazer","civilianOfficer","forceOff","54","","","",""
"93",705,"","","instructions",92,270537,"0.0-92.0","cn72lnv1r0grokc1t1wm82ofcz8wes2r","Sun Apr 23 2017 23:50:23 GMT-0400 (EDT)","female","Asian","moderate/middle of the road","",NA,"[{""page_index"":0,""viewing_time"":705}]","break","","","","","","","","","","",""
"94",2166,"{""Q0"":55}","[object Object]","survey-likert",93,272911,"0.0-93.0","cn72lnv1r0grokc1t1wm82ofcz8wes2r","Sun Apr 23 2017 23:50:23 GMT-0400 (EDT)","female","Asian","moderate/middle of the road","",NA,"","offCivRatings","the officer sprayed the civilian with pepper spray","the civilian stood near the officer","pepperSpray","stoodNear","officerCivilian","acceptableCiv","55","","","",""
"95",1561,"{""Q0"":47}","[object Object]","survey-likert",94,274477,"0.0-94.0","cn72lnv1r0grokc1t1wm82ofcz8wes2r","Sun Apr 23 2017 23:50:23 GMT-0400 (EDT)","female","Asian","moderate/middle of the road","",NA,"","offCivRatings","the officer sprayed the civilian with pepper spray","the civilian stood near the officer","pepperSpray","stoodNear","officerCivilian","appropriateCiv","47","","","",""
"96",1620,"{""Q0"":55}","[object Object]","survey-likert",95,276102,"0.0-95.0","cn72lnv1r0grokc1t1wm82ofcz8wes2r","Sun Apr 23 2017 23:50:23 GMT-0400 (EDT)","female","Asian","moderate/middle of the road","",NA,"","offCivRatings","the officer sprayed the civilian with pepper spray","the civilian stood near the officer","pepperSpray","stoodNear","officerCivilian","manipCheckHigh","55","","","",""
"97",1571,"{""Q0"":56}","[object Object]","survey-likert",96,277677,"0.0-96.0","cn72lnv1r0grokc1t1wm82ofcz8wes2r","Sun Apr 23 2017 23:50:23 GMT-0400 (EDT)","female","Asian","moderate/middle of the road","",NA,"","offCivRatings","the officer sprayed the civilian with pepper spray","the civilian stood near the officer","pepperSpray","stoodNear","officerCivilian","punishCiv","56","","","",""
"98",1675,"{""Q0"":55}","[object Object]","survey-likert",97,279356,"0.0-97.0","cn72lnv1r0grokc1t1wm82ofcz8wes2r","Sun Apr 23 2017 23:50:23 GMT-0400 (EDT)","female","Asian","moderate/middle of the road","",NA,"","offCivRatings","the officer sprayed the civilian with pepper spray","the civilian stood near the officer","pepperSpray","stoodNear","officerCivilian","forceCiv","55","","","",""
"99",778,"","","instructions",98,280135,"0.0-98.0","cn72lnv1r0grokc1t1wm82ofcz8wes2r","Sun Apr 23 2017 23:50:23 GMT-0400 (EDT)","female","Asian","moderate/middle of the road","",NA,"[{""page_index"":0,""viewing_time"":778}]","break","","","","","","","","","","",""
"100",1191,"{""Q0"":56}","[object Object]","survey-likert",99,281537,"0.0-99.0","cn72lnv1r0grokc1t1wm82ofcz8wes2r","Sun Apr 23 2017 23:50:23 GMT-0400 (EDT)","female","Asian","moderate/middle of the road","",NA,"","offCivRatings","the officer called the civilian a ""thug""","the civilian kicked the officer in the stomach","nameCall","kickStom","civilianOfficer","forceOff","56","","","",""
"101",1811,"{""Q0"":53}","[object Object]","survey-likert",100,283352,"0.0-100.0","cn72lnv1r0grokc1t1wm82ofcz8wes2r","Sun Apr 23 2017 23:50:23 GMT-0400 (EDT)","female","Asian","moderate/middle of the road","",NA,"","offCivRatings","the officer called the civilian a ""thug""","the civilian kicked the officer in the stomach","nameCall","kickStom","civilianOfficer","acceptableOff","53","","","",""
"102",1598,"{""Q0"":55}","[object Object]","survey-likert",101,284954,"0.0-101.0","cn72lnv1r0grokc1t1wm82ofcz8wes2r","Sun Apr 23 2017 23:50:23 GMT-0400 (EDT)","female","Asian","moderate/middle of the road","",NA,"","offCivRatings","the officer called the civilian a ""thug""","the civilian kicked the officer in the stomach","nameCall","kickStom","civilianOfficer","punishOff","55","","","",""
"103",1647,"{""Q0"":54}","[object Object]","survey-likert",102,286606,"0.0-102.0","cn72lnv1r0grokc1t1wm82ofcz8wes2r","Sun Apr 23 2017 23:50:23 GMT-0400 (EDT)","female","Asian","moderate/middle of the road","",NA,"","offCivRatings","the officer called the civilian a ""thug""","the civilian kicked the officer in the stomach","nameCall","kickStom","civilianOfficer","appropriateOff","54","","","",""
"104",729,"","","instructions",103,287336,"0.0-103.0","cn72lnv1r0grokc1t1wm82ofcz8wes2r","Sun Apr 23 2017 23:50:23 GMT-0400 (EDT)","female","Asian","moderate/middle of the road","",NA,"[{""page_index"":0,""viewing_time"":729}]","break","","","","","","","","","","",""
"105",1056,"{""Q0"":47}","[object Object]","survey-likert",104,288600,"0.0-104.0","cn72lnv1r0grokc1t1wm82ofcz8wes2r","Sun Apr 23 2017 23:50:23 GMT-0400 (EDT)","female","Asian","moderate/middle of the road","",NA,"","offCivRatings","the officer purposefully struck the civilian with a motor vehicle","the civilian headbutted the officer in the face","vehicle","headbutt","civilianOfficer","acceptableOff","47","","","",""
"106",1484,"{""Q0"":52}","[object Object]","survey-likert",105,290088,"0.0-105.0","cn72lnv1r0grokc1t1wm82ofcz8wes2r","Sun Apr 23 2017 23:50:23 GMT-0400 (EDT)","female","Asian","moderate/middle of the road","",NA,"","offCivRatings","the officer purposefully struck the civilian with a motor vehicle","the civilian headbutted the officer in the face","vehicle","headbutt","civilianOfficer","punishOff","52","","","",""
"107",1754,"{""Q0"":71}","[object Object]","survey-likert",106,291846,"0.0-106.0","cn72lnv1r0grokc1t1wm82ofcz8wes2r","Sun Apr 23 2017 23:50:23 GMT-0400 (EDT)","female","Asian","moderate/middle of the road","",NA,"","offCivRatings","the officer purposefully struck the civilian with a motor vehicle","the civilian headbutted the officer in the face","vehicle","headbutt","civilianOfficer","forceOff","71","","","",""
"108",1457,"{""Q0"":48}","[object Object]","survey-likert",107,293308,"0.0-107.0","cn72lnv1r0grokc1t1wm82ofcz8wes2r","Sun Apr 23 2017 23:50:23 GMT-0400 (EDT)","female","Asian","moderate/middle of the road","",NA,"","offCivRatings","the officer purposefully struck the civilian with a motor vehicle","the civilian headbutted the officer in the face","vehicle","headbutt","civilianOfficer","appropriateOff","48","","","",""
"109",771,"","","instructions",108,294079,"0.0-108.0","cn72lnv1r0grokc1t1wm82ofcz8wes2r","Sun Apr 23 2017 23:50:23 GMT-0400 (EDT)","female","Asian","moderate/middle of the road","",NA,"[{""page_index"":0,""viewing_time"":771}]","break","","","","","","","","","","",""
"110",4851,"{""Q0"":54}","[object Object]","survey-likert",109,299140,"0.0-109.0","cn72lnv1r0grokc1t1wm82ofcz8wes2r","Sun Apr 23 2017 23:50:23 GMT-0400 (EDT)","female","Asian","moderate/middle of the road","",NA,"","offCivRatings","the officer shot the civilian in the head with a handgun","the civilian slammed the officer's head into the concrete curb","handgunHead","headSlam","civilianOfficer","punishOff","54","","","",""
"111",2409,"{""Q0"":53}","[object Object]","survey-likert",110,301554,"0.0-110.0","cn72lnv1r0grokc1t1wm82ofcz8wes2r","Sun Apr 23 2017 23:50:23 GMT-0400 (EDT)","female","Asian","moderate/middle of the road","",NA,"","offCivRatings","the officer shot the civilian in the head with a handgun","the civilian slammed the officer's head into the concrete curb","handgunHead","headSlam","civilianOfficer","appropriateOff","53","","","",""
"112",1499,"{""Q0"":55}","[object Object]","survey-likert",111,303058,"0.0-111.0","cn72lnv1r0grokc1t1wm82ofcz8wes2r","Sun Apr 23 2017 23:50:23 GMT-0400 (EDT)","female","Asian","moderate/middle of the road","",NA,"","offCivRatings","the officer shot the civilian in the head with a handgun","the civilian slammed the officer's head into the concrete curb","handgunHead","headSlam","civilianOfficer","acceptableOff","55","","","",""
"113",1570,"{""Q0"":58}","[object Object]","survey-likert",112,304634,"0.0-112.0","cn72lnv1r0grokc1t1wm82ofcz8wes2r","Sun Apr 23 2017 23:50:23 GMT-0400 (EDT)","female","Asian","moderate/middle of the road","",NA,"","offCivRatings","the officer shot the civilian in the head with a handgun","the civilian slammed the officer's head into the concrete curb","handgunHead","headSlam","civilianOfficer","forceOff","58","","","",""
"114",785,"","","instructions",113,305419,"0.0-113.0","cn72lnv1r0grokc1t1wm82ofcz8wes2r","Sun Apr 23 2017 23:50:23 GMT-0400 (EDT)","female","Asian","moderate/middle of the road","",NA,"[{""page_index"":0,""viewing_time"":784}]","break","","","","","","","","","","",""
"115",1360,"{""Q0"":56}","[object Object]","survey-likert",114,306986,"0.0-114.0","cn72lnv1r0grokc1t1wm82ofcz8wes2r","Sun Apr 23 2017 23:50:23 GMT-0400 (EDT)","female","Asian","moderate/middle of the road","",NA,"","offCivRatings","the officer headbutted the civilian in the face","the civilian purposefully struck the officer with a motor vehicle","headbutt","vehicle","civilianOfficer","punishOff","56","","","",""
"116",2232,"{""Q0"":56}","[object Object]","survey-likert",115,309222,"0.0-115.0","cn72lnv1r0grokc1t1wm82ofcz8wes2r","Sun Apr 23 2017 23:50:23 GMT-0400 (EDT)","female","Asian","moderate/middle of the road","",NA,"","offCivRatings","the officer headbutted the civilian in the face","the civilian purposefully struck the officer with a motor vehicle","headbutt","vehicle","civilianOfficer","acceptableOff","56","","","",""
"117",2141,"{""Q0"":61}","[object Object]","survey-likert",116,311367,"0.0-116.0","cn72lnv1r0grokc1t1wm82ofcz8wes2r","Sun Apr 23 2017 23:50:23 GMT-0400 (EDT)","female","Asian","moderate/middle of the road","",NA,"","offCivRatings","the officer headbutted the civilian in the face","the civilian purposefully struck the officer with a motor vehicle","headbutt","vehicle","civilianOfficer","forceOff","61","","","",""
"118",1559,"{""Q0"":57}","[object Object]","survey-likert",117,312932,"0.0-117.0","cn72lnv1r0grokc1t1wm82ofcz8wes2r","Sun Apr 23 2017 23:50:23 GMT-0400 (EDT)","female","Asian","moderate/middle of the road","",NA,"","offCivRatings","the officer headbutted the civilian in the face","the civilian purposefully struck the officer with a motor vehicle","headbutt","vehicle","civilianOfficer","appropriateOff","57","","","",""
"119",728,"","","instructions",118,313661,"0.0-118.0","cn72lnv1r0grokc1t1wm82ofcz8wes2r","Sun Apr 23 2017 23:50:23 GMT-0400 (EDT)","female","Asian","moderate/middle of the road","",NA,"[{""page_index"":0,""viewing_time"":728}]","break","","","","","","","","","","",""
"120",1011,"{""Q0"":58}","[object Object]","survey-likert",119,314879,"0.0-119.0","cn72lnv1r0grokc1t1wm82ofcz8wes2r","Sun Apr 23 2017 23:50:23 GMT-0400 (EDT)","female","Asian","moderate/middle of the road","",NA,"","offCivRatings","the officer said ""if you touch me, you're gonna get hurt"" to the civilian","the civilian punched the officer in the face","hurtThreat","punchFace","officerCivilian","appropriateCiv","58","","","",""
"121",1132,"{""Q0"":43}","[object Object]","survey-likert",120,316016,"0.0-120.0","cn72lnv1r0grokc1t1wm82ofcz8wes2r","Sun Apr 23 2017 23:50:23 GMT-0400 (EDT)","female","Asian","moderate/middle of the road","",NA,"","offCivRatings","the officer said ""if you touch me, you're gonna get hurt"" to the civilian","the civilian punched the officer in the face","hurtThreat","punchFace","officerCivilian","acceptableCiv","43","","","",""
"122",2530,"{""Q0"":54}","[object Object]","survey-likert",121,318550,"0.0-121.0","cn72lnv1r0grokc1t1wm82ofcz8wes2r","Sun Apr 23 2017 23:50:23 GMT-0400 (EDT)","female","Asian","moderate/middle of the road","",NA,"","offCivRatings","the officer said ""if you touch me, you're gonna get hurt"" to the civilian","the civilian punched the officer in the face","hurtThreat","punchFace","officerCivilian","punishCiv","54","","","",""
"123",1263,"{""Q0"":46}","[object Object]","survey-likert",122,319817,"0.0-122.0","cn72lnv1r0grokc1t1wm82ofcz8wes2r","Sun Apr 23 2017 23:50:23 GMT-0400 (EDT)","female","Asian","moderate/middle of the road","",NA,"","offCivRatings","the officer said ""if you touch me, you're gonna get hurt"" to the civilian","the civilian punched the officer in the face","hurtThreat","punchFace","officerCivilian","forceCiv","46","","","",""
"124",733,"","","instructions",123,320550,"0.0-123.0","cn72lnv1r0grokc1t1wm82ofcz8wes2r","Sun Apr 23 2017 23:50:23 GMT-0400 (EDT)","female","Asian","moderate/middle of the road","",NA,"[{""page_index"":0,""viewing_time"":733}]","break","","","","","","","","","","",""
"125",1677,"{""Q0"":54}","[object Object]","survey-likert",124,322434,"0.0-124.0","cn72lnv1r0grokc1t1wm82ofcz8wes2r","Sun Apr 23 2017 23:50:23 GMT-0400 (EDT)","female","Asian","moderate/middle of the road","",NA,"","policeLegitimacy","","","","","","","54","doReasons","feltObligation","",""
"126",7056,"{""Q0"":18}","[object Object]","survey-likert",125,329494,"0.0-125.0","cn72lnv1r0grokc1t1wm82ofcz8wes2r","Sun Apr 23 2017 23:50:23 GMT-0400 (EDT)","female","Asian","moderate/middle of the road","",NA,"","policeLegitimacy","","","","","","","18","doTreat","feltObligation","",""
"127",5272,"{""Q0"":58}","[object Object]","survey-likert",126,334771,"0.0-126.0","cn72lnv1r0grokc1t1wm82ofcz8wes2r","Sun Apr 23 2017 23:50:23 GMT-0400 (EDT)","female","Asian","moderate/middle of the road","",NA,"","policeLegitimacy","","","","","","","58","communityWants","normAlignment","",""
"128",4488,"{""Q0"":72}","[object Object]","survey-likert",127,339263,"0.0-127.0","cn72lnv1r0grokc1t1wm82ofcz8wes2r","Sun Apr 23 2017 23:50:23 GMT-0400 (EDT)","female","Asian","moderate/middle of the road","",NA,"","policeLegitimacy","","","","","","","72","rightWrong","normAlignment","",""
"129",3806,"{""Q0"":78}","[object Object]","survey-likert",128,343073,"0.0-128.0","cn72lnv1r0grokc1t1wm82ofcz8wes2r","Sun Apr 23 2017 23:50:23 GMT-0400 (EDT)","female","Asian","moderate/middle of the road","",NA,"","policeLegitimacy","","","","","","","78","importantValues","normAlignment","",""
"130",5691,"{""Q0"":30}","[object Object]","survey-likert",129,348768,"0.0-129.0","cn72lnv1r0grokc1t1wm82ofcz8wes2r","Sun Apr 23 2017 23:50:23 GMT-0400 (EDT)","female","Asian","moderate/middle of the road","",NA,"","policeLegitimacy","","","","","","","30","support","feltObligation","",""
"131",4939,"{""Q0"":""no""}","[object Object]","survey-multi-choice2",130,353712,"0.0-130.0","cn72lnv1r0grokc1t1wm82ofcz8wes2r","Sun Apr 23 2017 23:50:23 GMT-0400 (EDT)","female","Asian","moderate/middle of the road","",NA,"","policeExperience","","","","","","","no","excessForce","","vicarious","Have the police ever used excessive force against anyone in your household?"
"132",5191,"{""Q0"":""no""}","[object Object]","survey-multi-choice2",131,358905,"0.0-131.0","cn72lnv1r0grokc1t1wm82ofcz8wes2r","Sun Apr 23 2017 23:50:23 GMT-0400 (EDT)","female","Asian","moderate/middle of the road","",NA,"","policeExperience","","","","","","","no","stopped","","personal","Have you ever been stopped by the police on the street without good reason?"
"133",4123,"{""Q0"":""no""}","[object Object]","survey-multi-choice2",132,363031,"0.0-132.0","cn72lnv1r0grokc1t1wm82ofcz8wes2r","Sun Apr 23 2017 23:50:23 GMT-0400 (EDT)","female","Asian","moderate/middle of the road","",NA,"","policeExperience","","","","","","","no","stopped","","vicarious","Has anyone in your household ever been stopped on the street by the police without good reason?"
"134",14578,"{""Q0"":""no""}","[object Object]","survey-multi-choice2",133,377610,"0.0-133.0","cn72lnv1r0grokc1t1wm82ofcz8wes2r","Sun Apr 23 2017 23:50:23 GMT-0400 (EDT)","female","Asian","moderate/middle of the road","",NA,"","policeExperience","","","","","","","no","insultLang","","vicarious","Have the police ever used insulting language toward anyone in your household?"
"135",1958,"{""Q0"":""no""}","[object Object]","survey-multi-choice2",134,379570,"0.0-134.0","cn72lnv1r0grokc1t1wm82ofcz8wes2r","Sun Apr 23 2017 23:50:23 GMT-0400 (EDT)","female","Asian","moderate/middle of the road","",NA,"","policeExperience","","","","","","","no","insultLang","","personal","Have the police ever used insulting language toward you?"
"136",1509,"{""Q0"":""no""}","[object Object]","survey-multi-choice2",135,381080,"0.0-135.0","cn72lnv1r0grokc1t1wm82ofcz8wes2r","Sun Apr 23 2017 23:50:23 GMT-0400 (EDT)","female","Asian","moderate/middle of the road","",NA,"","policeExperience","","","","","","","no","excessForce","","personal","Have the police ever used excessive force against you?"
"137",4359,"{""Q0"":""no""}","[object Object]","survey-multi-choice2",136,385441,"0.0-136.0","cn72lnv1r0grokc1t1wm82ofcz8wes2r","Sun Apr 23 2017 23:50:23 GMT-0400 (EDT)","female","Asian","moderate/middle of the road","",NA,"","policeExperience","","","","","","","no","corrupt","","personal","Have you ever seen a police officer engage in any corrupt activities (e.g., taking bribes or involvement in the drug trade)?"
"138",10578,"{""Q0"":""female"",""Q1"":""Asian"",""Q2"":""moderate/middle of the road""}","[object Object]","survey-multi-choice",137,396028,"0.0-137.0","cn72lnv1r0grokc1t1wm82ofcz8wes2r","Sun Apr 23 2017 23:50:23 GMT-0400 (EDT)","female","Asian","moderate/middle of the road","",NA,"","demographics","","","","","","","","","","",""
"139",4453,"","","instructions",138,401482,"0.0-138.0","cn72lnv1r0grokc1t1wm82ofcz8wes2r","Sun Apr 23 2017 23:50:23 GMT-0400 (EDT)","female","Asian","moderate/middle of the road","",NA,"[{""page_index"":0,""viewing_time"":1499},{""page_index"":1,""viewing_time"":1236},{""page_index"":2,""viewing_time"":585},{""page_index"":3,""viewing_time"":1132}]","debriefing","","","","","","","","","","",""
