"","rt","responses","internalResp","trial_type","trial_index","time_elapsed","internal_node_id","randSubjectID","date","sex","race","polAff","stimulus","key_press","view_history","questionType","officerAction","civilianAction","offActName","civActName","order","questionName","response","name","dimension","person","question"
"1",4883753,"","[object Object]","survey-text",0,4883760,"0.0-0.0","eau89fypdsjhvecrjkrm9a6vx2fb4g6r","Wed Apr 05 2017 02:22:14 GMT-0400 (EDT)","female","Hispanic or Latino","moderate/middle of the road","",NA,"","","","","","","","","","","","",""
"2",21801,"","","single-stim",1,4906569,"0.0-1.0","eau89fypdsjhvecrjkrm9a6vx2fb4g6r","Wed Apr 05 2017 02:22:14 GMT-0400 (EDT)","female","Hispanic or Latino","moderate/middle of the road","<img src='static/images/1602685960_ICS_Credit-0.png' alt='Consent 1' height=1100 width=850><img src='static/images/1602685960_ICS_Credit-1.png' alt='Consent 2' height=1100 width=850></p>",89,"","","","","","","","","","","","",""
"3",2878,"","","instructions",2,4910451,"0.0-2.0","eau89fypdsjhvecrjkrm9a6vx2fb4g6r","Wed Apr 05 2017 02:22:14 GMT-0400 (EDT)","female","Hispanic or Latino","moderate/middle of the road","",NA,"[{""page_index"":0,""viewing_time"":2877}]","instructions","","","","","","","","","","",""
"4",59292,"","","instructions",3,4970745,"0.0-3.0","eau89fypdsjhvecrjkrm9a6vx2fb4g6r","Wed Apr 05 2017 02:22:14 GMT-0400 (EDT)","female","Hispanic or Latino","moderate/middle of the road","",NA,"[{""page_index"":0,""viewing_time"":17799},{""page_index"":1,""viewing_time"":11911},{""page_index"":2,""viewing_time"":25184},{""page_index"":3,""viewing_time"":4398}]","instructions","","","","","","","","","","",""
"5",74564,"{""Q0"":1}","[object Object]","survey-likert",4,5046379,"0.0-4.0","eau89fypdsjhvecrjkrm9a6vx2fb4g6r","Wed Apr 05 2017 02:22:14 GMT-0400 (EDT)","female","Hispanic or Latino","moderate/middle of the road","",NA,"","offCivRatings","the officer stood near the civilian","the civilian purposefully struck the officer with a motor vehicle","stoodNear","vehicle","civilianOfficer","punishOff","1","","","",""
"6",18223,"{""Q0"":1}","[object Object]","survey-likert",5,5064616,"0.0-5.0","eau89fypdsjhvecrjkrm9a6vx2fb4g6r","Wed Apr 05 2017 02:22:14 GMT-0400 (EDT)","female","Hispanic or Latino","moderate/middle of the road","",NA,"","offCivRatings","the officer stood near the civilian","the civilian purposefully struck the officer with a motor vehicle","stoodNear","vehicle","civilianOfficer","forceOff","1","","","",""
"7",11124,"{""Q0"":100}","[object Object]","survey-likert",6,5075751,"0.0-6.0","eau89fypdsjhvecrjkrm9a6vx2fb4g6r","Wed Apr 05 2017 02:22:14 GMT-0400 (EDT)","female","Hispanic or Latino","moderate/middle of the road","",NA,"","offCivRatings","the officer stood near the civilian","the civilian purposefully struck the officer with a motor vehicle","stoodNear","vehicle","civilianOfficer","acceptableOff","100","","","",""
"8",13029,"{""Q0"":50}","[object Object]","survey-likert",7,5088789,"0.0-7.0","eau89fypdsjhvecrjkrm9a6vx2fb4g6r","Wed Apr 05 2017 02:22:14 GMT-0400 (EDT)","female","Hispanic or Latino","moderate/middle of the road","",NA,"","offCivRatings","the officer stood near the civilian","the civilian purposefully struck the officer with a motor vehicle","stoodNear","vehicle","civilianOfficer","appropriateOff","50","","","",""
"9",2748,"","","instructions",8,5091538,"0.0-8.0","eau89fypdsjhvecrjkrm9a6vx2fb4g6r","Wed Apr 05 2017 02:22:14 GMT-0400 (EDT)","female","Hispanic or Latino","moderate/middle of the road","",NA,"[{""page_index"":0,""viewing_time"":2748}]","break","","","","","","","","","","",""
"10",39306,"{""Q0"":79}","[object Object]","survey-likert",9,5131056,"0.0-9.0","eau89fypdsjhvecrjkrm9a6vx2fb4g6r","Wed Apr 05 2017 02:22:14 GMT-0400 (EDT)","female","Hispanic or Latino","moderate/middle of the road","",NA,"","offCivRatings","the officer punched the civilian in the face","the civilian shouted ""I don't have to fucking listen to you!"" at the officer","punchFace","dontListen","civilianOfficer","acceptableOff","79","","","",""
"11",7085,"{""Q0"":25}","[object Object]","survey-likert",10,5138150,"0.0-10.0","eau89fypdsjhvecrjkrm9a6vx2fb4g6r","Wed Apr 05 2017 02:22:14 GMT-0400 (EDT)","female","Hispanic or Latino","moderate/middle of the road","",NA,"","offCivRatings","the officer punched the civilian in the face","the civilian shouted ""I don't have to fucking listen to you!"" at the officer","punchFace","dontListen","civilianOfficer","punishOff","25","","","",""
"12",22717,"{""Q0"":100}","[object Object]","survey-likert",11,5160876,"0.0-11.0","eau89fypdsjhvecrjkrm9a6vx2fb4g6r","Wed Apr 05 2017 02:22:14 GMT-0400 (EDT)","female","Hispanic or Latino","moderate/middle of the road","",NA,"","offCivRatings","the officer punched the civilian in the face","the civilian shouted ""I don't have to fucking listen to you!"" at the officer","punchFace","dontListen","civilianOfficer","manipCheckHigh","100","","","",""
"13",13678,"{""Q0"":71}","[object Object]","survey-likert",12,5174562,"0.0-12.0","eau89fypdsjhvecrjkrm9a6vx2fb4g6r","Wed Apr 05 2017 02:22:14 GMT-0400 (EDT)","female","Hispanic or Latino","moderate/middle of the road","",NA,"","offCivRatings","the officer punched the civilian in the face","the civilian shouted ""I don't have to fucking listen to you!"" at the officer","punchFace","dontListen","civilianOfficer","forceOff","71","","","",""
"14",10373,"{""Q0"":50}","[object Object]","survey-likert",13,5184943,"0.0-13.0","eau89fypdsjhvecrjkrm9a6vx2fb4g6r","Wed Apr 05 2017 02:22:14 GMT-0400 (EDT)","female","Hispanic or Latino","moderate/middle of the road","",NA,"","offCivRatings","the officer punched the civilian in the face","the civilian shouted ""I don't have to fucking listen to you!"" at the officer","punchFace","dontListen","civilianOfficer","appropriateOff","50","","","",""
"15",1158,"","","instructions",14,5186101,"0.0-14.0","eau89fypdsjhvecrjkrm9a6vx2fb4g6r","Wed Apr 05 2017 02:22:14 GMT-0400 (EDT)","female","Hispanic or Latino","moderate/middle of the road","",NA,"[{""page_index"":0,""viewing_time"":1158}]","break","","","","","","","","","","",""
"16",30178,"{""Q0"":50}","[object Object]","survey-likert",15,5216488,"0.0-15.0","eau89fypdsjhvecrjkrm9a6vx2fb4g6r","Wed Apr 05 2017 02:22:14 GMT-0400 (EDT)","female","Hispanic or Latino","moderate/middle of the road","",NA,"","offCivRatings","the officer called the civilian a ""thug""","the civilian pulled away from the officer","nameCall","pulledAway","officerCivilian","punishCiv","50","","","",""
"17",10478,"{""Q0"":54}","[object Object]","survey-likert",16,5226975,"0.0-16.0","eau89fypdsjhvecrjkrm9a6vx2fb4g6r","Wed Apr 05 2017 02:22:14 GMT-0400 (EDT)","female","Hispanic or Latino","moderate/middle of the road","",NA,"","offCivRatings","the officer called the civilian a ""thug""","the civilian pulled away from the officer","nameCall","pulledAway","officerCivilian","forceCiv","54","","","",""
"18",14460,"{""Q0"":100}","[object Object]","survey-likert",17,5241443,"0.0-17.0","eau89fypdsjhvecrjkrm9a6vx2fb4g6r","Wed Apr 05 2017 02:22:14 GMT-0400 (EDT)","female","Hispanic or Latino","moderate/middle of the road","",NA,"","offCivRatings","the officer called the civilian a ""thug""","the civilian pulled away from the officer","nameCall","pulledAway","officerCivilian","manipCheckHigh","100","","","",""
"19",15118,"{""Q0"":71}","[object Object]","survey-likert",18,5256569,"0.0-18.0","eau89fypdsjhvecrjkrm9a6vx2fb4g6r","Wed Apr 05 2017 02:22:14 GMT-0400 (EDT)","female","Hispanic or Latino","moderate/middle of the road","",NA,"","offCivRatings","the officer called the civilian a ""thug""","the civilian pulled away from the officer","nameCall","pulledAway","officerCivilian","appropriateCiv","71","","","",""
"20",8918,"{""Q0"":1}","[object Object]","survey-likert",19,5265496,"0.0-19.0","eau89fypdsjhvecrjkrm9a6vx2fb4g6r","Wed Apr 05 2017 02:22:14 GMT-0400 (EDT)","female","Hispanic or Latino","moderate/middle of the road","",NA,"","offCivRatings","the officer called the civilian a ""thug""","the civilian pulled away from the officer","nameCall","pulledAway","officerCivilian","acceptableCiv","1","","","",""
"21",1319,"","","instructions",20,5266815,"0.0-20.0","eau89fypdsjhvecrjkrm9a6vx2fb4g6r","Wed Apr 05 2017 02:22:14 GMT-0400 (EDT)","female","Hispanic or Latino","moderate/middle of the road","",NA,"[{""page_index"":0,""viewing_time"":1319}]","break","","","","","","","","","","",""
"22",13597,"{""Q0"":1}","[object Object]","survey-likert",21,5280620,"0.0-21.0","eau89fypdsjhvecrjkrm9a6vx2fb4g6r","Wed Apr 05 2017 02:22:14 GMT-0400 (EDT)","female","Hispanic or Latino","moderate/middle of the road","",NA,"","offCivRatings","the officer sprayed the civilian with pepper spray","the civilian yelled ""get back!"" at the officer","pepperSpray","getBack","civilianOfficer","punishOff","1","","","",""
"23",6448,"{""Q0"":60}","[object Object]","survey-likert",22,5287074,"0.0-22.0","eau89fypdsjhvecrjkrm9a6vx2fb4g6r","Wed Apr 05 2017 02:22:14 GMT-0400 (EDT)","female","Hispanic or Latino","moderate/middle of the road","",NA,"","offCivRatings","the officer sprayed the civilian with pepper spray","the civilian yelled ""get back!"" at the officer","pepperSpray","getBack","civilianOfficer","forceOff","60","","","",""
"24",10502,"{""Q0"":83}","[object Object]","survey-likert",23,5297582,"0.0-23.0","eau89fypdsjhvecrjkrm9a6vx2fb4g6r","Wed Apr 05 2017 02:22:14 GMT-0400 (EDT)","female","Hispanic or Latino","moderate/middle of the road","",NA,"","offCivRatings","the officer sprayed the civilian with pepper spray","the civilian yelled ""get back!"" at the officer","pepperSpray","getBack","civilianOfficer","acceptableOff","83","","","",""
"25",9680,"{""Q0"":50}","[object Object]","survey-likert",24,5307268,"0.0-24.0","eau89fypdsjhvecrjkrm9a6vx2fb4g6r","Wed Apr 05 2017 02:22:14 GMT-0400 (EDT)","female","Hispanic or Latino","moderate/middle of the road","",NA,"","offCivRatings","the officer sprayed the civilian with pepper spray","the civilian yelled ""get back!"" at the officer","pepperSpray","getBack","civilianOfficer","appropriateOff","50","","","",""
"26",1104,"","","instructions",25,5308373,"0.0-25.0","eau89fypdsjhvecrjkrm9a6vx2fb4g6r","Wed Apr 05 2017 02:22:14 GMT-0400 (EDT)","female","Hispanic or Latino","moderate/middle of the road","",NA,"[{""page_index"":0,""viewing_time"":1104}]","break","","","","","","","","","","",""
"27",47501,"{""Q0"":100}","[object Object]","survey-likert",26,5356083,"0.0-26.0","eau89fypdsjhvecrjkrm9a6vx2fb4g6r","Wed Apr 05 2017 02:22:14 GMT-0400 (EDT)","female","Hispanic or Latino","moderate/middle of the road","",NA,"","offCivRatings","the officer shot the civilian in the chest with a handgun","the civilian asked the officer how he was doing","handgunChest","asked","officerCivilian","acceptableCiv","100","","","",""
"28",8293,"{""Q0"":1}","[object Object]","survey-likert",27,5364383,"0.0-27.0","eau89fypdsjhvecrjkrm9a6vx2fb4g6r","Wed Apr 05 2017 02:22:14 GMT-0400 (EDT)","female","Hispanic or Latino","moderate/middle of the road","",NA,"","offCivRatings","the officer shot the civilian in the chest with a handgun","the civilian asked the officer how he was doing","handgunChest","asked","officerCivilian","punishCiv","1","","","",""
"29",3419,"{""Q0"":100}","[object Object]","survey-likert",28,5367808,"0.0-28.0","eau89fypdsjhvecrjkrm9a6vx2fb4g6r","Wed Apr 05 2017 02:22:14 GMT-0400 (EDT)","female","Hispanic or Latino","moderate/middle of the road","",NA,"","offCivRatings","the officer shot the civilian in the chest with a handgun","the civilian asked the officer how he was doing","handgunChest","asked","officerCivilian","manipCheckHigh","100","","","",""
"30",11961,"{""Q0"":50}","[object Object]","survey-likert",29,5379775,"0.0-29.0","eau89fypdsjhvecrjkrm9a6vx2fb4g6r","Wed Apr 05 2017 02:22:14 GMT-0400 (EDT)","female","Hispanic or Latino","moderate/middle of the road","",NA,"","offCivRatings","the officer shot the civilian in the chest with a handgun","the civilian asked the officer how he was doing","handgunChest","asked","officerCivilian","appropriateCiv","50","","","",""
"31",5671,"{""Q0"":1}","[object Object]","survey-likert",30,5385453,"0.0-30.0","eau89fypdsjhvecrjkrm9a6vx2fb4g6r","Wed Apr 05 2017 02:22:14 GMT-0400 (EDT)","female","Hispanic or Latino","moderate/middle of the road","",NA,"","offCivRatings","the officer shot the civilian in the chest with a handgun","the civilian asked the officer how he was doing","handgunChest","asked","officerCivilian","forceCiv","1","","","",""
"32",1168,"","","instructions",31,5386621,"0.0-31.0","eau89fypdsjhvecrjkrm9a6vx2fb4g6r","Wed Apr 05 2017 02:22:14 GMT-0400 (EDT)","female","Hispanic or Latino","moderate/middle of the road","",NA,"[{""page_index"":0,""viewing_time"":1167}]","break","","","","","","","","","","",""
"33",13702,"{""Q0"":1}","[object Object]","survey-likert",32,5400530,"0.0-32.0","eau89fypdsjhvecrjkrm9a6vx2fb4g6r","Wed Apr 05 2017 02:22:14 GMT-0400 (EDT)","female","Hispanic or Latino","moderate/middle of the road","",NA,"","offCivRatings","the officer shouted ""get your fucking hands up!"" at the civilian","the civilian twisted the arm of the officer, forcing him to the ground","handsUp","armbar","officerCivilian","acceptableCiv","1","","","",""
"34",8557,"{""Q0"":76}","[object Object]","survey-likert",33,5409093,"0.0-33.0","eau89fypdsjhvecrjkrm9a6vx2fb4g6r","Wed Apr 05 2017 02:22:14 GMT-0400 (EDT)","female","Hispanic or Latino","moderate/middle of the road","",NA,"","offCivRatings","the officer shouted ""get your fucking hands up!"" at the civilian","the civilian twisted the arm of the officer, forcing him to the ground","handsUp","armbar","officerCivilian","punishCiv","76","","","",""
"35",7319,"{""Q0"":88}","[object Object]","survey-likert",34,5416418,"0.0-34.0","eau89fypdsjhvecrjkrm9a6vx2fb4g6r","Wed Apr 05 2017 02:22:14 GMT-0400 (EDT)","female","Hispanic or Latino","moderate/middle of the road","",NA,"","offCivRatings","the officer shouted ""get your fucking hands up!"" at the civilian","the civilian twisted the arm of the officer, forcing him to the ground","handsUp","armbar","officerCivilian","appropriateCiv","88","","","",""
"36",7832,"{""Q0"":85}","[object Object]","survey-likert",35,5424256,"0.0-35.0","eau89fypdsjhvecrjkrm9a6vx2fb4g6r","Wed Apr 05 2017 02:22:14 GMT-0400 (EDT)","female","Hispanic or Latino","moderate/middle of the road","",NA,"","offCivRatings","the officer shouted ""get your fucking hands up!"" at the civilian","the civilian twisted the arm of the officer, forcing him to the ground","handsUp","armbar","officerCivilian","forceCiv","85","","","",""
"37",1436,"","","instructions",36,5425692,"0.0-36.0","eau89fypdsjhvecrjkrm9a6vx2fb4g6r","Wed Apr 05 2017 02:22:14 GMT-0400 (EDT)","female","Hispanic or Latino","moderate/middle of the road","",NA,"[{""page_index"":0,""viewing_time"":1436}]","break","","","","","","","","","","",""
"38",13287,"{""Q0"":100}","[object Object]","survey-likert",37,5439187,"0.0-37.0","eau89fypdsjhvecrjkrm9a6vx2fb4g6r","Wed Apr 05 2017 02:22:14 GMT-0400 (EDT)","female","Hispanic or Latino","moderate/middle of the road","",NA,"","offCivRatings","the officer put handcuffs on the civilian","the civilian hit the officer in the chest with a baseball bat","handcuff","ballBat","civilianOfficer","acceptableOff","100","","","",""
"39",9521,"{""Q0"":50}","[object Object]","survey-likert",38,5448715,"0.0-38.0","eau89fypdsjhvecrjkrm9a6vx2fb4g6r","Wed Apr 05 2017 02:22:14 GMT-0400 (EDT)","female","Hispanic or Latino","moderate/middle of the road","",NA,"","offCivRatings","the officer put handcuffs on the civilian","the civilian hit the officer in the chest with a baseball bat","handcuff","ballBat","civilianOfficer","appropriateOff","50","","","",""
"40",5382,"{""Q0"":2}","[object Object]","survey-likert",39,5454102,"0.0-39.0","eau89fypdsjhvecrjkrm9a6vx2fb4g6r","Wed Apr 05 2017 02:22:14 GMT-0400 (EDT)","female","Hispanic or Latino","moderate/middle of the road","",NA,"","offCivRatings","the officer put handcuffs on the civilian","the civilian hit the officer in the chest with a baseball bat","handcuff","ballBat","civilianOfficer","punishOff","2","","","",""
"41",4227,"{""Q0"":1}","[object Object]","survey-likert",40,5458335,"0.0-40.0","eau89fypdsjhvecrjkrm9a6vx2fb4g6r","Wed Apr 05 2017 02:22:14 GMT-0400 (EDT)","female","Hispanic or Latino","moderate/middle of the road","",NA,"","offCivRatings","the officer put handcuffs on the civilian","the civilian hit the officer in the chest with a baseball bat","handcuff","ballBat","civilianOfficer","manipCheckLow","1","","","",""
"42",6427,"{""Q0"":65}","[object Object]","survey-likert",41,5464769,"0.0-41.0","eau89fypdsjhvecrjkrm9a6vx2fb4g6r","Wed Apr 05 2017 02:22:14 GMT-0400 (EDT)","female","Hispanic or Latino","moderate/middle of the road","",NA,"","offCivRatings","the officer put handcuffs on the civilian","the civilian hit the officer in the chest with a baseball bat","handcuff","ballBat","civilianOfficer","forceOff","65","","","",""
"43",1127,"","","instructions",42,5465896,"0.0-42.0","eau89fypdsjhvecrjkrm9a6vx2fb4g6r","Wed Apr 05 2017 02:22:14 GMT-0400 (EDT)","female","Hispanic or Latino","moderate/middle of the road","",NA,"[{""page_index"":0,""viewing_time"":1127}]","break","","","","","","","","","","",""
"44",13411,"{""Q0"":70}","[object Object]","survey-likert",43,5479515,"0.0-43.0","eau89fypdsjhvecrjkrm9a6vx2fb4g6r","Wed Apr 05 2017 02:22:14 GMT-0400 (EDT)","female","Hispanic or Latino","moderate/middle of the road","",NA,"","offCivRatings","the officer struck the civilian in the stomach with a metal flashlight","the civilian sprayed the officer with pepper spray","flashlight","pepperSpray","civilianOfficer","forceOff","70","","","",""
"45",18447,"{""Q0"":37}","[object Object]","survey-likert",44,5497968,"0.0-44.0","eau89fypdsjhvecrjkrm9a6vx2fb4g6r","Wed Apr 05 2017 02:22:14 GMT-0400 (EDT)","female","Hispanic or Latino","moderate/middle of the road","",NA,"","offCivRatings","the officer struck the civilian in the stomach with a metal flashlight","the civilian sprayed the officer with pepper spray","flashlight","pepperSpray","civilianOfficer","appropriateOff","37","","","",""
"46",4900,"{""Q0"":1}","[object Object]","survey-likert",45,5502874,"0.0-45.0","eau89fypdsjhvecrjkrm9a6vx2fb4g6r","Wed Apr 05 2017 02:22:14 GMT-0400 (EDT)","female","Hispanic or Latino","moderate/middle of the road","",NA,"","offCivRatings","the officer struck the civilian in the stomach with a metal flashlight","the civilian sprayed the officer with pepper spray","flashlight","pepperSpray","civilianOfficer","acceptableOff","1","","","",""
"47",3610,"{""Q0"":2}","[object Object]","survey-likert",46,5506490,"0.0-46.0","eau89fypdsjhvecrjkrm9a6vx2fb4g6r","Wed Apr 05 2017 02:22:14 GMT-0400 (EDT)","female","Hispanic or Latino","moderate/middle of the road","",NA,"","offCivRatings","the officer struck the civilian in the stomach with a metal flashlight","the civilian sprayed the officer with pepper spray","flashlight","pepperSpray","civilianOfficer","punishOff","2","","","",""
"48",1582,"","","instructions",47,5508072,"0.0-47.0","eau89fypdsjhvecrjkrm9a6vx2fb4g6r","Wed Apr 05 2017 02:22:14 GMT-0400 (EDT)","female","Hispanic or Latino","moderate/middle of the road","",NA,"[{""page_index"":0,""viewing_time"":1582}]","break","","","","","","","","","","",""
"49",22563,"{""Q0"":65}","[object Object]","survey-likert",48,5530843,"0.0-48.0","eau89fypdsjhvecrjkrm9a6vx2fb4g6r","Wed Apr 05 2017 02:22:14 GMT-0400 (EDT)","female","Hispanic or Latino","moderate/middle of the road","",NA,"","offCivRatings","the officer said ""if you touch me, you're gonna get hurt"" to the civilian","the civilian punched the officer in the face","hurtThreat","punchFace","officerCivilian","punishCiv","65","","","",""
"50",6823,"{""Q0"":78}","[object Object]","survey-likert",49,5537671,"0.0-49.0","eau89fypdsjhvecrjkrm9a6vx2fb4g6r","Wed Apr 05 2017 02:22:14 GMT-0400 (EDT)","female","Hispanic or Latino","moderate/middle of the road","",NA,"","offCivRatings","the officer said ""if you touch me, you're gonna get hurt"" to the civilian","the civilian punched the officer in the face","hurtThreat","punchFace","officerCivilian","forceCiv","78","","","",""
"51",6392,"{""Q0"":99}","[object Object]","survey-likert",50,5544068,"0.0-50.0","eau89fypdsjhvecrjkrm9a6vx2fb4g6r","Wed Apr 05 2017 02:22:14 GMT-0400 (EDT)","female","Hispanic or Latino","moderate/middle of the road","",NA,"","offCivRatings","the officer said ""if you touch me, you're gonna get hurt"" to the civilian","the civilian punched the officer in the face","hurtThreat","punchFace","officerCivilian","appropriateCiv","99","","","",""
"52",4095,"{""Q0"":1}","[object Object]","survey-likert",51,5548170,"0.0-51.0","eau89fypdsjhvecrjkrm9a6vx2fb4g6r","Wed Apr 05 2017 02:22:14 GMT-0400 (EDT)","female","Hispanic or Latino","moderate/middle of the road","",NA,"","offCivRatings","the officer said ""if you touch me, you're gonna get hurt"" to the civilian","the civilian punched the officer in the face","hurtThreat","punchFace","officerCivilian","acceptableCiv","1","","","",""
"53",1033,"","","instructions",52,5549203,"0.0-52.0","eau89fypdsjhvecrjkrm9a6vx2fb4g6r","Wed Apr 05 2017 02:22:14 GMT-0400 (EDT)","female","Hispanic or Latino","moderate/middle of the road","",NA,"[{""page_index"":0,""viewing_time"":1033}]","break","","","","","","","","","","",""
"54",21009,"{""Q0"":78}","[object Object]","survey-likert",53,5570419,"0.0-53.0","eau89fypdsjhvecrjkrm9a6vx2fb4g6r","Wed Apr 05 2017 02:22:14 GMT-0400 (EDT)","female","Hispanic or Latino","moderate/middle of the road","",NA,"","offCivRatings","the officer headbutted the civilian in the face","the civilian called the officer a ""pig""","headbutt","nameCall","civilianOfficer","punishOff","78","","","",""
"55",5124,"{""Q0"":79}","[object Object]","survey-likert",54,5575549,"0.0-54.0","eau89fypdsjhvecrjkrm9a6vx2fb4g6r","Wed Apr 05 2017 02:22:14 GMT-0400 (EDT)","female","Hispanic or Latino","moderate/middle of the road","",NA,"","offCivRatings","the officer headbutted the civilian in the face","the civilian called the officer a ""pig""","headbutt","nameCall","civilianOfficer","forceOff","79","","","",""
"56",4919,"{""Q0"":12}","[object Object]","survey-likert",55,5580473,"0.0-55.0","eau89fypdsjhvecrjkrm9a6vx2fb4g6r","Wed Apr 05 2017 02:22:14 GMT-0400 (EDT)","female","Hispanic or Latino","moderate/middle of the road","",NA,"","offCivRatings","the officer headbutted the civilian in the face","the civilian called the officer a ""pig""","headbutt","nameCall","civilianOfficer","acceptableOff","12","","","",""
"57",4561,"{""Q0"":89}","[object Object]","survey-likert",56,5585041,"0.0-56.0","eau89fypdsjhvecrjkrm9a6vx2fb4g6r","Wed Apr 05 2017 02:22:14 GMT-0400 (EDT)","female","Hispanic or Latino","moderate/middle of the road","",NA,"","offCivRatings","the officer headbutted the civilian in the face","the civilian called the officer a ""pig""","headbutt","nameCall","civilianOfficer","appropriateOff","89","","","",""
"58",1235,"","","instructions",57,5586276,"0.0-57.0","eau89fypdsjhvecrjkrm9a6vx2fb4g6r","Wed Apr 05 2017 02:22:14 GMT-0400 (EDT)","female","Hispanic or Latino","moderate/middle of the road","",NA,"[{""page_index"":0,""viewing_time"":1235}]","break","","","","","","","","","","",""
"59",7520,"{""Q0"":99}","[object Object]","survey-likert",58,5594003,"0.0-58.0","eau89fypdsjhvecrjkrm9a6vx2fb4g6r","Wed Apr 05 2017 02:22:14 GMT-0400 (EDT)","female","Hispanic or Latino","moderate/middle of the road","",NA,"","offCivRatings","the officer slammed the civilian's head into the concrete curb","the civilian slammed the officer's head into the concrete curb","headSlam","headSlam","officerCivilian","manipCheckHigh","99","","","",""
"60",20499,"{""Q0"":68}","[object Object]","survey-likert",59,5614507,"0.0-59.0","eau89fypdsjhvecrjkrm9a6vx2fb4g6r","Wed Apr 05 2017 02:22:14 GMT-0400 (EDT)","female","Hispanic or Latino","moderate/middle of the road","",NA,"","offCivRatings","the officer slammed the civilian's head into the concrete curb","the civilian slammed the officer's head into the concrete curb","headSlam","headSlam","officerCivilian","punishCiv","68","","","",""
"61",7647,"{""Q0"":86}","[object Object]","survey-likert",60,5622159,"0.0-60.0","eau89fypdsjhvecrjkrm9a6vx2fb4g6r","Wed Apr 05 2017 02:22:14 GMT-0400 (EDT)","female","Hispanic or Latino","moderate/middle of the road","",NA,"","offCivRatings","the officer slammed the civilian's head into the concrete curb","the civilian slammed the officer's head into the concrete curb","headSlam","headSlam","officerCivilian","forceCiv","86","","","",""
"62",7287,"{""Q0"":100}","[object Object]","survey-likert",61,5629451,"0.0-61.0","eau89fypdsjhvecrjkrm9a6vx2fb4g6r","Wed Apr 05 2017 02:22:14 GMT-0400 (EDT)","female","Hispanic or Latino","moderate/middle of the road","",NA,"","offCivRatings","the officer slammed the civilian's head into the concrete curb","the civilian slammed the officer's head into the concrete curb","headSlam","headSlam","officerCivilian","appropriateCiv","100","","","",""
"63",4663,"{""Q0"":99}","[object Object]","survey-likert",62,5634119,"0.0-62.0","eau89fypdsjhvecrjkrm9a6vx2fb4g6r","Wed Apr 05 2017 02:22:14 GMT-0400 (EDT)","female","Hispanic or Latino","moderate/middle of the road","",NA,"","offCivRatings","the officer slammed the civilian's head into the concrete curb","the civilian slammed the officer's head into the concrete curb","headSlam","headSlam","officerCivilian","acceptableCiv","99","","","",""
"64",1075,"","","instructions",63,5635194,"0.0-63.0","eau89fypdsjhvecrjkrm9a6vx2fb4g6r","Wed Apr 05 2017 02:22:14 GMT-0400 (EDT)","female","Hispanic or Latino","moderate/middle of the road","",NA,"[{""page_index"":0,""viewing_time"":1075}]","break","","","","","","","","","","",""
"65",12663,"{""Q0"":100}","[object Object]","survey-likert",64,5648065,"0.0-64.0","eau89fypdsjhvecrjkrm9a6vx2fb4g6r","Wed Apr 05 2017 02:22:14 GMT-0400 (EDT)","female","Hispanic or Latino","moderate/middle of the road","",NA,"","offCivRatings","the officer shot the civilian in the chest with a beanbag shotgun round","the civilian shocked the officer with a tazer","beanbag","tazer","officerCivilian","appropriateCiv","100","","","",""
"66",7684,"{""Q0"":58}","[object Object]","survey-likert",65,5655755,"0.0-65.0","eau89fypdsjhvecrjkrm9a6vx2fb4g6r","Wed Apr 05 2017 02:22:14 GMT-0400 (EDT)","female","Hispanic or Latino","moderate/middle of the road","",NA,"","offCivRatings","the officer shot the civilian in the chest with a beanbag shotgun round","the civilian shocked the officer with a tazer","beanbag","tazer","officerCivilian","forceCiv","58","","","",""
"67",5821,"{""Q0"":88}","[object Object]","survey-likert",66,5661581,"0.0-66.0","eau89fypdsjhvecrjkrm9a6vx2fb4g6r","Wed Apr 05 2017 02:22:14 GMT-0400 (EDT)","female","Hispanic or Latino","moderate/middle of the road","",NA,"","offCivRatings","the officer shot the civilian in the chest with a beanbag shotgun round","the civilian shocked the officer with a tazer","beanbag","tazer","officerCivilian","punishCiv","88","","","",""
"68",9578,"{""Q0"":3}","[object Object]","survey-likert",67,5671164,"0.0-67.0","eau89fypdsjhvecrjkrm9a6vx2fb4g6r","Wed Apr 05 2017 02:22:14 GMT-0400 (EDT)","female","Hispanic or Latino","moderate/middle of the road","",NA,"","offCivRatings","the officer shot the civilian in the chest with a beanbag shotgun round","the civilian shocked the officer with a tazer","beanbag","tazer","officerCivilian","acceptableCiv","3","","","",""
"69",1541,"","","instructions",68,5672705,"0.0-68.0","eau89fypdsjhvecrjkrm9a6vx2fb4g6r","Wed Apr 05 2017 02:22:14 GMT-0400 (EDT)","female","Hispanic or Latino","moderate/middle of the road","",NA,"[{""page_index"":0,""viewing_time"":1541}]","break","","","","","","","","","","",""
"70",7517,"{""Q0"":99}","[object Object]","survey-likert",69,5680430,"0.0-69.0","eau89fypdsjhvecrjkrm9a6vx2fb4g6r","Wed Apr 05 2017 02:22:14 GMT-0400 (EDT)","female","Hispanic or Latino","moderate/middle of the road","",NA,"","offCivRatings","the officer applied a chokehold to the civilian","the civilian applied a chokehold to the officer","choke","choke","civilianOfficer","acceptableOff","99","","","",""
"71",6293,"{""Q0"":2}","[object Object]","survey-likert",70,5686728,"0.0-70.0","eau89fypdsjhvecrjkrm9a6vx2fb4g6r","Wed Apr 05 2017 02:22:14 GMT-0400 (EDT)","female","Hispanic or Latino","moderate/middle of the road","",NA,"","offCivRatings","the officer applied a chokehold to the civilian","the civilian applied a chokehold to the officer","choke","choke","civilianOfficer","punishOff","2","","","",""
"72",8256,"{""Q0"":50}","[object Object]","survey-likert",71,5694989,"0.0-71.0","eau89fypdsjhvecrjkrm9a6vx2fb4g6r","Wed Apr 05 2017 02:22:14 GMT-0400 (EDT)","female","Hispanic or Latino","moderate/middle of the road","",NA,"","offCivRatings","the officer applied a chokehold to the civilian","the civilian applied a chokehold to the officer","choke","choke","civilianOfficer","appropriateOff","50","","","",""
"73",5756,"{""Q0"":88}","[object Object]","survey-likert",72,5700751,"0.0-72.0","eau89fypdsjhvecrjkrm9a6vx2fb4g6r","Wed Apr 05 2017 02:22:14 GMT-0400 (EDT)","female","Hispanic or Latino","moderate/middle of the road","",NA,"","offCivRatings","the officer applied a chokehold to the civilian","the civilian applied a chokehold to the officer","choke","choke","civilianOfficer","forceOff","88","","","",""
"74",1265,"","","instructions",73,5702017,"0.0-73.0","eau89fypdsjhvecrjkrm9a6vx2fb4g6r","Wed Apr 05 2017 02:22:14 GMT-0400 (EDT)","female","Hispanic or Latino","moderate/middle of the road","",NA,"[{""page_index"":0,""viewing_time"":1265}]","break","","","","","","","","","","",""
"75",18528,"{""Q0"":99}","[object Object]","survey-likert",74,5720753,"0.0-74.0","eau89fypdsjhvecrjkrm9a6vx2fb4g6r","Wed Apr 05 2017 02:22:14 GMT-0400 (EDT)","female","Hispanic or Latino","moderate/middle of the road","",NA,"","offCivRatings","the officer shot the civilian in the head with a handgun","the civilian shot the officer in the chest with a handgun","handgunHead","handgunChest","officerCivilian","forceCiv","99","","","",""
"76",6470,"{""Q0"":1}","[object Object]","survey-likert",75,5727229,"0.0-75.0","eau89fypdsjhvecrjkrm9a6vx2fb4g6r","Wed Apr 05 2017 02:22:14 GMT-0400 (EDT)","female","Hispanic or Latino","moderate/middle of the road","",NA,"","offCivRatings","the officer shot the civilian in the head with a handgun","the civilian shot the officer in the chest with a handgun","handgunHead","handgunChest","officerCivilian","acceptableCiv","1","","","",""
"77",4212,"{""Q0"":99}","[object Object]","survey-likert",76,5731447,"0.0-76.0","eau89fypdsjhvecrjkrm9a6vx2fb4g6r","Wed Apr 05 2017 02:22:14 GMT-0400 (EDT)","female","Hispanic or Latino","moderate/middle of the road","",NA,"","offCivRatings","the officer shot the civilian in the head with a handgun","the civilian shot the officer in the chest with a handgun","handgunHead","handgunChest","officerCivilian","punishCiv","99","","","",""
"78",4489,"{""Q0"":99}","[object Object]","survey-likert",77,5735941,"0.0-77.0","eau89fypdsjhvecrjkrm9a6vx2fb4g6r","Wed Apr 05 2017 02:22:14 GMT-0400 (EDT)","female","Hispanic or Latino","moderate/middle of the road","",NA,"","offCivRatings","the officer shot the civilian in the head with a handgun","the civilian shot the officer in the chest with a handgun","handgunHead","handgunChest","officerCivilian","appropriateCiv","99","","","",""
"79",1362,"","","instructions",78,5737303,"0.0-78.0","eau89fypdsjhvecrjkrm9a6vx2fb4g6r","Wed Apr 05 2017 02:22:14 GMT-0400 (EDT)","female","Hispanic or Latino","moderate/middle of the road","",NA,"[{""page_index"":0,""viewing_time"":1361}]","break","","","","","","","","","","",""
"80",7760,"{""Q0"":1}","[object Object]","survey-likert",79,5745270,"0.0-79.0","eau89fypdsjhvecrjkrm9a6vx2fb4g6r","Wed Apr 05 2017 02:22:14 GMT-0400 (EDT)","female","Hispanic or Latino","moderate/middle of the road","",NA,"","offCivRatings","the officer asked the civilian how he was doing","the civilian kicked the officer in the stomach","asked","kickStom","civilianOfficer","manipCheckLow","1","","","",""
"81",7097,"{""Q0"":99}","[object Object]","survey-likert",80,5752373,"0.0-80.0","eau89fypdsjhvecrjkrm9a6vx2fb4g6r","Wed Apr 05 2017 02:22:14 GMT-0400 (EDT)","female","Hispanic or Latino","moderate/middle of the road","",NA,"","offCivRatings","the officer asked the civilian how he was doing","the civilian kicked the officer in the stomach","asked","kickStom","civilianOfficer","acceptableOff","99","","","",""
"82",6523,"{""Q0"":50}","[object Object]","survey-likert",81,5758902,"0.0-81.0","eau89fypdsjhvecrjkrm9a6vx2fb4g6r","Wed Apr 05 2017 02:22:14 GMT-0400 (EDT)","female","Hispanic or Latino","moderate/middle of the road","",NA,"","offCivRatings","the officer asked the civilian how he was doing","the civilian kicked the officer in the stomach","asked","kickStom","civilianOfficer","appropriateOff","50","","","",""
"83",54343,"{""Q0"":1}","[object Object]","survey-likert",82,5813250,"0.0-82.0","eau89fypdsjhvecrjkrm9a6vx2fb4g6r","Wed Apr 05 2017 02:22:14 GMT-0400 (EDT)","female","Hispanic or Latino","moderate/middle of the road","",NA,"","offCivRatings","the officer asked the civilian how he was doing","the civilian kicked the officer in the stomach","asked","kickStom","civilianOfficer","forceOff","1","","","",""
"84",4369,"{""Q0"":2}","[object Object]","survey-likert",83,5817624,"0.0-83.0","eau89fypdsjhvecrjkrm9a6vx2fb4g6r","Wed Apr 05 2017 02:22:14 GMT-0400 (EDT)","female","Hispanic or Latino","moderate/middle of the road","",NA,"","offCivRatings","the officer asked the civilian how he was doing","the civilian kicked the officer in the stomach","asked","kickStom","civilianOfficer","punishOff","2","","","",""
"85",1213,"","","instructions",84,5818837,"0.0-84.0","eau89fypdsjhvecrjkrm9a6vx2fb4g6r","Wed Apr 05 2017 02:22:14 GMT-0400 (EDT)","female","Hispanic or Latino","moderate/middle of the road","",NA,"[{""page_index"":0,""viewing_time"":1213}]","break","","","","","","","","","","",""
"86",6898,"{""Q0"":95}","[object Object]","survey-likert",85,5825942,"0.0-85.0","eau89fypdsjhvecrjkrm9a6vx2fb4g6r","Wed Apr 05 2017 02:22:14 GMT-0400 (EDT)","female","Hispanic or Latino","moderate/middle of the road","",NA,"","offCivRatings","the officer waved at the civilian in greeting","the civilian headbutted the officer in the face","waved","headbutt","officerCivilian","punishCiv","95","","","",""
"87",25550,"{""Q0"":2}","[object Object]","survey-likert",86,5851497,"0.0-86.0","eau89fypdsjhvecrjkrm9a6vx2fb4g6r","Wed Apr 05 2017 02:22:14 GMT-0400 (EDT)","female","Hispanic or Latino","moderate/middle of the road","",NA,"","offCivRatings","the officer waved at the civilian in greeting","the civilian headbutted the officer in the face","waved","headbutt","officerCivilian","acceptableCiv","2","","","",""
"88",7127,"{""Q0"":100}","[object Object]","survey-likert",87,5858629,"0.0-87.0","eau89fypdsjhvecrjkrm9a6vx2fb4g6r","Wed Apr 05 2017 02:22:14 GMT-0400 (EDT)","female","Hispanic or Latino","moderate/middle of the road","",NA,"","offCivRatings","the officer waved at the civilian in greeting","the civilian headbutted the officer in the face","waved","headbutt","officerCivilian","appropriateCiv","100","","","",""
"89",3817,"{""Q0"":96}","[object Object]","survey-likert",88,5862451,"0.0-88.0","eau89fypdsjhvecrjkrm9a6vx2fb4g6r","Wed Apr 05 2017 02:22:14 GMT-0400 (EDT)","female","Hispanic or Latino","moderate/middle of the road","",NA,"","offCivRatings","the officer waved at the civilian in greeting","the civilian headbutted the officer in the face","waved","headbutt","officerCivilian","forceCiv","96","","","",""
"90",1130,"","","instructions",89,5863581,"0.0-89.0","eau89fypdsjhvecrjkrm9a6vx2fb4g6r","Wed Apr 05 2017 02:22:14 GMT-0400 (EDT)","female","Hispanic or Latino","moderate/middle of the road","",NA,"[{""page_index"":0,""viewing_time"":1129}]","break","","","","","","","","","","",""
"91",10166,"{""Q0"":2}","[object Object]","survey-likert",90,5873954,"0.0-90.0","eau89fypdsjhvecrjkrm9a6vx2fb4g6r","Wed Apr 05 2017 02:22:14 GMT-0400 (EDT)","female","Hispanic or Latino","moderate/middle of the road","",NA,"","offCivRatings","the officer yelled ""get back!"" at the civilian","the civilian stood near the officer","getBack","stoodNear","officerCivilian","forceCiv","2","","","",""
"92",6152,"{""Q0"":99}","[object Object]","survey-likert",91,5880111,"0.0-91.0","eau89fypdsjhvecrjkrm9a6vx2fb4g6r","Wed Apr 05 2017 02:22:14 GMT-0400 (EDT)","female","Hispanic or Latino","moderate/middle of the road","",NA,"","offCivRatings","the officer yelled ""get back!"" at the civilian","the civilian stood near the officer","getBack","stoodNear","officerCivilian","acceptableCiv","99","","","",""
"93",4960,"{""Q0"":58}","[object Object]","survey-likert",92,5885076,"0.0-92.0","eau89fypdsjhvecrjkrm9a6vx2fb4g6r","Wed Apr 05 2017 02:22:14 GMT-0400 (EDT)","female","Hispanic or Latino","moderate/middle of the road","",NA,"","offCivRatings","the officer yelled ""get back!"" at the civilian","the civilian stood near the officer","getBack","stoodNear","officerCivilian","punishCiv","58","","","",""
"94",7735,"{""Q0"":68}","[object Object]","survey-likert",93,5892817,"0.0-93.0","eau89fypdsjhvecrjkrm9a6vx2fb4g6r","Wed Apr 05 2017 02:22:14 GMT-0400 (EDT)","female","Hispanic or Latino","moderate/middle of the road","",NA,"","offCivRatings","the officer yelled ""get back!"" at the civilian","the civilian stood near the officer","getBack","stoodNear","officerCivilian","appropriateCiv","68","","","",""
"95",1436,"","","instructions",94,5894253,"0.0-94.0","eau89fypdsjhvecrjkrm9a6vx2fb4g6r","Wed Apr 05 2017 02:22:14 GMT-0400 (EDT)","female","Hispanic or Latino","moderate/middle of the road","",NA,"[{""page_index"":0,""viewing_time"":1436}]","break","","","","","","","","","","",""
"96",48485,"{""Q0"":50}","[object Object]","survey-likert",95,5942949,"0.0-95.0","eau89fypdsjhvecrjkrm9a6vx2fb4g6r","Wed Apr 05 2017 02:22:14 GMT-0400 (EDT)","female","Hispanic or Latino","moderate/middle of the road","",NA,"","offCivRatings","the officer purposefully struck the civilian with a motor vehicle","the civilian waved at the officer in greeting","vehicle","waved","officerCivilian","appropriateCiv","50","","","",""
"97",3829,"{""Q0"":100}","[object Object]","survey-likert",96,5946796,"0.0-96.0","eau89fypdsjhvecrjkrm9a6vx2fb4g6r","Wed Apr 05 2017 02:22:14 GMT-0400 (EDT)","female","Hispanic or Latino","moderate/middle of the road","",NA,"","offCivRatings","the officer purposefully struck the civilian with a motor vehicle","the civilian waved at the officer in greeting","vehicle","waved","officerCivilian","manipCheckHigh","100","","","",""
"98",6089,"{""Q0"":100}","[object Object]","survey-likert",97,5952893,"0.0-97.0","eau89fypdsjhvecrjkrm9a6vx2fb4g6r","Wed Apr 05 2017 02:22:14 GMT-0400 (EDT)","female","Hispanic or Latino","moderate/middle of the road","",NA,"","offCivRatings","the officer purposefully struck the civilian with a motor vehicle","the civilian waved at the officer in greeting","vehicle","waved","officerCivilian","acceptableCiv","100","","","",""
"99",3840,"{""Q0"":1}","[object Object]","survey-likert",98,5956739,"0.0-98.0","eau89fypdsjhvecrjkrm9a6vx2fb4g6r","Wed Apr 05 2017 02:22:14 GMT-0400 (EDT)","female","Hispanic or Latino","moderate/middle of the road","",NA,"","offCivRatings","the officer purposefully struck the civilian with a motor vehicle","the civilian waved at the officer in greeting","vehicle","waved","officerCivilian","forceCiv","1","","","",""
"100",4091,"{""Q0"":2}","[object Object]","survey-likert",99,5960837,"0.0-99.0","eau89fypdsjhvecrjkrm9a6vx2fb4g6r","Wed Apr 05 2017 02:22:14 GMT-0400 (EDT)","female","Hispanic or Latino","moderate/middle of the road","",NA,"","offCivRatings","the officer purposefully struck the civilian with a motor vehicle","the civilian waved at the officer in greeting","vehicle","waved","officerCivilian","punishCiv","2","","","",""
"101",1833,"","","instructions",100,5962670,"0.0-100.0","eau89fypdsjhvecrjkrm9a6vx2fb4g6r","Wed Apr 05 2017 02:22:14 GMT-0400 (EDT)","female","Hispanic or Latino","moderate/middle of the road","",NA,"[{""page_index"":0,""viewing_time"":1832}]","break","","","","","","","","","","",""
"102",8080,"{""Q0"":50}","[object Object]","survey-likert",101,5970957,"0.0-101.0","eau89fypdsjhvecrjkrm9a6vx2fb4g6r","Wed Apr 05 2017 02:22:14 GMT-0400 (EDT)","female","Hispanic or Latino","moderate/middle of the road","",NA,"","offCivRatings","the officer twisted the arm of the civilian, forcing him to the ground","the civilian said ""if you touch me, you're gonna get hurt"" to the officer","armbar","hurtThreat","civilianOfficer","appropriateOff","50","","","",""
"103",4204,"{""Q0"":84}","[object Object]","survey-likert",102,5975168,"0.0-102.0","eau89fypdsjhvecrjkrm9a6vx2fb4g6r","Wed Apr 05 2017 02:22:14 GMT-0400 (EDT)","female","Hispanic or Latino","moderate/middle of the road","",NA,"","offCivRatings","the officer twisted the arm of the civilian, forcing him to the ground","the civilian said ""if you touch me, you're gonna get hurt"" to the officer","armbar","hurtThreat","civilianOfficer","forceOff","84","","","",""
"104",15276,"{""Q0"":2}","[object Object]","survey-likert",103,5990452,"0.0-103.0","eau89fypdsjhvecrjkrm9a6vx2fb4g6r","Wed Apr 05 2017 02:22:14 GMT-0400 (EDT)","female","Hispanic or Latino","moderate/middle of the road","",NA,"","offCivRatings","the officer twisted the arm of the civilian, forcing him to the ground","the civilian said ""if you touch me, you're gonna get hurt"" to the officer","armbar","hurtThreat","civilianOfficer","punishOff","2","","","",""
"105",4583,"{""Q0"":100}","[object Object]","survey-likert",104,5995042,"0.0-104.0","eau89fypdsjhvecrjkrm9a6vx2fb4g6r","Wed Apr 05 2017 02:22:14 GMT-0400 (EDT)","female","Hispanic or Latino","moderate/middle of the road","",NA,"","offCivRatings","the officer twisted the arm of the civilian, forcing him to the ground","the civilian said ""if you touch me, you're gonna get hurt"" to the officer","armbar","hurtThreat","civilianOfficer","acceptableOff","100","","","",""
"106",1439,"","","instructions",105,5996481,"0.0-105.0","eau89fypdsjhvecrjkrm9a6vx2fb4g6r","Wed Apr 05 2017 02:22:14 GMT-0400 (EDT)","female","Hispanic or Latino","moderate/middle of the road","",NA,"[{""page_index"":0,""viewing_time"":1439}]","break","","","","","","","","","","",""
"107",7232,"{""Q0"":1}","[object Object]","survey-likert",106,6003922,"0.0-106.0","eau89fypdsjhvecrjkrm9a6vx2fb4g6r","Wed Apr 05 2017 02:22:14 GMT-0400 (EDT)","female","Hispanic or Latino","moderate/middle of the road","",NA,"","offCivRatings","the officer shocked the civilian with a tazer","the civilian shot the officer in the head with a handgun","tazer","handgunHead","civilianOfficer","punishOff","1","","","",""
"108",4918,"{""Q0"":99}","[object Object]","survey-likert",107,6008847,"0.0-107.0","eau89fypdsjhvecrjkrm9a6vx2fb4g6r","Wed Apr 05 2017 02:22:14 GMT-0400 (EDT)","female","Hispanic or Latino","moderate/middle of the road","",NA,"","offCivRatings","the officer shocked the civilian with a tazer","the civilian shot the officer in the head with a handgun","tazer","handgunHead","civilianOfficer","acceptableOff","99","","","",""
"109",4250,"{""Q0"":71}","[object Object]","survey-likert",108,6013103,"0.0-108.0","eau89fypdsjhvecrjkrm9a6vx2fb4g6r","Wed Apr 05 2017 02:22:14 GMT-0400 (EDT)","female","Hispanic or Latino","moderate/middle of the road","",NA,"","offCivRatings","the officer shocked the civilian with a tazer","the civilian shot the officer in the head with a handgun","tazer","handgunHead","civilianOfficer","forceOff","71","","","",""
"110",3994,"{""Q0"":100}","[object Object]","survey-likert",109,6017103,"0.0-109.0","eau89fypdsjhvecrjkrm9a6vx2fb4g6r","Wed Apr 05 2017 02:22:14 GMT-0400 (EDT)","female","Hispanic or Latino","moderate/middle of the road","",NA,"","offCivRatings","the officer shocked the civilian with a tazer","the civilian shot the officer in the head with a handgun","tazer","handgunHead","civilianOfficer","manipCheckHigh","100","","","",""
"111",7798,"{""Q0"":8}","[object Object]","survey-likert",110,6024908,"0.0-110.0","eau89fypdsjhvecrjkrm9a6vx2fb4g6r","Wed Apr 05 2017 02:22:14 GMT-0400 (EDT)","female","Hispanic or Latino","moderate/middle of the road","",NA,"","offCivRatings","the officer shocked the civilian with a tazer","the civilian shot the officer in the head with a handgun","tazer","handgunHead","civilianOfficer","appropriateOff","8","","","",""
"112",1272,"","","instructions",111,6026180,"0.0-111.0","eau89fypdsjhvecrjkrm9a6vx2fb4g6r","Wed Apr 05 2017 02:22:14 GMT-0400 (EDT)","female","Hispanic or Latino","moderate/middle of the road","",NA,"[{""page_index"":0,""viewing_time"":1272}]","break","","","","","","","","","","",""
"113",10054,"{""Q0"":25}","[object Object]","survey-likert",112,6036443,"0.0-112.0","eau89fypdsjhvecrjkrm9a6vx2fb4g6r","Wed Apr 05 2017 02:22:14 GMT-0400 (EDT)","female","Hispanic or Latino","moderate/middle of the road","",NA,"","offCivRatings","the officer kicked the civilian in the stomach","the civilian struck the officer in the stomach with a metal flashlight","kickStom","flashlight","civilianOfficer","appropriateOff","25","","","",""
"114",5268,"{""Q0"":73}","[object Object]","survey-likert",113,6041719,"0.0-113.0","eau89fypdsjhvecrjkrm9a6vx2fb4g6r","Wed Apr 05 2017 02:22:14 GMT-0400 (EDT)","female","Hispanic or Latino","moderate/middle of the road","",NA,"","offCivRatings","the officer kicked the civilian in the stomach","the civilian struck the officer in the stomach with a metal flashlight","kickStom","flashlight","civilianOfficer","forceOff","73","","","",""
"115",3336,"{""Q0"":99}","[object Object]","survey-likert",114,6045061,"0.0-114.0","eau89fypdsjhvecrjkrm9a6vx2fb4g6r","Wed Apr 05 2017 02:22:14 GMT-0400 (EDT)","female","Hispanic or Latino","moderate/middle of the road","",NA,"","offCivRatings","the officer kicked the civilian in the stomach","the civilian struck the officer in the stomach with a metal flashlight","kickStom","flashlight","civilianOfficer","acceptableOff","99","","","",""
"116",4684,"{""Q0"":1}","[object Object]","survey-likert",115,6049752,"0.0-115.0","eau89fypdsjhvecrjkrm9a6vx2fb4g6r","Wed Apr 05 2017 02:22:14 GMT-0400 (EDT)","female","Hispanic or Latino","moderate/middle of the road","",NA,"","offCivRatings","the officer kicked the civilian in the stomach","the civilian struck the officer in the stomach with a metal flashlight","kickStom","flashlight","civilianOfficer","punishOff","1","","","",""
"117",4590,"{""Q0"":2}","[object Object]","survey-likert",116,6054349,"0.0-116.0","eau89fypdsjhvecrjkrm9a6vx2fb4g6r","Wed Apr 05 2017 02:22:14 GMT-0400 (EDT)","female","Hispanic or Latino","moderate/middle of the road","",NA,"","offCivRatings","the officer kicked the civilian in the stomach","the civilian struck the officer in the stomach with a metal flashlight","kickStom","flashlight","civilianOfficer","manipCheckLow","2","","","",""
"118",1620,"","","instructions",117,6055969,"0.0-117.0","eau89fypdsjhvecrjkrm9a6vx2fb4g6r","Wed Apr 05 2017 02:22:14 GMT-0400 (EDT)","female","Hispanic or Latino","moderate/middle of the road","",NA,"[{""page_index"":0,""viewing_time"":1620}]","break","","","","","","","","","","",""
"119",17277,"{""Q0"":1}","[object Object]","survey-likert",118,6073455,"0.0-118.0","eau89fypdsjhvecrjkrm9a6vx2fb4g6r","Wed Apr 05 2017 02:22:14 GMT-0400 (EDT)","female","Hispanic or Latino","moderate/middle of the road","",NA,"","offCivRatings","the officer struck the civilian on the leg with a collapsible baton","the civilian struck the officer on the leg with a metal pipe","batonLeg","metalPipe","officerCivilian","manipCheckLow","1","","","",""
"120",10426,"{""Q0"":99}","[object Object]","survey-likert",119,6083887,"0.0-119.0","eau89fypdsjhvecrjkrm9a6vx2fb4g6r","Wed Apr 05 2017 02:22:14 GMT-0400 (EDT)","female","Hispanic or Latino","moderate/middle of the road","",NA,"","offCivRatings","the officer struck the civilian on the leg with a collapsible baton","the civilian struck the officer on the leg with a metal pipe","batonLeg","metalPipe","officerCivilian","appropriateCiv","99","","","",""
"121",3817,"{""Q0"":76}","[object Object]","survey-likert",120,6087710,"0.0-120.0","eau89fypdsjhvecrjkrm9a6vx2fb4g6r","Wed Apr 05 2017 02:22:14 GMT-0400 (EDT)","female","Hispanic or Latino","moderate/middle of the road","",NA,"","offCivRatings","the officer struck the civilian on the leg with a collapsible baton","the civilian struck the officer on the leg with a metal pipe","batonLeg","metalPipe","officerCivilian","forceCiv","76","","","",""
"122",3772,"{""Q0"":88}","[object Object]","survey-likert",121,6091489,"0.0-121.0","eau89fypdsjhvecrjkrm9a6vx2fb4g6r","Wed Apr 05 2017 02:22:14 GMT-0400 (EDT)","female","Hispanic or Latino","moderate/middle of the road","",NA,"","offCivRatings","the officer struck the civilian on the leg with a collapsible baton","the civilian struck the officer on the leg with a metal pipe","batonLeg","metalPipe","officerCivilian","punishCiv","88","","","",""
"123",3741,"{""Q0"":1}","[object Object]","survey-likert",122,6095236,"0.0-122.0","eau89fypdsjhvecrjkrm9a6vx2fb4g6r","Wed Apr 05 2017 02:22:14 GMT-0400 (EDT)","female","Hispanic or Latino","moderate/middle of the road","",NA,"","offCivRatings","the officer struck the civilian on the leg with a collapsible baton","the civilian struck the officer on the leg with a metal pipe","batonLeg","metalPipe","officerCivilian","acceptableCiv","1","","","",""
"124",1320,"","","instructions",123,6096556,"0.0-123.0","eau89fypdsjhvecrjkrm9a6vx2fb4g6r","Wed Apr 05 2017 02:22:14 GMT-0400 (EDT)","female","Hispanic or Latino","moderate/middle of the road","",NA,"[{""page_index"":0,""viewing_time"":1320}]","break","","","","","","","","","","",""
"125",7186,"{""Q0"":99}","[object Object]","survey-likert",124,6103950,"0.0-124.0","eau89fypdsjhvecrjkrm9a6vx2fb4g6r","Wed Apr 05 2017 02:22:14 GMT-0400 (EDT)","female","Hispanic or Latino","moderate/middle of the road","",NA,"","policeLegitimacy","","","","","","","99","importantValues","normAlignment","",""
"126",12581,"{""Q0"":91}","[object Object]","survey-likert",125,6116539,"0.0-125.0","eau89fypdsjhvecrjkrm9a6vx2fb4g6r","Wed Apr 05 2017 02:22:14 GMT-0400 (EDT)","female","Hispanic or Latino","moderate/middle of the road","",NA,"","policeLegitimacy","","","","","","","91","doTreat","feltObligation","",""
"127",9601,"{""Q0"":93}","[object Object]","survey-likert",126,6126147,"0.0-126.0","eau89fypdsjhvecrjkrm9a6vx2fb4g6r","Wed Apr 05 2017 02:22:14 GMT-0400 (EDT)","female","Hispanic or Latino","moderate/middle of the road","",NA,"","policeLegitimacy","","","","","","","93","doReasons","feltObligation","",""
"128",4688,"{""Q0"":99}","[object Object]","survey-likert",127,6130841,"0.0-127.0","eau89fypdsjhvecrjkrm9a6vx2fb4g6r","Wed Apr 05 2017 02:22:14 GMT-0400 (EDT)","female","Hispanic or Latino","moderate/middle of the road","",NA,"","policeLegitimacy","","","","","","","99","communityWants","normAlignment","",""
"129",18532,"{""Q0"":51}","[object Object]","survey-likert",128,6149380,"0.0-128.0","eau89fypdsjhvecrjkrm9a6vx2fb4g6r","Wed Apr 05 2017 02:22:14 GMT-0400 (EDT)","female","Hispanic or Latino","moderate/middle of the road","",NA,"","policeLegitimacy","","","","","","","51","support","feltObligation","",""
"130",10838,"{""Q0"":94}","[object Object]","survey-likert",129,6160224,"0.0-129.0","eau89fypdsjhvecrjkrm9a6vx2fb4g6r","Wed Apr 05 2017 02:22:14 GMT-0400 (EDT)","female","Hispanic or Latino","moderate/middle of the road","",NA,"","policeLegitimacy","","","","","","","94","rightWrong","normAlignment","",""
"131",15848,"{""Q0"":""no""}","[object Object]","survey-multi-choice2",130,6176087,"0.0-130.0","eau89fypdsjhvecrjkrm9a6vx2fb4g6r","Wed Apr 05 2017 02:22:14 GMT-0400 (EDT)","female","Hispanic or Latino","moderate/middle of the road","",NA,"","policeExperience","","","","","","","no","stopped","","vicarious","Has anyone in your household ever been stopped on the street by the police without good reason?"
"132",5883,"{""Q0"":""no""}","[object Object]","survey-multi-choice2",131,6181973,"0.0-131.0","eau89fypdsjhvecrjkrm9a6vx2fb4g6r","Wed Apr 05 2017 02:22:14 GMT-0400 (EDT)","female","Hispanic or Latino","moderate/middle of the road","",NA,"","policeExperience","","","","","","","no","stopped","","personal","Have you ever been stopped by the police on the street without good reason?"
"133",8807,"{""Q0"":""no""}","[object Object]","survey-multi-choice2",132,6190782,"0.0-132.0","eau89fypdsjhvecrjkrm9a6vx2fb4g6r","Wed Apr 05 2017 02:22:14 GMT-0400 (EDT)","female","Hispanic or Latino","moderate/middle of the road","",NA,"","policeExperience","","","","","","","no","excessForce","","vicarious","Have the police ever used excessive force against anyone in your household?"
"134",3655,"{""Q0"":""no""}","[object Object]","survey-multi-choice2",133,6194439,"0.0-133.0","eau89fypdsjhvecrjkrm9a6vx2fb4g6r","Wed Apr 05 2017 02:22:14 GMT-0400 (EDT)","female","Hispanic or Latino","moderate/middle of the road","",NA,"","policeExperience","","","","","","","no","insultLang","","personal","Have the police ever used insulting language toward you?"
"135",5342,"{""Q0"":""no""}","[object Object]","survey-multi-choice2",134,6199784,"0.0-134.0","eau89fypdsjhvecrjkrm9a6vx2fb4g6r","Wed Apr 05 2017 02:22:14 GMT-0400 (EDT)","female","Hispanic or Latino","moderate/middle of the road","",NA,"","policeExperience","","","","","","","no","excessForce","","personal","Have the police ever used excessive force against you?"
"136",3444,"{""Q0"":""no""}","[object Object]","survey-multi-choice2",135,6203231,"0.0-135.0","eau89fypdsjhvecrjkrm9a6vx2fb4g6r","Wed Apr 05 2017 02:22:14 GMT-0400 (EDT)","female","Hispanic or Latino","moderate/middle of the road","",NA,"","policeExperience","","","","","","","no","insultLang","","vicarious","Have the police ever used insulting language toward anyone in your household?"
"137",8394,"{""Q0"":""no""}","[object Object]","survey-multi-choice2",136,6211627,"0.0-136.0","eau89fypdsjhvecrjkrm9a6vx2fb4g6r","Wed Apr 05 2017 02:22:14 GMT-0400 (EDT)","female","Hispanic or Latino","moderate/middle of the road","",NA,"","policeExperience","","","","","","","no","corrupt","","personal","Have you ever seen a police officer engage in any corrupt activities (e.g., taking bribes or involvement in the drug trade)?"
"138",30802,"{""Q0"":""female"",""Q1"":""Hispanic or Latino"",""Q2"":""moderate/middle of the road""}","[object Object]","survey-multi-choice",137,6242441,"0.0-137.0","eau89fypdsjhvecrjkrm9a6vx2fb4g6r","Wed Apr 05 2017 02:22:14 GMT-0400 (EDT)","female","Hispanic or Latino","moderate/middle of the road","",NA,"","demographics","","","","","","","","","","",""
"139",19168,"","","instructions",138,6262612,"0.0-138.0","eau89fypdsjhvecrjkrm9a6vx2fb4g6r","Wed Apr 05 2017 02:22:14 GMT-0400 (EDT)","female","Hispanic or Latino","moderate/middle of the road","",NA,"[{""page_index"":0,""viewing_time"":2173},{""page_index"":1,""viewing_time"":7727},{""page_index"":2,""viewing_time"":5381},{""page_index"":3,""viewing_time"":3887}]","debriefing","","","","","","","","","","",""
