"","rt","responses","internalResp","trial_type","trial_index","time_elapsed","internal_node_id","randSubjectID","date","sex","race","polAff","stimulus","key_press","view_history","questionType","officerAction","civilianAction","offActName","civActName","order","questionName","response","name","dimension","person","question"
"1",3137480,"","[object Object]","survey-text",0,3137493,"0.0-0.0","fl3wdsjhrmw4773f8qnd5njow96vfoqh","Thu Jan 26 2017 15:46:22 GMT-0500 (Eastern Standard Time)","male","White","liberal","",NA,"","","","","","","","","","","","",""
"2",17427,"","","single-stim",1,3155926,"0.0-1.0","fl3wdsjhrmw4773f8qnd5njow96vfoqh","Thu Jan 26 2017 15:46:22 GMT-0500 (Eastern Standard Time)","male","White","liberal","<img src='static/images/1602685960_ICS_Credit-0.png' alt='Consent 1' height=1100 width=850><img src='static/images/1602685960_ICS_Credit-1.png' alt='Consent 2' height=1100 width=850></p>",89,"","","","","","","","","","","","",""
"3",3134,"","","instructions",2,3160062,"0.0-2.0","fl3wdsjhrmw4773f8qnd5njow96vfoqh","Thu Jan 26 2017 15:46:22 GMT-0500 (Eastern Standard Time)","male","White","liberal","",NA,"[{""page_index"":0,""viewing_time"":3132}]","instructions","","","","","","","","","","",""
"4",45714,"","","instructions",3,3206776,"0.0-3.0","fl3wdsjhrmw4773f8qnd5njow96vfoqh","Thu Jan 26 2017 15:46:22 GMT-0500 (Eastern Standard Time)","male","White","liberal","",NA,"[{""page_index"":0,""viewing_time"":5973},{""page_index"":1,""viewing_time"":1336},{""page_index"":2,""viewing_time"":37172},{""page_index"":3,""viewing_time"":1232}]","instructions","","","","","","","","","","",""
"5",43740,"{""Q0"":50}","[object Object]","survey-likert",4,3251583,"0.0-4.0","fl3wdsjhrmw4773f8qnd5njow96vfoqh","Thu Jan 26 2017 15:46:22 GMT-0500 (Eastern Standard Time)","male","White","liberal","",NA,"","offCivRatings","the officer called the civilian a ""thug""","the civilian yelled ""get back!"" at the officer","nameCall","getBack","civilianOfficer","punishOff","50","","","",""
"6",84188,"{""Q0"":30}","[object Object]","survey-likert",5,3335792,"0.0-5.0","fl3wdsjhrmw4773f8qnd5njow96vfoqh","Thu Jan 26 2017 15:46:22 GMT-0500 (Eastern Standard Time)","male","White","liberal","",NA,"","offCivRatings","the officer called the civilian a ""thug""","the civilian yelled ""get back!"" at the officer","nameCall","getBack","civilianOfficer","forceOff","30","","","",""
"7",12550,"{""Q0"":21}","[object Object]","survey-likert",6,3348360,"0.0-6.0","fl3wdsjhrmw4773f8qnd5njow96vfoqh","Thu Jan 26 2017 15:46:22 GMT-0500 (Eastern Standard Time)","male","White","liberal","",NA,"","offCivRatings","the officer called the civilian a ""thug""","the civilian yelled ""get back!"" at the officer","nameCall","getBack","civilianOfficer","acceptableOff","21","","","",""
"8",4431,"{""Q0"":40}","[object Object]","survey-likert",7,3352807,"0.0-7.0","fl3wdsjhrmw4773f8qnd5njow96vfoqh","Thu Jan 26 2017 15:46:22 GMT-0500 (Eastern Standard Time)","male","White","liberal","",NA,"","offCivRatings","the officer called the civilian a ""thug""","the civilian yelled ""get back!"" at the officer","nameCall","getBack","civilianOfficer","appropriateOff","40","","","",""
"9",1022,"","","instructions",8,3353829,"0.0-8.0","fl3wdsjhrmw4773f8qnd5njow96vfoqh","Thu Jan 26 2017 15:46:22 GMT-0500 (Eastern Standard Time)","male","White","liberal","",NA,"[{""page_index"":0,""viewing_time"":1021}]","break","","","","","","","","","","",""
"10",87679,"{""Q0"":1}","[object Object]","survey-likert",9,3441724,"0.0-9.0","fl3wdsjhrmw4773f8qnd5njow96vfoqh","Thu Jan 26 2017 15:46:22 GMT-0500 (Eastern Standard Time)","male","White","liberal","",NA,"","offCivRatings","the officer slammed the civilian's head into the concrete curb","the civilian shouted ""I don't have to fucking listen to you!"" at the officer","headSlam","dontListen","civilianOfficer","acceptableOff","1","","","",""
"11",4271,"{""Q0"":91}","[object Object]","survey-likert",10,3446011,"0.0-10.0","fl3wdsjhrmw4773f8qnd5njow96vfoqh","Thu Jan 26 2017 15:46:22 GMT-0500 (Eastern Standard Time)","male","White","liberal","",NA,"","offCivRatings","the officer slammed the civilian's head into the concrete curb","the civilian shouted ""I don't have to fucking listen to you!"" at the officer","headSlam","dontListen","civilianOfficer","forceOff","91","","","",""
"12",4257,"{""Q0"":1}","[object Object]","survey-likert",11,3450285,"0.0-11.0","fl3wdsjhrmw4773f8qnd5njow96vfoqh","Thu Jan 26 2017 15:46:22 GMT-0500 (Eastern Standard Time)","male","White","liberal","",NA,"","offCivRatings","the officer slammed the civilian's head into the concrete curb","the civilian shouted ""I don't have to fucking listen to you!"" at the officer","headSlam","dontListen","civilianOfficer","appropriateOff","1","","","",""
"13",4816,"{""Q0"":98}","[object Object]","survey-likert",12,3455116,"0.0-12.0","fl3wdsjhrmw4773f8qnd5njow96vfoqh","Thu Jan 26 2017 15:46:22 GMT-0500 (Eastern Standard Time)","male","White","liberal","",NA,"","offCivRatings","the officer slammed the civilian's head into the concrete curb","the civilian shouted ""I don't have to fucking listen to you!"" at the officer","headSlam","dontListen","civilianOfficer","punishOff","98","","","",""
"14",805,"","","instructions",13,3455922,"0.0-13.0","fl3wdsjhrmw4773f8qnd5njow96vfoqh","Thu Jan 26 2017 15:46:22 GMT-0500 (Eastern Standard Time)","male","White","liberal","",NA,"[{""page_index"":0,""viewing_time"":804}]","break","","","","","","","","","","",""
"15",138272,"{""Q0"":50}","[object Object]","survey-likert",14,3594410,"0.0-14.0","fl3wdsjhrmw4773f8qnd5njow96vfoqh","Thu Jan 26 2017 15:46:22 GMT-0500 (Eastern Standard Time)","male","White","liberal","",NA,"","offCivRatings","the officer applied a chokehold to the civilian","the civilian kicked the officer in the stomach","choke","kickStom","civilianOfficer","appropriateOff","50","","","",""
"16",5830,"{""Q0"":1}","[object Object]","survey-likert",15,3600258,"0.0-15.0","fl3wdsjhrmw4773f8qnd5njow96vfoqh","Thu Jan 26 2017 15:46:22 GMT-0500 (Eastern Standard Time)","male","White","liberal","",NA,"","offCivRatings","the officer applied a chokehold to the civilian","the civilian kicked the officer in the stomach","choke","kickStom","civilianOfficer","punishOff","1","","","",""
"17",2943,"{""Q0"":83}","[object Object]","survey-likert",16,3603217,"0.0-16.0","fl3wdsjhrmw4773f8qnd5njow96vfoqh","Thu Jan 26 2017 15:46:22 GMT-0500 (Eastern Standard Time)","male","White","liberal","",NA,"","offCivRatings","the officer applied a chokehold to the civilian","the civilian kicked the officer in the stomach","choke","kickStom","civilianOfficer","acceptableOff","83","","","",""
"18",2895,"{""Q0"":89}","[object Object]","survey-likert",17,3606129,"0.0-17.0","fl3wdsjhrmw4773f8qnd5njow96vfoqh","Thu Jan 26 2017 15:46:22 GMT-0500 (Eastern Standard Time)","male","White","liberal","",NA,"","offCivRatings","the officer applied a chokehold to the civilian","the civilian kicked the officer in the stomach","choke","kickStom","civilianOfficer","forceOff","89","","","",""
"19",6313,"{""Q0"":100}","[object Object]","survey-likert",18,3612458,"0.0-18.0","fl3wdsjhrmw4773f8qnd5njow96vfoqh","Thu Jan 26 2017 15:46:22 GMT-0500 (Eastern Standard Time)","male","White","liberal","",NA,"","offCivRatings","the officer applied a chokehold to the civilian","the civilian kicked the officer in the stomach","choke","kickStom","civilianOfficer","manipCheckHigh","100","","","",""
"20",750,"","","instructions",19,3613208,"0.0-19.0","fl3wdsjhrmw4773f8qnd5njow96vfoqh","Thu Jan 26 2017 15:46:22 GMT-0500 (Eastern Standard Time)","male","White","liberal","",NA,"[{""page_index"":0,""viewing_time"":749}]","break","","","","","","","","","","",""
"21",121328,"{""Q0"":1}","[object Object]","survey-likert",20,3734753,"0.0-20.0","fl3wdsjhrmw4773f8qnd5njow96vfoqh","Thu Jan 26 2017 15:46:22 GMT-0500 (Eastern Standard Time)","male","White","liberal","",NA,"","offCivRatings","the officer shouted ""get your fucking hands up!"" at the civilian","the civilian struck the officer in the stomach with a metal flashlight","handsUp","flashlight","officerCivilian","acceptableCiv","1","","","",""
"22",4312,"{""Q0"":100}","[object Object]","survey-likert",21,3739081,"0.0-21.0","fl3wdsjhrmw4773f8qnd5njow96vfoqh","Thu Jan 26 2017 15:46:22 GMT-0500 (Eastern Standard Time)","male","White","liberal","",NA,"","offCivRatings","the officer shouted ""get your fucking hands up!"" at the civilian","the civilian struck the officer in the stomach with a metal flashlight","handsUp","flashlight","officerCivilian","punishCiv","100","","","",""
"23",3288,"{""Q0"":99}","[object Object]","survey-likert",22,3742384,"0.0-22.0","fl3wdsjhrmw4773f8qnd5njow96vfoqh","Thu Jan 26 2017 15:46:22 GMT-0500 (Eastern Standard Time)","male","White","liberal","",NA,"","offCivRatings","the officer shouted ""get your fucking hands up!"" at the civilian","the civilian struck the officer in the stomach with a metal flashlight","handsUp","flashlight","officerCivilian","appropriateCiv","99","","","",""
"24",3904,"{""Q0"":94}","[object Object]","survey-likert",23,3746304,"0.0-23.0","fl3wdsjhrmw4773f8qnd5njow96vfoqh","Thu Jan 26 2017 15:46:22 GMT-0500 (Eastern Standard Time)","male","White","liberal","",NA,"","offCivRatings","the officer shouted ""get your fucking hands up!"" at the civilian","the civilian struck the officer in the stomach with a metal flashlight","handsUp","flashlight","officerCivilian","forceCiv","94","","","",""
"25",599,"","","instructions",24,3746903,"0.0-24.0","fl3wdsjhrmw4773f8qnd5njow96vfoqh","Thu Jan 26 2017 15:46:22 GMT-0500 (Eastern Standard Time)","male","White","liberal","",NA,"[{""page_index"":0,""viewing_time"":598}]","break","","","","","","","","","","",""
"26",33627,"{""Q0"":2}","[object Object]","survey-likert",25,3780746,"0.0-25.0","fl3wdsjhrmw4773f8qnd5njow96vfoqh","Thu Jan 26 2017 15:46:22 GMT-0500 (Eastern Standard Time)","male","White","liberal","",NA,"","offCivRatings","the officer twisted the arm of the civilian, forcing him to the ground","the civilian pulled away from the officer","armbar","pulledAway","officerCivilian","punishCiv","2","","","",""
"27",8761,"{""Q0"":30}","[object Object]","survey-likert",26,3789521,"0.0-26.0","fl3wdsjhrmw4773f8qnd5njow96vfoqh","Thu Jan 26 2017 15:46:22 GMT-0500 (Eastern Standard Time)","male","White","liberal","",NA,"","offCivRatings","the officer twisted the arm of the civilian, forcing him to the ground","the civilian pulled away from the officer","armbar","pulledAway","officerCivilian","appropriateCiv","30","","","",""
"28",2621,"{""Q0"":11}","[object Object]","survey-likert",27,3792157,"0.0-27.0","fl3wdsjhrmw4773f8qnd5njow96vfoqh","Thu Jan 26 2017 15:46:22 GMT-0500 (Eastern Standard Time)","male","White","liberal","",NA,"","offCivRatings","the officer twisted the arm of the civilian, forcing him to the ground","the civilian pulled away from the officer","armbar","pulledAway","officerCivilian","forceCiv","11","","","",""
"29",3680,"{""Q0"":100}","[object Object]","survey-likert",28,3795852,"0.0-28.0","fl3wdsjhrmw4773f8qnd5njow96vfoqh","Thu Jan 26 2017 15:46:22 GMT-0500 (Eastern Standard Time)","male","White","liberal","",NA,"","offCivRatings","the officer twisted the arm of the civilian, forcing him to the ground","the civilian pulled away from the officer","armbar","pulledAway","officerCivilian","acceptableCiv","100","","","",""
"30",741,"","","instructions",29,3796593,"0.0-29.0","fl3wdsjhrmw4773f8qnd5njow96vfoqh","Thu Jan 26 2017 15:46:22 GMT-0500 (Eastern Standard Time)","male","White","liberal","",NA,"[{""page_index"":0,""viewing_time"":741}]","break","","","","","","","","","","",""
"31",9053,"{""Q0"":21}","[object Object]","survey-likert",30,3805860,"0.0-30.0","fl3wdsjhrmw4773f8qnd5njow96vfoqh","Thu Jan 26 2017 15:46:22 GMT-0500 (Eastern Standard Time)","male","White","liberal","",NA,"","offCivRatings","the officer headbutted the civilian in the face","the civilian called the officer a ""pig""","headbutt","nameCall","officerCivilian","forceCiv","21","","","",""
"32",3760,"{""Q0"":50}","[object Object]","survey-likert",31,3809635,"0.0-31.0","fl3wdsjhrmw4773f8qnd5njow96vfoqh","Thu Jan 26 2017 15:46:22 GMT-0500 (Eastern Standard Time)","male","White","liberal","",NA,"","offCivRatings","the officer headbutted the civilian in the face","the civilian called the officer a ""pig""","headbutt","nameCall","officerCivilian","acceptableCiv","50","","","",""
"33",2161,"{""Q0"":1}","[object Object]","survey-likert",32,3811812,"0.0-32.0","fl3wdsjhrmw4773f8qnd5njow96vfoqh","Thu Jan 26 2017 15:46:22 GMT-0500 (Eastern Standard Time)","male","White","liberal","",NA,"","offCivRatings","the officer headbutted the civilian in the face","the civilian called the officer a ""pig""","headbutt","nameCall","officerCivilian","punishCiv","1","","","",""
"34",5953,"{""Q0"":51}","[object Object]","survey-likert",33,3817782,"0.0-33.0","fl3wdsjhrmw4773f8qnd5njow96vfoqh","Thu Jan 26 2017 15:46:22 GMT-0500 (Eastern Standard Time)","male","White","liberal","",NA,"","offCivRatings","the officer headbutted the civilian in the face","the civilian called the officer a ""pig""","headbutt","nameCall","officerCivilian","appropriateCiv","51","","","",""
"35",1020,"","","instructions",34,3818802,"0.0-34.0","fl3wdsjhrmw4773f8qnd5njow96vfoqh","Thu Jan 26 2017 15:46:22 GMT-0500 (Eastern Standard Time)","male","White","liberal","",NA,"[{""page_index"":0,""viewing_time"":1020}]","break","","","","","","","","","","",""
"36",118905,"{""Q0"":50}","[object Object]","survey-likert",35,3937921,"0.0-35.0","fl3wdsjhrmw4773f8qnd5njow96vfoqh","Thu Jan 26 2017 15:46:22 GMT-0500 (Eastern Standard Time)","male","White","liberal","",NA,"","offCivRatings","the officer put handcuffs on the civilian","the civilian struck the officer on the leg with a metal pipe","handcuff","metalPipe","civilianOfficer","forceOff","50","","","",""
"37",2514,"{""Q0"":1}","[object Object]","survey-likert",36,3940450,"0.0-36.0","fl3wdsjhrmw4773f8qnd5njow96vfoqh","Thu Jan 26 2017 15:46:22 GMT-0500 (Eastern Standard Time)","male","White","liberal","",NA,"","offCivRatings","the officer put handcuffs on the civilian","the civilian struck the officer on the leg with a metal pipe","handcuff","metalPipe","civilianOfficer","punishOff","1","","","",""
"38",2042,"{""Q0"":100}","[object Object]","survey-likert",37,3942507,"0.0-37.0","fl3wdsjhrmw4773f8qnd5njow96vfoqh","Thu Jan 26 2017 15:46:22 GMT-0500 (Eastern Standard Time)","male","White","liberal","",NA,"","offCivRatings","the officer put handcuffs on the civilian","the civilian struck the officer on the leg with a metal pipe","handcuff","metalPipe","civilianOfficer","acceptableOff","100","","","",""
"39",9232,"{""Q0"":50}","[object Object]","survey-likert",38,3951753,"0.0-38.0","fl3wdsjhrmw4773f8qnd5njow96vfoqh","Thu Jan 26 2017 15:46:22 GMT-0500 (Eastern Standard Time)","male","White","liberal","",NA,"","offCivRatings","the officer put handcuffs on the civilian","the civilian struck the officer on the leg with a metal pipe","handcuff","metalPipe","civilianOfficer","appropriateOff","50","","","",""
"40",2405,"","","instructions",39,3954159,"0.0-39.0","fl3wdsjhrmw4773f8qnd5njow96vfoqh","Thu Jan 26 2017 15:46:22 GMT-0500 (Eastern Standard Time)","male","White","liberal","",NA,"[{""page_index"":0,""viewing_time"":2404}]","break","","","","","","","","","","",""
"41",8052,"{""Q0"":1}","[object Object]","survey-likert",40,3962426,"0.0-40.0","fl3wdsjhrmw4773f8qnd5njow96vfoqh","Thu Jan 26 2017 15:46:22 GMT-0500 (Eastern Standard Time)","male","White","liberal","",NA,"","offCivRatings","the officer asked the civilian how he was doing","the civilian punched the officer in the face","asked","punchFace","civilianOfficer","punishOff","1","","","",""
"42",2025,"{""Q0"":100}","[object Object]","survey-likert",41,3964466,"0.0-41.0","fl3wdsjhrmw4773f8qnd5njow96vfoqh","Thu Jan 26 2017 15:46:22 GMT-0500 (Eastern Standard Time)","male","White","liberal","",NA,"","offCivRatings","the officer asked the civilian how he was doing","the civilian punched the officer in the face","asked","punchFace","civilianOfficer","acceptableOff","100","","","",""
"43",5232,"{""Q0"":1}","[object Object]","survey-likert",42,3969713,"0.0-42.0","fl3wdsjhrmw4773f8qnd5njow96vfoqh","Thu Jan 26 2017 15:46:22 GMT-0500 (Eastern Standard Time)","male","White","liberal","",NA,"","offCivRatings","the officer asked the civilian how he was doing","the civilian punched the officer in the face","asked","punchFace","civilianOfficer","appropriateOff","1","","","",""
"44",2792,"{""Q0"":1}","[object Object]","survey-likert",43,3972521,"0.0-43.0","fl3wdsjhrmw4773f8qnd5njow96vfoqh","Thu Jan 26 2017 15:46:22 GMT-0500 (Eastern Standard Time)","male","White","liberal","",NA,"","offCivRatings","the officer asked the civilian how he was doing","the civilian punched the officer in the face","asked","punchFace","civilianOfficer","forceOff","1","","","",""
"45",605,"","","instructions",44,3973127,"0.0-44.0","fl3wdsjhrmw4773f8qnd5njow96vfoqh","Thu Jan 26 2017 15:46:22 GMT-0500 (Eastern Standard Time)","male","White","liberal","",NA,"[{""page_index"":0,""viewing_time"":604}]","break","","","","","","","","","","",""
"46",10228,"{""Q0"":77}","[object Object]","survey-likert",45,3983571,"0.0-45.0","fl3wdsjhrmw4773f8qnd5njow96vfoqh","Thu Jan 26 2017 15:46:22 GMT-0500 (Eastern Standard Time)","male","White","liberal","",NA,"","offCivRatings","the officer kicked the civilian in the stomach","the civilian slammed the officer's head into the concrete curb","kickStom","headSlam","officerCivilian","punishCiv","77","","","",""
"47",2384,"{""Q0"":1}","[object Object]","survey-likert",46,3985970,"0.0-46.0","fl3wdsjhrmw4773f8qnd5njow96vfoqh","Thu Jan 26 2017 15:46:22 GMT-0500 (Eastern Standard Time)","male","White","liberal","",NA,"","offCivRatings","the officer kicked the civilian in the stomach","the civilian slammed the officer's head into the concrete curb","kickStom","headSlam","officerCivilian","acceptableCiv","1","","","",""
"48",5809,"{""Q0"":93}","[object Object]","survey-likert",47,3991794,"0.0-47.0","fl3wdsjhrmw4773f8qnd5njow96vfoqh","Thu Jan 26 2017 15:46:22 GMT-0500 (Eastern Standard Time)","male","White","liberal","",NA,"","offCivRatings","the officer kicked the civilian in the stomach","the civilian slammed the officer's head into the concrete curb","kickStom","headSlam","officerCivilian","forceCiv","93","","","",""
"49",2681,"{""Q0"":100}","[object Object]","survey-likert",48,3994491,"0.0-48.0","fl3wdsjhrmw4773f8qnd5njow96vfoqh","Thu Jan 26 2017 15:46:22 GMT-0500 (Eastern Standard Time)","male","White","liberal","",NA,"","offCivRatings","the officer kicked the civilian in the stomach","the civilian slammed the officer's head into the concrete curb","kickStom","headSlam","officerCivilian","manipCheckHigh","100","","","",""
"50",9977,"{""Q0"":70}","[object Object]","survey-likert",49,4004484,"0.0-49.0","fl3wdsjhrmw4773f8qnd5njow96vfoqh","Thu Jan 26 2017 15:46:22 GMT-0500 (Eastern Standard Time)","male","White","liberal","",NA,"","offCivRatings","the officer kicked the civilian in the stomach","the civilian slammed the officer's head into the concrete curb","kickStom","headSlam","officerCivilian","appropriateCiv","70","","","",""
"51",741,"","","instructions",50,4005225,"0.0-50.0","fl3wdsjhrmw4773f8qnd5njow96vfoqh","Thu Jan 26 2017 15:46:22 GMT-0500 (Eastern Standard Time)","male","White","liberal","",NA,"[{""page_index"":0,""viewing_time"":740}]","break","","","","","","","","","","",""
"52",10941,"{""Q0"":81}","[object Object]","survey-likert",51,4016380,"0.0-51.0","fl3wdsjhrmw4773f8qnd5njow96vfoqh","Thu Jan 26 2017 15:46:22 GMT-0500 (Eastern Standard Time)","male","White","liberal","",NA,"","offCivRatings","the officer struck the civilian in the stomach with a metal flashlight","the civilian sprayed the officer with pepper spray","flashlight","pepperSpray","civilianOfficer","appropriateOff","81","","","",""
"53",3177,"{""Q0"":35}","[object Object]","survey-likert",52,4019572,"0.0-52.0","fl3wdsjhrmw4773f8qnd5njow96vfoqh","Thu Jan 26 2017 15:46:22 GMT-0500 (Eastern Standard Time)","male","White","liberal","",NA,"","offCivRatings","the officer struck the civilian in the stomach with a metal flashlight","the civilian sprayed the officer with pepper spray","flashlight","pepperSpray","civilianOfficer","punishOff","35","","","",""
"54",2721,"{""Q0"":86}","[object Object]","survey-likert",53,4022307,"0.0-53.0","fl3wdsjhrmw4773f8qnd5njow96vfoqh","Thu Jan 26 2017 15:46:22 GMT-0500 (Eastern Standard Time)","male","White","liberal","",NA,"","offCivRatings","the officer struck the civilian in the stomach with a metal flashlight","the civilian sprayed the officer with pepper spray","flashlight","pepperSpray","civilianOfficer","forceOff","86","","","",""
"55",2721,"{""Q0"":50}","[object Object]","survey-likert",54,4025044,"0.0-54.0","fl3wdsjhrmw4773f8qnd5njow96vfoqh","Thu Jan 26 2017 15:46:22 GMT-0500 (Eastern Standard Time)","male","White","liberal","",NA,"","offCivRatings","the officer struck the civilian in the stomach with a metal flashlight","the civilian sprayed the officer with pepper spray","flashlight","pepperSpray","civilianOfficer","acceptableOff","50","","","",""
"56",565,"","","instructions",55,4025609,"0.0-55.0","fl3wdsjhrmw4773f8qnd5njow96vfoqh","Thu Jan 26 2017 15:46:22 GMT-0500 (Eastern Standard Time)","male","White","liberal","",NA,"[{""page_index"":0,""viewing_time"":564}]","break","","","","","","","","","","",""
"57",60369,"{""Q0"":1}","[object Object]","survey-likert",56,4086192,"0.0-56.0","fl3wdsjhrmw4773f8qnd5njow96vfoqh","Thu Jan 26 2017 15:46:22 GMT-0500 (Eastern Standard Time)","male","White","liberal","",NA,"","offCivRatings","the officer stood near the civilian","the civilian asked the officer how he was doing","stoodNear","asked","officerCivilian","punishCiv","1","","","",""
"58",2761,"{""Q0"":1}","[object Object]","survey-likert",57,4088967,"0.0-57.0","fl3wdsjhrmw4773f8qnd5njow96vfoqh","Thu Jan 26 2017 15:46:22 GMT-0500 (Eastern Standard Time)","male","White","liberal","",NA,"","offCivRatings","the officer stood near the civilian","the civilian asked the officer how he was doing","stoodNear","asked","officerCivilian","manipCheckLow","1","","","",""
"59",2202,"{""Q0"":100}","[object Object]","survey-likert",58,4091186,"0.0-58.0","fl3wdsjhrmw4773f8qnd5njow96vfoqh","Thu Jan 26 2017 15:46:22 GMT-0500 (Eastern Standard Time)","male","White","liberal","",NA,"","offCivRatings","the officer stood near the civilian","the civilian asked the officer how he was doing","stoodNear","asked","officerCivilian","acceptableCiv","100","","","",""
"60",1599,"{""Q0"":1}","[object Object]","survey-likert",59,4092799,"0.0-59.0","fl3wdsjhrmw4773f8qnd5njow96vfoqh","Thu Jan 26 2017 15:46:22 GMT-0500 (Eastern Standard Time)","male","White","liberal","",NA,"","offCivRatings","the officer stood near the civilian","the civilian asked the officer how he was doing","stoodNear","asked","officerCivilian","forceCiv","1","","","",""
"61",3122,"{""Q0"":50}","[object Object]","survey-likert",60,4095937,"0.0-60.0","fl3wdsjhrmw4773f8qnd5njow96vfoqh","Thu Jan 26 2017 15:46:22 GMT-0500 (Eastern Standard Time)","male","White","liberal","",NA,"","offCivRatings","the officer stood near the civilian","the civilian asked the officer how he was doing","stoodNear","asked","officerCivilian","appropriateCiv","50","","","",""
"62",629,"","","instructions",61,4096566,"0.0-61.0","fl3wdsjhrmw4773f8qnd5njow96vfoqh","Thu Jan 26 2017 15:46:22 GMT-0500 (Eastern Standard Time)","male","White","liberal","",NA,"[{""page_index"":0,""viewing_time"":628}]","break","","","","","","","","","","",""
"63",33400,"{""Q0"":1}","[object Object]","survey-likert",62,4130183,"0.0-62.0","fl3wdsjhrmw4773f8qnd5njow96vfoqh","Thu Jan 26 2017 15:46:22 GMT-0500 (Eastern Standard Time)","male","White","liberal","",NA,"","offCivRatings","the officer waved at the civilian in greeting","the civilian shot the officer in the head with a handgun","waved","handgunHead","civilianOfficer","forceOff","1","","","",""
"64",2802,"{""Q0"":100}","[object Object]","survey-likert",63,4133002,"0.0-63.0","fl3wdsjhrmw4773f8qnd5njow96vfoqh","Thu Jan 26 2017 15:46:22 GMT-0500 (Eastern Standard Time)","male","White","liberal","",NA,"","offCivRatings","the officer waved at the civilian in greeting","the civilian shot the officer in the head with a handgun","waved","handgunHead","civilianOfficer","acceptableOff","100","","","",""
"65",2167,"{""Q0"":1}","[object Object]","survey-likert",64,4135184,"0.0-64.0","fl3wdsjhrmw4773f8qnd5njow96vfoqh","Thu Jan 26 2017 15:46:22 GMT-0500 (Eastern Standard Time)","male","White","liberal","",NA,"","offCivRatings","the officer waved at the civilian in greeting","the civilian shot the officer in the head with a handgun","waved","handgunHead","civilianOfficer","punishOff","1","","","",""
"66",4402,"{""Q0"":50}","[object Object]","survey-likert",65,4139600,"0.0-65.0","fl3wdsjhrmw4773f8qnd5njow96vfoqh","Thu Jan 26 2017 15:46:22 GMT-0500 (Eastern Standard Time)","male","White","liberal","",NA,"","offCivRatings","the officer waved at the civilian in greeting","the civilian shot the officer in the head with a handgun","waved","handgunHead","civilianOfficer","appropriateOff","50","","","",""
"67",1945,"{""Q0"":1}","[object Object]","survey-likert",66,4141560,"0.0-66.0","fl3wdsjhrmw4773f8qnd5njow96vfoqh","Thu Jan 26 2017 15:46:22 GMT-0500 (Eastern Standard Time)","male","White","liberal","",NA,"","offCivRatings","the officer waved at the civilian in greeting","the civilian shot the officer in the head with a handgun","waved","handgunHead","civilianOfficer","manipCheckLow","1","","","",""
"68",814,"","","instructions",67,4142374,"0.0-67.0","fl3wdsjhrmw4773f8qnd5njow96vfoqh","Thu Jan 26 2017 15:46:22 GMT-0500 (Eastern Standard Time)","male","White","liberal","",NA,"[{""page_index"":0,""viewing_time"":813}]","break","","","","","","","","","","",""
"69",18793,"{""Q0"":89}","[object Object]","survey-likert",68,4161383,"0.0-68.0","fl3wdsjhrmw4773f8qnd5njow96vfoqh","Thu Jan 26 2017 15:46:22 GMT-0500 (Eastern Standard Time)","male","White","liberal","",NA,"","offCivRatings","the officer shot the civilian in the chest with a handgun","the civilian hit the officer in the chest with a baseball bat","handgunChest","ballBat","officerCivilian","punishCiv","89","","","",""
"70",4580,"{""Q0"":87}","[object Object]","survey-likert",69,4165978,"0.0-69.0","fl3wdsjhrmw4773f8qnd5njow96vfoqh","Thu Jan 26 2017 15:46:22 GMT-0500 (Eastern Standard Time)","male","White","liberal","",NA,"","offCivRatings","the officer shot the civilian in the chest with a handgun","the civilian hit the officer in the chest with a baseball bat","handgunChest","ballBat","officerCivilian","forceCiv","87","","","",""
"71",3171,"{""Q0"":50}","[object Object]","survey-likert",70,4169163,"0.0-70.0","fl3wdsjhrmw4773f8qnd5njow96vfoqh","Thu Jan 26 2017 15:46:22 GMT-0500 (Eastern Standard Time)","male","White","liberal","",NA,"","offCivRatings","the officer shot the civilian in the chest with a handgun","the civilian hit the officer in the chest with a baseball bat","handgunChest","ballBat","officerCivilian","acceptableCiv","50","","","",""
"72",3593,"{""Q0"":79}","[object Object]","survey-likert",71,4172771,"0.0-71.0","fl3wdsjhrmw4773f8qnd5njow96vfoqh","Thu Jan 26 2017 15:46:22 GMT-0500 (Eastern Standard Time)","male","White","liberal","",NA,"","offCivRatings","the officer shot the civilian in the chest with a handgun","the civilian hit the officer in the chest with a baseball bat","handgunChest","ballBat","officerCivilian","appropriateCiv","79","","","",""
"73",710,"","","instructions",72,4173481,"0.0-72.0","fl3wdsjhrmw4773f8qnd5njow96vfoqh","Thu Jan 26 2017 15:46:22 GMT-0500 (Eastern Standard Time)","male","White","liberal","",NA,"[{""page_index"":0,""viewing_time"":709}]","break","","","","","","","","","","",""
"74",7675,"{""Q0"":100}","[object Object]","survey-likert",73,4181370,"0.0-73.0","fl3wdsjhrmw4773f8qnd5njow96vfoqh","Thu Jan 26 2017 15:46:22 GMT-0500 (Eastern Standard Time)","male","White","liberal","",NA,"","offCivRatings","the officer shot the civilian in the chest with a beanbag shotgun round","the civilian waved at the officer in greeting","beanbag","waved","officerCivilian","acceptableCiv","100","","","",""
"75",1769,"{""Q0"":1}","[object Object]","survey-likert",74,4183155,"0.0-74.0","fl3wdsjhrmw4773f8qnd5njow96vfoqh","Thu Jan 26 2017 15:46:22 GMT-0500 (Eastern Standard Time)","male","White","liberal","",NA,"","offCivRatings","the officer shot the civilian in the chest with a beanbag shotgun round","the civilian waved at the officer in greeting","beanbag","waved","officerCivilian","manipCheckLow","1","","","",""
"76",85693,"{""Q0"":1}","[object Object]","survey-likert",75,4268863,"0.0-75.0","fl3wdsjhrmw4773f8qnd5njow96vfoqh","Thu Jan 26 2017 15:46:22 GMT-0500 (Eastern Standard Time)","male","White","liberal","",NA,"","offCivRatings","the officer shot the civilian in the chest with a beanbag shotgun round","the civilian waved at the officer in greeting","beanbag","waved","officerCivilian","punishCiv","1","","","",""
"77",6089,"{""Q0"":1}","[object Object]","survey-likert",76,4274968,"0.0-76.0","fl3wdsjhrmw4773f8qnd5njow96vfoqh","Thu Jan 26 2017 15:46:22 GMT-0500 (Eastern Standard Time)","male","White","liberal","",NA,"","offCivRatings","the officer shot the civilian in the chest with a beanbag shotgun round","the civilian waved at the officer in greeting","beanbag","waved","officerCivilian","appropriateCiv","1","","","",""
"78",2026,"{""Q0"":1}","[object Object]","survey-likert",77,4277009,"0.0-77.0","fl3wdsjhrmw4773f8qnd5njow96vfoqh","Thu Jan 26 2017 15:46:22 GMT-0500 (Eastern Standard Time)","male","White","liberal","",NA,"","offCivRatings","the officer shot the civilian in the chest with a beanbag shotgun round","the civilian waved at the officer in greeting","beanbag","waved","officerCivilian","forceCiv","1","","","",""
"79",621,"","","instructions",78,4277631,"0.0-78.0","fl3wdsjhrmw4773f8qnd5njow96vfoqh","Thu Jan 26 2017 15:46:22 GMT-0500 (Eastern Standard Time)","male","White","liberal","",NA,"[{""page_index"":0,""viewing_time"":620}]","break","","","","","","","","","","",""
"80",8235,"{""Q0"":1}","[object Object]","survey-likert",79,4286081,"0.0-79.0","fl3wdsjhrmw4773f8qnd5njow96vfoqh","Thu Jan 26 2017 15:46:22 GMT-0500 (Eastern Standard Time)","male","White","liberal","",NA,"","offCivRatings","the officer yelled ""get back!"" at the civilian","the civilian shocked the officer with a tazer","getBack","tazer","officerCivilian","acceptableCiv","1","","","",""
"81",1888,"{""Q0"":100}","[object Object]","survey-likert",80,4287983,"0.0-80.0","fl3wdsjhrmw4773f8qnd5njow96vfoqh","Thu Jan 26 2017 15:46:22 GMT-0500 (Eastern Standard Time)","male","White","liberal","",NA,"","offCivRatings","the officer yelled ""get back!"" at the civilian","the civilian shocked the officer with a tazer","getBack","tazer","officerCivilian","punishCiv","100","","","",""
"82",2395,"{""Q0"":100}","[object Object]","survey-likert",81,4290392,"0.0-81.0","fl3wdsjhrmw4773f8qnd5njow96vfoqh","Thu Jan 26 2017 15:46:22 GMT-0500 (Eastern Standard Time)","male","White","liberal","",NA,"","offCivRatings","the officer yelled ""get back!"" at the civilian","the civilian shocked the officer with a tazer","getBack","tazer","officerCivilian","manipCheckHigh","100","","","",""
"83",5513,"{""Q0"":100}","[object Object]","survey-likert",82,4295920,"0.0-82.0","fl3wdsjhrmw4773f8qnd5njow96vfoqh","Thu Jan 26 2017 15:46:22 GMT-0500 (Eastern Standard Time)","male","White","liberal","",NA,"","offCivRatings","the officer yelled ""get back!"" at the civilian","the civilian shocked the officer with a tazer","getBack","tazer","officerCivilian","appropriateCiv","100","","","",""
"84",2736,"{""Q0"":78}","[object Object]","survey-likert",83,4298672,"0.0-83.0","fl3wdsjhrmw4773f8qnd5njow96vfoqh","Thu Jan 26 2017 15:46:22 GMT-0500 (Eastern Standard Time)","male","White","liberal","",NA,"","offCivRatings","the officer yelled ""get back!"" at the civilian","the civilian shocked the officer with a tazer","getBack","tazer","officerCivilian","forceCiv","78","","","",""
"85",685,"","","instructions",84,4299358,"0.0-84.0","fl3wdsjhrmw4773f8qnd5njow96vfoqh","Thu Jan 26 2017 15:46:22 GMT-0500 (Eastern Standard Time)","male","White","liberal","",NA,"[{""page_index"":0,""viewing_time"":684}]","break","","","","","","","","","","",""
"86",103311,"{""Q0"":1}","[object Object]","survey-likert",85,4402883,"0.0-85.0","fl3wdsjhrmw4773f8qnd5njow96vfoqh","Thu Jan 26 2017 15:46:22 GMT-0500 (Eastern Standard Time)","male","White","liberal","",NA,"","offCivRatings","the officer shot the civilian in the head with a handgun","the civilian stood near the officer","handgunHead","stoodNear","officerCivilian","appropriateCiv","1","","","",""
"87",3684,"{""Q0"":1}","[object Object]","survey-likert",86,4406582,"0.0-86.0","fl3wdsjhrmw4773f8qnd5njow96vfoqh","Thu Jan 26 2017 15:46:22 GMT-0500 (Eastern Standard Time)","male","White","liberal","",NA,"","offCivRatings","the officer shot the civilian in the head with a handgun","the civilian stood near the officer","handgunHead","stoodNear","officerCivilian","forceCiv","1","","","",""
"88",2218,"{""Q0"":1}","[object Object]","survey-likert",87,4408814,"0.0-87.0","fl3wdsjhrmw4773f8qnd5njow96vfoqh","Thu Jan 26 2017 15:46:22 GMT-0500 (Eastern Standard Time)","male","White","liberal","",NA,"","offCivRatings","the officer shot the civilian in the head with a handgun","the civilian stood near the officer","handgunHead","stoodNear","officerCivilian","punishCiv","1","","","",""
"89",2442,"{""Q0"":100}","[object Object]","survey-likert",88,4411270,"0.0-88.0","fl3wdsjhrmw4773f8qnd5njow96vfoqh","Thu Jan 26 2017 15:46:22 GMT-0500 (Eastern Standard Time)","male","White","liberal","",NA,"","offCivRatings","the officer shot the civilian in the head with a handgun","the civilian stood near the officer","handgunHead","stoodNear","officerCivilian","acceptableCiv","100","","","",""
"90",645,"","","instructions",89,4411916,"0.0-89.0","fl3wdsjhrmw4773f8qnd5njow96vfoqh","Thu Jan 26 2017 15:46:22 GMT-0500 (Eastern Standard Time)","male","White","liberal","",NA,"[{""page_index"":0,""viewing_time"":644}]","break","","","","","","","","","","",""
"91",3221,"{""Q0"":100}","[object Object]","survey-likert",90,4415350,"0.0-90.0","fl3wdsjhrmw4773f8qnd5njow96vfoqh","Thu Jan 26 2017 15:46:22 GMT-0500 (Eastern Standard Time)","male","White","liberal","",NA,"","offCivRatings","the officer struck the civilian on the leg with a collapsible baton","the civilian shot the officer in the chest with a handgun","batonLeg","handgunChest","civilianOfficer","manipCheckHigh","100","","","",""
"92",10777,"{""Q0"":70}","[object Object]","survey-likert",91,4426141,"0.0-91.0","fl3wdsjhrmw4773f8qnd5njow96vfoqh","Thu Jan 26 2017 15:46:22 GMT-0500 (Eastern Standard Time)","male","White","liberal","",NA,"","offCivRatings","the officer struck the civilian on the leg with a collapsible baton","the civilian shot the officer in the chest with a handgun","batonLeg","handgunChest","civilianOfficer","forceOff","70","","","",""
"93",8003,"{""Q0"":50}","[object Object]","survey-likert",92,4434158,"0.0-92.0","fl3wdsjhrmw4773f8qnd5njow96vfoqh","Thu Jan 26 2017 15:46:22 GMT-0500 (Eastern Standard Time)","male","White","liberal","",NA,"","offCivRatings","the officer struck the civilian on the leg with a collapsible baton","the civilian shot the officer in the chest with a handgun","batonLeg","handgunChest","civilianOfficer","appropriateOff","50","","","",""
"94",2842,"{""Q0"":1}","[object Object]","survey-likert",93,4437014,"0.0-93.0","fl3wdsjhrmw4773f8qnd5njow96vfoqh","Thu Jan 26 2017 15:46:22 GMT-0500 (Eastern Standard Time)","male","White","liberal","",NA,"","offCivRatings","the officer struck the civilian on the leg with a collapsible baton","the civilian shot the officer in the chest with a handgun","batonLeg","handgunChest","civilianOfficer","punishOff","1","","","",""
"95",2352,"{""Q0"":100}","[object Object]","survey-likert",94,4439382,"0.0-94.0","fl3wdsjhrmw4773f8qnd5njow96vfoqh","Thu Jan 26 2017 15:46:22 GMT-0500 (Eastern Standard Time)","male","White","liberal","",NA,"","offCivRatings","the officer struck the civilian on the leg with a collapsible baton","the civilian shot the officer in the chest with a handgun","batonLeg","handgunChest","civilianOfficer","acceptableOff","100","","","",""
"96",733,"","","instructions",95,4440116,"0.0-95.0","fl3wdsjhrmw4773f8qnd5njow96vfoqh","Thu Jan 26 2017 15:46:22 GMT-0500 (Eastern Standard Time)","male","White","liberal","",NA,"[{""page_index"":0,""viewing_time"":732}]","break","","","","","","","","","","",""
"97",17875,"{""Q0"":30}","[object Object]","survey-likert",96,4458206,"0.0-96.0","fl3wdsjhrmw4773f8qnd5njow96vfoqh","Thu Jan 26 2017 15:46:22 GMT-0500 (Eastern Standard Time)","male","White","liberal","",NA,"","offCivRatings","the officer purposefully struck the civilian with a motor vehicle","the civilian twisted the arm of the officer, forcing him to the ground","vehicle","armbar","officerCivilian","punishCiv","30","","","",""
"98",2634,"{""Q0"":50}","[object Object]","survey-likert",97,4460854,"0.0-97.0","fl3wdsjhrmw4773f8qnd5njow96vfoqh","Thu Jan 26 2017 15:46:22 GMT-0500 (Eastern Standard Time)","male","White","liberal","",NA,"","offCivRatings","the officer purposefully struck the civilian with a motor vehicle","the civilian twisted the arm of the officer, forcing him to the ground","vehicle","armbar","officerCivilian","appropriateCiv","50","","","",""
"99",2938,"{""Q0"":58}","[object Object]","survey-likert",98,4463806,"0.0-98.0","fl3wdsjhrmw4773f8qnd5njow96vfoqh","Thu Jan 26 2017 15:46:22 GMT-0500 (Eastern Standard Time)","male","White","liberal","",NA,"","offCivRatings","the officer purposefully struck the civilian with a motor vehicle","the civilian twisted the arm of the officer, forcing him to the ground","vehicle","armbar","officerCivilian","forceCiv","58","","","",""
"100",2044,"{""Q0"":72}","[object Object]","survey-likert",99,4465864,"0.0-99.0","fl3wdsjhrmw4773f8qnd5njow96vfoqh","Thu Jan 26 2017 15:46:22 GMT-0500 (Eastern Standard Time)","male","White","liberal","",NA,"","offCivRatings","the officer purposefully struck the civilian with a motor vehicle","the civilian twisted the arm of the officer, forcing him to the ground","vehicle","armbar","officerCivilian","acceptableCiv","72","","","",""
"101",589,"","","instructions",100,4466454,"0.0-100.0","fl3wdsjhrmw4773f8qnd5njow96vfoqh","Thu Jan 26 2017 15:46:22 GMT-0500 (Eastern Standard Time)","male","White","liberal","",NA,"[{""page_index"":0,""viewing_time"":589}]","break","","","","","","","","","","",""
"102",2476,"{""Q0"":1}","[object Object]","survey-likert",101,4469145,"0.0-101.0","fl3wdsjhrmw4773f8qnd5njow96vfoqh","Thu Jan 26 2017 15:46:22 GMT-0500 (Eastern Standard Time)","male","White","liberal","",NA,"","offCivRatings","the officer shocked the civilian with a tazer","the civilian purposefully struck the officer with a motor vehicle","tazer","vehicle","officerCivilian","manipCheckLow","1","","","",""
"103",8095,"{""Q0"":97}","[object Object]","survey-likert",102,4477256,"0.0-102.0","fl3wdsjhrmw4773f8qnd5njow96vfoqh","Thu Jan 26 2017 15:46:22 GMT-0500 (Eastern Standard Time)","male","White","liberal","",NA,"","offCivRatings","the officer shocked the civilian with a tazer","the civilian purposefully struck the officer with a motor vehicle","tazer","vehicle","officerCivilian","forceCiv","97","","","",""
"104",47354,"{""Q0"":96}","[object Object]","survey-likert",103,4524624,"0.0-103.0","fl3wdsjhrmw4773f8qnd5njow96vfoqh","Thu Jan 26 2017 15:46:22 GMT-0500 (Eastern Standard Time)","male","White","liberal","",NA,"","offCivRatings","the officer shocked the civilian with a tazer","the civilian purposefully struck the officer with a motor vehicle","tazer","vehicle","officerCivilian","appropriateCiv","96","","","",""
"105",3300,"{""Q0"":6}","[object Object]","survey-likert",104,4527940,"0.0-104.0","fl3wdsjhrmw4773f8qnd5njow96vfoqh","Thu Jan 26 2017 15:46:22 GMT-0500 (Eastern Standard Time)","male","White","liberal","",NA,"","offCivRatings","the officer shocked the civilian with a tazer","the civilian purposefully struck the officer with a motor vehicle","tazer","vehicle","officerCivilian","acceptableCiv","6","","","",""
"106",4417,"{""Q0"":99}","[object Object]","survey-likert",105,4532371,"0.0-105.0","fl3wdsjhrmw4773f8qnd5njow96vfoqh","Thu Jan 26 2017 15:46:22 GMT-0500 (Eastern Standard Time)","male","White","liberal","",NA,"","offCivRatings","the officer shocked the civilian with a tazer","the civilian purposefully struck the officer with a motor vehicle","tazer","vehicle","officerCivilian","punishCiv","99","","","",""
"107",837,"","","instructions",106,4533208,"0.0-106.0","fl3wdsjhrmw4773f8qnd5njow96vfoqh","Thu Jan 26 2017 15:46:22 GMT-0500 (Eastern Standard Time)","male","White","liberal","",NA,"[{""page_index"":0,""viewing_time"":836}]","break","","","","","","","","","","",""
"108",5446,"{""Q0"":1}","[object Object]","survey-likert",107,4538867,"0.0-107.0","fl3wdsjhrmw4773f8qnd5njow96vfoqh","Thu Jan 26 2017 15:46:22 GMT-0500 (Eastern Standard Time)","male","White","liberal","",NA,"","offCivRatings","the officer sprayed the civilian with pepper spray","the civilian headbutted the officer in the face","pepperSpray","headbutt","civilianOfficer","punishOff","1","","","",""
"109",18938,"{""Q0"":51}","[object Object]","survey-likert",108,4557819,"0.0-108.0","fl3wdsjhrmw4773f8qnd5njow96vfoqh","Thu Jan 26 2017 15:46:22 GMT-0500 (Eastern Standard Time)","male","White","liberal","",NA,"","offCivRatings","the officer sprayed the civilian with pepper spray","the civilian headbutted the officer in the face","pepperSpray","headbutt","civilianOfficer","appropriateOff","51","","","",""
"110",2522,"{""Q0"":93}","[object Object]","survey-likert",109,4560355,"0.0-109.0","fl3wdsjhrmw4773f8qnd5njow96vfoqh","Thu Jan 26 2017 15:46:22 GMT-0500 (Eastern Standard Time)","male","White","liberal","",NA,"","offCivRatings","the officer sprayed the civilian with pepper spray","the civilian headbutted the officer in the face","pepperSpray","headbutt","civilianOfficer","acceptableOff","93","","","",""
"111",4425,"{""Q0"":39}","[object Object]","survey-likert",110,4564795,"0.0-110.0","fl3wdsjhrmw4773f8qnd5njow96vfoqh","Thu Jan 26 2017 15:46:22 GMT-0500 (Eastern Standard Time)","male","White","liberal","",NA,"","offCivRatings","the officer sprayed the civilian with pepper spray","the civilian headbutted the officer in the face","pepperSpray","headbutt","civilianOfficer","forceOff","39","","","",""
"112",821,"","","instructions",111,4565616,"0.0-111.0","fl3wdsjhrmw4773f8qnd5njow96vfoqh","Thu Jan 26 2017 15:46:22 GMT-0500 (Eastern Standard Time)","male","White","liberal","",NA,"[{""page_index"":0,""viewing_time"":820}]","break","","","","","","","","","","",""
"113",6883,"{""Q0"":90}","[object Object]","survey-likert",112,4572715,"0.0-112.0","fl3wdsjhrmw4773f8qnd5njow96vfoqh","Thu Jan 26 2017 15:46:22 GMT-0500 (Eastern Standard Time)","male","White","liberal","",NA,"","offCivRatings","the officer punched the civilian in the face","the civilian applied a chokehold to the officer","punchFace","choke","civilianOfficer","acceptableOff","90","","","",""
"114",4690,"{""Q0"":66}","[object Object]","survey-likert",113,4577419,"0.0-113.0","fl3wdsjhrmw4773f8qnd5njow96vfoqh","Thu Jan 26 2017 15:46:22 GMT-0500 (Eastern Standard Time)","male","White","liberal","",NA,"","offCivRatings","the officer punched the civilian in the face","the civilian applied a chokehold to the officer","punchFace","choke","civilianOfficer","forceOff","66","","","",""
"115",2257,"{""Q0"":1}","[object Object]","survey-likert",114,4579690,"0.0-114.0","fl3wdsjhrmw4773f8qnd5njow96vfoqh","Thu Jan 26 2017 15:46:22 GMT-0500 (Eastern Standard Time)","male","White","liberal","",NA,"","offCivRatings","the officer punched the civilian in the face","the civilian applied a chokehold to the officer","punchFace","choke","civilianOfficer","manipCheckLow","1","","","",""
"116",2185,"{""Q0"":50}","[object Object]","survey-likert",115,4581890,"0.0-115.0","fl3wdsjhrmw4773f8qnd5njow96vfoqh","Thu Jan 26 2017 15:46:22 GMT-0500 (Eastern Standard Time)","male","White","liberal","",NA,"","offCivRatings","the officer punched the civilian in the face","the civilian applied a chokehold to the officer","punchFace","choke","civilianOfficer","appropriateOff","50","","","",""
"117",2962,"{""Q0"":1}","[object Object]","survey-likert",116,4584867,"0.0-116.0","fl3wdsjhrmw4773f8qnd5njow96vfoqh","Thu Jan 26 2017 15:46:22 GMT-0500 (Eastern Standard Time)","male","White","liberal","",NA,"","offCivRatings","the officer punched the civilian in the face","the civilian applied a chokehold to the officer","punchFace","choke","civilianOfficer","punishOff","1","","","",""
"118",615,"","","instructions",117,4585482,"0.0-117.0","fl3wdsjhrmw4773f8qnd5njow96vfoqh","Thu Jan 26 2017 15:46:22 GMT-0500 (Eastern Standard Time)","male","White","liberal","",NA,"[{""page_index"":0,""viewing_time"":614}]","break","","","","","","","","","","",""
"119",7233,"{""Q0"":1}","[object Object]","survey-likert",118,4592942,"0.0-118.0","fl3wdsjhrmw4773f8qnd5njow96vfoqh","Thu Jan 26 2017 15:46:22 GMT-0500 (Eastern Standard Time)","male","White","liberal","",NA,"","offCivRatings","the officer said ""if you touch me, you're gonna get hurt"" to the civilian","the civilian said ""if you touch me, you're gonna get hurt"" to the officer","hurtThreat","hurtThreat","civilianOfficer","manipCheckLow","1","","","",""
"120",2690,"{""Q0"":7}","[object Object]","survey-likert",119,4595645,"0.0-119.0","fl3wdsjhrmw4773f8qnd5njow96vfoqh","Thu Jan 26 2017 15:46:22 GMT-0500 (Eastern Standard Time)","male","White","liberal","",NA,"","offCivRatings","the officer said ""if you touch me, you're gonna get hurt"" to the civilian","the civilian said ""if you touch me, you're gonna get hurt"" to the officer","hurtThreat","hurtThreat","civilianOfficer","forceOff","7","","","",""
"121",2337,"{""Q0"":50}","[object Object]","survey-likert",120,4597998,"0.0-120.0","fl3wdsjhrmw4773f8qnd5njow96vfoqh","Thu Jan 26 2017 15:46:22 GMT-0500 (Eastern Standard Time)","male","White","liberal","",NA,"","offCivRatings","the officer said ""if you touch me, you're gonna get hurt"" to the civilian","the civilian said ""if you touch me, you're gonna get hurt"" to the officer","hurtThreat","hurtThreat","civilianOfficer","appropriateOff","50","","","",""
"122",30226,"{""Q0"":68}","[object Object]","survey-likert",121,4628238,"0.0-121.0","fl3wdsjhrmw4773f8qnd5njow96vfoqh","Thu Jan 26 2017 15:46:22 GMT-0500 (Eastern Standard Time)","male","White","liberal","",NA,"","offCivRatings","the officer said ""if you touch me, you're gonna get hurt"" to the civilian","the civilian said ""if you touch me, you're gonna get hurt"" to the officer","hurtThreat","hurtThreat","civilianOfficer","acceptableOff","68","","","",""
"123",14122,"{""Q0"":3}","[object Object]","survey-likert",122,4642375,"0.0-122.0","fl3wdsjhrmw4773f8qnd5njow96vfoqh","Thu Jan 26 2017 15:46:22 GMT-0500 (Eastern Standard Time)","male","White","liberal","",NA,"","offCivRatings","the officer said ""if you touch me, you're gonna get hurt"" to the civilian","the civilian said ""if you touch me, you're gonna get hurt"" to the officer","hurtThreat","hurtThreat","civilianOfficer","punishOff","3","","","",""
"124",709,"","","instructions",123,4643085,"0.0-123.0","fl3wdsjhrmw4773f8qnd5njow96vfoqh","Thu Jan 26 2017 15:46:22 GMT-0500 (Eastern Standard Time)","male","White","liberal","",NA,"[{""page_index"":0,""viewing_time"":708}]","break","","","","","","","","","","",""
"125",8152,"{""Q0"":71}","[object Object]","survey-likert",124,4651453,"0.0-124.0","fl3wdsjhrmw4773f8qnd5njow96vfoqh","Thu Jan 26 2017 15:46:22 GMT-0500 (Eastern Standard Time)","male","White","liberal","",NA,"","policeLegitimacy","","","","","","","71","communityWants","normAlignment","",""
"126",8909,"{""Q0"":40}","[object Object]","survey-likert",125,4660377,"0.0-125.0","fl3wdsjhrmw4773f8qnd5njow96vfoqh","Thu Jan 26 2017 15:46:22 GMT-0500 (Eastern Standard Time)","male","White","liberal","",NA,"","policeLegitimacy","","","","","","","40","importantValues","normAlignment","",""
"127",5946,"{""Q0"":47}","[object Object]","survey-likert",126,4666336,"0.0-126.0","fl3wdsjhrmw4773f8qnd5njow96vfoqh","Thu Jan 26 2017 15:46:22 GMT-0500 (Eastern Standard Time)","male","White","liberal","",NA,"","policeLegitimacy","","","","","","","47","doTreat","feltObligation","",""
"128",9395,"{""Q0"":31}","[object Object]","survey-likert",127,4675745,"0.0-127.0","fl3wdsjhrmw4773f8qnd5njow96vfoqh","Thu Jan 26 2017 15:46:22 GMT-0500 (Eastern Standard Time)","male","White","liberal","",NA,"","policeLegitimacy","","","","","","","31","doReasons","feltObligation","",""
"129",7466,"{""Q0"":41}","[object Object]","survey-likert",128,4683225,"0.0-128.0","fl3wdsjhrmw4773f8qnd5njow96vfoqh","Thu Jan 26 2017 15:46:22 GMT-0500 (Eastern Standard Time)","male","White","liberal","",NA,"","policeLegitimacy","","","","","","","41","support","feltObligation","",""
"130",5466,"{""Q0"":42}","[object Object]","survey-likert",129,4688705,"0.0-129.0","fl3wdsjhrmw4773f8qnd5njow96vfoqh","Thu Jan 26 2017 15:46:22 GMT-0500 (Eastern Standard Time)","male","White","liberal","",NA,"","policeLegitimacy","","","","","","","42","rightWrong","normAlignment","",""
"131",2637,"{""Q0"":""no""}","[object Object]","survey-multi-choice2",130,4691355,"0.0-130.0","fl3wdsjhrmw4773f8qnd5njow96vfoqh","Thu Jan 26 2017 15:46:22 GMT-0500 (Eastern Standard Time)","male","White","liberal","",NA,"","policeExperience","","","","","","","no","excessForce","","personal","Have the police ever used excessive force against you?"
"132",7198,"{""Q0"":""no""}","[object Object]","survey-multi-choice2",131,4698560,"0.0-131.0","fl3wdsjhrmw4773f8qnd5njow96vfoqh","Thu Jan 26 2017 15:46:22 GMT-0500 (Eastern Standard Time)","male","White","liberal","",NA,"","policeExperience","","","","","","","no","stopped","","vicarious","Has anyone in your household ever been stopped on the street by the police without good reason?"
"133",8197,"{""Q0"":""yes""}","[object Object]","survey-multi-choice2",132,4706763,"0.0-132.0","fl3wdsjhrmw4773f8qnd5njow96vfoqh","Thu Jan 26 2017 15:46:22 GMT-0500 (Eastern Standard Time)","male","White","liberal","",NA,"","policeExperience","","","","","","","yes","insultLang","","vicarious","Have the police ever used insulting language toward anyone in your household?"
"134",3686,"{""Q0"":""no""}","[object Object]","survey-multi-choice2",133,4710456,"0.0-133.0","fl3wdsjhrmw4773f8qnd5njow96vfoqh","Thu Jan 26 2017 15:46:22 GMT-0500 (Eastern Standard Time)","male","White","liberal","",NA,"","policeExperience","","","","","","","no","excessForce","","vicarious","Have the police ever used excessive force against anyone in your household?"
"135",3516,"{""Q0"":""no""}","[object Object]","survey-multi-choice2",134,4713977,"0.0-134.0","fl3wdsjhrmw4773f8qnd5njow96vfoqh","Thu Jan 26 2017 15:46:22 GMT-0500 (Eastern Standard Time)","male","White","liberal","",NA,"","policeExperience","","","","","","","no","stopped","","personal","Have you ever been stopped by the police on the street without good reason?"
"136",3130,"{""Q0"":""no""}","[object Object]","survey-multi-choice2",135,4717113,"0.0-135.0","fl3wdsjhrmw4773f8qnd5njow96vfoqh","Thu Jan 26 2017 15:46:22 GMT-0500 (Eastern Standard Time)","male","White","liberal","",NA,"","policeExperience","","","","","","","no","corrupt","","personal","Have you ever seen a police officer engage in any corrupt activities (e.g., taking bribes or involvement in the drug trade)?"
"137",2587,"{""Q0"":""no""}","[object Object]","survey-multi-choice2",136,4719705,"0.0-136.0","fl3wdsjhrmw4773f8qnd5njow96vfoqh","Thu Jan 26 2017 15:46:22 GMT-0500 (Eastern Standard Time)","male","White","liberal","",NA,"","policeExperience","","","","","","","no","insultLang","","personal","Have the police ever used insulting language toward you?"
"138",13087,"{""Q0"":""male"",""Q1"":""White"",""Q2"":""liberal""}","[object Object]","survey-multi-choice",137,4732821,"0.0-137.0","fl3wdsjhrmw4773f8qnd5njow96vfoqh","Thu Jan 26 2017 15:46:22 GMT-0500 (Eastern Standard Time)","male","White","liberal","",NA,"","demographics","","","","","","","","","","",""
"139",20906,"","","instructions",138,4754728,"0.0-138.0","fl3wdsjhrmw4773f8qnd5njow96vfoqh","Thu Jan 26 2017 15:46:22 GMT-0500 (Eastern Standard Time)","male","White","liberal","",NA,"[{""page_index"":0,""viewing_time"":3266},{""page_index"":1,""viewing_time"":7824},{""page_index"":2,""viewing_time"":3656},{""page_index"":3,""viewing_time"":1096},{""page_index"":2,""viewing_time"":3312},{""page_index"":3,""viewing_time"":1752}]","debriefing","","","","","","","","","","",""
