"","rt","responses","internalResp","trial_type","trial_index","time_elapsed","internal_node_id","randSubjectID","date","sex","race","polAff","stimulus","key_press","view_history","questionType","officerAction","civilianAction","offActName","civActName","order","questionName","response","name","dimension","person","question"
"1",4340,"","[object Object]","survey-text",0,4365,"0.0-0.0","fp9wsosdprxdxhcgo4v7phdx5kb95p4b","Wed Apr 26 2017 16:43:33 GMT-0400 (EDT)","female","White","liberal","",NA,"","","","","","","","","","","","",""
"2",9303,"","","single-stim",1,14676,"0.0-1.0","fp9wsosdprxdxhcgo4v7phdx5kb95p4b","Wed Apr 26 2017 16:43:33 GMT-0400 (EDT)","female","White","liberal","<img src='static/images/1602685960_ICS_Credit-0.png' alt='Consent 1' height=1100 width=850><img src='static/images/1602685960_ICS_Credit-1.png' alt='Consent 2' height=1100 width=850></p>",89,"","","","","","","","","","","","",""
"3",1250,"","","instructions",2,16928,"0.0-2.0","fp9wsosdprxdxhcgo4v7phdx5kb95p4b","Wed Apr 26 2017 16:43:33 GMT-0400 (EDT)","female","White","liberal","",NA,"[{""page_index"":0,""viewing_time"":1249}]","instructions","","","","","","","","","","",""
"4",4018,"","","instructions",3,21948,"0.0-3.0","fp9wsosdprxdxhcgo4v7phdx5kb95p4b","Wed Apr 26 2017 16:43:33 GMT-0400 (EDT)","female","White","liberal","",NA,"[{""page_index"":0,""viewing_time"":783},{""page_index"":1,""viewing_time"":1174},{""page_index"":2,""viewing_time"":1267},{""page_index"":3,""viewing_time"":793}]","instructions","","","","","","","","","","",""
"5",5069,"{""Q0"":29}","[object Object]","survey-likert",4,28057,"0.0-4.0","fp9wsosdprxdxhcgo4v7phdx5kb95p4b","Wed Apr 26 2017 16:43:33 GMT-0400 (EDT)","female","White","liberal","",NA,"","offCivRatings","the officer applied a chokehold to the civilian","the civilian shocked the officer with a tazer","choke","tazer","civilianOfficer","appropriateOff","29","","","",""
"6",7669,"{""Q0"":50}","[object Object]","survey-likert",5,35737,"0.0-5.0","fp9wsosdprxdxhcgo4v7phdx5kb95p4b","Wed Apr 26 2017 16:43:33 GMT-0400 (EDT)","female","White","liberal","",NA,"","offCivRatings","the officer applied a chokehold to the civilian","the civilian shocked the officer with a tazer","choke","tazer","civilianOfficer","forceOff","50","","","",""
"7",3272,"{""Q0"":72}","[object Object]","survey-likert",6,39019,"0.0-6.0","fp9wsosdprxdxhcgo4v7phdx5kb95p4b","Wed Apr 26 2017 16:43:33 GMT-0400 (EDT)","female","White","liberal","",NA,"","offCivRatings","the officer applied a chokehold to the civilian","the civilian shocked the officer with a tazer","choke","tazer","civilianOfficer","punishOff","72","","","",""
"8",1466,"{""Q0"":63}","[object Object]","survey-likert",7,40493,"0.0-7.0","fp9wsosdprxdxhcgo4v7phdx5kb95p4b","Wed Apr 26 2017 16:43:33 GMT-0400 (EDT)","female","White","liberal","",NA,"","offCivRatings","the officer applied a chokehold to the civilian","the civilian shocked the officer with a tazer","choke","tazer","civilianOfficer","acceptableOff","63","","","",""
"9",1096,"","","instructions",8,41590,"0.0-8.0","fp9wsosdprxdxhcgo4v7phdx5kb95p4b","Wed Apr 26 2017 16:43:33 GMT-0400 (EDT)","female","White","liberal","",NA,"[{""page_index"":0,""viewing_time"":1096}]","break","","","","","","","","","","",""
"10",1685,"{""Q0"":40}","[object Object]","survey-likert",9,43490,"0.0-9.0","fp9wsosdprxdxhcgo4v7phdx5kb95p4b","Wed Apr 26 2017 16:43:33 GMT-0400 (EDT)","female","White","liberal","",NA,"","offCivRatings","the officer struck the civilian on the leg with a collapsible baton","the civilian hit the officer in the chest with a baseball bat","batonLeg","ballBat","civilianOfficer","forceOff","40","","","",""
"11",981,"{""Q0"":36}","[object Object]","survey-likert",10,44477,"0.0-10.0","fp9wsosdprxdxhcgo4v7phdx5kb95p4b","Wed Apr 26 2017 16:43:33 GMT-0400 (EDT)","female","White","liberal","",NA,"","offCivRatings","the officer struck the civilian on the leg with a collapsible baton","the civilian hit the officer in the chest with a baseball bat","batonLeg","ballBat","civilianOfficer","punishOff","36","","","",""
"12",1938,"{""Q0"":38}","[object Object]","survey-likert",11,46424,"0.0-11.0","fp9wsosdprxdxhcgo4v7phdx5kb95p4b","Wed Apr 26 2017 16:43:33 GMT-0400 (EDT)","female","White","liberal","",NA,"","offCivRatings","the officer struck the civilian on the leg with a collapsible baton","the civilian hit the officer in the chest with a baseball bat","batonLeg","ballBat","civilianOfficer","acceptableOff","38","","","",""
"13",1401,"{""Q0"":39}","[object Object]","survey-likert",12,47835,"0.0-12.0","fp9wsosdprxdxhcgo4v7phdx5kb95p4b","Wed Apr 26 2017 16:43:33 GMT-0400 (EDT)","female","White","liberal","",NA,"","offCivRatings","the officer struck the civilian on the leg with a collapsible baton","the civilian hit the officer in the chest with a baseball bat","batonLeg","ballBat","civilianOfficer","appropriateOff","39","","","",""
"14",727,"","","instructions",13,48562,"0.0-13.0","fp9wsosdprxdxhcgo4v7phdx5kb95p4b","Wed Apr 26 2017 16:43:33 GMT-0400 (EDT)","female","White","liberal","",NA,"[{""page_index"":0,""viewing_time"":727}]","break","","","","","","","","","","",""
"15",1730,"{""Q0"":41}","[object Object]","survey-likert",14,50504,"0.0-14.0","fp9wsosdprxdxhcgo4v7phdx5kb95p4b","Wed Apr 26 2017 16:43:33 GMT-0400 (EDT)","female","White","liberal","",NA,"","offCivRatings","the officer sprayed the civilian with pepper spray","the civilian kicked the officer in the stomach","pepperSpray","kickStom","civilianOfficer","forceOff","41","","","",""
"16",1297,"{""Q0"":37}","[object Object]","survey-likert",15,51811,"0.0-15.0","fp9wsosdprxdxhcgo4v7phdx5kb95p4b","Wed Apr 26 2017 16:43:33 GMT-0400 (EDT)","female","White","liberal","",NA,"","offCivRatings","the officer sprayed the civilian with pepper spray","the civilian kicked the officer in the stomach","pepperSpray","kickStom","civilianOfficer","punishOff","37","","","",""
"17",1264,"{""Q0"":39}","[object Object]","survey-likert",16,53084,"0.0-16.0","fp9wsosdprxdxhcgo4v7phdx5kb95p4b","Wed Apr 26 2017 16:43:33 GMT-0400 (EDT)","female","White","liberal","",NA,"","offCivRatings","the officer sprayed the civilian with pepper spray","the civilian kicked the officer in the stomach","pepperSpray","kickStom","civilianOfficer","appropriateOff","39","","","",""
"18",1716,"{""Q0"":34}","[object Object]","survey-likert",17,54807,"0.0-17.0","fp9wsosdprxdxhcgo4v7phdx5kb95p4b","Wed Apr 26 2017 16:43:33 GMT-0400 (EDT)","female","White","liberal","",NA,"","offCivRatings","the officer sprayed the civilian with pepper spray","the civilian kicked the officer in the stomach","pepperSpray","kickStom","civilianOfficer","acceptableOff","34","","","",""
"19",1461,"","","instructions",18,56269,"0.0-18.0","fp9wsosdprxdxhcgo4v7phdx5kb95p4b","Wed Apr 26 2017 16:43:33 GMT-0400 (EDT)","female","White","liberal","",NA,"[{""page_index"":0,""viewing_time"":1461}]","break","","","","","","","","","","",""
"20",3621,"{""Q0"":39}","[object Object]","survey-likert",19,60101,"0.0-19.0","fp9wsosdprxdxhcgo4v7phdx5kb95p4b","Wed Apr 26 2017 16:43:33 GMT-0400 (EDT)","female","White","liberal","",NA,"","offCivRatings","the officer shot the civilian in the chest with a beanbag shotgun round","the civilian sprayed the officer with pepper spray","beanbag","pepperSpray","officerCivilian","punishCiv","39","","","",""
"21",1611,"{""Q0"":39}","[object Object]","survey-likert",20,61720,"0.0-20.0","fp9wsosdprxdxhcgo4v7phdx5kb95p4b","Wed Apr 26 2017 16:43:33 GMT-0400 (EDT)","female","White","liberal","",NA,"","offCivRatings","the officer shot the civilian in the chest with a beanbag shotgun round","the civilian sprayed the officer with pepper spray","beanbag","pepperSpray","officerCivilian","acceptableCiv","39","","","",""
"22",986,"{""Q0"":42}","[object Object]","survey-likert",21,62714,"0.0-21.0","fp9wsosdprxdxhcgo4v7phdx5kb95p4b","Wed Apr 26 2017 16:43:33 GMT-0400 (EDT)","female","White","liberal","",NA,"","offCivRatings","the officer shot the civilian in the chest with a beanbag shotgun round","the civilian sprayed the officer with pepper spray","beanbag","pepperSpray","officerCivilian","appropriateCiv","42","","","",""
"23",1186,"{""Q0"":37}","[object Object]","survey-likert",22,63909,"0.0-22.0","fp9wsosdprxdxhcgo4v7phdx5kb95p4b","Wed Apr 26 2017 16:43:33 GMT-0400 (EDT)","female","White","liberal","",NA,"","offCivRatings","the officer shot the civilian in the chest with a beanbag shotgun round","the civilian sprayed the officer with pepper spray","beanbag","pepperSpray","officerCivilian","forceCiv","37","","","",""
"24",728,"","","instructions",23,64637,"0.0-23.0","fp9wsosdprxdxhcgo4v7phdx5kb95p4b","Wed Apr 26 2017 16:43:33 GMT-0400 (EDT)","female","White","liberal","",NA,"[{""page_index"":0,""viewing_time"":727}]","break","","","","","","","","","","",""
"25",3437,"{""Q0"":46}","[object Object]","survey-likert",24,68284,"0.0-24.0","fp9wsosdprxdxhcgo4v7phdx5kb95p4b","Wed Apr 26 2017 16:43:33 GMT-0400 (EDT)","female","White","liberal","",NA,"","offCivRatings","the officer shouted ""get your fucking hands up!"" at the civilian","the civilian punched the officer in the face","handsUp","punchFace","civilianOfficer","appropriateOff","46","","","",""
"26",1510,"{""Q0"":46}","[object Object]","survey-likert",25,69806,"0.0-25.0","fp9wsosdprxdxhcgo4v7phdx5kb95p4b","Wed Apr 26 2017 16:43:33 GMT-0400 (EDT)","female","White","liberal","",NA,"","offCivRatings","the officer shouted ""get your fucking hands up!"" at the civilian","the civilian punched the officer in the face","handsUp","punchFace","civilianOfficer","punishOff","46","","","",""
"27",1398,"{""Q0"":40}","[object Object]","survey-likert",26,71213,"0.0-26.0","fp9wsosdprxdxhcgo4v7phdx5kb95p4b","Wed Apr 26 2017 16:43:33 GMT-0400 (EDT)","female","White","liberal","",NA,"","offCivRatings","the officer shouted ""get your fucking hands up!"" at the civilian","the civilian punched the officer in the face","handsUp","punchFace","civilianOfficer","acceptableOff","40","","","",""
"28",1026,"{""Q0"":40}","[object Object]","survey-likert",27,72247,"0.0-27.0","fp9wsosdprxdxhcgo4v7phdx5kb95p4b","Wed Apr 26 2017 16:43:33 GMT-0400 (EDT)","female","White","liberal","",NA,"","offCivRatings","the officer shouted ""get your fucking hands up!"" at the civilian","the civilian punched the officer in the face","handsUp","punchFace","civilianOfficer","forceOff","40","","","",""
"29",792,"","","instructions",28,73039,"0.0-28.0","fp9wsosdprxdxhcgo4v7phdx5kb95p4b","Wed Apr 26 2017 16:43:33 GMT-0400 (EDT)","female","White","liberal","",NA,"[{""page_index"":0,""viewing_time"":791}]","break","","","","","","","","","","",""
"30",1475,"{""Q0"":43}","[object Object]","survey-likert",29,74725,"0.0-29.0","fp9wsosdprxdxhcgo4v7phdx5kb95p4b","Wed Apr 26 2017 16:43:33 GMT-0400 (EDT)","female","White","liberal","",NA,"","offCivRatings","the officer punched the civilian in the face","the civilian pulled away from the officer","punchFace","pulledAway","officerCivilian","punishCiv","43","","","",""
"31",1412,"{""Q0"":45}","[object Object]","survey-likert",30,76146,"0.0-30.0","fp9wsosdprxdxhcgo4v7phdx5kb95p4b","Wed Apr 26 2017 16:43:33 GMT-0400 (EDT)","female","White","liberal","",NA,"","offCivRatings","the officer punched the civilian in the face","the civilian pulled away from the officer","punchFace","pulledAway","officerCivilian","forceCiv","45","","","",""
"32",1427,"{""Q0"":43}","[object Object]","survey-likert",31,77580,"0.0-31.0","fp9wsosdprxdxhcgo4v7phdx5kb95p4b","Wed Apr 26 2017 16:43:33 GMT-0400 (EDT)","female","White","liberal","",NA,"","offCivRatings","the officer punched the civilian in the face","the civilian pulled away from the officer","punchFace","pulledAway","officerCivilian","appropriateCiv","43","","","",""
"33",1043,"{""Q0"":43}","[object Object]","survey-likert",32,78631,"0.0-32.0","fp9wsosdprxdxhcgo4v7phdx5kb95p4b","Wed Apr 26 2017 16:43:33 GMT-0400 (EDT)","female","White","liberal","",NA,"","offCivRatings","the officer punched the civilian in the face","the civilian pulled away from the officer","punchFace","pulledAway","officerCivilian","acceptableCiv","43","","","",""
"34",2435,"","","instructions",33,81066,"0.0-33.0","fp9wsosdprxdxhcgo4v7phdx5kb95p4b","Wed Apr 26 2017 16:43:33 GMT-0400 (EDT)","female","White","liberal","",NA,"[{""page_index"":0,""viewing_time"":2435}]","break","","","","","","","","","","",""
"35",1498,"{""Q0"":45}","[object Object]","survey-likert",34,82774,"0.0-34.0","fp9wsosdprxdxhcgo4v7phdx5kb95p4b","Wed Apr 26 2017 16:43:33 GMT-0400 (EDT)","female","White","liberal","",NA,"","offCivRatings","the officer slammed the civilian's head into the concrete curb","the civilian slammed the officer's head into the concrete curb","headSlam","headSlam","civilianOfficer","manipCheckLow","45","","","",""
"36",1944,"{""Q0"":44}","[object Object]","survey-likert",35,84725,"0.0-35.0","fp9wsosdprxdxhcgo4v7phdx5kb95p4b","Wed Apr 26 2017 16:43:33 GMT-0400 (EDT)","female","White","liberal","",NA,"","offCivRatings","the officer slammed the civilian's head into the concrete curb","the civilian slammed the officer's head into the concrete curb","headSlam","headSlam","civilianOfficer","forceOff","44","","","",""
"37",1756,"{""Q0"":44}","[object Object]","survey-likert",36,86489,"0.0-36.0","fp9wsosdprxdxhcgo4v7phdx5kb95p4b","Wed Apr 26 2017 16:43:33 GMT-0400 (EDT)","female","White","liberal","",NA,"","offCivRatings","the officer slammed the civilian's head into the concrete curb","the civilian slammed the officer's head into the concrete curb","headSlam","headSlam","civilianOfficer","punishOff","44","","","",""
"38",1883,"{""Q0"":41}","[object Object]","survey-likert",37,88380,"0.0-37.0","fp9wsosdprxdxhcgo4v7phdx5kb95p4b","Wed Apr 26 2017 16:43:33 GMT-0400 (EDT)","female","White","liberal","",NA,"","offCivRatings","the officer slammed the civilian's head into the concrete curb","the civilian slammed the officer's head into the concrete curb","headSlam","headSlam","civilianOfficer","acceptableOff","41","","","",""
"39",2618,"{""Q0"":39}","[object Object]","survey-likert",38,91005,"0.0-38.0","fp9wsosdprxdxhcgo4v7phdx5kb95p4b","Wed Apr 26 2017 16:43:33 GMT-0400 (EDT)","female","White","liberal","",NA,"","offCivRatings","the officer slammed the civilian's head into the concrete curb","the civilian slammed the officer's head into the concrete curb","headSlam","headSlam","civilianOfficer","appropriateOff","39","","","",""
"40",681,"","","instructions",39,91686,"0.0-39.0","fp9wsosdprxdxhcgo4v7phdx5kb95p4b","Wed Apr 26 2017 16:43:33 GMT-0400 (EDT)","female","White","liberal","",NA,"[{""page_index"":0,""viewing_time"":681}]","break","","","","","","","","","","",""
"41",2127,"{""Q0"":40}","[object Object]","survey-likert",40,94023,"0.0-40.0","fp9wsosdprxdxhcgo4v7phdx5kb95p4b","Wed Apr 26 2017 16:43:33 GMT-0400 (EDT)","female","White","liberal","",NA,"","offCivRatings","the officer waved at the civilian in greeting","the civilian applied a chokehold to the officer","waved","choke","officerCivilian","acceptableCiv","40","","","",""
"42",6954,"{""Q0"":44}","[object Object]","survey-likert",41,100985,"0.0-41.0","fp9wsosdprxdxhcgo4v7phdx5kb95p4b","Wed Apr 26 2017 16:43:33 GMT-0400 (EDT)","female","White","liberal","",NA,"","offCivRatings","the officer waved at the civilian in greeting","the civilian applied a chokehold to the officer","waved","choke","officerCivilian","forceCiv","44","","","",""
"43",1099,"{""Q0"":39}","[object Object]","survey-likert",42,102092,"0.0-42.0","fp9wsosdprxdxhcgo4v7phdx5kb95p4b","Wed Apr 26 2017 16:43:33 GMT-0400 (EDT)","female","White","liberal","",NA,"","offCivRatings","the officer waved at the civilian in greeting","the civilian applied a chokehold to the officer","waved","choke","officerCivilian","appropriateCiv","39","","","",""
"44",1248,"{""Q0"":40}","[object Object]","survey-likert",43,103350,"0.0-43.0","fp9wsosdprxdxhcgo4v7phdx5kb95p4b","Wed Apr 26 2017 16:43:33 GMT-0400 (EDT)","female","White","liberal","",NA,"","offCivRatings","the officer waved at the civilian in greeting","the civilian applied a chokehold to the officer","waved","choke","officerCivilian","punishCiv","40","","","",""
"45",1655,"{""Q0"":40}","[object Object]","survey-likert",44,105012,"0.0-44.0","fp9wsosdprxdxhcgo4v7phdx5kb95p4b","Wed Apr 26 2017 16:43:33 GMT-0400 (EDT)","female","White","liberal","",NA,"","offCivRatings","the officer waved at the civilian in greeting","the civilian applied a chokehold to the officer","waved","choke","officerCivilian","manipCheckLow","40","","","",""
"46",936,"","","instructions",45,105949,"0.0-45.0","fp9wsosdprxdxhcgo4v7phdx5kb95p4b","Wed Apr 26 2017 16:43:33 GMT-0400 (EDT)","female","White","liberal","",NA,"[{""page_index"":0,""viewing_time"":936}]","break","","","","","","","","","","",""
"47",1282,"{""Q0"":45}","[object Object]","survey-likert",46,107442,"0.0-46.0","fp9wsosdprxdxhcgo4v7phdx5kb95p4b","Wed Apr 26 2017 16:43:33 GMT-0400 (EDT)","female","White","liberal","",NA,"","offCivRatings","the officer stood near the civilian","the civilian called the officer a ""pig""","stoodNear","nameCall","officerCivilian","forceCiv","45","","","",""
"48",984,"{""Q0"":41}","[object Object]","survey-likert",47,108435,"0.0-47.0","fp9wsosdprxdxhcgo4v7phdx5kb95p4b","Wed Apr 26 2017 16:43:33 GMT-0400 (EDT)","female","White","liberal","",NA,"","offCivRatings","the officer stood near the civilian","the civilian called the officer a ""pig""","stoodNear","nameCall","officerCivilian","appropriateCiv","41","","","",""
"49",1395,"{""Q0"":41}","[object Object]","survey-likert",48,109837,"0.0-48.0","fp9wsosdprxdxhcgo4v7phdx5kb95p4b","Wed Apr 26 2017 16:43:33 GMT-0400 (EDT)","female","White","liberal","",NA,"","offCivRatings","the officer stood near the civilian","the civilian called the officer a ""pig""","stoodNear","nameCall","officerCivilian","punishCiv","41","","","",""
"50",1596,"{""Q0"":43}","[object Object]","survey-likert",49,111440,"0.0-49.0","fp9wsosdprxdxhcgo4v7phdx5kb95p4b","Wed Apr 26 2017 16:43:33 GMT-0400 (EDT)","female","White","liberal","",NA,"","offCivRatings","the officer stood near the civilian","the civilian called the officer a ""pig""","stoodNear","nameCall","officerCivilian","acceptableCiv","43","","","",""
"51",689,"","","instructions",50,112129,"0.0-50.0","fp9wsosdprxdxhcgo4v7phdx5kb95p4b","Wed Apr 26 2017 16:43:33 GMT-0400 (EDT)","female","White","liberal","",NA,"[{""page_index"":0,""viewing_time"":688}]","break","","","","","","","","","","",""
"52",1027,"{""Q0"":46}","[object Object]","survey-likert",51,113368,"0.0-51.0","fp9wsosdprxdxhcgo4v7phdx5kb95p4b","Wed Apr 26 2017 16:43:33 GMT-0400 (EDT)","female","White","liberal","",NA,"","offCivRatings","the officer shot the civilian in the head with a handgun","the civilian said ""if you touch me, you're gonna get hurt"" to the officer","handgunHead","hurtThreat","officerCivilian","acceptableCiv","46","","","",""
"53",890,"{""Q0"":47}","[object Object]","survey-likert",52,114266,"0.0-52.0","fp9wsosdprxdxhcgo4v7phdx5kb95p4b","Wed Apr 26 2017 16:43:33 GMT-0400 (EDT)","female","White","liberal","",NA,"","offCivRatings","the officer shot the civilian in the head with a handgun","the civilian said ""if you touch me, you're gonna get hurt"" to the officer","handgunHead","hurtThreat","officerCivilian","forceCiv","47","","","",""
"54",1892,"{""Q0"":42}","[object Object]","survey-likert",53,116164,"0.0-53.0","fp9wsosdprxdxhcgo4v7phdx5kb95p4b","Wed Apr 26 2017 16:43:33 GMT-0400 (EDT)","female","White","liberal","",NA,"","offCivRatings","the officer shot the civilian in the head with a handgun","the civilian said ""if you touch me, you're gonna get hurt"" to the officer","handgunHead","hurtThreat","officerCivilian","punishCiv","42","","","",""
"55",1433,"{""Q0"":40}","[object Object]","survey-likert",54,117603,"0.0-54.0","fp9wsosdprxdxhcgo4v7phdx5kb95p4b","Wed Apr 26 2017 16:43:33 GMT-0400 (EDT)","female","White","liberal","",NA,"","offCivRatings","the officer shot the civilian in the head with a handgun","the civilian said ""if you touch me, you're gonna get hurt"" to the officer","handgunHead","hurtThreat","officerCivilian","appropriateCiv","40","","","",""
"56",2092,"{""Q0"":38}","[object Object]","survey-likert",55,119703,"0.0-55.0","fp9wsosdprxdxhcgo4v7phdx5kb95p4b","Wed Apr 26 2017 16:43:33 GMT-0400 (EDT)","female","White","liberal","",NA,"","offCivRatings","the officer shot the civilian in the head with a handgun","the civilian said ""if you touch me, you're gonna get hurt"" to the officer","handgunHead","hurtThreat","officerCivilian","manipCheckHigh","38","","","",""
"57",848,"","","instructions",56,120551,"0.0-56.0","fp9wsosdprxdxhcgo4v7phdx5kb95p4b","Wed Apr 26 2017 16:43:33 GMT-0400 (EDT)","female","White","liberal","",NA,"[{""page_index"":0,""viewing_time"":848}]","break","","","","","","","","","","",""
"58",1431,"{""Q0"":43}","[object Object]","survey-likert",57,122191,"0.0-57.0","fp9wsosdprxdxhcgo4v7phdx5kb95p4b","Wed Apr 26 2017 16:43:33 GMT-0400 (EDT)","female","White","liberal","",NA,"","offCivRatings","the officer struck the civilian in the stomach with a metal flashlight","the civilian purposefully struck the officer with a motor vehicle","flashlight","vehicle","officerCivilian","forceCiv","43","","","",""
"59",4389,"{""Q0"":44}","[object Object]","survey-likert",58,126587,"0.0-58.0","fp9wsosdprxdxhcgo4v7phdx5kb95p4b","Wed Apr 26 2017 16:43:33 GMT-0400 (EDT)","female","White","liberal","",NA,"","offCivRatings","the officer struck the civilian in the stomach with a metal flashlight","the civilian purposefully struck the officer with a motor vehicle","flashlight","vehicle","officerCivilian","appropriateCiv","44","","","",""
"60",1501,"{""Q0"":43}","[object Object]","survey-likert",59,128094,"0.0-59.0","fp9wsosdprxdxhcgo4v7phdx5kb95p4b","Wed Apr 26 2017 16:43:33 GMT-0400 (EDT)","female","White","liberal","",NA,"","offCivRatings","the officer struck the civilian in the stomach with a metal flashlight","the civilian purposefully struck the officer with a motor vehicle","flashlight","vehicle","officerCivilian","manipCheckHigh","43","","","",""
"61",1428,"{""Q0"":44}","[object Object]","survey-likert",60,129528,"0.0-60.0","fp9wsosdprxdxhcgo4v7phdx5kb95p4b","Wed Apr 26 2017 16:43:33 GMT-0400 (EDT)","female","White","liberal","",NA,"","offCivRatings","the officer struck the civilian in the stomach with a metal flashlight","the civilian purposefully struck the officer with a motor vehicle","flashlight","vehicle","officerCivilian","acceptableCiv","44","","","",""
"62",1099,"{""Q0"":41}","[object Object]","survey-likert",61,130635,"0.0-61.0","fp9wsosdprxdxhcgo4v7phdx5kb95p4b","Wed Apr 26 2017 16:43:33 GMT-0400 (EDT)","female","White","liberal","",NA,"","offCivRatings","the officer struck the civilian in the stomach with a metal flashlight","the civilian purposefully struck the officer with a motor vehicle","flashlight","vehicle","officerCivilian","punishCiv","41","","","",""
"63",680,"","","instructions",62,131315,"0.0-62.0","fp9wsosdprxdxhcgo4v7phdx5kb95p4b","Wed Apr 26 2017 16:43:33 GMT-0400 (EDT)","female","White","liberal","",NA,"[{""page_index"":0,""viewing_time"":680}]","break","","","","","","","","","","",""
"64",746,"{""Q0"":40}","[object Object]","survey-likert",63,132270,"0.0-63.0","fp9wsosdprxdxhcgo4v7phdx5kb95p4b","Wed Apr 26 2017 16:43:33 GMT-0400 (EDT)","female","White","liberal","",NA,"","offCivRatings","the officer kicked the civilian in the stomach","the civilian stood near the officer","kickStom","stoodNear","officerCivilian","acceptableCiv","40","","","",""
"65",1443,"{""Q0"":41}","[object Object]","survey-likert",64,133721,"0.0-64.0","fp9wsosdprxdxhcgo4v7phdx5kb95p4b","Wed Apr 26 2017 16:43:33 GMT-0400 (EDT)","female","White","liberal","",NA,"","offCivRatings","the officer kicked the civilian in the stomach","the civilian stood near the officer","kickStom","stoodNear","officerCivilian","manipCheckHigh","41","","","",""
"66",1715,"{""Q0"":42}","[object Object]","survey-likert",65,135444,"0.0-65.0","fp9wsosdprxdxhcgo4v7phdx5kb95p4b","Wed Apr 26 2017 16:43:33 GMT-0400 (EDT)","female","White","liberal","",NA,"","offCivRatings","the officer kicked the civilian in the stomach","the civilian stood near the officer","kickStom","stoodNear","officerCivilian","forceCiv","42","","","",""
"67",1107,"{""Q0"":43}","[object Object]","survey-likert",66,136558,"0.0-66.0","fp9wsosdprxdxhcgo4v7phdx5kb95p4b","Wed Apr 26 2017 16:43:33 GMT-0400 (EDT)","female","White","liberal","",NA,"","offCivRatings","the officer kicked the civilian in the stomach","the civilian stood near the officer","kickStom","stoodNear","officerCivilian","punishCiv","43","","","",""
"68",971,"{""Q0"":42}","[object Object]","survey-likert",67,137536,"0.0-67.0","fp9wsosdprxdxhcgo4v7phdx5kb95p4b","Wed Apr 26 2017 16:43:33 GMT-0400 (EDT)","female","White","liberal","",NA,"","offCivRatings","the officer kicked the civilian in the stomach","the civilian stood near the officer","kickStom","stoodNear","officerCivilian","appropriateCiv","42","","","",""
"69",696,"","","instructions",68,138232,"0.0-68.0","fp9wsosdprxdxhcgo4v7phdx5kb95p4b","Wed Apr 26 2017 16:43:33 GMT-0400 (EDT)","female","White","liberal","",NA,"[{""page_index"":0,""viewing_time"":695}]","break","","","","","","","","","","",""
"70",1688,"{""Q0"":41}","[object Object]","survey-likert",69,140132,"0.0-69.0","fp9wsosdprxdxhcgo4v7phdx5kb95p4b","Wed Apr 26 2017 16:43:33 GMT-0400 (EDT)","female","White","liberal","",NA,"","offCivRatings","the officer said ""if you touch me, you're gonna get hurt"" to the civilian","the civilian shot the officer in the chest with a handgun","hurtThreat","handgunChest","civilianOfficer","manipCheckLow","41","","","",""
"71",1555,"{""Q0"":41}","[object Object]","survey-likert",70,141694,"0.0-70.0","fp9wsosdprxdxhcgo4v7phdx5kb95p4b","Wed Apr 26 2017 16:43:33 GMT-0400 (EDT)","female","White","liberal","",NA,"","offCivRatings","the officer said ""if you touch me, you're gonna get hurt"" to the civilian","the civilian shot the officer in the chest with a handgun","hurtThreat","handgunChest","civilianOfficer","forceOff","41","","","",""
"72",1620,"{""Q0"":41}","[object Object]","survey-likert",71,143321,"0.0-71.0","fp9wsosdprxdxhcgo4v7phdx5kb95p4b","Wed Apr 26 2017 16:43:33 GMT-0400 (EDT)","female","White","liberal","",NA,"","offCivRatings","the officer said ""if you touch me, you're gonna get hurt"" to the civilian","the civilian shot the officer in the chest with a handgun","hurtThreat","handgunChest","civilianOfficer","acceptableOff","41","","","",""
"73",1348,"{""Q0"":41}","[object Object]","survey-likert",72,144676,"0.0-72.0","fp9wsosdprxdxhcgo4v7phdx5kb95p4b","Wed Apr 26 2017 16:43:33 GMT-0400 (EDT)","female","White","liberal","",NA,"","offCivRatings","the officer said ""if you touch me, you're gonna get hurt"" to the civilian","the civilian shot the officer in the chest with a handgun","hurtThreat","handgunChest","civilianOfficer","punishOff","41","","","",""
"74",1707,"{""Q0"":40}","[object Object]","survey-likert",73,146391,"0.0-73.0","fp9wsosdprxdxhcgo4v7phdx5kb95p4b","Wed Apr 26 2017 16:43:33 GMT-0400 (EDT)","female","White","liberal","",NA,"","offCivRatings","the officer said ""if you touch me, you're gonna get hurt"" to the civilian","the civilian shot the officer in the chest with a handgun","hurtThreat","handgunChest","civilianOfficer","appropriateOff","40","","","",""
"75",808,"","","instructions",74,147199,"0.0-74.0","fp9wsosdprxdxhcgo4v7phdx5kb95p4b","Wed Apr 26 2017 16:43:33 GMT-0400 (EDT)","female","White","liberal","",NA,"[{""page_index"":0,""viewing_time"":808}]","break","","","","","","","","","","",""
"76",1709,"{""Q0"":58}","[object Object]","survey-likert",75,149119,"0.0-75.0","fp9wsosdprxdxhcgo4v7phdx5kb95p4b","Wed Apr 26 2017 16:43:33 GMT-0400 (EDT)","female","White","liberal","",NA,"","offCivRatings","the officer asked the civilian how he was doing","the civilian shot the officer in the head with a handgun","asked","handgunHead","civilianOfficer","punishOff","58","","","",""
"77",1364,"{""Q0"":56}","[object Object]","survey-likert",76,150489,"0.0-76.0","fp9wsosdprxdxhcgo4v7phdx5kb95p4b","Wed Apr 26 2017 16:43:33 GMT-0400 (EDT)","female","White","liberal","",NA,"","offCivRatings","the officer asked the civilian how he was doing","the civilian shot the officer in the head with a handgun","asked","handgunHead","civilianOfficer","forceOff","56","","","",""
"78",2173,"{""Q0"":56}","[object Object]","survey-likert",77,152669,"0.0-77.0","fp9wsosdprxdxhcgo4v7phdx5kb95p4b","Wed Apr 26 2017 16:43:33 GMT-0400 (EDT)","female","White","liberal","",NA,"","offCivRatings","the officer asked the civilian how he was doing","the civilian shot the officer in the head with a handgun","asked","handgunHead","civilianOfficer","acceptableOff","56","","","",""
"79",1463,"{""Q0"":47}","[object Object]","survey-likert",78,154139,"0.0-78.0","fp9wsosdprxdxhcgo4v7phdx5kb95p4b","Wed Apr 26 2017 16:43:33 GMT-0400 (EDT)","female","White","liberal","",NA,"","offCivRatings","the officer asked the civilian how he was doing","the civilian shot the officer in the head with a handgun","asked","handgunHead","civilianOfficer","appropriateOff","47","","","",""
"80",601,"","","instructions",79,154740,"0.0-79.0","fp9wsosdprxdxhcgo4v7phdx5kb95p4b","Wed Apr 26 2017 16:43:33 GMT-0400 (EDT)","female","White","liberal","",NA,"[{""page_index"":0,""viewing_time"":601}]","break","","","","","","","","","","",""
"81",897,"{""Q0"":46}","[object Object]","survey-likert",80,155847,"0.0-80.0","fp9wsosdprxdxhcgo4v7phdx5kb95p4b","Wed Apr 26 2017 16:43:33 GMT-0400 (EDT)","female","White","liberal","",NA,"","offCivRatings","the officer shocked the civilian with a tazer","the civilian yelled ""get back!"" at the officer","tazer","getBack","civilianOfficer","punishOff","46","","","",""
"82",1148,"{""Q0"":44}","[object Object]","survey-likert",81,157001,"0.0-81.0","fp9wsosdprxdxhcgo4v7phdx5kb95p4b","Wed Apr 26 2017 16:43:33 GMT-0400 (EDT)","female","White","liberal","",NA,"","offCivRatings","the officer shocked the civilian with a tazer","the civilian yelled ""get back!"" at the officer","tazer","getBack","civilianOfficer","acceptableOff","44","","","",""
"83",898,"{""Q0"":42}","[object Object]","survey-likert",82,157907,"0.0-82.0","fp9wsosdprxdxhcgo4v7phdx5kb95p4b","Wed Apr 26 2017 16:43:33 GMT-0400 (EDT)","female","White","liberal","",NA,"","offCivRatings","the officer shocked the civilian with a tazer","the civilian yelled ""get back!"" at the officer","tazer","getBack","civilianOfficer","appropriateOff","42","","","",""
"84",1604,"{""Q0"":41}","[object Object]","survey-likert",83,159518,"0.0-83.0","fp9wsosdprxdxhcgo4v7phdx5kb95p4b","Wed Apr 26 2017 16:43:33 GMT-0400 (EDT)","female","White","liberal","",NA,"","offCivRatings","the officer shocked the civilian with a tazer","the civilian yelled ""get back!"" at the officer","tazer","getBack","civilianOfficer","forceOff","41","","","",""
"85",544,"","","instructions",84,160062,"0.0-84.0","fp9wsosdprxdxhcgo4v7phdx5kb95p4b","Wed Apr 26 2017 16:43:33 GMT-0400 (EDT)","female","White","liberal","",NA,"[{""page_index"":0,""viewing_time"":543}]","break","","","","","","","","","","",""
"86",913,"{""Q0"":45}","[object Object]","survey-likert",85,161184,"0.0-85.0","fp9wsosdprxdxhcgo4v7phdx5kb95p4b","Wed Apr 26 2017 16:43:33 GMT-0400 (EDT)","female","White","liberal","",NA,"","offCivRatings","the officer purposefully struck the civilian with a motor vehicle","the civilian struck the officer in the stomach with a metal flashlight","vehicle","flashlight","civilianOfficer","manipCheckHigh","45","","","",""
"87",1550,"{""Q0"":45}","[object Object]","survey-likert",86,162743,"0.0-86.0","fp9wsosdprxdxhcgo4v7phdx5kb95p4b","Wed Apr 26 2017 16:43:33 GMT-0400 (EDT)","female","White","liberal","",NA,"","offCivRatings","the officer purposefully struck the civilian with a motor vehicle","the civilian struck the officer in the stomach with a metal flashlight","vehicle","flashlight","civilianOfficer","appropriateOff","45","","","",""
"88",1581,"{""Q0"":48}","[object Object]","survey-likert",87,164330,"0.0-87.0","fp9wsosdprxdxhcgo4v7phdx5kb95p4b","Wed Apr 26 2017 16:43:33 GMT-0400 (EDT)","female","White","liberal","",NA,"","offCivRatings","the officer purposefully struck the civilian with a motor vehicle","the civilian struck the officer in the stomach with a metal flashlight","vehicle","flashlight","civilianOfficer","acceptableOff","48","","","",""
"89",2626,"{""Q0"":44}","[object Object]","survey-likert",88,166962,"0.0-88.0","fp9wsosdprxdxhcgo4v7phdx5kb95p4b","Wed Apr 26 2017 16:43:33 GMT-0400 (EDT)","female","White","liberal","",NA,"","offCivRatings","the officer purposefully struck the civilian with a motor vehicle","the civilian struck the officer in the stomach with a metal flashlight","vehicle","flashlight","civilianOfficer","punishOff","44","","","",""
"90",1131,"{""Q0"":42}","[object Object]","survey-likert",89,168101,"0.0-89.0","fp9wsosdprxdxhcgo4v7phdx5kb95p4b","Wed Apr 26 2017 16:43:33 GMT-0400 (EDT)","female","White","liberal","",NA,"","offCivRatings","the officer purposefully struck the civilian with a motor vehicle","the civilian struck the officer in the stomach with a metal flashlight","vehicle","flashlight","civilianOfficer","forceOff","42","","","",""
"91",768,"","","instructions",90,168869,"0.0-90.0","fp9wsosdprxdxhcgo4v7phdx5kb95p4b","Wed Apr 26 2017 16:43:33 GMT-0400 (EDT)","female","White","liberal","",NA,"[{""page_index"":0,""viewing_time"":768}]","break","","","","","","","","","","",""
"92",1265,"{""Q0"":42}","[object Object]","survey-likert",91,170344,"0.0-91.0","fp9wsosdprxdxhcgo4v7phdx5kb95p4b","Wed Apr 26 2017 16:43:33 GMT-0400 (EDT)","female","White","liberal","",NA,"","offCivRatings","the officer headbutted the civilian in the face","the civilian struck the officer on the leg with a metal pipe","headbutt","metalPipe","officerCivilian","punishCiv","42","","","",""
"93",1804,"{""Q0"":44}","[object Object]","survey-likert",92,172156,"0.0-92.0","fp9wsosdprxdxhcgo4v7phdx5kb95p4b","Wed Apr 26 2017 16:43:33 GMT-0400 (EDT)","female","White","liberal","",NA,"","offCivRatings","the officer headbutted the civilian in the face","the civilian struck the officer on the leg with a metal pipe","headbutt","metalPipe","officerCivilian","acceptableCiv","44","","","",""
"94",1441,"{""Q0"":43}","[object Object]","survey-likert",93,173603,"0.0-93.0","fp9wsosdprxdxhcgo4v7phdx5kb95p4b","Wed Apr 26 2017 16:43:33 GMT-0400 (EDT)","female","White","liberal","",NA,"","offCivRatings","the officer headbutted the civilian in the face","the civilian struck the officer on the leg with a metal pipe","headbutt","metalPipe","officerCivilian","appropriateCiv","43","","","",""
"95",2188,"{""Q0"":44}","[object Object]","survey-likert",94,175798,"0.0-94.0","fp9wsosdprxdxhcgo4v7phdx5kb95p4b","Wed Apr 26 2017 16:43:33 GMT-0400 (EDT)","female","White","liberal","",NA,"","offCivRatings","the officer headbutted the civilian in the face","the civilian struck the officer on the leg with a metal pipe","headbutt","metalPipe","officerCivilian","forceCiv","44","","","",""
"96",1380,"{""Q0"":46}","[object Object]","survey-likert",95,177185,"0.0-95.0","fp9wsosdprxdxhcgo4v7phdx5kb95p4b","Wed Apr 26 2017 16:43:33 GMT-0400 (EDT)","female","White","liberal","",NA,"","offCivRatings","the officer headbutted the civilian in the face","the civilian struck the officer on the leg with a metal pipe","headbutt","metalPipe","officerCivilian","manipCheckLow","46","","","",""
"97",659,"","","instructions",96,177845,"0.0-96.0","fp9wsosdprxdxhcgo4v7phdx5kb95p4b","Wed Apr 26 2017 16:43:33 GMT-0400 (EDT)","female","White","liberal","",NA,"[{""page_index"":0,""viewing_time"":659}]","break","","","","","","","","","","",""
"98",870,"{""Q0"":42}","[object Object]","survey-likert",97,178928,"0.0-97.0","fp9wsosdprxdxhcgo4v7phdx5kb95p4b","Wed Apr 26 2017 16:43:33 GMT-0400 (EDT)","female","White","liberal","",NA,"","offCivRatings","the officer yelled ""get back!"" at the civilian","the civilian twisted the arm of the officer, forcing him to the ground","getBack","armbar","civilianOfficer","punishOff","42","","","",""
"99",1419,"{""Q0"":46}","[object Object]","survey-likert",98,180354,"0.0-98.0","fp9wsosdprxdxhcgo4v7phdx5kb95p4b","Wed Apr 26 2017 16:43:33 GMT-0400 (EDT)","female","White","liberal","",NA,"","offCivRatings","the officer yelled ""get back!"" at the civilian","the civilian twisted the arm of the officer, forcing him to the ground","getBack","armbar","civilianOfficer","forceOff","46","","","",""
"100",2338,"{""Q0"":46}","[object Object]","survey-likert",99,182699,"0.0-99.0","fp9wsosdprxdxhcgo4v7phdx5kb95p4b","Wed Apr 26 2017 16:43:33 GMT-0400 (EDT)","female","White","liberal","",NA,"","offCivRatings","the officer yelled ""get back!"" at the civilian","the civilian twisted the arm of the officer, forcing him to the ground","getBack","armbar","civilianOfficer","acceptableOff","46","","","",""
"101",3399,"{""Q0"":44}","[object Object]","survey-likert",100,186106,"0.0-100.0","fp9wsosdprxdxhcgo4v7phdx5kb95p4b","Wed Apr 26 2017 16:43:33 GMT-0400 (EDT)","female","White","liberal","",NA,"","offCivRatings","the officer yelled ""get back!"" at the civilian","the civilian twisted the arm of the officer, forcing him to the ground","getBack","armbar","civilianOfficer","appropriateOff","44","","","",""
"102",2730,"{""Q0"":44}","[object Object]","survey-likert",101,188842,"0.0-101.0","fp9wsosdprxdxhcgo4v7phdx5kb95p4b","Wed Apr 26 2017 16:43:33 GMT-0400 (EDT)","female","White","liberal","",NA,"","offCivRatings","the officer yelled ""get back!"" at the civilian","the civilian twisted the arm of the officer, forcing him to the ground","getBack","armbar","civilianOfficer","manipCheckHigh","44","","","",""
"103",793,"","","instructions",102,189635,"0.0-102.0","fp9wsosdprxdxhcgo4v7phdx5kb95p4b","Wed Apr 26 2017 16:43:33 GMT-0400 (EDT)","female","White","liberal","",NA,"[{""page_index"":0,""viewing_time"":793}]","break","","","","","","","","","","",""
"104",1443,"{""Q0"":41}","[object Object]","survey-likert",103,191287,"0.0-103.0","fp9wsosdprxdxhcgo4v7phdx5kb95p4b","Wed Apr 26 2017 16:43:33 GMT-0400 (EDT)","female","White","liberal","",NA,"","offCivRatings","the officer shot the civilian in the chest with a handgun","the civilian shouted ""I don't have to fucking listen to you!"" at the officer","handgunChest","dontListen","civilianOfficer","forceOff","41","","","",""
"105",1386,"{""Q0"":47}","[object Object]","survey-likert",104,192681,"0.0-104.0","fp9wsosdprxdxhcgo4v7phdx5kb95p4b","Wed Apr 26 2017 16:43:33 GMT-0400 (EDT)","female","White","liberal","",NA,"","offCivRatings","the officer shot the civilian in the chest with a handgun","the civilian shouted ""I don't have to fucking listen to you!"" at the officer","handgunChest","dontListen","civilianOfficer","acceptableOff","47","","","",""
"106",2226,"{""Q0"":46}","[object Object]","survey-likert",105,194914,"0.0-105.0","fp9wsosdprxdxhcgo4v7phdx5kb95p4b","Wed Apr 26 2017 16:43:33 GMT-0400 (EDT)","female","White","liberal","",NA,"","offCivRatings","the officer shot the civilian in the chest with a handgun","the civilian shouted ""I don't have to fucking listen to you!"" at the officer","handgunChest","dontListen","civilianOfficer","punishOff","46","","","",""
"107",1885,"{""Q0"":46}","[object Object]","survey-likert",106,196805,"0.0-106.0","fp9wsosdprxdxhcgo4v7phdx5kb95p4b","Wed Apr 26 2017 16:43:33 GMT-0400 (EDT)","female","White","liberal","",NA,"","offCivRatings","the officer shot the civilian in the chest with a handgun","the civilian shouted ""I don't have to fucking listen to you!"" at the officer","handgunChest","dontListen","civilianOfficer","appropriateOff","46","","","",""
"108",2357,"{""Q0"":46}","[object Object]","survey-likert",107,199170,"0.0-107.0","fp9wsosdprxdxhcgo4v7phdx5kb95p4b","Wed Apr 26 2017 16:43:33 GMT-0400 (EDT)","female","White","liberal","",NA,"","offCivRatings","the officer shot the civilian in the chest with a handgun","the civilian shouted ""I don't have to fucking listen to you!"" at the officer","handgunChest","dontListen","civilianOfficer","manipCheckLow","46","","","",""
"109",1032,"","","instructions",108,200202,"0.0-108.0","fp9wsosdprxdxhcgo4v7phdx5kb95p4b","Wed Apr 26 2017 16:43:33 GMT-0400 (EDT)","female","White","liberal","",NA,"[{""page_index"":0,""viewing_time"":1032}]","break","","","","","","","","","","",""
"110",2160,"{""Q0"":42}","[object Object]","survey-likert",109,202575,"0.0-109.0","fp9wsosdprxdxhcgo4v7phdx5kb95p4b","Wed Apr 26 2017 16:43:33 GMT-0400 (EDT)","female","White","liberal","",NA,"","offCivRatings","the officer put handcuffs on the civilian","the civilian asked the officer how he was doing","handcuff","asked","officerCivilian","acceptableCiv","42","","","",""
"111",2434,"{""Q0"":46}","[object Object]","survey-likert",110,205015,"0.0-110.0","fp9wsosdprxdxhcgo4v7phdx5kb95p4b","Wed Apr 26 2017 16:43:33 GMT-0400 (EDT)","female","White","liberal","",NA,"","offCivRatings","the officer put handcuffs on the civilian","the civilian asked the officer how he was doing","handcuff","asked","officerCivilian","punishCiv","46","","","",""
"112",1148,"{""Q0"":43}","[object Object]","survey-likert",111,206169,"0.0-111.0","fp9wsosdprxdxhcgo4v7phdx5kb95p4b","Wed Apr 26 2017 16:43:33 GMT-0400 (EDT)","female","White","liberal","",NA,"","offCivRatings","the officer put handcuffs on the civilian","the civilian asked the officer how he was doing","handcuff","asked","officerCivilian","appropriateCiv","43","","","",""
"113",1929,"{""Q0"":43}","[object Object]","survey-likert",112,208104,"0.0-112.0","fp9wsosdprxdxhcgo4v7phdx5kb95p4b","Wed Apr 26 2017 16:43:33 GMT-0400 (EDT)","female","White","liberal","",NA,"","offCivRatings","the officer put handcuffs on the civilian","the civilian asked the officer how he was doing","handcuff","asked","officerCivilian","forceCiv","43","","","",""
"114",752,"","","instructions",113,208857,"0.0-113.0","fp9wsosdprxdxhcgo4v7phdx5kb95p4b","Wed Apr 26 2017 16:43:33 GMT-0400 (EDT)","female","White","liberal","",NA,"[{""page_index"":0,""viewing_time"":752}]","break","","","","","","","","","","",""
"115",2165,"{""Q0"":47}","[object Object]","survey-likert",114,211234,"0.0-114.0","fp9wsosdprxdxhcgo4v7phdx5kb95p4b","Wed Apr 26 2017 16:43:33 GMT-0400 (EDT)","female","White","liberal","",NA,"","offCivRatings","the officer called the civilian a ""thug""","the civilian waved at the officer in greeting","nameCall","waved","officerCivilian","appropriateCiv","47","","","",""
"116",1179,"{""Q0"":43}","[object Object]","survey-likert",115,212421,"0.0-115.0","fp9wsosdprxdxhcgo4v7phdx5kb95p4b","Wed Apr 26 2017 16:43:33 GMT-0400 (EDT)","female","White","liberal","",NA,"","offCivRatings","the officer called the civilian a ""thug""","the civilian waved at the officer in greeting","nameCall","waved","officerCivilian","forceCiv","43","","","",""
"117",1540,"{""Q0"":47}","[object Object]","survey-likert",116,213967,"0.0-116.0","fp9wsosdprxdxhcgo4v7phdx5kb95p4b","Wed Apr 26 2017 16:43:33 GMT-0400 (EDT)","female","White","liberal","",NA,"","offCivRatings","the officer called the civilian a ""thug""","the civilian waved at the officer in greeting","nameCall","waved","officerCivilian","punishCiv","47","","","",""
"118",1324,"{""Q0"":46}","[object Object]","survey-likert",117,215297,"0.0-117.0","fp9wsosdprxdxhcgo4v7phdx5kb95p4b","Wed Apr 26 2017 16:43:33 GMT-0400 (EDT)","female","White","liberal","",NA,"","offCivRatings","the officer called the civilian a ""thug""","the civilian waved at the officer in greeting","nameCall","waved","officerCivilian","acceptableCiv","46","","","",""
"119",961,"","","instructions",118,216259,"0.0-118.0","fp9wsosdprxdxhcgo4v7phdx5kb95p4b","Wed Apr 26 2017 16:43:33 GMT-0400 (EDT)","female","White","liberal","",NA,"[{""page_index"":0,""viewing_time"":960}]","break","","","","","","","","","","",""
"120",824,"{""Q0"":43}","[object Object]","survey-likert",119,217294,"0.0-119.0","fp9wsosdprxdxhcgo4v7phdx5kb95p4b","Wed Apr 26 2017 16:43:33 GMT-0400 (EDT)","female","White","liberal","",NA,"","offCivRatings","the officer twisted the arm of the civilian, forcing him to the ground","the civilian headbutted the officer in the face","armbar","headbutt","officerCivilian","appropriateCiv","43","","","",""
"121",1407,"{""Q0"":45}","[object Object]","survey-likert",120,218708,"0.0-120.0","fp9wsosdprxdxhcgo4v7phdx5kb95p4b","Wed Apr 26 2017 16:43:33 GMT-0400 (EDT)","female","White","liberal","",NA,"","offCivRatings","the officer twisted the arm of the civilian, forcing him to the ground","the civilian headbutted the officer in the face","armbar","headbutt","officerCivilian","forceCiv","45","","","",""
"122",1782,"{""Q0"":43}","[object Object]","survey-likert",121,220496,"0.0-121.0","fp9wsosdprxdxhcgo4v7phdx5kb95p4b","Wed Apr 26 2017 16:43:33 GMT-0400 (EDT)","female","White","liberal","",NA,"","offCivRatings","the officer twisted the arm of the civilian, forcing him to the ground","the civilian headbutted the officer in the face","armbar","headbutt","officerCivilian","acceptableCiv","43","","","",""
"123",2433,"{""Q0"":43}","[object Object]","survey-likert",122,222935,"0.0-122.0","fp9wsosdprxdxhcgo4v7phdx5kb95p4b","Wed Apr 26 2017 16:43:33 GMT-0400 (EDT)","female","White","liberal","",NA,"","offCivRatings","the officer twisted the arm of the civilian, forcing him to the ground","the civilian headbutted the officer in the face","armbar","headbutt","officerCivilian","punishCiv","43","","","",""
"124",712,"","","instructions",123,223648,"0.0-123.0","fp9wsosdprxdxhcgo4v7phdx5kb95p4b","Wed Apr 26 2017 16:43:33 GMT-0400 (EDT)","female","White","liberal","",NA,"[{""page_index"":0,""viewing_time"":711}]","break","","","","","","","","","","",""
"125",3118,"{""Q0"":42}","[object Object]","survey-likert",124,226975,"0.0-124.0","fp9wsosdprxdxhcgo4v7phdx5kb95p4b","Wed Apr 26 2017 16:43:33 GMT-0400 (EDT)","female","White","liberal","",NA,"","policeLegitimacy","","","","","","","42","communityWants","normAlignment","",""
"126",2314,"{""Q0"":45}","[object Object]","survey-likert",125,229297,"0.0-125.0","fp9wsosdprxdxhcgo4v7phdx5kb95p4b","Wed Apr 26 2017 16:43:33 GMT-0400 (EDT)","female","White","liberal","",NA,"","policeLegitimacy","","","","","","","45","support","feltObligation","",""
"127",4050,"{""Q0"":66}","[object Object]","survey-likert",126,233355,"0.0-126.0","fp9wsosdprxdxhcgo4v7phdx5kb95p4b","Wed Apr 26 2017 16:43:33 GMT-0400 (EDT)","female","White","liberal","",NA,"","policeLegitimacy","","","","","","","66","rightWrong","normAlignment","",""
"128",1355,"{""Q0"":45}","[object Object]","survey-likert",127,234717,"0.0-127.0","fp9wsosdprxdxhcgo4v7phdx5kb95p4b","Wed Apr 26 2017 16:43:33 GMT-0400 (EDT)","female","White","liberal","",NA,"","policeLegitimacy","","","","","","","45","importantValues","normAlignment","",""
"129",1019,"{""Q0"":42}","[object Object]","survey-likert",128,235743,"0.0-128.0","fp9wsosdprxdxhcgo4v7phdx5kb95p4b","Wed Apr 26 2017 16:43:33 GMT-0400 (EDT)","female","White","liberal","",NA,"","policeLegitimacy","","","","","","","42","doReasons","feltObligation","",""
"130",1272,"{""Q0"":46}","[object Object]","survey-likert",129,237022,"0.0-129.0","fp9wsosdprxdxhcgo4v7phdx5kb95p4b","Wed Apr 26 2017 16:43:33 GMT-0400 (EDT)","female","White","liberal","",NA,"","policeLegitimacy","","","","","","","46","doTreat","feltObligation","",""
"131",4585,"{""Q0"":""yes""}","[object Object]","survey-multi-choice2",130,241616,"0.0-130.0","fp9wsosdprxdxhcgo4v7phdx5kb95p4b","Wed Apr 26 2017 16:43:33 GMT-0400 (EDT)","female","White","liberal","",NA,"","policeExperience","","","","","","","yes","insultLang","","personal","Have the police ever used insulting language toward you?"
"132",1100,"{}","[object Object]","survey-multi-choice2",131,242719,"0.0-131.0","fp9wsosdprxdxhcgo4v7phdx5kb95p4b","Wed Apr 26 2017 16:43:33 GMT-0400 (EDT)","female","White","liberal","",NA,"","policeExperience","","","","","","","","excessForce","","vicarious","Have the police ever used excessive force against anyone in your household?"
"133",1246,"{}","[object Object]","survey-multi-choice2",132,243969,"0.0-132.0","fp9wsosdprxdxhcgo4v7phdx5kb95p4b","Wed Apr 26 2017 16:43:33 GMT-0400 (EDT)","female","White","liberal","",NA,"","policeExperience","","","","","","","","stopped","","vicarious","Has anyone in your household ever been stopped on the street by the police without good reason?"
"134",925,"{}","[object Object]","survey-multi-choice2",133,244897,"0.0-133.0","fp9wsosdprxdxhcgo4v7phdx5kb95p4b","Wed Apr 26 2017 16:43:33 GMT-0400 (EDT)","female","White","liberal","",NA,"","policeExperience","","","","","","","","excessForce","","personal","Have the police ever used excessive force against you?"
"135",585,"{}","[object Object]","survey-multi-choice2",134,245484,"0.0-134.0","fp9wsosdprxdxhcgo4v7phdx5kb95p4b","Wed Apr 26 2017 16:43:33 GMT-0400 (EDT)","female","White","liberal","",NA,"","policeExperience","","","","","","","","stopped","","personal","Have you ever been stopped by the police on the street without good reason?"
"136",444,"{}","[object Object]","survey-multi-choice2",135,245931,"0.0-135.0","fp9wsosdprxdxhcgo4v7phdx5kb95p4b","Wed Apr 26 2017 16:43:33 GMT-0400 (EDT)","female","White","liberal","",NA,"","policeExperience","","","","","","","","insultLang","","vicarious","Have the police ever used insulting language toward anyone in your household?"
"137",1381,"{}","[object Object]","survey-multi-choice2",136,247315,"0.0-136.0","fp9wsosdprxdxhcgo4v7phdx5kb95p4b","Wed Apr 26 2017 16:43:33 GMT-0400 (EDT)","female","White","liberal","",NA,"","policeExperience","","","","","","","","corrupt","","personal","Have you ever seen a police officer engage in any corrupt activities (e.g., taking bribes or involvement in the drug trade)?"
"138",5966,"{""Q0"":""female"",""Q1"":""White"",""Q2"":""liberal""}","[object Object]","survey-multi-choice",137,253294,"0.0-137.0","fp9wsosdprxdxhcgo4v7phdx5kb95p4b","Wed Apr 26 2017 16:43:33 GMT-0400 (EDT)","female","White","liberal","",NA,"","demographics","","","","","","","","","","",""
"139",3306,"","","instructions",138,257603,"0.0-138.0","fp9wsosdprxdxhcgo4v7phdx5kb95p4b","Wed Apr 26 2017 16:43:33 GMT-0400 (EDT)","female","White","liberal","",NA,"[{""page_index"":0,""viewing_time"":1005},{""page_index"":1,""viewing_time"":794},{""page_index"":2,""viewing_time"":480},{""page_index"":3,""viewing_time"":1027}]","debriefing","","","","","","","","","","",""
