"","rt","responses","internalResp","trial_type","trial_index","time_elapsed","internal_node_id","randSubjectID","date","sex","race","polAff","stimulus","key_press","view_history","questionType","officerAction","civilianAction","offActName","civActName","order","questionName","response","name","dimension","person","question"
"1",13051,"","[object Object]","survey-text",0,13056,"0.0-0.0","mm7tz5oaee7b45eg4yosnax3bc2o0tz3","Sun Jan 29 2017 14:48:36 GMT-0500 (US Eastern Standard Time)","male","White","slightly conservative","",NA,"","","","","","","","","","","","",""
"2",13243,"","","single-stim",1,27320,"0.0-1.0","mm7tz5oaee7b45eg4yosnax3bc2o0tz3","Sun Jan 29 2017 14:48:36 GMT-0500 (US Eastern Standard Time)","male","White","slightly conservative","<img src='static/images/1602685960_ICS_Credit-0.png' alt='Consent 1' height=1100 width=850><img src='static/images/1602685960_ICS_Credit-1.png' alt='Consent 2' height=1100 width=850></p>",89,"","","","","","","","","","","","",""
"3",21825,"","","instructions",2,50160,"0.0-2.0","mm7tz5oaee7b45eg4yosnax3bc2o0tz3","Sun Jan 29 2017 14:48:36 GMT-0500 (US Eastern Standard Time)","male","White","slightly conservative","",NA,"[{""page_index"":0,""viewing_time"":21824}]","instructions","","","","","","","","","","",""
"4",71436,"","","instructions",3,122611,"0.0-3.0","mm7tz5oaee7b45eg4yosnax3bc2o0tz3","Sun Jan 29 2017 14:48:36 GMT-0500 (US Eastern Standard Time)","male","White","slightly conservative","",NA,"[{""page_index"":0,""viewing_time"":23784},{""page_index"":1,""viewing_time"":13623},{""page_index"":2,""viewing_time"":22844},{""page_index"":3,""viewing_time"":11184}]","instructions","","","","","","","","","","",""
"5",40789,"{""Q0"":51}","[object Object]","survey-likert",4,164427,"0.0-4.0","mm7tz5oaee7b45eg4yosnax3bc2o0tz3","Sun Jan 29 2017 14:48:36 GMT-0500 (US Eastern Standard Time)","male","White","slightly conservative","",NA,"","offCivRatings","the officer yelled ""get back!"" at the civilian","the civilian yelled ""get back!"" at the officer","getBack","getBack","officerCivilian","appropriateCiv","51","","","",""
"6",8279,"{""Q0"":20}","[object Object]","survey-likert",5,172712,"0.0-5.0","mm7tz5oaee7b45eg4yosnax3bc2o0tz3","Sun Jan 29 2017 14:48:36 GMT-0500 (US Eastern Standard Time)","male","White","slightly conservative","",NA,"","offCivRatings","the officer yelled ""get back!"" at the civilian","the civilian yelled ""get back!"" at the officer","getBack","getBack","officerCivilian","forceCiv","20","","","",""
"7",6304,"{""Q0"":37}","[object Object]","survey-likert",6,179020,"0.0-6.0","mm7tz5oaee7b45eg4yosnax3bc2o0tz3","Sun Jan 29 2017 14:48:36 GMT-0500 (US Eastern Standard Time)","male","White","slightly conservative","",NA,"","offCivRatings","the officer yelled ""get back!"" at the civilian","the civilian yelled ""get back!"" at the officer","getBack","getBack","officerCivilian","acceptableCiv","37","","","",""
"8",7863,"{""Q0"":11}","[object Object]","survey-likert",7,186891,"0.0-7.0","mm7tz5oaee7b45eg4yosnax3bc2o0tz3","Sun Jan 29 2017 14:48:36 GMT-0500 (US Eastern Standard Time)","male","White","slightly conservative","",NA,"","offCivRatings","the officer yelled ""get back!"" at the civilian","the civilian yelled ""get back!"" at the officer","getBack","getBack","officerCivilian","punishCiv","11","","","",""
"9",1367,"","","instructions",8,188258,"0.0-8.0","mm7tz5oaee7b45eg4yosnax3bc2o0tz3","Sun Jan 29 2017 14:48:36 GMT-0500 (US Eastern Standard Time)","male","White","slightly conservative","",NA,"[{""page_index"":0,""viewing_time"":1367}]","break","","","","","","","","","","",""
"10",22785,"{""Q0"":61}","[object Object]","survey-likert",9,211278,"0.0-9.0","mm7tz5oaee7b45eg4yosnax3bc2o0tz3","Sun Jan 29 2017 14:48:36 GMT-0500 (US Eastern Standard Time)","male","White","slightly conservative","",NA,"","offCivRatings","the officer slammed the civilian's head into the concrete curb","the civilian applied a chokehold to the officer","headSlam","choke","civilianOfficer","acceptableOff","61","","","",""
"11",4704,"{""Q0"":64}","[object Object]","survey-likert",10,215987,"0.0-10.0","mm7tz5oaee7b45eg4yosnax3bc2o0tz3","Sun Jan 29 2017 14:48:36 GMT-0500 (US Eastern Standard Time)","male","White","slightly conservative","",NA,"","offCivRatings","the officer slammed the civilian's head into the concrete curb","the civilian applied a chokehold to the officer","headSlam","choke","civilianOfficer","appropriateOff","64","","","",""
"12",4902,"{""Q0"":74}","[object Object]","survey-likert",11,220893,"0.0-11.0","mm7tz5oaee7b45eg4yosnax3bc2o0tz3","Sun Jan 29 2017 14:48:36 GMT-0500 (US Eastern Standard Time)","male","White","slightly conservative","",NA,"","offCivRatings","the officer slammed the civilian's head into the concrete curb","the civilian applied a chokehold to the officer","headSlam","choke","civilianOfficer","forceOff","74","","","",""
"13",5643,"{""Q0"":10}","[object Object]","survey-likert",12,226542,"0.0-12.0","mm7tz5oaee7b45eg4yosnax3bc2o0tz3","Sun Jan 29 2017 14:48:36 GMT-0500 (US Eastern Standard Time)","male","White","slightly conservative","",NA,"","offCivRatings","the officer slammed the civilian's head into the concrete curb","the civilian applied a chokehold to the officer","headSlam","choke","civilianOfficer","punishOff","10","","","",""
"14",6374,"{""Q0"":100}","[object Object]","survey-likert",13,232922,"0.0-13.0","mm7tz5oaee7b45eg4yosnax3bc2o0tz3","Sun Jan 29 2017 14:48:36 GMT-0500 (US Eastern Standard Time)","male","White","slightly conservative","",NA,"","offCivRatings","the officer slammed the civilian's head into the concrete curb","the civilian applied a chokehold to the officer","headSlam","choke","civilianOfficer","manipCheckHigh","100","","","",""
"15",1546,"","","instructions",14,234468,"0.0-14.0","mm7tz5oaee7b45eg4yosnax3bc2o0tz3","Sun Jan 29 2017 14:48:36 GMT-0500 (US Eastern Standard Time)","male","White","slightly conservative","",NA,"[{""page_index"":0,""viewing_time"":1545}]","break","","","","","","","","","","",""
"16",10536,"{""Q0"":1}","[object Object]","survey-likert",15,245215,"0.0-15.0","mm7tz5oaee7b45eg4yosnax3bc2o0tz3","Sun Jan 29 2017 14:48:36 GMT-0500 (US Eastern Standard Time)","male","White","slightly conservative","",NA,"","offCivRatings","the officer twisted the arm of the civilian, forcing him to the ground","the civilian kicked the officer in the stomach","armbar","kickStom","civilianOfficer","punishOff","1","","","",""
"17",4121,"{""Q0"":1}","[object Object]","survey-likert",16,249340,"0.0-16.0","mm7tz5oaee7b45eg4yosnax3bc2o0tz3","Sun Jan 29 2017 14:48:36 GMT-0500 (US Eastern Standard Time)","male","White","slightly conservative","",NA,"","offCivRatings","the officer twisted the arm of the civilian, forcing him to the ground","the civilian kicked the officer in the stomach","armbar","kickStom","civilianOfficer","manipCheckLow","1","","","",""
"18",7994,"{""Q0"":29}","[object Object]","survey-likert",17,257339,"0.0-17.0","mm7tz5oaee7b45eg4yosnax3bc2o0tz3","Sun Jan 29 2017 14:48:36 GMT-0500 (US Eastern Standard Time)","male","White","slightly conservative","",NA,"","offCivRatings","the officer twisted the arm of the civilian, forcing him to the ground","the civilian kicked the officer in the stomach","armbar","kickStom","civilianOfficer","forceOff","29","","","",""
"19",3803,"{""Q0"":100}","[object Object]","survey-likert",18,261146,"0.0-18.0","mm7tz5oaee7b45eg4yosnax3bc2o0tz3","Sun Jan 29 2017 14:48:36 GMT-0500 (US Eastern Standard Time)","male","White","slightly conservative","",NA,"","offCivRatings","the officer twisted the arm of the civilian, forcing him to the ground","the civilian kicked the officer in the stomach","armbar","kickStom","civilianOfficer","acceptableOff","100","","","",""
"20",7126,"{""Q0"":50}","[object Object]","survey-likert",19,268276,"0.0-19.0","mm7tz5oaee7b45eg4yosnax3bc2o0tz3","Sun Jan 29 2017 14:48:36 GMT-0500 (US Eastern Standard Time)","male","White","slightly conservative","",NA,"","offCivRatings","the officer twisted the arm of the civilian, forcing him to the ground","the civilian kicked the officer in the stomach","armbar","kickStom","civilianOfficer","appropriateOff","50","","","",""
"21",1251,"","","instructions",20,269527,"0.0-20.0","mm7tz5oaee7b45eg4yosnax3bc2o0tz3","Sun Jan 29 2017 14:48:36 GMT-0500 (US Eastern Standard Time)","male","White","slightly conservative","",NA,"[{""page_index"":0,""viewing_time"":1251}]","break","","","","","","","","","","",""
"22",20740,"{""Q0"":1}","[object Object]","survey-likert",21,290498,"0.0-21.0","mm7tz5oaee7b45eg4yosnax3bc2o0tz3","Sun Jan 29 2017 14:48:36 GMT-0500 (US Eastern Standard Time)","male","White","slightly conservative","",NA,"","offCivRatings","the officer asked the civilian how he was doing","the civilian pulled away from the officer","asked","pulledAway","civilianOfficer","forceOff","1","","","",""
"23",3627,"{""Q0"":8}","[object Object]","survey-likert",22,294129,"0.0-22.0","mm7tz5oaee7b45eg4yosnax3bc2o0tz3","Sun Jan 29 2017 14:48:36 GMT-0500 (US Eastern Standard Time)","male","White","slightly conservative","",NA,"","offCivRatings","the officer asked the civilian how he was doing","the civilian pulled away from the officer","asked","pulledAway","civilianOfficer","acceptableOff","8","","","",""
"24",4072,"{""Q0"":82}","[object Object]","survey-likert",23,298206,"0.0-23.0","mm7tz5oaee7b45eg4yosnax3bc2o0tz3","Sun Jan 29 2017 14:48:36 GMT-0500 (US Eastern Standard Time)","male","White","slightly conservative","",NA,"","offCivRatings","the officer asked the civilian how he was doing","the civilian pulled away from the officer","asked","pulledAway","civilianOfficer","punishOff","82","","","",""
"25",6182,"{""Q0"":100}","[object Object]","survey-likert",24,304392,"0.0-24.0","mm7tz5oaee7b45eg4yosnax3bc2o0tz3","Sun Jan 29 2017 14:48:36 GMT-0500 (US Eastern Standard Time)","male","White","slightly conservative","",NA,"","offCivRatings","the officer asked the civilian how he was doing","the civilian pulled away from the officer","asked","pulledAway","civilianOfficer","manipCheckHigh","100","","","",""
"26",8508,"{""Q0"":1}","[object Object]","survey-likert",25,312904,"0.0-25.0","mm7tz5oaee7b45eg4yosnax3bc2o0tz3","Sun Jan 29 2017 14:48:36 GMT-0500 (US Eastern Standard Time)","male","White","slightly conservative","",NA,"","offCivRatings","the officer asked the civilian how he was doing","the civilian pulled away from the officer","asked","pulledAway","civilianOfficer","appropriateOff","1","","","",""
"27",1321,"","","instructions",26,314225,"0.0-26.0","mm7tz5oaee7b45eg4yosnax3bc2o0tz3","Sun Jan 29 2017 14:48:36 GMT-0500 (US Eastern Standard Time)","male","White","slightly conservative","",NA,"[{""page_index"":0,""viewing_time"":1321}]","break","","","","","","","","","","",""
"28",12336,"{""Q0"":1}","[object Object]","survey-likert",27,326783,"0.0-27.0","mm7tz5oaee7b45eg4yosnax3bc2o0tz3","Sun Jan 29 2017 14:48:36 GMT-0500 (US Eastern Standard Time)","male","White","slightly conservative","",NA,"","offCivRatings","the officer stood near the civilian","the civilian struck the officer in the stomach with a metal flashlight","stoodNear","flashlight","civilianOfficer","punishOff","1","","","",""
"29",4416,"{""Q0"":1}","[object Object]","survey-likert",28,331204,"0.0-28.0","mm7tz5oaee7b45eg4yosnax3bc2o0tz3","Sun Jan 29 2017 14:48:36 GMT-0500 (US Eastern Standard Time)","male","White","slightly conservative","",NA,"","offCivRatings","the officer stood near the civilian","the civilian struck the officer in the stomach with a metal flashlight","stoodNear","flashlight","civilianOfficer","forceOff","1","","","",""
"30",7998,"{""Q0"":35}","[object Object]","survey-likert",29,339208,"0.0-29.0","mm7tz5oaee7b45eg4yosnax3bc2o0tz3","Sun Jan 29 2017 14:48:36 GMT-0500 (US Eastern Standard Time)","male","White","slightly conservative","",NA,"","offCivRatings","the officer stood near the civilian","the civilian struck the officer in the stomach with a metal flashlight","stoodNear","flashlight","civilianOfficer","acceptableOff","35","","","",""
"31",5578,"{""Q0"":1}","[object Object]","survey-likert",30,344789,"0.0-30.0","mm7tz5oaee7b45eg4yosnax3bc2o0tz3","Sun Jan 29 2017 14:48:36 GMT-0500 (US Eastern Standard Time)","male","White","slightly conservative","",NA,"","offCivRatings","the officer stood near the civilian","the civilian struck the officer in the stomach with a metal flashlight","stoodNear","flashlight","civilianOfficer","appropriateOff","1","","","",""
"32",1366,"","","instructions",31,346156,"0.0-31.0","mm7tz5oaee7b45eg4yosnax3bc2o0tz3","Sun Jan 29 2017 14:48:36 GMT-0500 (US Eastern Standard Time)","male","White","slightly conservative","",NA,"[{""page_index"":0,""viewing_time"":1366}]","break","","","","","","","","","","",""
"33",10691,"{""Q0"":91}","[object Object]","survey-likert",32,357064,"0.0-32.0","mm7tz5oaee7b45eg4yosnax3bc2o0tz3","Sun Jan 29 2017 14:48:36 GMT-0500 (US Eastern Standard Time)","male","White","slightly conservative","",NA,"","offCivRatings","the officer struck the civilian in the stomach with a metal flashlight","the civilian stood near the officer","flashlight","stoodNear","civilianOfficer","punishOff","91","","","",""
"34",3718,"{""Q0"":1}","[object Object]","survey-likert",33,360785,"0.0-33.0","mm7tz5oaee7b45eg4yosnax3bc2o0tz3","Sun Jan 29 2017 14:48:36 GMT-0500 (US Eastern Standard Time)","male","White","slightly conservative","",NA,"","offCivRatings","the officer struck the civilian in the stomach with a metal flashlight","the civilian stood near the officer","flashlight","stoodNear","civilianOfficer","manipCheckLow","1","","","",""
"35",4848,"{""Q0"":100}","[object Object]","survey-likert",34,365636,"0.0-34.0","mm7tz5oaee7b45eg4yosnax3bc2o0tz3","Sun Jan 29 2017 14:48:36 GMT-0500 (US Eastern Standard Time)","male","White","slightly conservative","",NA,"","offCivRatings","the officer struck the civilian in the stomach with a metal flashlight","the civilian stood near the officer","flashlight","stoodNear","civilianOfficer","appropriateOff","100","","","",""
"36",6324,"{""Q0"":12}","[object Object]","survey-likert",35,371964,"0.0-35.0","mm7tz5oaee7b45eg4yosnax3bc2o0tz3","Sun Jan 29 2017 14:48:36 GMT-0500 (US Eastern Standard Time)","male","White","slightly conservative","",NA,"","offCivRatings","the officer struck the civilian in the stomach with a metal flashlight","the civilian stood near the officer","flashlight","stoodNear","civilianOfficer","acceptableOff","12","","","",""
"37",6545,"{""Q0"":61}","[object Object]","survey-likert",36,378512,"0.0-36.0","mm7tz5oaee7b45eg4yosnax3bc2o0tz3","Sun Jan 29 2017 14:48:36 GMT-0500 (US Eastern Standard Time)","male","White","slightly conservative","",NA,"","offCivRatings","the officer struck the civilian in the stomach with a metal flashlight","the civilian stood near the officer","flashlight","stoodNear","civilianOfficer","forceOff","61","","","",""
"38",1541,"","","instructions",37,380053,"0.0-37.0","mm7tz5oaee7b45eg4yosnax3bc2o0tz3","Sun Jan 29 2017 14:48:36 GMT-0500 (US Eastern Standard Time)","male","White","slightly conservative","",NA,"[{""page_index"":0,""viewing_time"":1541}]","break","","","","","","","","","","",""
"39",7796,"{""Q0"":100}","[object Object]","survey-likert",38,388063,"0.0-38.0","mm7tz5oaee7b45eg4yosnax3bc2o0tz3","Sun Jan 29 2017 14:48:36 GMT-0500 (US Eastern Standard Time)","male","White","slightly conservative","",NA,"","offCivRatings","the officer shocked the civilian with a tazer","the civilian slammed the officer's head into the concrete curb","tazer","headSlam","officerCivilian","punishCiv","100","","","",""
"40",7194,"{""Q0"":96}","[object Object]","survey-likert",39,395261,"0.0-39.0","mm7tz5oaee7b45eg4yosnax3bc2o0tz3","Sun Jan 29 2017 14:48:36 GMT-0500 (US Eastern Standard Time)","male","White","slightly conservative","",NA,"","offCivRatings","the officer shocked the civilian with a tazer","the civilian slammed the officer's head into the concrete curb","tazer","headSlam","officerCivilian","forceCiv","96","","","",""
"41",4211,"{""Q0"":1}","[object Object]","survey-likert",40,399476,"0.0-40.0","mm7tz5oaee7b45eg4yosnax3bc2o0tz3","Sun Jan 29 2017 14:48:36 GMT-0500 (US Eastern Standard Time)","male","White","slightly conservative","",NA,"","offCivRatings","the officer shocked the civilian with a tazer","the civilian slammed the officer's head into the concrete curb","tazer","headSlam","officerCivilian","acceptableCiv","1","","","",""
"42",5923,"{""Q0"":100}","[object Object]","survey-likert",41,405402,"0.0-41.0","mm7tz5oaee7b45eg4yosnax3bc2o0tz3","Sun Jan 29 2017 14:48:36 GMT-0500 (US Eastern Standard Time)","male","White","slightly conservative","",NA,"","offCivRatings","the officer shocked the civilian with a tazer","the civilian slammed the officer's head into the concrete curb","tazer","headSlam","officerCivilian","appropriateCiv","100","","","",""
"43",1103,"","","instructions",42,406505,"0.0-42.0","mm7tz5oaee7b45eg4yosnax3bc2o0tz3","Sun Jan 29 2017 14:48:36 GMT-0500 (US Eastern Standard Time)","male","White","slightly conservative","",NA,"[{""page_index"":0,""viewing_time"":1103}]","break","","","","","","","","","","",""
"44",8178,"{""Q0"":11}","[object Object]","survey-likert",43,414908,"0.0-43.0","mm7tz5oaee7b45eg4yosnax3bc2o0tz3","Sun Jan 29 2017 14:48:36 GMT-0500 (US Eastern Standard Time)","male","White","slightly conservative","",NA,"","offCivRatings","the officer punched the civilian in the face","the civilian shouted ""I don't have to fucking listen to you!"" at the officer","punchFace","dontListen","officerCivilian","acceptableCiv","11","","","",""
"45",10339,"{""Q0"":71}","[object Object]","survey-likert",44,425251,"0.0-44.0","mm7tz5oaee7b45eg4yosnax3bc2o0tz3","Sun Jan 29 2017 14:48:36 GMT-0500 (US Eastern Standard Time)","male","White","slightly conservative","",NA,"","offCivRatings","the officer punched the civilian in the face","the civilian shouted ""I don't have to fucking listen to you!"" at the officer","punchFace","dontListen","officerCivilian","appropriateCiv","71","","","",""
"46",6313,"{""Q0"":15}","[object Object]","survey-likert",45,431570,"0.0-45.0","mm7tz5oaee7b45eg4yosnax3bc2o0tz3","Sun Jan 29 2017 14:48:36 GMT-0500 (US Eastern Standard Time)","male","White","slightly conservative","",NA,"","offCivRatings","the officer punched the civilian in the face","the civilian shouted ""I don't have to fucking listen to you!"" at the officer","punchFace","dontListen","officerCivilian","forceCiv","15","","","",""
"47",6051,"{""Q0"":36}","[object Object]","survey-likert",46,437626,"0.0-46.0","mm7tz5oaee7b45eg4yosnax3bc2o0tz3","Sun Jan 29 2017 14:48:36 GMT-0500 (US Eastern Standard Time)","male","White","slightly conservative","",NA,"","offCivRatings","the officer punched the civilian in the face","the civilian shouted ""I don't have to fucking listen to you!"" at the officer","punchFace","dontListen","officerCivilian","punishCiv","36","","","",""
"48",1154,"","","instructions",47,438780,"0.0-47.0","mm7tz5oaee7b45eg4yosnax3bc2o0tz3","Sun Jan 29 2017 14:48:36 GMT-0500 (US Eastern Standard Time)","male","White","slightly conservative","",NA,"[{""page_index"":0,""viewing_time"":1154}]","break","","","","","","","","","","",""
"49",7696,"{""Q0"":1}","[object Object]","survey-likert",48,446699,"0.0-48.0","mm7tz5oaee7b45eg4yosnax3bc2o0tz3","Sun Jan 29 2017 14:48:36 GMT-0500 (US Eastern Standard Time)","male","White","slightly conservative","",NA,"","offCivRatings","the officer headbutted the civilian in the face","the civilian headbutted the officer in the face","headbutt","headbutt","civilianOfficer","manipCheckLow","1","","","",""
"50",5628,"{""Q0"":97}","[object Object]","survey-likert",49,452331,"0.0-49.0","mm7tz5oaee7b45eg4yosnax3bc2o0tz3","Sun Jan 29 2017 14:48:36 GMT-0500 (US Eastern Standard Time)","male","White","slightly conservative","",NA,"","offCivRatings","the officer headbutted the civilian in the face","the civilian headbutted the officer in the face","headbutt","headbutt","civilianOfficer","acceptableOff","97","","","",""
"51",3049,"{""Q0"":75}","[object Object]","survey-likert",50,455384,"0.0-50.0","mm7tz5oaee7b45eg4yosnax3bc2o0tz3","Sun Jan 29 2017 14:48:36 GMT-0500 (US Eastern Standard Time)","male","White","slightly conservative","",NA,"","offCivRatings","the officer headbutted the civilian in the face","the civilian headbutted the officer in the face","headbutt","headbutt","civilianOfficer","forceOff","75","","","",""
"52",6329,"{""Q0"":56}","[object Object]","survey-likert",51,461718,"0.0-51.0","mm7tz5oaee7b45eg4yosnax3bc2o0tz3","Sun Jan 29 2017 14:48:36 GMT-0500 (US Eastern Standard Time)","male","White","slightly conservative","",NA,"","offCivRatings","the officer headbutted the civilian in the face","the civilian headbutted the officer in the face","headbutt","headbutt","civilianOfficer","appropriateOff","56","","","",""
"53",6216,"{""Q0"":1}","[object Object]","survey-likert",52,467938,"0.0-52.0","mm7tz5oaee7b45eg4yosnax3bc2o0tz3","Sun Jan 29 2017 14:48:36 GMT-0500 (US Eastern Standard Time)","male","White","slightly conservative","",NA,"","offCivRatings","the officer headbutted the civilian in the face","the civilian headbutted the officer in the face","headbutt","headbutt","civilianOfficer","punishOff","1","","","",""
"54",1141,"","","instructions",53,469079,"0.0-53.0","mm7tz5oaee7b45eg4yosnax3bc2o0tz3","Sun Jan 29 2017 14:48:36 GMT-0500 (US Eastern Standard Time)","male","White","slightly conservative","",NA,"[{""page_index"":0,""viewing_time"":1140}]","break","","","","","","","","","","",""
"55",9474,"{""Q0"":71}","[object Object]","survey-likert",54,478768,"0.0-54.0","mm7tz5oaee7b45eg4yosnax3bc2o0tz3","Sun Jan 29 2017 14:48:36 GMT-0500 (US Eastern Standard Time)","male","White","slightly conservative","",NA,"","offCivRatings","the officer shot the civilian in the head with a handgun","the civilian punched the officer in the face","handgunHead","punchFace","civilianOfficer","appropriateOff","71","","","",""
"56",3532,"{""Q0"":100}","[object Object]","survey-likert",55,482304,"0.0-55.0","mm7tz5oaee7b45eg4yosnax3bc2o0tz3","Sun Jan 29 2017 14:48:36 GMT-0500 (US Eastern Standard Time)","male","White","slightly conservative","",NA,"","offCivRatings","the officer shot the civilian in the head with a handgun","the civilian punched the officer in the face","handgunHead","punchFace","civilianOfficer","forceOff","100","","","",""
"57",2984,"{""Q0"":36}","[object Object]","survey-likert",56,485292,"0.0-56.0","mm7tz5oaee7b45eg4yosnax3bc2o0tz3","Sun Jan 29 2017 14:48:36 GMT-0500 (US Eastern Standard Time)","male","White","slightly conservative","",NA,"","offCivRatings","the officer shot the civilian in the head with a handgun","the civilian punched the officer in the face","handgunHead","punchFace","civilianOfficer","acceptableOff","36","","","",""
"58",6778,"{""Q0"":17}","[object Object]","survey-likert",57,492073,"0.0-57.0","mm7tz5oaee7b45eg4yosnax3bc2o0tz3","Sun Jan 29 2017 14:48:36 GMT-0500 (US Eastern Standard Time)","male","White","slightly conservative","",NA,"","offCivRatings","the officer shot the civilian in the head with a handgun","the civilian punched the officer in the face","handgunHead","punchFace","civilianOfficer","punishOff","17","","","",""
"59",1054,"","","instructions",58,493127,"0.0-58.0","mm7tz5oaee7b45eg4yosnax3bc2o0tz3","Sun Jan 29 2017 14:48:36 GMT-0500 (US Eastern Standard Time)","male","White","slightly conservative","",NA,"[{""page_index"":0,""viewing_time"":1054}]","break","","","","","","","","","","",""
"60",8272,"{""Q0"":8}","[object Object]","survey-likert",59,501628,"0.0-59.0","mm7tz5oaee7b45eg4yosnax3bc2o0tz3","Sun Jan 29 2017 14:48:36 GMT-0500 (US Eastern Standard Time)","male","White","slightly conservative","",NA,"","offCivRatings","the officer called the civilian a ""thug""","the civilian said ""if you touch me, you're gonna get hurt"" to the officer","nameCall","hurtThreat","officerCivilian","forceCiv","8","","","",""
"61",13476,"{""Q0"":68}","[object Object]","survey-likert",60,515107,"0.0-60.0","mm7tz5oaee7b45eg4yosnax3bc2o0tz3","Sun Jan 29 2017 14:48:36 GMT-0500 (US Eastern Standard Time)","male","White","slightly conservative","",NA,"","offCivRatings","the officer called the civilian a ""thug""","the civilian said ""if you touch me, you're gonna get hurt"" to the officer","nameCall","hurtThreat","officerCivilian","appropriateCiv","68","","","",""
"62",6377,"{""Q0"":10}","[object Object]","survey-likert",61,521488,"0.0-61.0","mm7tz5oaee7b45eg4yosnax3bc2o0tz3","Sun Jan 29 2017 14:48:36 GMT-0500 (US Eastern Standard Time)","male","White","slightly conservative","",NA,"","offCivRatings","the officer called the civilian a ""thug""","the civilian said ""if you touch me, you're gonna get hurt"" to the officer","nameCall","hurtThreat","officerCivilian","acceptableCiv","10","","","",""
"63",4685,"{""Q0"":61}","[object Object]","survey-likert",62,526177,"0.0-62.0","mm7tz5oaee7b45eg4yosnax3bc2o0tz3","Sun Jan 29 2017 14:48:36 GMT-0500 (US Eastern Standard Time)","male","White","slightly conservative","",NA,"","offCivRatings","the officer called the civilian a ""thug""","the civilian said ""if you touch me, you're gonna get hurt"" to the officer","nameCall","hurtThreat","officerCivilian","punishCiv","61","","","",""
"64",4901,"{""Q0"":1}","[object Object]","survey-likert",63,531081,"0.0-63.0","mm7tz5oaee7b45eg4yosnax3bc2o0tz3","Sun Jan 29 2017 14:48:36 GMT-0500 (US Eastern Standard Time)","male","White","slightly conservative","",NA,"","offCivRatings","the officer called the civilian a ""thug""","the civilian said ""if you touch me, you're gonna get hurt"" to the officer","nameCall","hurtThreat","officerCivilian","manipCheckLow","1","","","",""
"65",1502,"","","instructions",64,532584,"0.0-64.0","mm7tz5oaee7b45eg4yosnax3bc2o0tz3","Sun Jan 29 2017 14:48:36 GMT-0500 (US Eastern Standard Time)","male","White","slightly conservative","",NA,"[{""page_index"":0,""viewing_time"":1502}]","break","","","","","","","","","","",""
"66",8455,"{""Q0"":63}","[object Object]","survey-likert",65,541264,"0.0-65.0","mm7tz5oaee7b45eg4yosnax3bc2o0tz3","Sun Jan 29 2017 14:48:36 GMT-0500 (US Eastern Standard Time)","male","White","slightly conservative","",NA,"","offCivRatings","the officer applied a chokehold to the civilian","the civilian called the officer a ""pig""","choke","nameCall","civilianOfficer","punishOff","63","","","",""
"67",6238,"{""Q0"":79}","[object Object]","survey-likert",66,547506,"0.0-66.0","mm7tz5oaee7b45eg4yosnax3bc2o0tz3","Sun Jan 29 2017 14:48:36 GMT-0500 (US Eastern Standard Time)","male","White","slightly conservative","",NA,"","offCivRatings","the officer applied a chokehold to the civilian","the civilian called the officer a ""pig""","choke","nameCall","civilianOfficer","appropriateOff","79","","","",""
"68",3334,"{""Q0"":62}","[object Object]","survey-likert",67,550844,"0.0-67.0","mm7tz5oaee7b45eg4yosnax3bc2o0tz3","Sun Jan 29 2017 14:48:36 GMT-0500 (US Eastern Standard Time)","male","White","slightly conservative","",NA,"","offCivRatings","the officer applied a chokehold to the civilian","the civilian called the officer a ""pig""","choke","nameCall","civilianOfficer","forceOff","62","","","",""
"69",6469,"{""Q0"":22}","[object Object]","survey-likert",68,557317,"0.0-68.0","mm7tz5oaee7b45eg4yosnax3bc2o0tz3","Sun Jan 29 2017 14:48:36 GMT-0500 (US Eastern Standard Time)","male","White","slightly conservative","",NA,"","offCivRatings","the officer applied a chokehold to the civilian","the civilian called the officer a ""pig""","choke","nameCall","civilianOfficer","acceptableOff","22","","","",""
"70",1444,"","","instructions",69,558761,"0.0-69.0","mm7tz5oaee7b45eg4yosnax3bc2o0tz3","Sun Jan 29 2017 14:48:36 GMT-0500 (US Eastern Standard Time)","male","White","slightly conservative","",NA,"[{""page_index"":0,""viewing_time"":1444}]","break","","","","","","","","","","",""
"71",19303,"{""Q0"":100}","[object Object]","survey-likert",70,578288,"0.0-70.0","mm7tz5oaee7b45eg4yosnax3bc2o0tz3","Sun Jan 29 2017 14:48:36 GMT-0500 (US Eastern Standard Time)","male","White","slightly conservative","",NA,"","offCivRatings","the officer shot the civilian in the chest with a handgun","the civilian asked the officer how he was doing","handgunChest","asked","officerCivilian","manipCheckHigh","100","","","",""
"72",7699,"{""Q0"":26}","[object Object]","survey-likert",71,585992,"0.0-71.0","mm7tz5oaee7b45eg4yosnax3bc2o0tz3","Sun Jan 29 2017 14:48:36 GMT-0500 (US Eastern Standard Time)","male","White","slightly conservative","",NA,"","offCivRatings","the officer shot the civilian in the chest with a handgun","the civilian asked the officer how he was doing","handgunChest","asked","officerCivilian","appropriateCiv","26","","","",""
"73",7630,"{""Q0"":1}","[object Object]","survey-likert",72,593625,"0.0-72.0","mm7tz5oaee7b45eg4yosnax3bc2o0tz3","Sun Jan 29 2017 14:48:36 GMT-0500 (US Eastern Standard Time)","male","White","slightly conservative","",NA,"","offCivRatings","the officer shot the civilian in the chest with a handgun","the civilian asked the officer how he was doing","handgunChest","asked","officerCivilian","punishCiv","1","","","",""
"74",3872,"{""Q0"":1}","[object Object]","survey-likert",73,597501,"0.0-73.0","mm7tz5oaee7b45eg4yosnax3bc2o0tz3","Sun Jan 29 2017 14:48:36 GMT-0500 (US Eastern Standard Time)","male","White","slightly conservative","",NA,"","offCivRatings","the officer shot the civilian in the chest with a handgun","the civilian asked the officer how he was doing","handgunChest","asked","officerCivilian","forceCiv","1","","","",""
"75",7447,"{""Q0"":49}","[object Object]","survey-likert",74,604951,"0.0-74.0","mm7tz5oaee7b45eg4yosnax3bc2o0tz3","Sun Jan 29 2017 14:48:36 GMT-0500 (US Eastern Standard Time)","male","White","slightly conservative","",NA,"","offCivRatings","the officer shot the civilian in the chest with a handgun","the civilian asked the officer how he was doing","handgunChest","asked","officerCivilian","acceptableCiv","49","","","",""
"76",1367,"","","instructions",75,606318,"0.0-75.0","mm7tz5oaee7b45eg4yosnax3bc2o0tz3","Sun Jan 29 2017 14:48:36 GMT-0500 (US Eastern Standard Time)","male","White","slightly conservative","",NA,"[{""page_index"":0,""viewing_time"":1367}]","break","","","","","","","","","","",""
"77",9081,"{""Q0"":1}","[object Object]","survey-likert",76,615637,"0.0-76.0","mm7tz5oaee7b45eg4yosnax3bc2o0tz3","Sun Jan 29 2017 14:48:36 GMT-0500 (US Eastern Standard Time)","male","White","slightly conservative","",NA,"","offCivRatings","the officer put handcuffs on the civilian","the civilian shot the officer in the chest with a handgun","handcuff","handgunChest","officerCivilian","manipCheckLow","1","","","",""
"78",4665,"{""Q0"":100}","[object Object]","survey-likert",77,620306,"0.0-77.0","mm7tz5oaee7b45eg4yosnax3bc2o0tz3","Sun Jan 29 2017 14:48:36 GMT-0500 (US Eastern Standard Time)","male","White","slightly conservative","",NA,"","offCivRatings","the officer put handcuffs on the civilian","the civilian shot the officer in the chest with a handgun","handcuff","handgunChest","officerCivilian","punishCiv","100","","","",""
"79",3568,"{""Q0"":1}","[object Object]","survey-likert",78,623878,"0.0-78.0","mm7tz5oaee7b45eg4yosnax3bc2o0tz3","Sun Jan 29 2017 14:48:36 GMT-0500 (US Eastern Standard Time)","male","White","slightly conservative","",NA,"","offCivRatings","the officer put handcuffs on the civilian","the civilian shot the officer in the chest with a handgun","handcuff","handgunChest","officerCivilian","acceptableCiv","1","","","",""
"80",3923,"{""Q0"":100}","[object Object]","survey-likert",79,627804,"0.0-79.0","mm7tz5oaee7b45eg4yosnax3bc2o0tz3","Sun Jan 29 2017 14:48:36 GMT-0500 (US Eastern Standard Time)","male","White","slightly conservative","",NA,"","offCivRatings","the officer put handcuffs on the civilian","the civilian shot the officer in the chest with a handgun","handcuff","handgunChest","officerCivilian","appropriateCiv","100","","","",""
"81",3795,"{""Q0"":100}","[object Object]","survey-likert",80,631602,"0.0-80.0","mm7tz5oaee7b45eg4yosnax3bc2o0tz3","Sun Jan 29 2017 14:48:36 GMT-0500 (US Eastern Standard Time)","male","White","slightly conservative","",NA,"","offCivRatings","the officer put handcuffs on the civilian","the civilian shot the officer in the chest with a handgun","handcuff","handgunChest","officerCivilian","forceCiv","100","","","",""
"82",1281,"","","instructions",81,632883,"0.0-81.0","mm7tz5oaee7b45eg4yosnax3bc2o0tz3","Sun Jan 29 2017 14:48:36 GMT-0500 (US Eastern Standard Time)","male","White","slightly conservative","",NA,"[{""page_index"":0,""viewing_time"":1281}]","break","","","","","","","","","","",""
"83",6827,"{""Q0"":72}","[object Object]","survey-likert",82,639935,"0.0-82.0","mm7tz5oaee7b45eg4yosnax3bc2o0tz3","Sun Jan 29 2017 14:48:36 GMT-0500 (US Eastern Standard Time)","male","White","slightly conservative","",NA,"","offCivRatings","the officer struck the civilian on the leg with a collapsible baton","the civilian struck the officer on the leg with a metal pipe","batonLeg","metalPipe","officerCivilian","punishCiv","72","","","",""
"84",4284,"{""Q0"":76}","[object Object]","survey-likert",83,644224,"0.0-83.0","mm7tz5oaee7b45eg4yosnax3bc2o0tz3","Sun Jan 29 2017 14:48:36 GMT-0500 (US Eastern Standard Time)","male","White","slightly conservative","",NA,"","offCivRatings","the officer struck the civilian on the leg with a collapsible baton","the civilian struck the officer on the leg with a metal pipe","batonLeg","metalPipe","officerCivilian","appropriateCiv","76","","","",""
"85",3920,"{""Q0"":59}","[object Object]","survey-likert",84,648148,"0.0-84.0","mm7tz5oaee7b45eg4yosnax3bc2o0tz3","Sun Jan 29 2017 14:48:36 GMT-0500 (US Eastern Standard Time)","male","White","slightly conservative","",NA,"","offCivRatings","the officer struck the civilian on the leg with a collapsible baton","the civilian struck the officer on the leg with a metal pipe","batonLeg","metalPipe","officerCivilian","forceCiv","59","","","",""
"86",3082,"{""Q0"":1}","[object Object]","survey-likert",85,651234,"0.0-85.0","mm7tz5oaee7b45eg4yosnax3bc2o0tz3","Sun Jan 29 2017 14:48:36 GMT-0500 (US Eastern Standard Time)","male","White","slightly conservative","",NA,"","offCivRatings","the officer struck the civilian on the leg with a collapsible baton","the civilian struck the officer on the leg with a metal pipe","batonLeg","metalPipe","officerCivilian","acceptableCiv","1","","","",""
"87",1809,"","","instructions",86,653043,"0.0-86.0","mm7tz5oaee7b45eg4yosnax3bc2o0tz3","Sun Jan 29 2017 14:48:36 GMT-0500 (US Eastern Standard Time)","male","White","slightly conservative","",NA,"[{""page_index"":0,""viewing_time"":1808}]","break","","","","","","","","","","",""
"88",6446,"{""Q0"":100}","[object Object]","survey-likert",87,659711,"0.0-87.0","mm7tz5oaee7b45eg4yosnax3bc2o0tz3","Sun Jan 29 2017 14:48:36 GMT-0500 (US Eastern Standard Time)","male","White","slightly conservative","",NA,"","offCivRatings","the officer shouted ""get your fucking hands up!"" at the civilian","the civilian purposefully struck the officer with a motor vehicle","handsUp","vehicle","officerCivilian","punishCiv","100","","","",""
"89",3061,"{""Q0"":99}","[object Object]","survey-likert",88,662775,"0.0-88.0","mm7tz5oaee7b45eg4yosnax3bc2o0tz3","Sun Jan 29 2017 14:48:36 GMT-0500 (US Eastern Standard Time)","male","White","slightly conservative","",NA,"","offCivRatings","the officer shouted ""get your fucking hands up!"" at the civilian","the civilian purposefully struck the officer with a motor vehicle","handsUp","vehicle","officerCivilian","appropriateCiv","99","","","",""
"90",3460,"{""Q0"":94}","[object Object]","survey-likert",89,666239,"0.0-89.0","mm7tz5oaee7b45eg4yosnax3bc2o0tz3","Sun Jan 29 2017 14:48:36 GMT-0500 (US Eastern Standard Time)","male","White","slightly conservative","",NA,"","offCivRatings","the officer shouted ""get your fucking hands up!"" at the civilian","the civilian purposefully struck the officer with a motor vehicle","handsUp","vehicle","officerCivilian","forceCiv","94","","","",""
"91",4328,"{""Q0"":1}","[object Object]","survey-likert",90,670571,"0.0-90.0","mm7tz5oaee7b45eg4yosnax3bc2o0tz3","Sun Jan 29 2017 14:48:36 GMT-0500 (US Eastern Standard Time)","male","White","slightly conservative","",NA,"","offCivRatings","the officer shouted ""get your fucking hands up!"" at the civilian","the civilian purposefully struck the officer with a motor vehicle","handsUp","vehicle","officerCivilian","acceptableCiv","1","","","",""
"92",1131,"","","instructions",91,671702,"0.0-91.0","mm7tz5oaee7b45eg4yosnax3bc2o0tz3","Sun Jan 29 2017 14:48:36 GMT-0500 (US Eastern Standard Time)","male","White","slightly conservative","",NA,"[{""page_index"":0,""viewing_time"":1131}]","break","","","","","","","","","","",""
"93",10160,"{""Q0"":7}","[object Object]","survey-likert",92,682084,"0.0-92.0","mm7tz5oaee7b45eg4yosnax3bc2o0tz3","Sun Jan 29 2017 14:48:36 GMT-0500 (US Eastern Standard Time)","male","White","slightly conservative","",NA,"","offCivRatings","the officer said ""if you touch me, you're gonna get hurt"" to the civilian","the civilian shocked the officer with a tazer","hurtThreat","tazer","civilianOfficer","forceOff","7","","","",""
"94",5080,"{""Q0"":4}","[object Object]","survey-likert",93,687168,"0.0-93.0","mm7tz5oaee7b45eg4yosnax3bc2o0tz3","Sun Jan 29 2017 14:48:36 GMT-0500 (US Eastern Standard Time)","male","White","slightly conservative","",NA,"","offCivRatings","the officer said ""if you touch me, you're gonna get hurt"" to the civilian","the civilian shocked the officer with a tazer","hurtThreat","tazer","civilianOfficer","appropriateOff","4","","","",""
"95",4241,"{""Q0"":7}","[object Object]","survey-likert",94,691412,"0.0-94.0","mm7tz5oaee7b45eg4yosnax3bc2o0tz3","Sun Jan 29 2017 14:48:36 GMT-0500 (US Eastern Standard Time)","male","White","slightly conservative","",NA,"","offCivRatings","the officer said ""if you touch me, you're gonna get hurt"" to the civilian","the civilian shocked the officer with a tazer","hurtThreat","tazer","civilianOfficer","punishOff","7","","","",""
"96",7818,"{""Q0"":27}","[object Object]","survey-likert",95,699234,"0.0-95.0","mm7tz5oaee7b45eg4yosnax3bc2o0tz3","Sun Jan 29 2017 14:48:36 GMT-0500 (US Eastern Standard Time)","male","White","slightly conservative","",NA,"","offCivRatings","the officer said ""if you touch me, you're gonna get hurt"" to the civilian","the civilian shocked the officer with a tazer","hurtThreat","tazer","civilianOfficer","acceptableOff","27","","","",""
"97",1054,"","","instructions",96,700288,"0.0-96.0","mm7tz5oaee7b45eg4yosnax3bc2o0tz3","Sun Jan 29 2017 14:48:36 GMT-0500 (US Eastern Standard Time)","male","White","slightly conservative","",NA,"[{""page_index"":0,""viewing_time"":1054}]","break","","","","","","","","","","",""
"98",8697,"{""Q0"":40}","[object Object]","survey-likert",97,709199,"0.0-97.0","mm7tz5oaee7b45eg4yosnax3bc2o0tz3","Sun Jan 29 2017 14:48:36 GMT-0500 (US Eastern Standard Time)","male","White","slightly conservative","",NA,"","offCivRatings","the officer sprayed the civilian with pepper spray","the civilian sprayed the officer with pepper spray","pepperSpray","pepperSpray","officerCivilian","forceCiv","40","","","",""
"99",4330,"{""Q0"":1}","[object Object]","survey-likert",98,713531,"0.0-98.0","mm7tz5oaee7b45eg4yosnax3bc2o0tz3","Sun Jan 29 2017 14:48:36 GMT-0500 (US Eastern Standard Time)","male","White","slightly conservative","",NA,"","offCivRatings","the officer sprayed the civilian with pepper spray","the civilian sprayed the officer with pepper spray","pepperSpray","pepperSpray","officerCivilian","acceptableCiv","1","","","",""
"100",5966,"{""Q0"":45}","[object Object]","survey-likert",99,719502,"0.0-99.0","mm7tz5oaee7b45eg4yosnax3bc2o0tz3","Sun Jan 29 2017 14:48:36 GMT-0500 (US Eastern Standard Time)","male","White","slightly conservative","",NA,"","offCivRatings","the officer sprayed the civilian with pepper spray","the civilian sprayed the officer with pepper spray","pepperSpray","pepperSpray","officerCivilian","punishCiv","45","","","",""
"101",4297,"{""Q0"":1}","[object Object]","survey-likert",100,723803,"0.0-100.0","mm7tz5oaee7b45eg4yosnax3bc2o0tz3","Sun Jan 29 2017 14:48:36 GMT-0500 (US Eastern Standard Time)","male","White","slightly conservative","",NA,"","offCivRatings","the officer sprayed the civilian with pepper spray","the civilian sprayed the officer with pepper spray","pepperSpray","pepperSpray","officerCivilian","manipCheckLow","1","","","",""
"102",9834,"{""Q0"":95}","[object Object]","survey-likert",101,733641,"0.0-101.0","mm7tz5oaee7b45eg4yosnax3bc2o0tz3","Sun Jan 29 2017 14:48:36 GMT-0500 (US Eastern Standard Time)","male","White","slightly conservative","",NA,"","offCivRatings","the officer sprayed the civilian with pepper spray","the civilian sprayed the officer with pepper spray","pepperSpray","pepperSpray","officerCivilian","appropriateCiv","95","","","",""
"103",1270,"","","instructions",102,734912,"0.0-102.0","mm7tz5oaee7b45eg4yosnax3bc2o0tz3","Sun Jan 29 2017 14:48:36 GMT-0500 (US Eastern Standard Time)","male","White","slightly conservative","",NA,"[{""page_index"":0,""viewing_time"":1270}]","break","","","","","","","","","","",""
"104",9115,"{""Q0"":97}","[object Object]","survey-likert",103,744254,"0.0-103.0","mm7tz5oaee7b45eg4yosnax3bc2o0tz3","Sun Jan 29 2017 14:48:36 GMT-0500 (US Eastern Standard Time)","male","White","slightly conservative","",NA,"","offCivRatings","the officer kicked the civilian in the stomach","the civilian shot the officer in the head with a handgun","kickStom","handgunHead","officerCivilian","appropriateCiv","97","","","",""
"105",3269,"{""Q0"":100}","[object Object]","survey-likert",104,747527,"0.0-104.0","mm7tz5oaee7b45eg4yosnax3bc2o0tz3","Sun Jan 29 2017 14:48:36 GMT-0500 (US Eastern Standard Time)","male","White","slightly conservative","",NA,"","offCivRatings","the officer kicked the civilian in the stomach","the civilian shot the officer in the head with a handgun","kickStom","handgunHead","officerCivilian","punishCiv","100","","","",""
"106",4060,"{""Q0"":1}","[object Object]","survey-likert",105,751591,"0.0-105.0","mm7tz5oaee7b45eg4yosnax3bc2o0tz3","Sun Jan 29 2017 14:48:36 GMT-0500 (US Eastern Standard Time)","male","White","slightly conservative","",NA,"","offCivRatings","the officer kicked the civilian in the stomach","the civilian shot the officer in the head with a handgun","kickStom","handgunHead","officerCivilian","acceptableCiv","1","","","",""
"107",3739,"{""Q0"":100}","[object Object]","survey-likert",106,755334,"0.0-106.0","mm7tz5oaee7b45eg4yosnax3bc2o0tz3","Sun Jan 29 2017 14:48:36 GMT-0500 (US Eastern Standard Time)","male","White","slightly conservative","",NA,"","offCivRatings","the officer kicked the civilian in the stomach","the civilian shot the officer in the head with a handgun","kickStom","handgunHead","officerCivilian","forceCiv","100","","","",""
"108",1134,"","","instructions",107,756468,"0.0-107.0","mm7tz5oaee7b45eg4yosnax3bc2o0tz3","Sun Jan 29 2017 14:48:36 GMT-0500 (US Eastern Standard Time)","male","White","slightly conservative","",NA,"[{""page_index"":0,""viewing_time"":1133}]","break","","","","","","","","","","",""
"109",7744,"{""Q0"":3}","[object Object]","survey-likert",108,764428,"0.0-108.0","mm7tz5oaee7b45eg4yosnax3bc2o0tz3","Sun Jan 29 2017 14:48:36 GMT-0500 (US Eastern Standard Time)","male","White","slightly conservative","",NA,"","offCivRatings","the officer waved at the civilian in greeting","the civilian hit the officer in the chest with a baseball bat","waved","ballBat","civilianOfficer","acceptableOff","3","","","",""
"110",5600,"{""Q0"":1}","[object Object]","survey-likert",109,770032,"0.0-109.0","mm7tz5oaee7b45eg4yosnax3bc2o0tz3","Sun Jan 29 2017 14:48:36 GMT-0500 (US Eastern Standard Time)","male","White","slightly conservative","",NA,"","offCivRatings","the officer waved at the civilian in greeting","the civilian hit the officer in the chest with a baseball bat","waved","ballBat","civilianOfficer","appropriateOff","1","","","",""
"111",3891,"{""Q0"":1}","[object Object]","survey-likert",110,773928,"0.0-110.0","mm7tz5oaee7b45eg4yosnax3bc2o0tz3","Sun Jan 29 2017 14:48:36 GMT-0500 (US Eastern Standard Time)","male","White","slightly conservative","",NA,"","offCivRatings","the officer waved at the civilian in greeting","the civilian hit the officer in the chest with a baseball bat","waved","ballBat","civilianOfficer","forceOff","1","","","",""
"112",6171,"{""Q0"":55}","[object Object]","survey-likert",111,780103,"0.0-111.0","mm7tz5oaee7b45eg4yosnax3bc2o0tz3","Sun Jan 29 2017 14:48:36 GMT-0500 (US Eastern Standard Time)","male","White","slightly conservative","",NA,"","offCivRatings","the officer waved at the civilian in greeting","the civilian hit the officer in the chest with a baseball bat","waved","ballBat","civilianOfficer","punishOff","55","","","",""
"113",2144,"","","instructions",112,782247,"0.0-112.0","mm7tz5oaee7b45eg4yosnax3bc2o0tz3","Sun Jan 29 2017 14:48:36 GMT-0500 (US Eastern Standard Time)","male","White","slightly conservative","",NA,"[{""page_index"":0,""viewing_time"":2144}]","break","","","","","","","","","","",""
"114",12025,"{""Q0"":71}","[object Object]","survey-likert",113,794494,"0.0-113.0","mm7tz5oaee7b45eg4yosnax3bc2o0tz3","Sun Jan 29 2017 14:48:36 GMT-0500 (US Eastern Standard Time)","male","White","slightly conservative","",NA,"","offCivRatings","the officer shot the civilian in the chest with a beanbag shotgun round","the civilian waved at the officer in greeting","beanbag","waved","civilianOfficer","forceOff","71","","","",""
"115",3821,"{""Q0"":36}","[object Object]","survey-likert",114,798319,"0.0-114.0","mm7tz5oaee7b45eg4yosnax3bc2o0tz3","Sun Jan 29 2017 14:48:36 GMT-0500 (US Eastern Standard Time)","male","White","slightly conservative","",NA,"","offCivRatings","the officer shot the civilian in the chest with a beanbag shotgun round","the civilian waved at the officer in greeting","beanbag","waved","civilianOfficer","acceptableOff","36","","","",""
"116",5178,"{""Q0"":80}","[object Object]","survey-likert",115,803501,"0.0-115.0","mm7tz5oaee7b45eg4yosnax3bc2o0tz3","Sun Jan 29 2017 14:48:36 GMT-0500 (US Eastern Standard Time)","male","White","slightly conservative","",NA,"","offCivRatings","the officer shot the civilian in the chest with a beanbag shotgun round","the civilian waved at the officer in greeting","beanbag","waved","civilianOfficer","appropriateOff","80","","","",""
"117",6476,"{""Q0"":73}","[object Object]","survey-likert",116,809979,"0.0-116.0","mm7tz5oaee7b45eg4yosnax3bc2o0tz3","Sun Jan 29 2017 14:48:36 GMT-0500 (US Eastern Standard Time)","male","White","slightly conservative","",NA,"","offCivRatings","the officer shot the civilian in the chest with a beanbag shotgun round","the civilian waved at the officer in greeting","beanbag","waved","civilianOfficer","punishOff","73","","","",""
"118",1170,"","","instructions",117,811150,"0.0-117.0","mm7tz5oaee7b45eg4yosnax3bc2o0tz3","Sun Jan 29 2017 14:48:36 GMT-0500 (US Eastern Standard Time)","male","White","slightly conservative","",NA,"[{""page_index"":0,""viewing_time"":1170}]","break","","","","","","","","","","",""
"119",7883,"{""Q0"":60}","[object Object]","survey-likert",118,819258,"0.0-118.0","mm7tz5oaee7b45eg4yosnax3bc2o0tz3","Sun Jan 29 2017 14:48:36 GMT-0500 (US Eastern Standard Time)","male","White","slightly conservative","",NA,"","offCivRatings","the officer purposefully struck the civilian with a motor vehicle","the civilian twisted the arm of the officer, forcing him to the ground","vehicle","armbar","officerCivilian","forceCiv","60","","","",""
"120",3494,"{""Q0"":69}","[object Object]","survey-likert",119,822756,"0.0-119.0","mm7tz5oaee7b45eg4yosnax3bc2o0tz3","Sun Jan 29 2017 14:48:36 GMT-0500 (US Eastern Standard Time)","male","White","slightly conservative","",NA,"","offCivRatings","the officer purposefully struck the civilian with a motor vehicle","the civilian twisted the arm of the officer, forcing him to the ground","vehicle","armbar","officerCivilian","punishCiv","69","","","",""
"121",3542,"{""Q0"":1}","[object Object]","survey-likert",120,826301,"0.0-120.0","mm7tz5oaee7b45eg4yosnax3bc2o0tz3","Sun Jan 29 2017 14:48:36 GMT-0500 (US Eastern Standard Time)","male","White","slightly conservative","",NA,"","offCivRatings","the officer purposefully struck the civilian with a motor vehicle","the civilian twisted the arm of the officer, forcing him to the ground","vehicle","armbar","officerCivilian","manipCheckLow","1","","","",""
"122",4618,"{""Q0"":18}","[object Object]","survey-likert",121,830923,"0.0-121.0","mm7tz5oaee7b45eg4yosnax3bc2o0tz3","Sun Jan 29 2017 14:48:36 GMT-0500 (US Eastern Standard Time)","male","White","slightly conservative","",NA,"","offCivRatings","the officer purposefully struck the civilian with a motor vehicle","the civilian twisted the arm of the officer, forcing him to the ground","vehicle","armbar","officerCivilian","acceptableCiv","18","","","",""
"123",4696,"{""Q0"":72}","[object Object]","survey-likert",122,835623,"0.0-122.0","mm7tz5oaee7b45eg4yosnax3bc2o0tz3","Sun Jan 29 2017 14:48:36 GMT-0500 (US Eastern Standard Time)","male","White","slightly conservative","",NA,"","offCivRatings","the officer purposefully struck the civilian with a motor vehicle","the civilian twisted the arm of the officer, forcing him to the ground","vehicle","armbar","officerCivilian","appropriateCiv","72","","","",""
"124",1503,"","","instructions",123,837126,"0.0-123.0","mm7tz5oaee7b45eg4yosnax3bc2o0tz3","Sun Jan 29 2017 14:48:36 GMT-0500 (US Eastern Standard Time)","male","White","slightly conservative","",NA,"[{""page_index"":0,""viewing_time"":1503}]","break","","","","","","","","","","",""
"125",9802,"{""Q0"":100}","[object Object]","survey-likert",124,847145,"0.0-124.0","mm7tz5oaee7b45eg4yosnax3bc2o0tz3","Sun Jan 29 2017 14:48:36 GMT-0500 (US Eastern Standard Time)","male","White","slightly conservative","",NA,"","policeLegitimacy","","","","","","","100","doReasons","feltObligation","",""
"126",5519,"{""Q0"":95}","[object Object]","survey-likert",125,852667,"0.0-125.0","mm7tz5oaee7b45eg4yosnax3bc2o0tz3","Sun Jan 29 2017 14:48:36 GMT-0500 (US Eastern Standard Time)","male","White","slightly conservative","",NA,"","policeLegitimacy","","","","","","","95","communityWants","normAlignment","",""
"127",5686,"{""Q0"":90}","[object Object]","survey-likert",126,858356,"0.0-126.0","mm7tz5oaee7b45eg4yosnax3bc2o0tz3","Sun Jan 29 2017 14:48:36 GMT-0500 (US Eastern Standard Time)","male","White","slightly conservative","",NA,"","policeLegitimacy","","","","","","","90","support","feltObligation","",""
"128",4289,"{""Q0"":90}","[object Object]","survey-likert",127,862648,"0.0-127.0","mm7tz5oaee7b45eg4yosnax3bc2o0tz3","Sun Jan 29 2017 14:48:36 GMT-0500 (US Eastern Standard Time)","male","White","slightly conservative","",NA,"","policeLegitimacy","","","","","","","90","rightWrong","normAlignment","",""
"129",3619,"{""Q0"":91}","[object Object]","survey-likert",128,866272,"0.0-128.0","mm7tz5oaee7b45eg4yosnax3bc2o0tz3","Sun Jan 29 2017 14:48:36 GMT-0500 (US Eastern Standard Time)","male","White","slightly conservative","",NA,"","policeLegitimacy","","","","","","","91","importantValues","normAlignment","",""
"130",11211,"{""Q0"":88}","[object Object]","survey-likert",129,877487,"0.0-129.0","mm7tz5oaee7b45eg4yosnax3bc2o0tz3","Sun Jan 29 2017 14:48:36 GMT-0500 (US Eastern Standard Time)","male","White","slightly conservative","",NA,"","policeLegitimacy","","","","","","","88","doTreat","feltObligation","",""
"131",8822,"{""Q0"":""yes""}","[object Object]","survey-multi-choice2",130,886314,"0.0-130.0","mm7tz5oaee7b45eg4yosnax3bc2o0tz3","Sun Jan 29 2017 14:48:36 GMT-0500 (US Eastern Standard Time)","male","White","slightly conservative","",NA,"","policeExperience","","","","","","","yes","corrupt","","personal","Have you ever seen a police officer engage in any corrupt activities (e.g., taking bribes or involvement in the drug trade)?"
"132",4621,"{""Q0"":""no""}","[object Object]","survey-multi-choice2",131,890938,"0.0-131.0","mm7tz5oaee7b45eg4yosnax3bc2o0tz3","Sun Jan 29 2017 14:48:36 GMT-0500 (US Eastern Standard Time)","male","White","slightly conservative","",NA,"","policeExperience","","","","","","","no","insultLang","","vicarious","Have the police ever used insulting language toward anyone in your household?"
"133",4797,"{""Q0"":""no""}","[object Object]","survey-multi-choice2",132,895736,"0.0-132.0","mm7tz5oaee7b45eg4yosnax3bc2o0tz3","Sun Jan 29 2017 14:48:36 GMT-0500 (US Eastern Standard Time)","male","White","slightly conservative","",NA,"","policeExperience","","","","","","","no","excessForce","","vicarious","Have the police ever used excessive force against anyone in your household?"
"134",4308,"{""Q0"":""no""}","[object Object]","survey-multi-choice2",133,900046,"0.0-133.0","mm7tz5oaee7b45eg4yosnax3bc2o0tz3","Sun Jan 29 2017 14:48:36 GMT-0500 (US Eastern Standard Time","","","","",NA,"","","","","","","","","","","","",""
