"","rt","responses","internalResp","trial_type","trial_index","time_elapsed","internal_node_id","randSubjectID","date","sex","race","polAff","stimulus","key_press","view_history","questionType","officerAction","civilianAction","offActName","civActName","order","questionName","response","name","dimension","person","question"
"1",2724,"","[object Object]","survey-text",0,2738,"0.0-0.0","mwee4jb6je6t7zfxmxnve6dbujqppjz8","Tue Mar 07 2017 13:23:53 GMT-0500 (Eastern Standard Time)","male","White","moderate/middle of the road","",NA,"","","","","","","","","","","","",""
"2",27064,"","","single-stim",1,30809,"0.0-1.0","mwee4jb6je6t7zfxmxnve6dbujqppjz8","Tue Mar 07 2017 13:23:53 GMT-0500 (Eastern Standard Time)","male","White","moderate/middle of the road","<img src='static/images/1602685960_ICS_Credit-0.png' alt='Consent 1' height=1100 width=850><img src='static/images/1602685960_ICS_Credit-1.png' alt='Consent 2' height=1100 width=850></p>",89,"","","","","","","","","","","","",""
"3",23536,"","","instructions",2,55347,"0.0-2.0","mwee4jb6je6t7zfxmxnve6dbujqppjz8","Tue Mar 07 2017 13:23:53 GMT-0500 (Eastern Standard Time)","male","White","moderate/middle of the road","",NA,"[{""page_index"":0,""viewing_time"":23534}]","instructions","","","","","","","","","","",""
"4",98060,"","","instructions",3,154407,"0.0-3.0","mwee4jb6je6t7zfxmxnve6dbujqppjz8","Tue Mar 07 2017 13:23:53 GMT-0500 (Eastern Standard Time)","male","White","moderate/middle of the road","",NA,"[{""page_index"":0,""viewing_time"":30409},{""page_index"":1,""viewing_time"":28832},{""page_index"":2,""viewing_time"":31394},{""page_index"":3,""viewing_time"":7424}]","instructions","","","","","","","","","","",""
"5",27834,"{""Q0"":2}","[object Object]","survey-likert",4,183302,"0.0-4.0","mwee4jb6je6t7zfxmxnve6dbujqppjz8","Tue Mar 07 2017 13:23:53 GMT-0500 (Eastern Standard Time)","male","White","moderate/middle of the road","",NA,"","offCivRatings","the officer called the civilian a ""thug""","the civilian slammed the officer's head into the concrete curb","nameCall","headSlam","civilianOfficer","punishOff","2","","","",""
"6",25482,"{""Q0"":1}","[object Object]","survey-likert",5,208805,"0.0-5.0","mwee4jb6je6t7zfxmxnve6dbujqppjz8","Tue Mar 07 2017 13:23:53 GMT-0500 (Eastern Standard Time)","male","White","moderate/middle of the road","",NA,"","offCivRatings","the officer called the civilian a ""thug""","the civilian slammed the officer's head into the concrete curb","nameCall","headSlam","civilianOfficer","appropriateOff","1","","","",""
"7",20172,"{""Q0"":1}","[object Object]","survey-likert",6,228998,"0.0-6.0","mwee4jb6je6t7zfxmxnve6dbujqppjz8","Tue Mar 07 2017 13:23:53 GMT-0500 (Eastern Standard Time)","male","White","moderate/middle of the road","",NA,"","offCivRatings","the officer called the civilian a ""thug""","the civilian slammed the officer's head into the concrete curb","nameCall","headSlam","civilianOfficer","acceptableOff","1","","","",""
"8",5078,"{""Q0"":1}","[object Object]","survey-likert",7,234092,"0.0-7.0","mwee4jb6je6t7zfxmxnve6dbujqppjz8","Tue Mar 07 2017 13:23:53 GMT-0500 (Eastern Standard Time)","male","White","moderate/middle of the road","",NA,"","offCivRatings","the officer called the civilian a ""thug""","the civilian slammed the officer's head into the concrete curb","nameCall","headSlam","civilianOfficer","forceOff","1","","","",""
"9",1333,"","","instructions",8,235426,"0.0-8.0","mwee4jb6je6t7zfxmxnve6dbujqppjz8","Tue Mar 07 2017 13:23:53 GMT-0500 (Eastern Standard Time)","male","White","moderate/middle of the road","",NA,"[{""page_index"":0,""viewing_time"":1332}]","break","","","","","","","","","","",""
"10",58683,"{""Q0"":80}","[object Object]","survey-likert",9,294326,"0.0-9.0","mwee4jb6je6t7zfxmxnve6dbujqppjz8","Tue Mar 07 2017 13:23:53 GMT-0500 (Eastern Standard Time)","male","White","moderate/middle of the road","",NA,"","offCivRatings","the officer applied a chokehold to the civilian","the civilian purposefully struck the officer with a motor vehicle","choke","vehicle","civilianOfficer","forceOff","80","","","",""
"11",10704,"{""Q0"":50}","[object Object]","survey-likert",10,305047,"0.0-10.0","mwee4jb6je6t7zfxmxnve6dbujqppjz8","Tue Mar 07 2017 13:23:53 GMT-0500 (Eastern Standard Time)","male","White","moderate/middle of the road","",NA,"","offCivRatings","the officer applied a chokehold to the civilian","the civilian purposefully struck the officer with a motor vehicle","choke","vehicle","civilianOfficer","appropriateOff","50","","","",""
"12",8622,"{""Q0"":100}","[object Object]","survey-likert",11,313686,"0.0-11.0","mwee4jb6je6t7zfxmxnve6dbujqppjz8","Tue Mar 07 2017 13:23:53 GMT-0500 (Eastern Standard Time)","male","White","moderate/middle of the road","",NA,"","offCivRatings","the officer applied a chokehold to the civilian","the civilian purposefully struck the officer with a motor vehicle","choke","vehicle","civilianOfficer","manipCheckHigh","100","","","",""
"13",3936,"{""Q0"":99}","[object Object]","survey-likert",12,317639,"0.0-12.0","mwee4jb6je6t7zfxmxnve6dbujqppjz8","Tue Mar 07 2017 13:23:53 GMT-0500 (Eastern Standard Time)","male","White","moderate/middle of the road","",NA,"","offCivRatings","the officer applied a chokehold to the civilian","the civilian purposefully struck the officer with a motor vehicle","choke","vehicle","civilianOfficer","acceptableOff","99","","","",""
"14",4128,"{""Q0"":2}","[object Object]","survey-likert",13,321782,"0.0-13.0","mwee4jb6je6t7zfxmxnve6dbujqppjz8","Tue Mar 07 2017 13:23:53 GMT-0500 (Eastern Standard Time)","male","White","moderate/middle of the road","",NA,"","offCivRatings","the officer applied a chokehold to the civilian","the civilian purposefully struck the officer with a motor vehicle","choke","vehicle","civilianOfficer","punishOff","2","","","",""
"15",1150,"","","instructions",14,322933,"0.0-14.0","mwee4jb6je6t7zfxmxnve6dbujqppjz8","Tue Mar 07 2017 13:23:53 GMT-0500 (Eastern Standard Time)","male","White","moderate/middle of the road","",NA,"[{""page_index"":0,""viewing_time"":1149}]","break","","","","","","","","","","",""
"16",22150,"{""Q0"":79}","[object Object]","survey-likert",15,345299,"0.0-15.0","mwee4jb6je6t7zfxmxnve6dbujqppjz8","Tue Mar 07 2017 13:23:53 GMT-0500 (Eastern Standard Time)","male","White","moderate/middle of the road","",NA,"","offCivRatings","the officer struck the civilian on the leg with a collapsible baton","the civilian twisted the arm of the officer, forcing him to the ground","batonLeg","armbar","civilianOfficer","forceOff","79","","","",""
"17",4566,"{""Q0"":1}","[object Object]","survey-likert",16,349881,"0.0-16.0","mwee4jb6je6t7zfxmxnve6dbujqppjz8","Tue Mar 07 2017 13:23:53 GMT-0500 (Eastern Standard Time)","male","White","moderate/middle of the road","",NA,"","offCivRatings","the officer struck the civilian on the leg with a collapsible baton","the civilian twisted the arm of the officer, forcing him to the ground","batonLeg","armbar","civilianOfficer","punishOff","1","","","",""
"18",3240,"{""Q0"":98}","[object Object]","survey-likert",17,353139,"0.0-17.0","mwee4jb6je6t7zfxmxnve6dbujqppjz8","Tue Mar 07 2017 13:23:53 GMT-0500 (Eastern Standard Time)","male","White","moderate/middle of the road","",NA,"","offCivRatings","the officer struck the civilian on the leg with a collapsible baton","the civilian twisted the arm of the officer, forcing him to the ground","batonLeg","armbar","civilianOfficer","acceptableOff","98","","","",""
"19",2920,"{""Q0"":50}","[object Object]","survey-likert",18,356075,"0.0-18.0","mwee4jb6je6t7zfxmxnve6dbujqppjz8","Tue Mar 07 2017 13:23:53 GMT-0500 (Eastern Standard Time)","male","White","moderate/middle of the road","",NA,"","offCivRatings","the officer struck the civilian on the leg with a collapsible baton","the civilian twisted the arm of the officer, forcing him to the ground","batonLeg","armbar","civilianOfficer","appropriateOff","50","","","",""
"20",3481,"{""Q0"":1}","[object Object]","survey-likert",19,359570,"0.0-19.0","mwee4jb6je6t7zfxmxnve6dbujqppjz8","Tue Mar 07 2017 13:23:53 GMT-0500 (Eastern Standard Time)","male","White","moderate/middle of the road","",NA,"","offCivRatings","the officer struck the civilian on the leg with a collapsible baton","the civilian twisted the arm of the officer, forcing him to the ground","batonLeg","armbar","civilianOfficer","manipCheckLow","1","","","",""
"21",1126,"","","instructions",20,360696,"0.0-20.0","mwee4jb6je6t7zfxmxnve6dbujqppjz8","Tue Mar 07 2017 13:23:53 GMT-0500 (Eastern Standard Time)","male","White","moderate/middle of the road","",NA,"[{""page_index"":0,""viewing_time"":1125}]","break","","","","","","","","","","",""
"22",28283,"{""Q0"":50}","[object Object]","survey-likert",21,389195,"0.0-21.0","mwee4jb6je6t7zfxmxnve6dbujqppjz8","Tue Mar 07 2017 13:23:53 GMT-0500 (Eastern Standard Time)","male","White","moderate/middle of the road","",NA,"","offCivRatings","the officer kicked the civilian in the stomach","the civilian stood near the officer","kickStom","stoodNear","officerCivilian","appropriateCiv","50","","","",""
"23",5526,"{""Q0"":50}","[object Object]","survey-likert",22,394738,"0.0-22.0","mwee4jb6je6t7zfxmxnve6dbujqppjz8","Tue Mar 07 2017 13:23:53 GMT-0500 (Eastern Standard Time)","male","White","moderate/middle of the road","",NA,"","offCivRatings","the officer kicked the civilian in the stomach","the civilian stood near the officer","kickStom","stoodNear","officerCivilian","acceptableCiv","50","","","",""
"24",5657,"{""Q0"":1}","[object Object]","survey-likert",23,400411,"0.0-23.0","mwee4jb6je6t7zfxmxnve6dbujqppjz8","Tue Mar 07 2017 13:23:53 GMT-0500 (Eastern Standard Time)","male","White","moderate/middle of the road","",NA,"","offCivRatings","the officer kicked the civilian in the stomach","the civilian stood near the officer","kickStom","stoodNear","officerCivilian","punishCiv","1","","","",""
"25",5129,"{""Q0"":1}","[object Object]","survey-likert",24,405557,"0.0-24.0","mwee4jb6je6t7zfxmxnve6dbujqppjz8","Tue Mar 07 2017 13:23:53 GMT-0500 (Eastern Standard Time)","male","White","moderate/middle of the road","",NA,"","offCivRatings","the officer kicked the civilian in the stomach","the civilian stood near the officer","kickStom","stoodNear","officerCivilian","forceCiv","1","","","",""
"26",957,"","","instructions",25,406515,"0.0-25.0","mwee4jb6je6t7zfxmxnve6dbujqppjz8","Tue Mar 07 2017 13:23:53 GMT-0500 (Eastern Standard Time)","male","White","moderate/middle of the road","",NA,"[{""page_index"":0,""viewing_time"":956}]","break","","","","","","","","","","",""
"27",14499,"{""Q0"":80}","[object Object]","survey-likert",26,421229,"0.0-26.0","mwee4jb6je6t7zfxmxnve6dbujqppjz8","Tue Mar 07 2017 13:23:53 GMT-0500 (Eastern Standard Time)","male","White","moderate/middle of the road","",NA,"","offCivRatings","the officer twisted the arm of the civilian, forcing him to the ground","the civilian applied a chokehold to the officer","armbar","choke","officerCivilian","forceCiv","80","","","",""
"28",5968,"{""Q0"":100}","[object Object]","survey-likert",27,427213,"0.0-27.0","mwee4jb6je6t7zfxmxnve6dbujqppjz8","Tue Mar 07 2017 13:23:53 GMT-0500 (Eastern Standard Time)","male","White","moderate/middle of the road","",NA,"","offCivRatings","the officer twisted the arm of the civilian, forcing him to the ground","the civilian applied a chokehold to the officer","armbar","choke","officerCivilian","manipCheckHigh","100","","","",""
"29",14256,"{""Q0"":100}","[object Object]","survey-likert",28,441484,"0.0-28.0","mwee4jb6je6t7zfxmxnve6dbujqppjz8","Tue Mar 07 2017 13:23:53 GMT-0500 (Eastern Standard Time)","male","White","moderate/middle of the road","",NA,"","offCivRatings","the officer twisted the arm of the civilian, forcing him to the ground","the civilian applied a chokehold to the officer","armbar","choke","officerCivilian","punishCiv","100","","","",""
"30",3649,"{""Q0"":2}","[object Object]","survey-likert",29,445149,"0.0-29.0","mwee4jb6je6t7zfxmxnve6dbujqppjz8","Tue Mar 07 2017 13:23:53 GMT-0500 (Eastern Standard Time)","male","White","moderate/middle of the road","",NA,"","offCivRatings","the officer twisted the arm of the civilian, forcing him to the ground","the civilian applied a chokehold to the officer","armbar","choke","officerCivilian","acceptableCiv","2","","","",""
"31",5830,"{""Q0"":99}","[object Object]","survey-likert",30,450996,"0.0-30.0","mwee4jb6je6t7zfxmxnve6dbujqppjz8","Tue Mar 07 2017 13:23:53 GMT-0500 (Eastern Standard Time)","male","White","moderate/middle of the road","",NA,"","offCivRatings","the officer twisted the arm of the civilian, forcing him to the ground","the civilian applied a chokehold to the officer","armbar","choke","officerCivilian","appropriateCiv","99","","","",""
"32",677,"","","instructions",31,451674,"0.0-31.0","mwee4jb6je6t7zfxmxnve6dbujqppjz8","Tue Mar 07 2017 13:23:53 GMT-0500 (Eastern Standard Time)","male","White","moderate/middle of the road","",NA,"[{""page_index"":0,""viewing_time"":676}]","break","","","","","","","","","","",""
"33",38087,"{""Q0"":1}","[object Object]","survey-likert",32,489976,"0.0-32.0","mwee4jb6je6t7zfxmxnve6dbujqppjz8","Tue Mar 07 2017 13:23:53 GMT-0500 (Eastern Standard Time)","male","White","moderate/middle of the road","",NA,"","offCivRatings","the officer headbutted the civilian in the face","the civilian waved at the officer in greeting","headbutt","waved","officerCivilian","punishCiv","1","","","",""
"34",2529,"{""Q0"":1}","[object Object]","survey-likert",33,492520,"0.0-33.0","mwee4jb6je6t7zfxmxnve6dbujqppjz8","Tue Mar 07 2017 13:23:53 GMT-0500 (Eastern Standard Time)","male","White","moderate/middle of the road","",NA,"","offCivRatings","the officer headbutted the civilian in the face","the civilian waved at the officer in greeting","headbutt","waved","officerCivilian","forceCiv","1","","","",""
"35",4281,"{""Q0"":100}","[object Object]","survey-likert",34,496816,"0.0-34.0","mwee4jb6je6t7zfxmxnve6dbujqppjz8","Tue Mar 07 2017 13:23:53 GMT-0500 (Eastern Standard Time)","male","White","moderate/middle of the road","",NA,"","offCivRatings","the officer headbutted the civilian in the face","the civilian waved at the officer in greeting","headbutt","waved","officerCivilian","acceptableCiv","100","","","",""
"36",12810,"{""Q0"":50}","[object Object]","survey-likert",35,509641,"0.0-35.0","mwee4jb6je6t7zfxmxnve6dbujqppjz8","Tue Mar 07 2017 13:23:53 GMT-0500 (Eastern Standard Time)","male","White","moderate/middle of the road","",NA,"","offCivRatings","the officer headbutted the civilian in the face","the civilian waved at the officer in greeting","headbutt","waved","officerCivilian","appropriateCiv","50","","","",""
"37",948,"","","instructions",36,510590,"0.0-36.0","mwee4jb6je6t7zfxmxnve6dbujqppjz8","Tue Mar 07 2017 13:23:53 GMT-0500 (Eastern Standard Time)","male","White","moderate/middle of the road","",NA,"[{""page_index"":0,""viewing_time"":948}]","break","","","","","","","","","","",""
"38",32731,"{""Q0"":80}","[object Object]","survey-likert",37,543537,"0.0-37.0","mwee4jb6je6t7zfxmxnve6dbujqppjz8","Tue Mar 07 2017 13:23:53 GMT-0500 (Eastern Standard Time)","male","White","moderate/middle of the road","",NA,"","offCivRatings","the officer struck the civilian in the stomach with a metal flashlight","the civilian struck the officer in the stomach with a metal flashlight","flashlight","flashlight","officerCivilian","punishCiv","80","","","",""
"39",4049,"{""Q0"":99}","[object Object]","survey-likert",38,547600,"0.0-38.0","mwee4jb6je6t7zfxmxnve6dbujqppjz8","Tue Mar 07 2017 13:23:53 GMT-0500 (Eastern Standard Time)","male","White","moderate/middle of the road","",NA,"","offCivRatings","the officer struck the civilian in the stomach with a metal flashlight","the civilian struck the officer in the stomach with a metal flashlight","flashlight","flashlight","officerCivilian","appropriateCiv","99","","","",""
"40",4945,"{""Q0"":1}","[object Object]","survey-likert",39,552562,"0.0-39.0","mwee4jb6je6t7zfxmxnve6dbujqppjz8","Tue Mar 07 2017 13:23:53 GMT-0500 (Eastern Standard Time)","male","White","moderate/middle of the road","",NA,"","offCivRatings","the officer struck the civilian in the stomach with a metal flashlight","the civilian struck the officer in the stomach with a metal flashlight","flashlight","flashlight","officerCivilian","acceptableCiv","1","","","",""
"41",5922,"{""Q0"":79}","[object Object]","survey-likert",40,558498,"0.0-40.0","mwee4jb6je6t7zfxmxnve6dbujqppjz8","Tue Mar 07 2017 13:23:53 GMT-0500 (Eastern Standard Time)","male","White","moderate/middle of the road","",NA,"","offCivRatings","the officer struck the civilian in the stomach with a metal flashlight","the civilian struck the officer in the stomach with a metal flashlight","flashlight","flashlight","officerCivilian","forceCiv","79","","","",""
"42",877,"","","instructions",41,559375,"0.0-41.0","mwee4jb6je6t7zfxmxnve6dbujqppjz8","Tue Mar 07 2017 13:23:53 GMT-0500 (Eastern Standard Time)","male","White","moderate/middle of the road","",NA,"[{""page_index"":0,""viewing_time"":877}]","break","","","","","","","","","","",""
"43",17035,"{""Q0"":90}","[object Object]","survey-likert",42,576626,"0.0-42.0","mwee4jb6je6t7zfxmxnve6dbujqppjz8","Tue Mar 07 2017 13:23:53 GMT-0500 (Eastern Standard Time)","male","White","moderate/middle of the road","",NA,"","offCivRatings","the officer purposefully struck the civilian with a motor vehicle","the civilian sprayed the officer with pepper spray","vehicle","pepperSpray","civilianOfficer","punishOff","90","","","",""
"44",3633,"{""Q0"":100}","[object Object]","survey-likert",43,580275,"0.0-43.0","mwee4jb6je6t7zfxmxnve6dbujqppjz8","Tue Mar 07 2017 13:23:53 GMT-0500 (Eastern Standard Time)","male","White","moderate/middle of the road","",NA,"","offCivRatings","the officer purposefully struck the civilian with a motor vehicle","the civilian sprayed the officer with pepper spray","vehicle","pepperSpray","civilianOfficer","forceOff","100","","","",""
"45",3360,"{""Q0"":1}","[object Object]","survey-likert",44,583651,"0.0-44.0","mwee4jb6je6t7zfxmxnve6dbujqppjz8","Tue Mar 07 2017 13:23:53 GMT-0500 (Eastern Standard Time)","male","White","moderate/middle of the road","",NA,"","offCivRatings","the officer purposefully struck the civilian with a motor vehicle","the civilian sprayed the officer with pepper spray","vehicle","pepperSpray","civilianOfficer","acceptableOff","1","","","",""
"46",4880,"{""Q0"":100}","[object Object]","survey-likert",45,588547,"0.0-45.0","mwee4jb6je6t7zfxmxnve6dbujqppjz8","Tue Mar 07 2017 13:23:53 GMT-0500 (Eastern Standard Time)","male","White","moderate/middle of the road","",NA,"","offCivRatings","the officer purposefully struck the civilian with a motor vehicle","the civilian sprayed the officer with pepper spray","vehicle","pepperSpray","civilianOfficer","appropriateOff","100","","","",""
"47",709,"","","instructions",46,589256,"0.0-46.0","mwee4jb6je6t7zfxmxnve6dbujqppjz8","Tue Mar 07 2017 13:23:53 GMT-0500 (Eastern Standard Time)","male","White","moderate/middle of the road","",NA,"[{""page_index"":0,""viewing_time"":708}]","break","","","","","","","","","","",""
"48",16363,"{""Q0"":1}","[object Object]","survey-likert",47,605836,"0.0-47.0","mwee4jb6je6t7zfxmxnve6dbujqppjz8","Tue Mar 07 2017 13:23:53 GMT-0500 (Eastern Standard Time)","male","White","moderate/middle of the road","",NA,"","offCivRatings","the officer put handcuffs on the civilian","the civilian shot the officer in the chest with a handgun","handcuff","handgunChest","civilianOfficer","punishOff","1","","","",""
"49",8339,"{""Q0"":35}","[object Object]","survey-likert",48,614190,"0.0-48.0","mwee4jb6je6t7zfxmxnve6dbujqppjz8","Tue Mar 07 2017 13:23:53 GMT-0500 (Eastern Standard Time)","male","White","moderate/middle of the road","",NA,"","offCivRatings","the officer put handcuffs on the civilian","the civilian shot the officer in the chest with a handgun","handcuff","handgunChest","civilianOfficer","forceOff","35","","","",""
"50",5241,"{""Q0"":50}","[object Object]","survey-likert",49,619445,"0.0-49.0","mwee4jb6je6t7zfxmxnve6dbujqppjz8","Tue Mar 07 2017 13:23:53 GMT-0500 (Eastern Standard Time)","male","White","moderate/middle of the road","",NA,"","offCivRatings","the officer put handcuffs on the civilian","the civilian shot the officer in the chest with a handgun","handcuff","handgunChest","civilianOfficer","appropriateOff","50","","","",""
"51",19658,"{""Q0"":98}","[object Object]","survey-likert",50,639117,"0.0-50.0","mwee4jb6je6t7zfxmxnve6dbujqppjz8","Tue Mar 07 2017 13:23:53 GMT-0500 (Eastern Standard Time)","male","White","moderate/middle of the road","",NA,"","offCivRatings","the officer put handcuffs on the civilian","the civilian shot the officer in the chest with a handgun","handcuff","handgunChest","civilianOfficer","acceptableOff","98","","","",""
"52",1102,"","","instructions",51,640219,"0.0-51.0","mwee4jb6je6t7zfxmxnve6dbujqppjz8","Tue Mar 07 2017 13:23:53 GMT-0500 (Eastern Standard Time)","male","White","moderate/middle of the road","",NA,"[{""page_index"":0,""viewing_time"":1101}]","break","","","","","","","","","","",""
"53",26756,"{""Q0"":100}","[object Object]","survey-likert",52,667189,"0.0-52.0","mwee4jb6je6t7zfxmxnve6dbujqppjz8","Tue Mar 07 2017 13:23:53 GMT-0500 (Eastern Standard Time)","male","White","moderate/middle of the road","",NA,"","offCivRatings","the officer said ""if you touch me, you're gonna get hurt"" to the civilian","the civilian asked the officer how he was doing","hurtThreat","asked","officerCivilian","manipCheckHigh","100","","","",""
"54",5785,"{""Q0"":1}","[object Object]","survey-likert",53,672990,"0.0-53.0","mwee4jb6je6t7zfxmxnve6dbujqppjz8","Tue Mar 07 2017 13:23:53 GMT-0500 (Eastern Standard Time)","male","White","moderate/middle of the road","",NA,"","offCivRatings","the officer said ""if you touch me, you're gonna get hurt"" to the civilian","the civilian asked the officer how he was doing","hurtThreat","asked","officerCivilian","forceCiv","1","","","",""
"55",3404,"{""Q0"":1}","[object Object]","survey-likert",54,676408,"0.0-54.0","mwee4jb6je6t7zfxmxnve6dbujqppjz8","Tue Mar 07 2017 13:23:53 GMT-0500 (Eastern Standard Time)","male","White","moderate/middle of the road","",NA,"","offCivRatings","the officer said ""if you touch me, you're gonna get hurt"" to the civilian","the civilian asked the officer how he was doing","hurtThreat","asked","officerCivilian","punishCiv","1","","","",""
"56",2289,"{""Q0"":100}","[object Object]","survey-likert",55,678713,"0.0-55.0","mwee4jb6je6t7zfxmxnve6dbujqppjz8","Tue Mar 07 2017 13:23:53 GMT-0500 (Eastern Standard Time)","male","White","moderate/middle of the road","",NA,"","offCivRatings","the officer said ""if you touch me, you're gonna get hurt"" to the civilian","the civilian asked the officer how he was doing","hurtThreat","asked","officerCivilian","acceptableCiv","100","","","",""
"57",5773,"{""Q0"":50}","[object Object]","survey-likert",56,684506,"0.0-56.0","mwee4jb6je6t7zfxmxnve6dbujqppjz8","Tue Mar 07 2017 13:23:53 GMT-0500 (Eastern Standard Time)","male","White","moderate/middle of the road","",NA,"","offCivRatings","the officer said ""if you touch me, you're gonna get hurt"" to the civilian","the civilian asked the officer how he was doing","hurtThreat","asked","officerCivilian","appropriateCiv","50","","","",""
"58",667,"","","instructions",57,685174,"0.0-57.0","mwee4jb6je6t7zfxmxnve6dbujqppjz8","Tue Mar 07 2017 13:23:53 GMT-0500 (Eastern Standard Time)","male","White","moderate/middle of the road","",NA,"[{""page_index"":0,""viewing_time"":666}]","break","","","","","","","","","","",""
"59",24202,"{""Q0"":11}","[object Object]","survey-likert",58,709592,"0.0-58.0","mwee4jb6je6t7zfxmxnve6dbujqppjz8","Tue Mar 07 2017 13:23:53 GMT-0500 (Eastern Standard Time)","male","White","moderate/middle of the road","",NA,"","offCivRatings","the officer yelled ""get back!"" at the civilian","the civilian punched the officer in the face","getBack","punchFace","civilianOfficer","forceOff","11","","","",""
"60",11097,"{""Q0"":50}","[object Object]","survey-likert",59,720705,"0.0-59.0","mwee4jb6je6t7zfxmxnve6dbujqppjz8","Tue Mar 07 2017 13:23:53 GMT-0500 (Eastern Standard Time)","male","White","moderate/middle of the road","",NA,"","offCivRatings","the officer yelled ""get back!"" at the civilian","the civilian punched the officer in the face","getBack","punchFace","civilianOfficer","acceptableOff","50","","","",""
"61",6184,"{""Q0"":2}","[object Object]","survey-likert",60,726904,"0.0-60.0","mwee4jb6je6t7zfxmxnve6dbujqppjz8","Tue Mar 07 2017 13:23:53 GMT-0500 (Eastern Standard Time)","male","White","moderate/middle of the road","",NA,"","offCivRatings","the officer yelled ""get back!"" at the civilian","the civilian punched the officer in the face","getBack","punchFace","civilianOfficer","punishOff","2","","","",""
"62",3681,"{""Q0"":1}","[object Object]","survey-likert",61,730600,"0.0-61.0","mwee4jb6je6t7zfxmxnve6dbujqppjz8","Tue Mar 07 2017 13:23:53 GMT-0500 (Eastern Standard Time)","male","White","moderate/middle of the road","",NA,"","offCivRatings","the officer yelled ""get back!"" at the civilian","the civilian punched the officer in the face","getBack","punchFace","civilianOfficer","appropriateOff","1","","","",""
"63",830,"","","instructions",62,731430,"0.0-62.0","mwee4jb6je6t7zfxmxnve6dbujqppjz8","Tue Mar 07 2017 13:23:53 GMT-0500 (Eastern Standard Time)","male","White","moderate/middle of the road","",NA,"[{""page_index"":0,""viewing_time"":829}]","break","","","","","","","","","","",""
"64",9126,"{""Q0"":100}","[object Object]","survey-likert",63,740770,"0.0-63.0","mwee4jb6je6t7zfxmxnve6dbujqppjz8","Tue Mar 07 2017 13:23:53 GMT-0500 (Eastern Standard Time)","male","White","moderate/middle of the road","",NA,"","offCivRatings","the officer sprayed the civilian with pepper spray","the civilian kicked the officer in the stomach","pepperSpray","kickStom","officerCivilian","manipCheckHigh","100","","","",""
"65",10656,"{""Q0"":70}","[object Object]","survey-likert",64,751441,"0.0-64.0","mwee4jb6je6t7zfxmxnve6dbujqppjz8","Tue Mar 07 2017 13:23:53 GMT-0500 (Eastern Standard Time)","male","White","moderate/middle of the road","",NA,"","offCivRatings","the officer sprayed the civilian with pepper spray","the civilian kicked the officer in the stomach","pepperSpray","kickStom","officerCivilian","forceCiv","70","","","",""
"66",11482,"{""Q0"":80}","[object Object]","survey-likert",65,762938,"0.0-65.0","mwee4jb6je6t7zfxmxnve6dbujqppjz8","Tue Mar 07 2017 13:23:53 GMT-0500 (Eastern Standard Time)","male","White","moderate/middle of the road","",NA,"","offCivRatings","the officer sprayed the civilian with pepper spray","the civilian kicked the officer in the stomach","pepperSpray","kickStom","officerCivilian","punishCiv","80","","","",""
"67",13129,"{""Q0"":79}","[object Object]","survey-likert",66,776083,"0.0-66.0","mwee4jb6je6t7zfxmxnve6dbujqppjz8","Tue Mar 07 2017 13:23:53 GMT-0500 (Eastern Standard Time)","male","White","moderate/middle of the road","",NA,"","offCivRatings","the officer sprayed the civilian with pepper spray","the civilian kicked the officer in the stomach","pepperSpray","kickStom","officerCivilian","appropriateCiv","79","","","",""
"68",7632,"{""Q0"":2}","[object Object]","survey-likert",67,783730,"0.0-67.0","mwee4jb6je6t7zfxmxnve6dbujqppjz8","Tue Mar 07 2017 13:23:53 GMT-0500 (Eastern Standard Time)","male","White","moderate/middle of the road","",NA,"","offCivRatings","the officer sprayed the civilian with pepper spray","the civilian kicked the officer in the stomach","pepperSpray","kickStom","officerCivilian","acceptableCiv","2","","","",""
"69",854,"","","instructions",68,784584,"0.0-68.0","mwee4jb6je6t7zfxmxnve6dbujqppjz8","Tue Mar 07 2017 13:23:53 GMT-0500 (Eastern Standard Time)","male","White","moderate/middle of the road","",NA,"[{""page_index"":0,""viewing_time"":853}]","break","","","","","","","","","","",""
"70",9427,"{""Q0"":50}","[object Object]","survey-likert",69,794227,"0.0-69.0","mwee4jb6je6t7zfxmxnve6dbujqppjz8","Tue Mar 07 2017 13:23:53 GMT-0500 (Eastern Standard Time)","male","White","moderate/middle of the road","",NA,"","offCivRatings","the officer shot the civilian in the chest with a handgun","the civilian shot the officer in the head with a handgun","handgunChest","handgunHead","civilianOfficer","appropriateOff","50","","","",""
"71",2888,"{""Q0"":1}","[object Object]","survey-likert",70,797130,"0.0-70.0","mwee4jb6je6t7zfxmxnve6dbujqppjz8","Tue Mar 07 2017 13:23:53 GMT-0500 (Eastern Standard Time)","male","White","moderate/middle of the road","",NA,"","offCivRatings","the officer shot the civilian in the chest with a handgun","the civilian shot the officer in the head with a handgun","handgunChest","handgunHead","civilianOfficer","punishOff","1","","","",""
"72",2524,"{""Q0"":1}","[object Object]","survey-likert",71,799669,"0.0-71.0","mwee4jb6je6t7zfxmxnve6dbujqppjz8","Tue Mar 07 2017 13:23:53 GMT-0500 (Eastern Standard Time)","male","White","moderate/middle of the road","",NA,"","offCivRatings","the officer shot the civilian in the chest with a handgun","the civilian shot the officer in the head with a handgun","handgunChest","handgunHead","civilianOfficer","manipCheckLow","1","","","",""
"73",2560,"{""Q0"":100}","[object Object]","survey-likert",72,802245,"0.0-72.0","mwee4jb6je6t7zfxmxnve6dbujqppjz8","Tue Mar 07 2017 13:23:53 GMT-0500 (Eastern Standard Time)","male","White","moderate/middle of the road","",NA,"","offCivRatings","the officer shot the civilian in the chest with a handgun","the civilian shot the officer in the head with a handgun","handgunChest","handgunHead","civilianOfficer","acceptableOff","100","","","",""
"74",3650,"{""Q0"":100}","[object Object]","survey-likert",73,805910,"0.0-73.0","mwee4jb6je6t7zfxmxnve6dbujqppjz8","Tue Mar 07 2017 13:23:53 GMT-0500 (Eastern Standard Time)","male","White","moderate/middle of the road","",NA,"","offCivRatings","the officer shot the civilian in the chest with a handgun","the civilian shot the officer in the head with a handgun","handgunChest","handgunHead","civilianOfficer","forceOff","100","","","",""
"75",789,"","","instructions",74,806699,"0.0-74.0","mwee4jb6je6t7zfxmxnve6dbujqppjz8","Tue Mar 07 2017 13:23:53 GMT-0500 (Eastern Standard Time)","male","White","moderate/middle of the road","",NA,"[{""page_index"":0,""viewing_time"":788}]","break","","","","","","","","","","",""
"76",31059,"{""Q0"":60}","[object Object]","survey-likert",75,837973,"0.0-75.0","mwee4jb6je6t7zfxmxnve6dbujqppjz8","Tue Mar 07 2017 13:23:53 GMT-0500 (Eastern Standard Time)","male","White","moderate/middle of the road","",NA,"","offCivRatings","the officer shot the civilian in the head with a handgun","the civilian shocked the officer with a tazer","handgunHead","tazer","civilianOfficer","punishOff","60","","","",""
"77",10242,"{""Q0"":90}","[object Object]","survey-likert",76,848230,"0.0-76.0","mwee4jb6je6t7zfxmxnve6dbujqppjz8","Tue Mar 07 2017 13:23:53 GMT-0500 (Eastern Standard Time)","male","White","moderate/middle of the road","",NA,"","offCivRatings","the officer shot the civilian in the head with a handgun","the civilian shocked the officer with a tazer","handgunHead","tazer","civilianOfficer","appropriateOff","90","","","",""
"78",3337,"{""Q0"":1}","[object Object]","survey-likert",77,851581,"0.0-77.0","mwee4jb6je6t7zfxmxnve6dbujqppjz8","Tue Mar 07 2017 13:23:53 GMT-0500 (Eastern Standard Time)","male","White","moderate/middle of the road","",NA,"","offCivRatings","the officer shot the civilian in the head with a handgun","the civilian shocked the officer with a tazer","handgunHead","tazer","civilianOfficer","manipCheckLow","1","","","",""
"79",4065,"{""Q0"":100}","[object Object]","survey-likert",78,855661,"0.0-78.0","mwee4jb6je6t7zfxmxnve6dbujqppjz8","Tue Mar 07 2017 13:23:53 GMT-0500 (Eastern Standard Time)","male","White","moderate/middle of the road","",NA,"","offCivRatings","the officer shot the civilian in the head with a handgun","the civilian shocked the officer with a tazer","handgunHead","tazer","civilianOfficer","forceOff","100","","","",""
"80",6555,"{""Q0"":30}","[object Object]","survey-likert",79,862231,"0.0-79.0","mwee4jb6je6t7zfxmxnve6dbujqppjz8","Tue Mar 07 2017 13:23:53 GMT-0500 (Eastern Standard Time)","male","White","moderate/middle of the road","",NA,"","offCivRatings","the officer shot the civilian in the head with a handgun","the civilian shocked the officer with a tazer","handgunHead","tazer","civilianOfficer","acceptableOff","30","","","",""
"81",695,"","","instructions",80,862926,"0.0-80.0","mwee4jb6je6t7zfxmxnve6dbujqppjz8","Tue Mar 07 2017 13:23:53 GMT-0500 (Eastern Standard Time)","male","White","moderate/middle of the road","",NA,"[{""page_index"":0,""viewing_time"":694}]","break","","","","","","","","","","",""
"82",16251,"{""Q0"":1}","[object Object]","survey-likert",81,879391,"0.0-81.0","mwee4jb6je6t7zfxmxnve6dbujqppjz8","Tue Mar 07 2017 13:23:53 GMT-0500 (Eastern Standard Time)","male","White","moderate/middle of the road","",NA,"","offCivRatings","the officer punched the civilian in the face","the civilian headbutted the officer in the face","punchFace","headbutt","officerCivilian","acceptableCiv","1","","","",""
"83",5753,"{""Q0"":100}","[object Object]","survey-likert",82,885159,"0.0-82.0","mwee4jb6je6t7zfxmxnve6dbujqppjz8","Tue Mar 07 2017 13:23:53 GMT-0500 (Eastern Standard Time)","male","White","moderate/middle of the road","",NA,"","offCivRatings","the officer punched the civilian in the face","the civilian headbutted the officer in the face","punchFace","headbutt","officerCivilian","punishCiv","100","","","",""
"84",8609,"{""Q0"":70}","[object Object]","survey-likert",83,893784,"0.0-83.0","mwee4jb6je6t7zfxmxnve6dbujqppjz8","Tue Mar 07 2017 13:23:53 GMT-0500 (Eastern Standard Time)","male","White","moderate/middle of the road","",NA,"","offCivRatings","the officer punched the civilian in the face","the civilian headbutted the officer in the face","punchFace","headbutt","officerCivilian","appropriateCiv","70","","","",""
"85",7896,"{""Q0"":69}","[object Object]","survey-likert",84,901696,"0.0-84.0","mwee4jb6je6t7zfxmxnve6dbujqppjz8","Tue Mar 07 2017 13:23:53 GMT-0500 (Eastern Standard Time)","male","White","moderate/middle of the road","",NA,"","offCivRatings","the officer punched the civilian in the face","the civilian headbutted the officer in the face","punchFace","headbutt","officerCivilian","forceCiv","69","","","",""
"86",949,"","","instructions",85,902645,"0.0-85.0","mwee4jb6je6t7zfxmxnve6dbujqppjz8","Tue Mar 07 2017 13:23:53 GMT-0500 (Eastern Standard Time)","male","White","moderate/middle of the road","",NA,"[{""page_index"":0,""viewing_time"":948}]","break","","","","","","","","","","",""
"87",10540,"{""Q0"":100}","[object Object]","survey-likert",86,913400,"0.0-86.0","mwee4jb6je6t7zfxmxnve6dbujqppjz8","Tue Mar 07 2017 13:23:53 GMT-0500 (Eastern Standard Time)","male","White","moderate/middle of the road","",NA,"","offCivRatings","the officer asked the civilian how he was doing","the civilian shouted ""I don't have to fucking listen to you!"" at the officer","asked","dontListen","civilianOfficer","acceptableOff","100","","","",""
"88",6433,"{""Q0"":100}","[object Object]","survey-likert",87,919847,"0.0-87.0","mwee4jb6je6t7zfxmxnve6dbujqppjz8","Tue Mar 07 2017 13:23:53 GMT-0500 (Eastern Standard Time)","male","White","moderate/middle of the road","",NA,"","offCivRatings","the officer asked the civilian how he was doing","the civilian shouted ""I don't have to fucking listen to you!"" at the officer","asked","dontListen","civilianOfficer","manipCheckHigh","100","","","",""
"89",5798,"{""Q0"":1}","[object Object]","survey-likert",88,925659,"0.0-88.0","mwee4jb6je6t7zfxmxnve6dbujqppjz8","Tue Mar 07 2017 13:23:53 GMT-0500 (Eastern Standard Time)","male","White","moderate/middle of the road","",NA,"","offCivRatings","the officer asked the civilian how he was doing","the civilian shouted ""I don't have to fucking listen to you!"" at the officer","asked","dontListen","civilianOfficer","punishOff","1","","","",""
"90",4138,"{""Q0"":50}","[object Object]","survey-likert",89,929812,"0.0-89.0","mwee4jb6je6t7zfxmxnve6dbujqppjz8","Tue Mar 07 2017 13:23:53 GMT-0500 (Eastern Standard Time)","male","White","moderate/middle of the road","",NA,"","offCivRatings","the officer asked the civilian how he was doing","the civilian shouted ""I don't have to fucking listen to you!"" at the officer","asked","dontListen","civilianOfficer","appropriateOff","50","","","",""
"91",4689,"{""Q0"":1}","[object Object]","survey-likert",90,934515,"0.0-90.0","mwee4jb6je6t7zfxmxnve6dbujqppjz8","Tue Mar 07 2017 13:23:53 GMT-0500 (Eastern Standard Time)","male","White","moderate/middle of the road","",NA,"","offCivRatings","the officer asked the civilian how he was doing","the civilian shouted ""I don't have to fucking listen to you!"" at the officer","asked","dontListen","civilianOfficer","forceOff","1","","","",""
"92",877,"","","instructions",91,935393,"0.0-91.0","mwee4jb6je6t7zfxmxnve6dbujqppjz8","Tue Mar 07 2017 13:23:53 GMT-0500 (Eastern Standard Time)","male","White","moderate/middle of the road","",NA,"[{""page_index"":0,""viewing_time"":876}]","break","","","","","","","","","","",""
"93",20556,"{""Q0"":70}","[object Object]","survey-likert",92,956164,"0.0-92.0","mwee4jb6je6t7zfxmxnve6dbujqppjz8","Tue Mar 07 2017 13:23:53 GMT-0500 (Eastern Standard Time)","male","White","moderate/middle of the road","",NA,"","offCivRatings","the officer shouted ""get your fucking hands up!"" at the civilian","the civilian pulled away from the officer","handsUp","pulledAway","officerCivilian","punishCiv","70","","","",""
"94",7017,"{""Q0"":70}","[object Object]","survey-likert",93,963196,"0.0-93.0","mwee4jb6je6t7zfxmxnve6dbujqppjz8","Tue Mar 07 2017 13:23:53 GMT-0500 (Eastern Standard Time)","male","White","moderate/middle of the road","",NA,"","offCivRatings","the officer shouted ""get your fucking hands up!"" at the civilian","the civilian pulled away from the officer","handsUp","pulledAway","officerCivilian","appropriateCiv","70","","","",""
"95",6464,"{""Q0"":11}","[object Object]","survey-likert",94,969676,"0.0-94.0","mwee4jb6je6t7zfxmxnve6dbujqppjz8","Tue Mar 07 2017 13:23:53 GMT-0500 (Eastern Standard Time)","male","White","moderate/middle of the road","",NA,"","offCivRatings","the officer shouted ""get your fucking hands up!"" at the civilian","the civilian pulled away from the officer","handsUp","pulledAway","officerCivilian","acceptableCiv","11","","","",""
"96",3352,"{""Q0"":50}","[object Object]","survey-likert",95,973043,"0.0-95.0","mwee4jb6je6t7zfxmxnve6dbujqppjz8","Tue Mar 07 2017 13:23:53 GMT-0500 (Eastern Standard Time)","male","White","moderate/middle of the road","",NA,"","offCivRatings","the officer shouted ""get your fucking hands up!"" at the civilian","the civilian pulled away from the officer","handsUp","pulledAway","officerCivilian","forceCiv","50","","","",""
"97",1094,"","","instructions",96,974137,"0.0-96.0","mwee4jb6je6t7zfxmxnve6dbujqppjz8","Tue Mar 07 2017 13:23:53 GMT-0500 (Eastern Standard Time)","male","White","moderate/middle of the road","",NA,"[{""page_index"":0,""viewing_time"":1093}]","break","","","","","","","","","","",""
"98",18704,"{""Q0"":100}","[object Object]","survey-likert",97,993054,"0.0-97.0","mwee4jb6je6t7zfxmxnve6dbujqppjz8","Tue Mar 07 2017 13:23:53 GMT-0500 (Eastern Standard Time)","male","White","moderate/middle of the road","",NA,"","offCivRatings","the officer shocked the civilian with a tazer","the civilian called the officer a ""pig""","tazer","nameCall","officerCivilian","manipCheckHigh","100","","","",""
"99",5314,"{""Q0"":1}","[object Object]","survey-likert",98,998383,"0.0-98.0","mwee4jb6je6t7zfxmxnve6dbujqppjz8","Tue Mar 07 2017 13:23:53 GMT-0500 (Eastern Standard Time)","male","White","moderate/middle of the road","",NA,"","offCivRatings","the officer shocked the civilian with a tazer","the civilian called the officer a ""pig""","tazer","nameCall","officerCivilian","forceCiv","1","","","",""
"100",6264,"{""Q0"":50}","[object Object]","survey-likert",99,1004662,"0.0-99.0","mwee4jb6je6t7zfxmxnve6dbujqppjz8","Tue Mar 07 2017 13:23:53 GMT-0500 (Eastern Standard Time)","male","White","moderate/middle of the road","",NA,"","offCivRatings","the officer shocked the civilian with a tazer","the civilian called the officer a ""pig""","tazer","nameCall","officerCivilian","appropriateCiv","50","","","",""
"101",11058,"{""Q0"":1}","[object Object]","survey-likert",100,1015735,"0.0-100.0","mwee4jb6je6t7zfxmxnve6dbujqppjz8","Tue Mar 07 2017 13:23:53 GMT-0500 (Eastern Standard Time)","male","White","moderate/middle of the road","",NA,"","offCivRatings","the officer shocked the civilian with a tazer","the civilian called the officer a ""pig""","tazer","nameCall","officerCivilian","punishCiv","1","","","",""
"102",3641,"{""Q0"":50}","[object Object]","survey-likert",101,1019390,"0.0-101.0","mwee4jb6je6t7zfxmxnve6dbujqppjz8","Tue Mar 07 2017 13:23:53 GMT-0500 (Eastern Standard Time)","male","White","moderate/middle of the road","",NA,"","offCivRatings","the officer shocked the civilian with a tazer","the civilian called the officer a ""pig""","tazer","nameCall","officerCivilian","acceptableCiv","50","","","",""
"103",798,"","","instructions",102,1020188,"0.0-102.0","mwee4jb6je6t7zfxmxnve6dbujqppjz8","Tue Mar 07 2017 13:23:53 GMT-0500 (Eastern Standard Time)","male","White","moderate/middle of the road","",NA,"[{""page_index"":0,""viewing_time"":797}]","break","","","","","","","","","","",""
"104",7228,"{""Q0"":1}","[object Object]","survey-likert",103,1027630,"0.0-103.0","mwee4jb6je6t7zfxmxnve6dbujqppjz8","Tue Mar 07 2017 13:23:53 GMT-0500 (Eastern Standard Time)","male","White","moderate/middle of the road","",NA,"","offCivRatings","the officer stood near the civilian","the civilian hit the officer in the chest with a baseball bat","stoodNear","ballBat","civilianOfficer","punishOff","1","","","",""
"105",2746,"{""Q0"":1}","[object Object]","survey-likert",104,1030390,"0.0-104.0","mwee4jb6je6t7zfxmxnve6dbujqppjz8","Tue Mar 07 2017 13:23:53 GMT-0500 (Eastern Standard Time)","male","White","moderate/middle of the road","",NA,"","offCivRatings","the officer stood near the civilian","the civilian hit the officer in the chest with a baseball bat","stoodNear","ballBat","civilianOfficer","appropriateOff","1","","","",""
"106",3314,"{""Q0"":1}","[object Object]","survey-likert",105,1033718,"0.0-105.0","mwee4jb6je6t7zfxmxnve6dbujqppjz8","Tue Mar 07 2017 13:23:53 GMT-0500 (Eastern Standard Time)","male","White","moderate/middle of the road","",NA,"","offCivRatings","the officer stood near the civilian","the civilian hit the officer in the chest with a baseball bat","stoodNear","ballBat","civilianOfficer","forceOff","1","","","",""
"107",39490,"{""Q0"":100}","[object Object]","survey-likert",106,1073224,"0.0-106.0","mwee4jb6je6t7zfxmxnve6dbujqppjz8","Tue Mar 07 2017 13:23:53 GMT-0500 (Eastern Standard Time)","male","White","moderate/middle of the road","",NA,"","offCivRatings","the officer stood near the civilian","the civilian hit the officer in the chest with a baseball bat","stoodNear","ballBat","civilianOfficer","acceptableOff","100","","","",""
"108",910,"","","instructions",107,1074134,"0.0-107.0","mwee4jb6je6t7zfxmxnve6dbujqppjz8","Tue Mar 07 2017 13:23:53 GMT-0500 (Eastern Standard Time)","male","White","moderate/middle of the road","",NA,"[{""page_index"":0,""viewing_time"":909}]","break","","","","","","","","","","",""
"109",9698,"{""Q0"":1}","[object Object]","survey-likert",108,1084048,"0.0-108.0","mwee4jb6je6t7zfxmxnve6dbujqppjz8","Tue Mar 07 2017 13:23:53 GMT-0500 (Eastern Standard Time)","male","White","moderate/middle of the road","",NA,"","offCivRatings","the officer shot the civilian in the chest with a beanbag shotgun round","the civilian struck the officer on the leg with a metal pipe","beanbag","metalPipe","officerCivilian","acceptableCiv","1","","","",""
"110",2531,"{""Q0"":1}","[object Object]","survey-likert",109,1086593,"0.0-109.0","mwee4jb6je6t7zfxmxnve6dbujqppjz8","Tue Mar 07 2017 13:23:53 GMT-0500 (Eastern Standard Time)","male","White","moderate/middle of the road","",NA,"","offCivRatings","the officer shot the civilian in the chest with a beanbag shotgun round","the civilian struck the officer on the leg with a metal pipe","beanbag","metalPipe","officerCivilian","manipCheckLow","1","","","",""
"111",9833,"{""Q0"":100}","[object Object]","survey-likert",110,1096440,"0.0-110.0","mwee4jb6je6t7zfxmxnve6dbujqppjz8","Tue Mar 07 2017 13:23:53 GMT-0500 (Eastern Standard Time)","male","White","moderate/middle of the road","",NA,"","offCivRatings","the officer shot the civilian in the chest with a beanbag shotgun round","the civilian struck the officer on the leg with a metal pipe","beanbag","metalPipe","officerCivilian","appropriateCiv","100","","","",""
"112",16065,"{""Q0"":90}","[object Object]","survey-likert",111,1112520,"0.0-111.0","mwee4jb6je6t7zfxmxnve6dbujqppjz8","Tue Mar 07 2017 13:23:53 GMT-0500 (Eastern Standard Time)","male","White","moderate/middle of the road","",NA,"","offCivRatings","the officer shot the civilian in the chest with a beanbag shotgun round","the civilian struck the officer on the leg with a metal pipe","beanbag","metalPipe","officerCivilian","punishCiv","90","","","",""
"113",18981,"{""Q0"":70}","[object Object]","survey-likert",112,1131516,"0.0-112.0","mwee4jb6je6t7zfxmxnve6dbujqppjz8","Tue Mar 07 2017 13:23:53 GMT-0500 (Eastern Standard Time)","male","White","moderate/middle of the road","",NA,"","offCivRatings","the officer shot the civilian in the chest with a beanbag shotgun round","the civilian struck the officer on the leg with a metal pipe","beanbag","metalPipe","officerCivilian","forceCiv","70","","","",""
"114",1109,"","","instructions",113,1132626,"0.0-113.0","mwee4jb6je6t7zfxmxnve6dbujqppjz8","Tue Mar 07 2017 13:23:53 GMT-0500 (Eastern Standard Time)","male","White","moderate/middle of the road","",NA,"[{""page_index"":0,""viewing_time"":1108}]","break","","","","","","","","","","",""
"115",10053,"{""Q0"":1}","[object Object]","survey-likert",114,1142892,"0.0-114.0","mwee4jb6je6t7zfxmxnve6dbujqppjz8","Tue Mar 07 2017 13:23:53 GMT-0500 (Eastern Standard Time)","male","White","moderate/middle of the road","",NA,"","offCivRatings","the officer slammed the civilian's head into the concrete curb","the civilian yelled ""get back!"" at the officer","headSlam","getBack","civilianOfficer","acceptableOff","1","","","",""
"116",5434,"{""Q0"":79}","[object Object]","survey-likert",115,1148340,"0.0-115.0","mwee4jb6je6t7zfxmxnve6dbujqppjz8","Tue Mar 07 2017 13:23:53 GMT-0500 (Eastern Standard Time)","male","White","moderate/middle of the road","",NA,"","offCivRatings","the officer slammed the civilian's head into the concrete curb","the civilian yelled ""get back!"" at the officer","headSlam","getBack","civilianOfficer","forceOff","79","","","",""
"117",8361,"{""Q0"":99}","[object Object]","survey-likert",116,1156716,"0.0-116.0","mwee4jb6je6t7zfxmxnve6dbujqppjz8","Tue Mar 07 2017 13:23:53 GMT-0500 (Eastern Standard Time)","male","White","moderate/middle of the road","",NA,"","offCivRatings","the officer slammed the civilian's head into the concrete curb","the civilian yelled ""get back!"" at the officer","headSlam","getBack","civilianOfficer","appropriateOff","99","","","",""
"118",7945,"{""Q0"":89}","[object Object]","survey-likert",117,1164677,"0.0-117.0","mwee4jb6je6t7zfxmxnve6dbujqppjz8","Tue Mar 07 2017 13:23:53 GMT-0500 (Eastern Standard Time)","male","White","moderate/middle of the road","",NA,"","offCivRatings","the officer slammed the civilian's head into the concrete curb","the civilian yelled ""get back!"" at the officer","headSlam","getBack","civilianOfficer","punishOff","89","","","",""
"119",797,"","","instructions",118,1165474,"0.0-118.0","mwee4jb6je6t7zfxmxnve6dbujqppjz8","Tue Mar 07 2017 13:23:53 GMT-0500 (Eastern Standard Time)","male","White","moderate/middle of the road","",NA,"[{""page_index"":0,""viewing_time"":797}]","break","","","","","","","","","","",""
"120",17803,"{""Q0"":70}","[object Object]","survey-likert",119,1183492,"0.0-119.0","mwee4jb6je6t7zfxmxnve6dbujqppjz8","Tue Mar 07 2017 13:23:53 GMT-0500 (Eastern Standard Time)","male","White","moderate/middle of the road","",NA,"","offCivRatings","the officer waved at the civilian in greeting","the civilian said ""if you touch me, you're gonna get hurt"" to the officer","waved","hurtThreat","officerCivilian","punishCiv","70","","","",""
"121",3225,"{""Q0"":1}","[object Object]","survey-likert",120,1186732,"0.0-120.0","mwee4jb6je6t7zfxmxnve6dbujqppjz8","Tue Mar 07 2017 13:23:53 GMT-0500 (Eastern Standard Time)","male","White","moderate/middle of the road","",NA,"","offCivRatings","the officer waved at the civilian in greeting","the civilian said ""if you touch me, you're gonna get hurt"" to the officer","waved","hurtThreat","officerCivilian","acceptableCiv","1","","","",""
"122",6291,"{""Q0"":70}","[object Object]","survey-likert",121,1193038,"0.0-121.0","mwee4jb6je6t7zfxmxnve6dbujqppjz8","Tue Mar 07 2017 13:23:53 GMT-0500 (Eastern Standard Time)","male","White","moderate/middle of the road","",NA,"","offCivRatings","the officer waved at the civilian in greeting","the civilian said ""if you touch me, you're gonna get hurt"" to the officer","waved","hurtThreat","officerCivilian","appropriateCiv","70","","","",""
"123",14968,"{""Q0"":50}","[object Object]","survey-likert",122,1208023,"0.0-122.0","mwee4jb6je6t7zfxmxnve6dbujqppjz8","Tue Mar 07 2017 13:23:53 GMT-0500 (Eastern Standard Time)","male","White","moderate/middle of the road","",NA,"","offCivRatings","the officer waved at the civilian in greeting","the civilian said ""if you touch me, you're gonna get hurt"" to the officer","waved","hurtThreat","officerCivilian","forceCiv","50","","","",""
"124",829,"","","instructions",123,1208852,"0.0-123.0","mwee4jb6je6t7zfxmxnve6dbujqppjz8","Tue Mar 07 2017 13:23:53 GMT-0500 (Eastern Standard Time)","male","White","moderate/middle of the road","",NA,"[{""page_index"":0,""viewing_time"":828}]","break","","","","","","","","","","",""
"125",13771,"{""Q0"":89}","[object Object]","survey-likert",124,1222838,"0.0-124.0","mwee4jb6je6t7zfxmxnve6dbujqppjz8","Tue Mar 07 2017 13:23:53 GMT-0500 (Eastern Standard Time)","male","White","moderate/middle of the road","",NA,"","policeLegitimacy","","","","","","","89","communityWants","normAlignment","",""
"126",4978,"{""Q0"":100}","[object Object]","survey-likert",125,1227831,"0.0-125.0","mwee4jb6je6t7zfxmxnve6dbujqppjz8","Tue Mar 07 2017 13:23:53 GMT-0500 (Eastern Standard Time)","male","White","moderate/middle of the road","",NA,"","policeLegitimacy","","","","","","","100","rightWrong","normAlignment","",""
"127",4321,"{""Q0"":100}","[object Object]","survey-likert",126,1232166,"0.0-126.0","mwee4jb6je6t7zfxmxnve6dbujqppjz8","Tue Mar 07 2017 13:23:53 GMT-0500 (Eastern Standard Time)","male","White","moderate/middle of the road","",NA,"","policeLegitimacy","","","","","","","100","doReasons","feltObligation","",""
"128",6770,"{""Q0"":90}","[object Object]","survey-likert",127,1238950,"0.0-127.0","mwee4jb6je6t7zfxmxnve6dbujqppjz8","Tue Mar 07 2017 13:23:53 GMT-0500 (Eastern Standard Time)","male","White","moderate/middle of the road","",NA,"","policeLegitimacy","","","","","","","90","support","feltObligation","",""
"129",2890,"{""Q0"":100}","[object Object]","survey-likert",128,1241854,"0.0-128.0","mwee4jb6je6t7zfxmxnve6dbujqppjz8","Tue Mar 07 2017 13:23:53 GMT-0500 (Eastern Standard Time)","male","White","moderate/middle of the road","",NA,"","policeLegitimacy","","","","","","","100","importantValues","normAlignment","",""
"130",4874,"{""Q0"":100}","[object Object]","survey-likert",129,1246742,"0.0-129.0","mwee4jb6je6t7zfxmxnve6dbujqppjz8","Tue Mar 07 2017 13:23:53 GMT-0500 (Eastern Standard Time)","male","White","moderate/middle of the road","",NA,"","policeLegitimacy","","","","","","","100","doTreat","feltObligation","",""
"131",3508,"{""Q0"":""no""}","[object Object]","survey-multi-choice2",130,1250263,"0.0-130.0","mwee4jb6je6t7zfxmxnve6dbujqppjz8","Tue Mar 07 2017 13:23:53 GMT-0500 (Eastern Standard Time)","male","White","moderate/middle of the road","",NA,"","policeExperience","","","","","","","no","excessForce","","personal","Have the police ever used excessive force against you?"
"132",8433,"{""Q0"":""no""}","[object Object]","survey-multi-choice2",131,1258704,"0.0-131.0","mwee4jb6je6t7zfxmxnve6dbujqppjz8","Tue Mar 07 2017 13:23:53 GMT-0500 (Eastern Standard Time)","male","White","moderate/middle of the road","",NA,"","policeExperience","","","","","","","no","stopped","","vicarious","Has anyone in your household ever been stopped on the street by the police without good reason?"
"133",7961,"{""Q0"":""yes""}","[object Object]","survey-multi-choice2",132,1266672,"0.0-132.0","mwee4jb6je6t7zfxmxnve6dbujqppjz8","Tue Mar 07 2017 13:23:53 GMT-0500 (Eastern Standard Time)","male","White","moderate/middle of the road","",NA,"","policeExperience","","","","","","","yes","excessForce","","vicarious","Have the police ever used excessive force against anyone in your household?"
"134",5194,"{""Q0"":""no""}","[object Object]","survey-multi-choice2",133,1271871,"0.0-133.0","mwee4jb6je6t7zfxmxnve6dbujqppjz8","Tue Mar 07 2017 13:23:53 GMT-0500 (Eastern Standard Time)","male","White","moderate/middle of the road","",NA,"","policeExperience","","","","","","","no","insultLang","","vicarious","Have the police ever used insulting language toward anyone in your household?"
"135",4650,"{""Q0"":""no""}","[object Object]","survey-multi-choice2",134,1276527,"0.0-134.0","mwee4jb6je6t7zfxmxnve6dbujqppjz8","Tue Mar 07 2017 13:23:53 GMT-0500 (Eastern Standard Time)","male","White","moderate/middle of the road","",NA,"","policeExperience","","","","","","","no","stopped","","personal","Have you ever been stopped by the police on the street without good reason?"
"136",4755,"{""Q0"":""no""}","[object Object]","survey-multi-choice2",135,1281288,"0.0-135.0","mwee4jb6je6t7zfxmxnve6dbujqppjz8","Tue Mar 07 2017 13:23:53 GMT-0500 (Eastern Standard Time)","male","White","moderate/middle of the road","",NA,"","policeExperience","","","","","","","no","corrupt","","personal","Have you ever seen a police officer engage in any corrupt activities (e.g., taking bribes or involvement in the drug trade)?"
"137",3803,"{""Q0"":""no""}","[object Object]","survey-multi-choice2",136,1285096,"0.0-136.0","mwee4jb6je6t7zfxmxnve6dbujqppjz8","Tue Mar 07 2017 13:23:53 GMT-0500 (Eastern Standard Time)","male","White","moderate/middle of the road","",NA,"","policeExperience","","","","","","","no","insultLang","","personal","Have the police ever used insulting language toward you?"
"138",13478,"{""Q0"":""male"",""Q1"":""White"",""Q2"":""moderate/middle of the road""}","[object Object]","survey-multi-choice",137,1298603,"0.0-137.0","mwee4jb6je6t7zfxmxnve6dbujqppjz8","Tue Mar 07 2017 13:23:53 GMT-0500 (Eastern Standard Time)","male","White","moderate/middle of the road","",NA,"","demographics","","","","","","","","","","",""
"139",68942,"","","instructions",138,1368546,"0.0-138.0","mwee4jb6je6t7zfxmxnve6dbujqppjz8","Tue Mar 07 2017 13:23:53 GMT-0500 (Eastern Standard Time)","male","White","moderate/middle of the road","",NA,"[{""page_index"":0,""viewing_time"":4450},{""page_index"":1,""viewing_time"":23347},{""page_index"":2,""viewing_time"":30424},{""page_index"":3,""viewing_time"":10720}]","debriefing","","","","","","","","","","",""
