"","rt","responses","internalResp","trial_type","trial_index","time_elapsed","internal_node_id","randSubjectID","date","sex","race","polAff","stimulus","key_press","view_history","questionType","officerAction","civilianAction","offActName","civActName","order","questionName","response","name","dimension","person","question"
"1",5874,"","[object Object]","survey-text",0,5877,"0.0-0.0","nfoh8y2aek8lfzhwse1s0pa6yoyjye9t","Tue Mar 21 2017 23:26:42 GMT-0400 (Eastern Daylight Time)","male","Asian","other","",NA,"","","","","","","","","","","","",""
"2",9461,"","","single-stim",1,16342,"0.0-1.0","nfoh8y2aek8lfzhwse1s0pa6yoyjye9t","Tue Mar 21 2017 23:26:42 GMT-0400 (Eastern Daylight Time)","male","Asian","other","<img src='static/images/1602685960_ICS_Credit-0.png' alt='Consent 1' height=1100 width=850><img src='static/images/1602685960_ICS_Credit-1.png' alt='Consent 2' height=1100 width=850></p>",89,"","","","","","","","","","","","",""
"3",1133,"","","instructions",2,18477,"0.0-2.0","nfoh8y2aek8lfzhwse1s0pa6yoyjye9t","Tue Mar 21 2017 23:26:42 GMT-0400 (Eastern Daylight Time)","male","Asian","other","",NA,"[{""page_index"":0,""viewing_time"":1133}]","instructions","","","","","","","","","","",""
"4",2831,"","","instructions",3,22309,"0.0-3.0","nfoh8y2aek8lfzhwse1s0pa6yoyjye9t","Tue Mar 21 2017 23:26:42 GMT-0400 (Eastern Daylight Time)","male","Asian","other","",NA,"[{""page_index"":0,""viewing_time"":610},{""page_index"":1,""viewing_time"":945},{""page_index"":2,""viewing_time"":620},{""page_index"":3,""viewing_time"":655}]","instructions","","","","","","","","","","",""
"5",5766,"{""Q0"":54}","[object Object]","survey-likert",4,29091,"0.0-4.0","nfoh8y2aek8lfzhwse1s0pa6yoyjye9t","Tue Mar 21 2017 23:26:42 GMT-0400 (Eastern Daylight Time)","male","Asian","other","",NA,"","offCivRatings","the officer purposefully struck the civilian with a motor vehicle","the civilian punched the officer in the face","vehicle","punchFace","officerCivilian","acceptableCiv","54","","","",""
"6",1806,"{""Q0"":48}","[object Object]","survey-likert",5,30902,"0.0-5.0","nfoh8y2aek8lfzhwse1s0pa6yoyjye9t","Tue Mar 21 2017 23:26:42 GMT-0400 (Eastern Daylight Time)","male","Asian","other","",NA,"","offCivRatings","the officer purposefully struck the civilian with a motor vehicle","the civilian punched the officer in the face","vehicle","punchFace","officerCivilian","appropriateCiv","48","","","",""
"7",2183,"{""Q0"":48}","[object Object]","survey-likert",6,33090,"0.0-6.0","nfoh8y2aek8lfzhwse1s0pa6yoyjye9t","Tue Mar 21 2017 23:26:42 GMT-0400 (Eastern Daylight Time)","male","Asian","other","",NA,"","offCivRatings","the officer purposefully struck the civilian with a motor vehicle","the civilian punched the officer in the face","vehicle","punchFace","officerCivilian","forceCiv","48","","","",""
"8",1533,"{""Q0"":53}","[object Object]","survey-likert",7,34627,"0.0-7.0","nfoh8y2aek8lfzhwse1s0pa6yoyjye9t","Tue Mar 21 2017 23:26:42 GMT-0400 (Eastern Daylight Time)","male","Asian","other","",NA,"","offCivRatings","the officer purposefully struck the civilian with a motor vehicle","the civilian punched the officer in the face","vehicle","punchFace","officerCivilian","punishCiv","53","","","",""
"9",659,"","","instructions",8,35286,"0.0-8.0","nfoh8y2aek8lfzhwse1s0pa6yoyjye9t","Tue Mar 21 2017 23:26:42 GMT-0400 (Eastern Daylight Time)","male","Asian","other","",NA,"[{""page_index"":0,""viewing_time"":659}]","break","","","","","","","","","","",""
"10",1570,"{""Q0"":53}","[object Object]","survey-likert",9,37062,"0.0-9.0","nfoh8y2aek8lfzhwse1s0pa6yoyjye9t","Tue Mar 21 2017 23:26:42 GMT-0400 (Eastern Daylight Time)","male","Asian","other","",NA,"","offCivRatings","the officer said ""if you touch me, you're gonna get hurt"" to the civilian","the civilian hit the officer in the chest with a baseball bat","hurtThreat","ballBat","officerCivilian","punishCiv","53","","","",""
"11",2087,"{""Q0"":53}","[object Object]","survey-likert",10,39153,"0.0-10.0","nfoh8y2aek8lfzhwse1s0pa6yoyjye9t","Tue Mar 21 2017 23:26:42 GMT-0400 (Eastern Daylight Time)","male","Asian","other","",NA,"","offCivRatings","the officer said ""if you touch me, you're gonna get hurt"" to the civilian","the civilian hit the officer in the chest with a baseball bat","hurtThreat","ballBat","officerCivilian","appropriateCiv","53","","","",""
"12",1832,"{""Q0"":55}","[object Object]","survey-likert",11,40990,"0.0-11.0","nfoh8y2aek8lfzhwse1s0pa6yoyjye9t","Tue Mar 21 2017 23:26:42 GMT-0400 (Eastern Daylight Time)","male","Asian","other","",NA,"","offCivRatings","the officer said ""if you touch me, you're gonna get hurt"" to the civilian","the civilian hit the officer in the chest with a baseball bat","hurtThreat","ballBat","officerCivilian","forceCiv","55","","","",""
"13",1982,"{""Q0"":54}","[object Object]","survey-likert",12,42976,"0.0-12.0","nfoh8y2aek8lfzhwse1s0pa6yoyjye9t","Tue Mar 21 2017 23:26:42 GMT-0400 (Eastern Daylight Time)","male","Asian","other","",NA,"","offCivRatings","the officer said ""if you touch me, you're gonna get hurt"" to the civilian","the civilian hit the officer in the chest with a baseball bat","hurtThreat","ballBat","officerCivilian","acceptableCiv","54","","","",""
"14",545,"","","instructions",13,43521,"0.0-13.0","nfoh8y2aek8lfzhwse1s0pa6yoyjye9t","Tue Mar 21 2017 23:26:42 GMT-0400 (Eastern Daylight Time)","male","Asian","other","",NA,"[{""page_index"":0,""viewing_time"":545}]","break","","","","","","","","","","",""
"15",1580,"{""Q0"":53}","[object Object]","survey-likert",14,45305,"0.0-14.0","nfoh8y2aek8lfzhwse1s0pa6yoyjye9t","Tue Mar 21 2017 23:26:42 GMT-0400 (Eastern Daylight Time)","male","Asian","other","",NA,"","offCivRatings","the officer applied a chokehold to the civilian","the civilian asked the officer how he was doing","choke","asked","civilianOfficer","appropriateOff","53","","","",""
"16",1209,"{""Q0"":54}","[object Object]","survey-likert",15,46518,"0.0-15.0","nfoh8y2aek8lfzhwse1s0pa6yoyjye9t","Tue Mar 21 2017 23:26:42 GMT-0400 (Eastern Daylight Time)","male","Asian","other","",NA,"","offCivRatings","the officer applied a chokehold to the civilian","the civilian asked the officer how he was doing","choke","asked","civilianOfficer","forceOff","54","","","",""
"17",3899,"{""Q0"":54}","[object Object]","survey-likert",16,50420,"0.0-16.0","nfoh8y2aek8lfzhwse1s0pa6yoyjye9t","Tue Mar 21 2017 23:26:42 GMT-0400 (Eastern Daylight Time)","male","Asian","other","",NA,"","offCivRatings","the officer applied a chokehold to the civilian","the civilian asked the officer how he was doing","choke","asked","civilianOfficer","acceptableOff","54","","","",""
"18",2677,"{""Q0"":55}","[object Object]","survey-likert",17,53102,"0.0-17.0","nfoh8y2aek8lfzhwse1s0pa6yoyjye9t","Tue Mar 21 2017 23:26:42 GMT-0400 (Eastern Daylight Time)","male","Asian","other","",NA,"","offCivRatings","the officer applied a chokehold to the civilian","the civilian asked the officer how he was doing","choke","asked","civilianOfficer","punishOff","55","","","",""
"19",934,"","","instructions",18,54036,"0.0-18.0","nfoh8y2aek8lfzhwse1s0pa6yoyjye9t","Tue Mar 21 2017 23:26:42 GMT-0400 (Eastern Daylight Time)","male","Asian","other","",NA,"[{""page_index"":0,""viewing_time"":934}]","break","","","","","","","","","","",""
"20",1548,"{""Q0"":54}","[object Object]","survey-likert",19,55789,"0.0-19.0","nfoh8y2aek8lfzhwse1s0pa6yoyjye9t","Tue Mar 21 2017 23:26:42 GMT-0400 (Eastern Daylight Time)","male","Asian","other","",NA,"","offCivRatings","the officer put handcuffs on the civilian","the civilian shocked the officer with a tazer","handcuff","tazer","civilianOfficer","forceOff","54","","","",""
"21",1494,"{""Q0"":54}","[object Object]","survey-likert",20,57286,"0.0-20.0","nfoh8y2aek8lfzhwse1s0pa6yoyjye9t","Tue Mar 21 2017 23:26:42 GMT-0400 (Eastern Daylight Time)","male","Asian","other","",NA,"","offCivRatings","the officer put handcuffs on the civilian","the civilian shocked the officer with a tazer","handcuff","tazer","civilianOfficer","punishOff","54","","","",""
"22",1326,"{""Q0"":52}","[object Object]","survey-likert",21,58617,"0.0-21.0","nfoh8y2aek8lfzhwse1s0pa6yoyjye9t","Tue Mar 21 2017 23:26:42 GMT-0400 (Eastern Daylight Time)","male","Asian","other","",NA,"","offCivRatings","the officer put handcuffs on the civilian","the civilian shocked the officer with a tazer","handcuff","tazer","civilianOfficer","appropriateOff","52","","","",""
"23",1449,"{""Q0"":57}","[object Object]","survey-likert",22,60070,"0.0-22.0","nfoh8y2aek8lfzhwse1s0pa6yoyjye9t","Tue Mar 21 2017 23:26:42 GMT-0400 (Eastern Daylight Time)","male","Asian","other","",NA,"","offCivRatings","the officer put handcuffs on the civilian","the civilian shocked the officer with a tazer","handcuff","tazer","civilianOfficer","manipCheckHigh","57","","","",""
"24",1279,"{""Q0"":55}","[object Object]","survey-likert",23,61352,"0.0-23.0","nfoh8y2aek8lfzhwse1s0pa6yoyjye9t","Tue Mar 21 2017 23:26:42 GMT-0400 (Eastern Daylight Time)","male","Asian","other","",NA,"","offCivRatings","the officer put handcuffs on the civilian","the civilian shocked the officer with a tazer","handcuff","tazer","civilianOfficer","acceptableOff","55","","","",""
"25",647,"","","instructions",24,61999,"0.0-24.0","nfoh8y2aek8lfzhwse1s0pa6yoyjye9t","Tue Mar 21 2017 23:26:42 GMT-0400 (Eastern Daylight Time)","male","Asian","other","",NA,"[{""page_index"":0,""viewing_time"":646}]","break","","","","","","","","","","",""
"26",1810,"{""Q0"":52}","[object Object]","survey-likert",25,64014,"0.0-25.0","nfoh8y2aek8lfzhwse1s0pa6yoyjye9t","Tue Mar 21 2017 23:26:42 GMT-0400 (Eastern Daylight Time)","male","Asian","other","",NA,"","offCivRatings","the officer struck the civilian in the stomach with a metal flashlight","the civilian shot the officer in the chest with a handgun","flashlight","handgunChest","officerCivilian","acceptableCiv","52","","","",""
"27",1783,"{""Q0"":52}","[object Object]","survey-likert",26,65802,"0.0-26.0","nfoh8y2aek8lfzhwse1s0pa6yoyjye9t","Tue Mar 21 2017 23:26:42 GMT-0400 (Eastern Daylight Time)","male","Asian","other","",NA,"","offCivRatings","the officer struck the civilian in the stomach with a metal flashlight","the civilian shot the officer in the chest with a handgun","flashlight","handgunChest","officerCivilian","appropriateCiv","52","","","",""
"28",1734,"{""Q0"":47}","[object Object]","survey-likert",27,67541,"0.0-27.0","nfoh8y2aek8lfzhwse1s0pa6yoyjye9t","Tue Mar 21 2017 23:26:42 GMT-0400 (Eastern Daylight Time)","male","Asian","other","",NA,"","offCivRatings","the officer struck the civilian in the stomach with a metal flashlight","the civilian shot the officer in the chest with a handgun","flashlight","handgunChest","officerCivilian","manipCheckLow","47","","","",""
"29",1265,"{""Q0"":52}","[object Object]","survey-likert",28,68810,"0.0-28.0","nfoh8y2aek8lfzhwse1s0pa6yoyjye9t","Tue Mar 21 2017 23:26:42 GMT-0400 (Eastern Daylight Time)","male","Asian","other","",NA,"","offCivRatings","the officer struck the civilian in the stomach with a metal flashlight","the civilian shot the officer in the chest with a handgun","flashlight","handgunChest","officerCivilian","forceCiv","52","","","",""
"30",2033,"{""Q0"":53}","[object Object]","survey-likert",29,70848,"0.0-29.0","nfoh8y2aek8lfzhwse1s0pa6yoyjye9t","Tue Mar 21 2017 23:26:42 GMT-0400 (Eastern Daylight Time)","male","Asian","other","",NA,"","offCivRatings","the officer struck the civilian in the stomach with a metal flashlight","the civilian shot the officer in the chest with a handgun","flashlight","handgunChest","officerCivilian","punishCiv","53","","","",""
"31",504,"","","instructions",30,71352,"0.0-30.0","nfoh8y2aek8lfzhwse1s0pa6yoyjye9t","Tue Mar 21 2017 23:26:42 GMT-0400 (Eastern Daylight Time)","male","Asian","other","",NA,"[{""page_index"":0,""viewing_time"":504}]","break","","","","","","","","","","",""
"32",1388,"{""Q0"":54}","[object Object]","survey-likert",31,72946,"0.0-31.0","nfoh8y2aek8lfzhwse1s0pa6yoyjye9t","Tue Mar 21 2017 23:26:42 GMT-0400 (Eastern Daylight Time)","male","Asian","other","",NA,"","offCivRatings","the officer asked the civilian how he was doing","the civilian yelled ""get back!"" at the officer","asked","getBack","civilianOfficer","appropriateOff","54","","","",""
"33",1987,"{""Q0"":55}","[object Object]","survey-likert",32,74936,"0.0-32.0","nfoh8y2aek8lfzhwse1s0pa6yoyjye9t","Tue Mar 21 2017 23:26:42 GMT-0400 (Eastern Daylight Time)","male","Asian","other","",NA,"","offCivRatings","the officer asked the civilian how he was doing","the civilian yelled ""get back!"" at the officer","asked","getBack","civilianOfficer","acceptableOff","55","","","",""
"34",1532,"{""Q0"":52}","[object Object]","survey-likert",33,76471,"0.0-33.0","nfoh8y2aek8lfzhwse1s0pa6yoyjye9t","Tue Mar 21 2017 23:26:42 GMT-0400 (Eastern Daylight Time)","male","Asian","other","",NA,"","offCivRatings","the officer asked the civilian how he was doing","the civilian yelled ""get back!"" at the officer","asked","getBack","civilianOfficer","forceOff","52","","","",""
"35",1226,"{""Q0"":55}","[object Object]","survey-likert",34,77702,"0.0-34.0","nfoh8y2aek8lfzhwse1s0pa6yoyjye9t","Tue Mar 21 2017 23:26:42 GMT-0400 (Eastern Daylight Time)","male","Asian","other","",NA,"","offCivRatings","the officer asked the civilian how he was doing","the civilian yelled ""get back!"" at the officer","asked","getBack","civilianOfficer","punishOff","55","","","",""
"36",516,"","","instructions",35,78218,"0.0-35.0","nfoh8y2aek8lfzhwse1s0pa6yoyjye9t","Tue Mar 21 2017 23:26:42 GMT-0400 (Eastern Daylight Time)","male","Asian","other","",NA,"[{""page_index"":0,""viewing_time"":516}]","break","","","","","","","","","","",""
"37",1644,"{""Q0"":54}","[object Object]","survey-likert",36,80067,"0.0-36.0","nfoh8y2aek8lfzhwse1s0pa6yoyjye9t","Tue Mar 21 2017 23:26:42 GMT-0400 (Eastern Daylight Time)","male","Asian","other","",NA,"","offCivRatings","the officer struck the civilian on the leg with a collapsible baton","the civilian struck the officer on the leg with a metal pipe","batonLeg","metalPipe","officerCivilian","acceptableCiv","54","","","",""
"38",2987,"{""Q0"":53}","[object Object]","survey-likert",37,83058,"0.0-37.0","nfoh8y2aek8lfzhwse1s0pa6yoyjye9t","Tue Mar 21 2017 23:26:42 GMT-0400 (Eastern Daylight Time)","male","Asian","other","",NA,"","offCivRatings","the officer struck the civilian on the leg with a collapsible baton","the civilian struck the officer on the leg with a metal pipe","batonLeg","metalPipe","officerCivilian","punishCiv","53","","","",""
"39",1336,"{""Q0"":54}","[object Object]","survey-likert",38,84397,"0.0-38.0","nfoh8y2aek8lfzhwse1s0pa6yoyjye9t","Tue Mar 21 2017 23:26:42 GMT-0400 (Eastern Daylight Time)","male","Asian","other","",NA,"","offCivRatings","the officer struck the civilian on the leg with a collapsible baton","the civilian struck the officer on the leg with a metal pipe","batonLeg","metalPipe","officerCivilian","appropriateCiv","54","","","",""
"40",1914,"{""Q0"":53}","[object Object]","survey-likert",39,86315,"0.0-39.0","nfoh8y2aek8lfzhwse1s0pa6yoyjye9t","Tue Mar 21 2017 23:26:42 GMT-0400 (Eastern Daylight Time)","male","Asian","other","",NA,"","offCivRatings","the officer struck the civilian on the leg with a collapsible baton","the civilian struck the officer on the leg with a metal pipe","batonLeg","metalPipe","officerCivilian","forceCiv","53","","","",""
"41",1579,"{""Q0"":54}","[object Object]","survey-likert",40,87898,"0.0-40.0","nfoh8y2aek8lfzhwse1s0pa6yoyjye9t","Tue Mar 21 2017 23:26:42 GMT-0400 (Eastern Daylight Time)","male","Asian","other","",NA,"","offCivRatings","the officer struck the civilian on the leg with a collapsible baton","the civilian struck the officer on the leg with a metal pipe","batonLeg","metalPipe","officerCivilian","manipCheckLow","54","","","",""
"42",531,"","","instructions",41,88429,"0.0-41.0","nfoh8y2aek8lfzhwse1s0pa6yoyjye9t","Tue Mar 21 2017 23:26:42 GMT-0400 (Eastern Daylight Time)","male","Asian","other","",NA,"[{""page_index"":0,""viewing_time"":531}]","break","","","","","","","","","","",""
"43",2696,"{""Q0"":53}","[object Object]","survey-likert",42,91330,"0.0-42.0","nfoh8y2aek8lfzhwse1s0pa6yoyjye9t","Tue Mar 21 2017 23:26:42 GMT-0400 (Eastern Daylight Time)","male","Asian","other","",NA,"","offCivRatings","the officer yelled ""get back!"" at the civilian","the civilian said ""if you touch me, you're gonna get hurt"" to the officer","getBack","hurtThreat","officerCivilian","appropriateCiv","53","","","",""
"44",1857,"{""Q0"":53}","[object Object]","survey-likert",43,93191,"0.0-43.0","nfoh8y2aek8lfzhwse1s0pa6yoyjye9t","Tue Mar 21 2017 23:26:42 GMT-0400 (Eastern Daylight Time)","male","Asian","other","",NA,"","offCivRatings","the officer yelled ""get back!"" at the civilian","the civilian said ""if you touch me, you're gonna get hurt"" to the officer","getBack","hurtThreat","officerCivilian","manipCheckHigh","53","","","",""
"45",1828,"{""Q0"":54}","[object Object]","survey-likert",44,95023,"0.0-44.0","nfoh8y2aek8lfzhwse1s0pa6yoyjye9t","Tue Mar 21 2017 23:26:42 GMT-0400 (Eastern Daylight Time)","male","Asian","other","",NA,"","offCivRatings","the officer yelled ""get back!"" at the civilian","the civilian said ""if you touch me, you're gonna get hurt"" to the officer","getBack","hurtThreat","officerCivilian","forceCiv","54","","","",""
"46",1560,"{""Q0"":52}","[object Object]","survey-likert",45,96586,"0.0-45.0","nfoh8y2aek8lfzhwse1s0pa6yoyjye9t","Tue Mar 21 2017 23:26:42 GMT-0400 (Eastern Daylight Time)","male","Asian","other","",NA,"","offCivRatings","the officer yelled ""get back!"" at the civilian","the civilian said ""if you touch me, you're gonna get hurt"" to the officer","getBack","hurtThreat","officerCivilian","punishCiv","52","","","",""
"47",2756,"{""Q0"":55}","[object Object]","survey-likert",46,99346,"0.0-46.0","nfoh8y2aek8lfzhwse1s0pa6yoyjye9t","Tue Mar 21 2017 23:26:42 GMT-0400 (Eastern Daylight Time)","male","Asian","other","",NA,"","offCivRatings","the officer yelled ""get back!"" at the civilian","the civilian said ""if you touch me, you're gonna get hurt"" to the officer","getBack","hurtThreat","officerCivilian","acceptableCiv","55","","","",""
"48",878,"","","instructions",47,100224,"0.0-47.0","nfoh8y2aek8lfzhwse1s0pa6yoyjye9t","Tue Mar 21 2017 23:26:42 GMT-0400 (Eastern Daylight Time)","male","Asian","other","",NA,"[{""page_index"":0,""viewing_time"":877}]","break","","","","","","","","","","",""
"49",1483,"{""Q0"":53}","[object Object]","survey-likert",48,101912,"0.0-48.0","nfoh8y2aek8lfzhwse1s0pa6yoyjye9t","Tue Mar 21 2017 23:26:42 GMT-0400 (Eastern Daylight Time)","male","Asian","other","",NA,"","offCivRatings","the officer called the civilian a ""thug""","the civilian twisted the arm of the officer, forcing him to the ground","nameCall","armbar","officerCivilian","forceCiv","53","","","",""
"50",1485,"{""Q0"":54}","[object Object]","survey-likert",49,103401,"0.0-49.0","nfoh8y2aek8lfzhwse1s0pa6yoyjye9t","Tue Mar 21 2017 23:26:42 GMT-0400 (Eastern Daylight Time)","male","Asian","other","",NA,"","offCivRatings","the officer called the civilian a ""thug""","the civilian twisted the arm of the officer, forcing him to the ground","nameCall","armbar","officerCivilian","appropriateCiv","54","","","",""
"51",1797,"{""Q0"":55}","[object Object]","survey-likert",50,105202,"0.0-50.0","nfoh8y2aek8lfzhwse1s0pa6yoyjye9t","Tue Mar 21 2017 23:26:42 GMT-0400 (Eastern Daylight Time)","male","Asian","other","",NA,"","offCivRatings","the officer called the civilian a ""thug""","the civilian twisted the arm of the officer, forcing him to the ground","nameCall","armbar","officerCivilian","acceptableCiv","55","","","",""
"52",1524,"{""Q0"":55}","[object Object]","survey-likert",51,106730,"0.0-51.0","nfoh8y2aek8lfzhwse1s0pa6yoyjye9t","Tue Mar 21 2017 23:26:42 GMT-0400 (Eastern Daylight Time)","male","Asian","other","",NA,"","offCivRatings","the officer called the civilian a ""thug""","the civilian twisted the arm of the officer, forcing him to the ground","nameCall","armbar","officerCivilian","manipCheckHigh","55","","","",""
"53",1376,"{""Q0"":53}","[object Object]","survey-likert",52,108109,"0.0-52.0","nfoh8y2aek8lfzhwse1s0pa6yoyjye9t","Tue Mar 21 2017 23:26:42 GMT-0400 (Eastern Daylight Time)","male","Asian","other","",NA,"","offCivRatings","the officer called the civilian a ""thug""","the civilian twisted the arm of the officer, forcing him to the ground","nameCall","armbar","officerCivilian","punishCiv","53","","","",""
"54",487,"","","instructions",53,108596,"0.0-53.0","nfoh8y2aek8lfzhwse1s0pa6yoyjye9t","Tue Mar 21 2017 23:26:42 GMT-0400 (Eastern Daylight Time)","male","Asian","other","",NA,"[{""page_index"":0,""viewing_time"":486}]","break","","","","","","","","","","",""
"55",1137,"{""Q0"":54}","[object Object]","survey-likert",54,109939,"0.0-54.0","nfoh8y2aek8lfzhwse1s0pa6yoyjye9t","Tue Mar 21 2017 23:26:42 GMT-0400 (Eastern Daylight Time)","male","Asian","other","",NA,"","offCivRatings","the officer sprayed the civilian with pepper spray","the civilian waved at the officer in greeting","pepperSpray","waved","officerCivilian","forceCiv","54","","","",""
"56",1348,"{""Q0"":55}","[object Object]","survey-likert",55,111291,"0.0-55.0","nfoh8y2aek8lfzhwse1s0pa6yoyjye9t","Tue Mar 21 2017 23:26:42 GMT-0400 (Eastern Daylight Time)","male","Asian","other","",NA,"","offCivRatings","the officer sprayed the civilian with pepper spray","the civilian waved at the officer in greeting","pepperSpray","waved","officerCivilian","appropriateCiv","55","","","",""
"57",1724,"{""Q0"":53}","[object Object]","survey-likert",56,113018,"0.0-56.0","nfoh8y2aek8lfzhwse1s0pa6yoyjye9t","Tue Mar 21 2017 23:26:42 GMT-0400 (Eastern Daylight Time)","male","Asian","other","",NA,"","offCivRatings","the officer sprayed the civilian with pepper spray","the civilian waved at the officer in greeting","pepperSpray","waved","officerCivilian","punishCiv","53","","","",""
"58",2209,"{""Q0"":55}","[object Object]","survey-likert",57,115232,"0.0-57.0","nfoh8y2aek8lfzhwse1s0pa6yoyjye9t","Tue Mar 21 2017 23:26:42 GMT-0400 (Eastern Daylight Time)","male","Asian","other","",NA,"","offCivRatings","the officer sprayed the civilian with pepper spray","the civilian waved at the officer in greeting","pepperSpray","waved","officerCivilian","acceptableCiv","55","","","",""
"59",520,"","","instructions",58,115752,"0.0-58.0","nfoh8y2aek8lfzhwse1s0pa6yoyjye9t","Tue Mar 21 2017 23:26:42 GMT-0400 (Eastern Daylight Time)","male","Asian","other","",NA,"[{""page_index"":0,""viewing_time"":520}]","break","","","","","","","","","","",""
"60",1943,"{""Q0"":54}","[object Object]","survey-likert",59,117899,"0.0-59.0","nfoh8y2aek8lfzhwse1s0pa6yoyjye9t","Tue Mar 21 2017 23:26:42 GMT-0400 (Eastern Daylight Time)","male","Asian","other","",NA,"","offCivRatings","the officer punched the civilian in the face","the civilian struck the officer in the stomach with a metal flashlight","punchFace","flashlight","civilianOfficer","punishOff","54","","","",""
"61",1878,"{""Q0"":54}","[object Object]","survey-likert",60,119781,"0.0-60.0","nfoh8y2aek8lfzhwse1s0pa6yoyjye9t","Tue Mar 21 2017 23:26:42 GMT-0400 (Eastern Daylight Time)","male","Asian","other","",NA,"","offCivRatings","the officer punched the civilian in the face","the civilian struck the officer in the stomach with a metal flashlight","punchFace","flashlight","civilianOfficer","forceOff","54","","","",""
"62",2008,"{""Q0"":54}","[object Object]","survey-likert",61,121792,"0.0-61.0","nfoh8y2aek8lfzhwse1s0pa6yoyjye9t","Tue Mar 21 2017 23:26:42 GMT-0400 (Eastern Daylight Time)","male","Asian","other","",NA,"","offCivRatings","the officer punched the civilian in the face","the civilian struck the officer in the stomach with a metal flashlight","punchFace","flashlight","civilianOfficer","appropriateOff","54","","","",""
"63",1573,"{""Q0"":54}","[object Object]","survey-likert",62,123369,"0.0-62.0","nfoh8y2aek8lfzhwse1s0pa6yoyjye9t","Tue Mar 21 2017 23:26:42 GMT-0400 (Eastern Daylight Time)","male","Asian","other","",NA,"","offCivRatings","the officer punched the civilian in the face","the civilian struck the officer in the stomach with a metal flashlight","punchFace","flashlight","civilianOfficer","acceptableOff","54","","","",""
"64",1489,"{""Q0"":56}","[object Object]","survey-likert",63,124861,"0.0-63.0","nfoh8y2aek8lfzhwse1s0pa6yoyjye9t","Tue Mar 21 2017 23:26:42 GMT-0400 (Eastern Daylight Time)","male","Asian","other","",NA,"","offCivRatings","the officer punched the civilian in the face","the civilian struck the officer in the stomach with a metal flashlight","punchFace","flashlight","civilianOfficer","manipCheckLow","56","","","",""
"65",511,"","","instructions",64,125372,"0.0-64.0","nfoh8y2aek8lfzhwse1s0pa6yoyjye9t","Tue Mar 21 2017 23:26:42 GMT-0400 (Eastern Daylight Time)","male","Asian","other","",NA,"[{""page_index"":0,""viewing_time"":511}]","break","","","","","","","","","","",""
"66",1184,"{""Q0"":53}","[object Object]","survey-likert",65,126761,"0.0-65.0","nfoh8y2aek8lfzhwse1s0pa6yoyjye9t","Tue Mar 21 2017 23:26:42 GMT-0400 (Eastern Daylight Time)","male","Asian","other","",NA,"","offCivRatings","the officer shouted ""get your fucking hands up!"" at the civilian","the civilian pulled away from the officer","handsUp","pulledAway","civilianOfficer","appropriateOff","53","","","",""
"67",1492,"{""Q0"":54}","[object Object]","survey-likert",66,128258,"0.0-66.0","nfoh8y2aek8lfzhwse1s0pa6yoyjye9t","Tue Mar 21 2017 23:26:42 GMT-0400 (Eastern Daylight Time)","male","Asian","other","",NA,"","offCivRatings","the officer shouted ""get your fucking hands up!"" at the civilian","the civilian pulled away from the officer","handsUp","pulledAway","civilianOfficer","manipCheckHigh","54","","","",""
"68",1307,"{""Q0"":54}","[object Object]","survey-likert",67,129569,"0.0-67.0","nfoh8y2aek8lfzhwse1s0pa6yoyjye9t","Tue Mar 21 2017 23:26:42 GMT-0400 (Eastern Daylight Time)","male","Asian","other","",NA,"","offCivRatings","the officer shouted ""get your fucking hands up!"" at the civilian","the civilian pulled away from the officer","handsUp","pulledAway","civilianOfficer","punishOff","54","","","",""
"69",1578,"{""Q0"":54}","[object Object]","survey-likert",68,131151,"0.0-68.0","nfoh8y2aek8lfzhwse1s0pa6yoyjye9t","Tue Mar 21 2017 23:26:42 GMT-0400 (Eastern Daylight Time)","male","Asian","other","",NA,"","offCivRatings","the officer shouted ""get your fucking hands up!"" at the civilian","the civilian pulled away from the officer","handsUp","pulledAway","civilianOfficer","acceptableOff","54","","","",""
"70",1989,"{""Q0"":56}","[object Object]","survey-likert",69,133144,"0.0-69.0","nfoh8y2aek8lfzhwse1s0pa6yoyjye9t","Tue Mar 21 2017 23:26:42 GMT-0400 (Eastern Daylight Time)","male","Asian","other","",NA,"","offCivRatings","the officer shouted ""get your fucking hands up!"" at the civilian","the civilian pulled away from the officer","handsUp","pulledAway","civilianOfficer","forceOff","56","","","",""
"71",515,"","","instructions",70,133659,"0.0-70.0","nfoh8y2aek8lfzhwse1s0pa6yoyjye9t","Tue Mar 21 2017 23:26:42 GMT-0400 (Eastern Daylight Time)","male","Asian","other","",NA,"[{""page_index"":0,""viewing_time"":515}]","break","","","","","","","","","","",""
"72",1048,"{""Q0"":54}","[object Object]","survey-likert",71,134913,"0.0-71.0","nfoh8y2aek8lfzhwse1s0pa6yoyjye9t","Tue Mar 21 2017 23:26:42 GMT-0400 (Eastern Daylight Time)","male","Asian","other","",NA,"","offCivRatings","the officer stood near the civilian","the civilian headbutted the officer in the face","stoodNear","headbutt","civilianOfficer","acceptableOff","54","","","",""
"73",1141,"{""Q0"":54}","[object Object]","survey-likert",72,136059,"0.0-72.0","nfoh8y2aek8lfzhwse1s0pa6yoyjye9t","Tue Mar 21 2017 23:26:42 GMT-0400 (Eastern Daylight Time)","male","Asian","other","",NA,"","offCivRatings","the officer stood near the civilian","the civilian headbutted the officer in the face","stoodNear","headbutt","civilianOfficer","punishOff","54","","","",""
"74",2483,"{""Q0"":54}","[object Object]","survey-likert",73,138545,"0.0-73.0","nfoh8y2aek8lfzhwse1s0pa6yoyjye9t","Tue Mar 21 2017 23:26:42 GMT-0400 (Eastern Daylight Time)","male","Asian","other","",NA,"","offCivRatings","the officer stood near the civilian","the civilian headbutted the officer in the face","stoodNear","headbutt","civilianOfficer","appropriateOff","54","","","",""
"75",1626,"{""Q0"":53}","[object Object]","survey-likert",74,140175,"0.0-74.0","nfoh8y2aek8lfzhwse1s0pa6yoyjye9t","Tue Mar 21 2017 23:26:42 GMT-0400 (Eastern Daylight Time)","male","Asian","other","",NA,"","offCivRatings","the officer stood near the civilian","the civilian headbutted the officer in the face","stoodNear","headbutt","civilianOfficer","forceOff","53","","","",""
"76",523,"","","instructions",75,140698,"0.0-75.0","nfoh8y2aek8lfzhwse1s0pa6yoyjye9t","Tue Mar 21 2017 23:26:42 GMT-0400 (Eastern Daylight Time)","male","Asian","other","",NA,"[{""page_index"":0,""viewing_time"":523}]","break","","","","","","","","","","",""
"77",1501,"{""Q0"":56}","[object Object]","survey-likert",76,142403,"0.0-76.0","nfoh8y2aek8lfzhwse1s0pa6yoyjye9t","Tue Mar 21 2017 23:26:42 GMT-0400 (Eastern Daylight Time)","male","Asian","other","",NA,"","offCivRatings","the officer kicked the civilian in the stomach","the civilian kicked the officer in the stomach","kickStom","kickStom","officerCivilian","acceptableCiv","56","","","",""
"78",1361,"{""Q0"":53}","[object Object]","survey-likert",77,143768,"0.0-77.0","nfoh8y2aek8lfzhwse1s0pa6yoyjye9t","Tue Mar 21 2017 23:26:42 GMT-0400 (Eastern Daylight Time)","male","Asian","other","",NA,"","offCivRatings","the officer kicked the civilian in the stomach","the civilian kicked the officer in the stomach","kickStom","kickStom","officerCivilian","appropriateCiv","53","","","",""
"79",1217,"{""Q0"":53}","[object Object]","survey-likert",78,144989,"0.0-78.0","nfoh8y2aek8lfzhwse1s0pa6yoyjye9t","Tue Mar 21 2017 23:26:42 GMT-0400 (Eastern Daylight Time)","male","Asian","other","",NA,"","offCivRatings","the officer kicked the civilian in the stomach","the civilian kicked the officer in the stomach","kickStom","kickStom","officerCivilian","forceCiv","53","","","",""
"80",1130,"{""Q0"":57}","[object Object]","survey-likert",79,146124,"0.0-79.0","nfoh8y2aek8lfzhwse1s0pa6yoyjye9t","Tue Mar 21 2017 23:26:42 GMT-0400 (Eastern Daylight Time)","male","Asian","other","",NA,"","offCivRatings","the officer kicked the civilian in the stomach","the civilian kicked the officer in the stomach","kickStom","kickStom","officerCivilian","manipCheckLow","57","","","",""
"81",3036,"{""Q0"":57}","[object Object]","survey-likert",80,149164,"0.0-80.0","nfoh8y2aek8lfzhwse1s0pa6yoyjye9t","Tue Mar 21 2017 23:26:42 GMT-0400 (Eastern Daylight Time)","male","Asian","other","",NA,"","offCivRatings","the officer kicked the civilian in the stomach","the civilian kicked the officer in the stomach","kickStom","kickStom","officerCivilian","punishCiv","57","","","",""
"82",543,"","","instructions",81,149707,"0.0-81.0","nfoh8y2aek8lfzhwse1s0pa6yoyjye9t","Tue Mar 21 2017 23:26:42 GMT-0400 (Eastern Daylight Time)","male","Asian","other","",NA,"[{""page_index"":0,""viewing_time"":542}]","break","","","","","","","","","","",""
"83",1680,"{""Q0"":51}","[object Object]","survey-likert",82,151593,"0.0-82.0","nfoh8y2aek8lfzhwse1s0pa6yoyjye9t","Tue Mar 21 2017 23:26:42 GMT-0400 (Eastern Daylight Time)","male","Asian","other","",NA,"","offCivRatings","the officer shot the civilian in the head with a handgun","the civilian stood near the officer","handgunHead","stoodNear","civilianOfficer","manipCheckLow","51","","","",""
"84",1352,"{""Q0"":54}","[object Object]","survey-likert",83,152950,"0.0-83.0","nfoh8y2aek8lfzhwse1s0pa6yoyjye9t","Tue Mar 21 2017 23:26:42 GMT-0400 (Eastern Daylight Time)","male","Asian","other","",NA,"","offCivRatings","the officer shot the civilian in the head with a handgun","the civilian stood near the officer","handgunHead","stoodNear","civilianOfficer","forceOff","54","","","",""
"85",1540,"{""Q0"":47}","[object Object]","survey-likert",84,154493,"0.0-84.0","nfoh8y2aek8lfzhwse1s0pa6yoyjye9t","Tue Mar 21 2017 23:26:42 GMT-0400 (Eastern Daylight Time)","male","Asian","other","",NA,"","offCivRatings","the officer shot the civilian in the head with a handgun","the civilian stood near the officer","handgunHead","stoodNear","civilianOfficer","punishOff","47","","","",""
"86",1529,"{""Q0"":52}","[object Object]","survey-likert",85,156026,"0.0-85.0","nfoh8y2aek8lfzhwse1s0pa6yoyjye9t","Tue Mar 21 2017 23:26:42 GMT-0400 (Eastern Daylight Time)","male","Asian","other","",NA,"","offCivRatings","the officer shot the civilian in the head with a handgun","the civilian stood near the officer","handgunHead","stoodNear","civilianOfficer","appropriateOff","52","","","",""
"87",1161,"{""Q0"":53}","[object Object]","survey-likert",86,157191,"0.0-86.0","nfoh8y2aek8lfzhwse1s0pa6yoyjye9t","Tue Mar 21 2017 23:26:42 GMT-0400 (Eastern Daylight Time)","male","Asian","other","",NA,"","offCivRatings","the officer shot the civilian in the head with a handgun","the civilian stood near the officer","handgunHead","stoodNear","civilianOfficer","acceptableOff","53","","","",""
"88",782,"","","instructions",87,157973,"0.0-87.0","nfoh8y2aek8lfzhwse1s0pa6yoyjye9t","Tue Mar 21 2017 23:26:42 GMT-0400 (Eastern Daylight Time)","male","Asian","other","",NA,"[{""page_index"":0,""viewing_time"":782}]","break","","","","","","","","","","",""
"89",1566,"{""Q0"":52}","[object Object]","survey-likert",88,159744,"0.0-88.0","nfoh8y2aek8lfzhwse1s0pa6yoyjye9t","Tue Mar 21 2017 23:26:42 GMT-0400 (Eastern Daylight Time)","male","Asian","other","",NA,"","offCivRatings","the officer headbutted the civilian in the face","the civilian shot the officer in the head with a handgun","headbutt","handgunHead","civilianOfficer","acceptableOff","52","","","",""
"90",1121,"{""Q0"":53}","[object Object]","survey-likert",89,160869,"0.0-89.0","nfoh8y2aek8lfzhwse1s0pa6yoyjye9t","Tue Mar 21 2017 23:26:42 GMT-0400 (Eastern Daylight Time)","male","Asian","other","",NA,"","offCivRatings","the officer headbutted the civilian in the face","the civilian shot the officer in the head with a handgun","headbutt","handgunHead","civilianOfficer","punishOff","53","","","",""
"91",1417,"{""Q0"":53}","[object Object]","survey-likert",90,162289,"0.0-90.0","nfoh8y2aek8lfzhwse1s0pa6yoyjye9t","Tue Mar 21 2017 23:26:42 GMT-0400 (Eastern Daylight Time)","male","Asian","other","",NA,"","offCivRatings","the officer headbutted the civilian in the face","the civilian shot the officer in the head with a handgun","headbutt","handgunHead","civilianOfficer","appropriateOff","53","","","",""
"92",1855,"{""Q0"":55}","[object Object]","survey-likert",91,164147,"0.0-91.0","nfoh8y2aek8lfzhwse1s0pa6yoyjye9t","Tue Mar 21 2017 23:26:42 GMT-0400 (Eastern Daylight Time)","male","Asian","other","",NA,"","offCivRatings","the officer headbutted the civilian in the face","the civilian shot the officer in the head with a handgun","headbutt","handgunHead","civilianOfficer","forceOff","55","","","",""
"93",515,"","","instructions",92,164663,"0.0-92.0","nfoh8y2aek8lfzhwse1s0pa6yoyjye9t","Tue Mar 21 2017 23:26:42 GMT-0400 (Eastern Daylight Time)","male","Asian","other","",NA,"[{""page_index"":0,""viewing_time"":514}]","break","","","","","","","","","","",""
"94",1463,"{""Q0"":53}","[object Object]","survey-likert",93,166331,"0.0-93.0","nfoh8y2aek8lfzhwse1s0pa6yoyjye9t","Tue Mar 21 2017 23:26:42 GMT-0400 (Eastern Daylight Time)","male","Asian","other","",NA,"","offCivRatings","the officer shot the civilian in the chest with a beanbag shotgun round","the civilian applied a chokehold to the officer","beanbag","choke","civilianOfficer","appropriateOff","53","","","",""
"95",1112,"{""Q0"":54}","[object Object]","survey-likert",94,167447,"0.0-94.0","nfoh8y2aek8lfzhwse1s0pa6yoyjye9t","Tue Mar 21 2017 23:26:42 GMT-0400 (Eastern Daylight Time)","male","Asian","other","",NA,"","offCivRatings","the officer shot the civilian in the chest with a beanbag shotgun round","the civilian applied a chokehold to the officer","beanbag","choke","civilianOfficer","acceptableOff","54","","","",""
"96",1744,"{""Q0"":54}","[object Object]","survey-likert",95,169193,"0.0-95.0","nfoh8y2aek8lfzhwse1s0pa6yoyjye9t","Tue Mar 21 2017 23:26:42 GMT-0400 (Eastern Daylight Time)","male","Asian","other","",NA,"","offCivRatings","the officer shot the civilian in the chest with a beanbag shotgun round","the civilian applied a chokehold to the officer","beanbag","choke","civilianOfficer","manipCheckLow","54","","","",""
"97",1397,"{""Q0"":54}","[object Object]","survey-likert",96,170594,"0.0-96.0","nfoh8y2aek8lfzhwse1s0pa6yoyjye9t","Tue Mar 21 2017 23:26:42 GMT-0400 (Eastern Daylight Time)","male","Asian","other","",NA,"","offCivRatings","the officer shot the civilian in the chest with a beanbag shotgun round","the civilian applied a chokehold to the officer","beanbag","choke","civilianOfficer","forceOff","54","","","",""
"98",2313,"{""Q0"":53}","[object Object]","survey-likert",97,172911,"0.0-97.0","nfoh8y2aek8lfzhwse1s0pa6yoyjye9t","Tue Mar 21 2017 23:26:42 GMT-0400 (Eastern Daylight Time)","male","Asian","other","",NA,"","offCivRatings","the officer shot the civilian in the chest with a beanbag shotgun round","the civilian applied a chokehold to the officer","beanbag","choke","civilianOfficer","punishOff","53","","","",""
"99",524,"","","instructions",98,173435,"0.0-98.0","nfoh8y2aek8lfzhwse1s0pa6yoyjye9t","Tue Mar 21 2017 23:26:42 GMT-0400 (Eastern Daylight Time)","male","Asian","other","",NA,"[{""page_index"":0,""viewing_time"":524}]","break","","","","","","","","","","",""
"100",1341,"{""Q0"":54}","[object Object]","survey-likert",99,174981,"0.0-99.0","nfoh8y2aek8lfzhwse1s0pa6yoyjye9t","Tue Mar 21 2017 23:26:42 GMT-0400 (Eastern Daylight Time)","male","Asian","other","",NA,"","offCivRatings","the officer shocked the civilian with a tazer","the civilian sprayed the officer with pepper spray","tazer","pepperSpray","civilianOfficer","forceOff","54","","","",""
"101",1573,"{""Q0"":54}","[object Object]","survey-likert",100,176557,"0.0-100.0","nfoh8y2aek8lfzhwse1s0pa6yoyjye9t","Tue Mar 21 2017 23:26:42 GMT-0400 (Eastern Daylight Time)","male","Asian","other","",NA,"","offCivRatings","the officer shocked the civilian with a tazer","the civilian sprayed the officer with pepper spray","tazer","pepperSpray","civilianOfficer","acceptableOff","54","","","",""
"102",1234,"{""Q0"":54}","[object Object]","survey-likert",101,177794,"0.0-101.0","nfoh8y2aek8lfzhwse1s0pa6yoyjye9t","Tue Mar 21 2017 23:26:42 GMT-0400 (Eastern Daylight Time)","male","Asian","other","",NA,"","offCivRatings","the officer shocked the civilian with a tazer","the civilian sprayed the officer with pepper spray","tazer","pepperSpray","civilianOfficer","appropriateOff","54","","","",""
"103",1693,"{""Q0"":53}","[object Object]","survey-likert",102,179490,"0.0-102.0","nfoh8y2aek8lfzhwse1s0pa6yoyjye9t","Tue Mar 21 2017 23:26:42 GMT-0400 (Eastern Daylight Time)","male","Asian","other","",NA,"","offCivRatings","the officer shocked the civilian with a tazer","the civilian sprayed the officer with pepper spray","tazer","pepperSpray","civilianOfficer","punishOff","53","","","",""
"104",519,"","","instructions",103,180009,"0.0-103.0","nfoh8y2aek8lfzhwse1s0pa6yoyjye9t","Tue Mar 21 2017 23:26:42 GMT-0400 (Eastern Daylight Time)","male","Asian","other","",NA,"[{""page_index"":0,""viewing_time"":519}]","break","","","","","","","","","","",""
"105",1195,"{""Q0"":55}","[object Object]","survey-likert",104,181408,"0.0-104.0","nfoh8y2aek8lfzhwse1s0pa6yoyjye9t","Tue Mar 21 2017 23:26:42 GMT-0400 (Eastern Daylight Time)","male","Asian","other","",NA,"","offCivRatings","the officer twisted the arm of the civilian, forcing him to the ground","the civilian slammed the officer's head into the concrete curb","armbar","headSlam","officerCivilian","acceptableCiv","55","","","",""
"106",1228,"{""Q0"":53}","[object Object]","survey-likert",105,182641,"0.0-105.0","nfoh8y2aek8lfzhwse1s0pa6yoyjye9t","Tue Mar 21 2017 23:26:42 GMT-0400 (Eastern Daylight Time)","male","Asian","other","",NA,"","offCivRatings","the officer twisted the arm of the civilian, forcing him to the ground","the civilian slammed the officer's head into the concrete curb","armbar","headSlam","officerCivilian","forceCiv","53","","","",""
"107",1563,"{""Q0"":54}","[object Object]","survey-likert",106,184207,"0.0-106.0","nfoh8y2aek8lfzhwse1s0pa6yoyjye9t","Tue Mar 21 2017 23:26:42 GMT-0400 (Eastern Daylight Time)","male","Asian","other","",NA,"","offCivRatings","the officer twisted the arm of the civilian, forcing him to the ground","the civilian slammed the officer's head into the concrete curb","armbar","headSlam","officerCivilian","punishCiv","54","","","",""
"108",1321,"{""Q0"":53}","[object Object]","survey-likert",107,185532,"0.0-107.0","nfoh8y2aek8lfzhwse1s0pa6yoyjye9t","Tue Mar 21 2017 23:26:42 GMT-0400 (Eastern Daylight Time)","male","Asian","other","",NA,"","offCivRatings","the officer twisted the arm of the civilian, forcing him to the ground","the civilian slammed the officer's head into the concrete curb","armbar","headSlam","officerCivilian","appropriateCiv","53","","","",""
"109",541,"","","instructions",108,186073,"0.0-108.0","nfoh8y2aek8lfzhwse1s0pa6yoyjye9t","Tue Mar 21 2017 23:26:42 GMT-0400 (Eastern Daylight Time)","male","Asian","other","",NA,"[{""page_index"":0,""viewing_time"":541}]","break","","","","","","","","","","",""
"110",2586,"{""Q0"":54}","[object Object]","survey-likert",109,188864,"0.0-109.0","nfoh8y2aek8lfzhwse1s0pa6yoyjye9t","Tue Mar 21 2017 23:26:42 GMT-0400 (Eastern Daylight Time)","male","Asian","other","",NA,"","offCivRatings","the officer waved at the civilian in greeting","the civilian shouted ""I don't have to fucking listen to you!"" at the officer","waved","dontListen","civilianOfficer","punishOff","54","","","",""
"111",3884,"{""Q0"":55}","[object Object]","survey-likert",110,192752,"0.0-110.0","nfoh8y2aek8lfzhwse1s0pa6yoyjye9t","Tue Mar 21 2017 23:26:42 GMT-0400 (Eastern Daylight Time)","male","Asian","other","",NA,"","offCivRatings","the officer waved at the civilian in greeting","the civilian shouted ""I don't have to fucking listen to you!"" at the officer","waved","dontListen","civilianOfficer","appropriateOff","55","","","",""
"112",1350,"{""Q0"":54}","[object Object]","survey-likert",111,194106,"0.0-111.0","nfoh8y2aek8lfzhwse1s0pa6yoyjye9t","Tue Mar 21 2017 23:26:42 GMT-0400 (Eastern Daylight Time)","male","Asian","other","",NA,"","offCivRatings","the officer waved at the civilian in greeting","the civilian shouted ""I don't have to fucking listen to you!"" at the officer","waved","dontListen","civilianOfficer","acceptableOff","54","","","",""
"113",1101,"{""Q0"":54}","[object Object]","survey-likert",112,195211,"0.0-112.0","nfoh8y2aek8lfzhwse1s0pa6yoyjye9t","Tue Mar 21 2017 23:26:42 GMT-0400 (Eastern Daylight Time)","male","Asian","other","",NA,"","offCivRatings","the officer waved at the civilian in greeting","the civilian shouted ""I don't have to fucking listen to you!"" at the officer","waved","dontListen","civilianOfficer","forceOff","54","","","",""
"114",825,"","","instructions",113,196036,"0.0-113.0","nfoh8y2aek8lfzhwse1s0pa6yoyjye9t","Tue Mar 21 2017 23:26:42 GMT-0400 (Eastern Daylight Time)","male","Asian","other","",NA,"[{""page_index"":0,""viewing_time"":824}]","break","","","","","","","","","","",""
"115",1456,"{""Q0"":55}","[object Object]","survey-likert",114,197697,"0.0-114.0","nfoh8y2aek8lfzhwse1s0pa6yoyjye9t","Tue Mar 21 2017 23:26:42 GMT-0400 (Eastern Daylight Time)","male","Asian","other","",NA,"","offCivRatings","the officer slammed the civilian's head into the concrete curb","the civilian called the officer a ""pig""","headSlam","nameCall","officerCivilian","appropriateCiv","55","","","",""
"116",1236,"{""Q0"":55}","[object Object]","survey-likert",115,198937,"0.0-115.0","nfoh8y2aek8lfzhwse1s0pa6yoyjye9t","Tue Mar 21 2017 23:26:42 GMT-0400 (Eastern Daylight Time)","male","Asian","other","",NA,"","offCivRatings","the officer slammed the civilian's head into the concrete curb","the civilian called the officer a ""pig""","headSlam","nameCall","officerCivilian","acceptableCiv","55","","","",""
"117",1802,"{""Q0"":54}","[object Object]","survey-likert",116,200743,"0.0-116.0","nfoh8y2aek8lfzhwse1s0pa6yoyjye9t","Tue Mar 21 2017 23:26:42 GMT-0400 (Eastern Daylight Time)","male","Asian","other","",NA,"","offCivRatings","the officer slammed the civilian's head into the concrete curb","the civilian called the officer a ""pig""","headSlam","nameCall","officerCivilian","forceCiv","54","","","",""
"118",1750,"{""Q0"":53}","[object Object]","survey-likert",117,202497,"0.0-117.0","nfoh8y2aek8lfzhwse1s0pa6yoyjye9t","Tue Mar 21 2017 23:26:42 GMT-0400 (Eastern Daylight Time)","male","Asian","other","",NA,"","offCivRatings","the officer slammed the civilian's head into the concrete curb","the civilian called the officer a ""pig""","headSlam","nameCall","officerCivilian","punishCiv","53","","","",""
"119",489,"","","instructions",118,202986,"0.0-118.0","nfoh8y2aek8lfzhwse1s0pa6yoyjye9t","Tue Mar 21 2017 23:26:42 GMT-0400 (Eastern Daylight Time)","male","Asian","other","",NA,"[{""page_index"":0,""viewing_time"":488}]","break","","","","","","","","","","",""
"120",1256,"{""Q0"":54}","[object Object]","survey-likert",119,204448,"0.0-119.0","nfoh8y2aek8lfzhwse1s0pa6yoyjye9t","Tue Mar 21 2017 23:26:42 GMT-0400 (Eastern Daylight Time)","male","Asian","other","",NA,"","offCivRatings","the officer shot the civilian in the chest with a handgun","the civilian purposefully struck the officer with a motor vehicle","handgunChest","vehicle","officerCivilian","punishCiv","54","","","",""
"121",1235,"{""Q0"":53}","[object Object]","survey-likert",120,205688,"0.0-120.0","nfoh8y2aek8lfzhwse1s0pa6yoyjye9t","Tue Mar 21 2017 23:26:42 GMT-0400 (Eastern Daylight Time)","male","Asian","other","",NA,"","offCivRatings","the officer shot the civilian in the chest with a handgun","the civilian purposefully struck the officer with a motor vehicle","handgunChest","vehicle","officerCivilian","forceCiv","53","","","",""
"122",1623,"{""Q0"":56}","[object Object]","survey-likert",121,207314,"0.0-121.0","nfoh8y2aek8lfzhwse1s0pa6yoyjye9t","Tue Mar 21 2017 23:26:42 GMT-0400 (Eastern Daylight Time)","male","Asian","other","",NA,"","offCivRatings","the officer shot the civilian in the chest with a handgun","the civilian purposefully struck the officer with a motor vehicle","handgunChest","vehicle","officerCivilian","appropriateCiv","56","","","",""
"123",2066,"{""Q0"":53}","[object Object]","survey-likert",122,209385,"0.0-122.0","nfoh8y2aek8lfzhwse1s0pa6yoyjye9t","Tue Mar 21 2017 23:26:42 GMT-0400 (Eastern Daylight Time)","male","Asian","other","",NA,"","offCivRatings","the officer shot the civilian in the chest with a handgun","the civilian purposefully struck the officer with a motor vehicle","handgunChest","vehicle","officerCivilian","acceptableCiv","53","","","",""
"124",732,"","","instructions",123,210117,"0.0-123.0","nfoh8y2aek8lfzhwse1s0pa6yoyjye9t","Tue Mar 21 2017 23:26:42 GMT-0400 (Eastern Daylight Time)","male","Asian","other","",NA,"[{""page_index"":0,""viewing_time"":732}]","break","","","","","","","","","","",""
"125",2051,"{""Q0"":54}","[object Object]","survey-likert",124,212375,"0.0-124.0","nfoh8y2aek8lfzhwse1s0pa6yoyjye9t","Tue Mar 21 2017 23:26:42 GMT-0400 (Eastern Daylight Time)","male","Asian","other","",NA,"","policeLegitimacy","","","","","","","54","rightWrong","normAlignment","",""
"126",1286,"{""Q0"":55}","[object Object]","survey-likert",125,213666,"0.0-125.0","nfoh8y2aek8lfzhwse1s0pa6yoyjye9t","Tue Mar 21 2017 23:26:42 GMT-0400 (Eastern Daylight Time)","male","Asian","other","",NA,"","policeLegitimacy","","","","","","","55","communityWants","normAlignment","",""
"127",1870,"{""Q0"":53}","[object Object]","survey-likert",126,215539,"0.0-126.0","nfoh8y2aek8lfzhwse1s0pa6yoyjye9t","Tue Mar 21 2017 23:26:42 GMT-0400 (Eastern Daylight Time)","male","Asian","other","",NA,"","policeLegitimacy","","","","","","","53","doTreat","feltObligation","",""
"128",1640,"{""Q0"":54}","[object Object]","survey-likert",127,217183,"0.0-127.0","nfoh8y2aek8lfzhwse1s0pa6yoyjye9t","Tue Mar 21 2017 23:26:42 GMT-0400 (Eastern Daylight Time)","male","Asian","other","",NA,"","policeLegitimacy","","","","","","","54","doReasons","feltObligation","",""
"129",1412,"{""Q0"":55}","[object Object]","survey-likert",128,218598,"0.0-128.0","nfoh8y2aek8lfzhwse1s0pa6yoyjye9t","Tue Mar 21 2017 23:26:42 GMT-0400 (Eastern Daylight Time)","male","Asian","other","",NA,"","policeLegitimacy","","","","","","","55","importantValues","normAlignment","",""
"130",1709,"{""Q0"":52}","[object Object]","survey-likert",129,220310,"0.0-129.0","nfoh8y2aek8lfzhwse1s0pa6yoyjye9t","Tue Mar 21 2017 23:26:42 GMT-0400 (Eastern Daylight Time)","male","Asian","other","",NA,"","policeLegitimacy","","","","","","","52","support","feltObligation","",""
"131",4331,"{""Q0"":""no""}","[object Object]","survey-multi-choice2",130,224645,"0.0-130.0","nfoh8y2aek8lfzhwse1s0pa6yoyjye9t","Tue Mar 21 2017 23:26:42 GMT-0400 (Eastern Daylight Time)","male","Asian","other","",NA,"","policeExperience","","","","","","","no","excessForce","","vicarious","Have the police ever used excessive force against anyone in your household?"
"132",2359,"{""Q0"":""no""}","[object Object]","survey-multi-choice2",131,227005,"0.0-131.0","nfoh8y2aek8lfzhwse1s0pa6yoyjye9t","Tue Mar 21 2017 23:26:42 GMT-0400 (Eastern Daylight Time)","male","Asian","other","",NA,"","policeExperience","","","","","","","no","insultLang","","personal","Have the police ever used insulting language toward you?"
"133",820,"{""Q0"":""no""}","[object Object]","survey-multi-choice2",132,227826,"0.0-132.0","nfoh8y2aek8lfzhwse1s0pa6yoyjye9t","Tue Mar 21 2017 23:26:42 GMT-0400 (Eastern Daylight Time)","male","Asian","other","",NA,"","policeExperience","","","","","","","no","insultLang","","vicarious","Have the police ever used insulting language toward anyone in your household?"
"134",988,"{""Q0"":""no""}","[object Object]","survey-multi-choice2",133,228816,"0.0-133.0","nfoh8y2aek8lfzhwse1s0pa6yoyjye9t","Tue Mar 21 2017 23:26:42 GMT-0400 (Eastern Daylight Time)","male","Asian","other","",NA,"","policeExperience","","","","","","","no","stopped","","vicarious","Has anyone in your household ever been stopped on the street by the police without good reason?"
"135",1210,"{""Q0"":""no""}","[object Object]","survey-multi-choice2",134,230028,"0.0-134.0","nfoh8y2aek8lfzhwse1s0pa6yoyjye9t","Tue Mar 21 2017 23:26:42 GMT-0400 (Eastern Daylight Time)","male","Asian","other","",NA,"","policeExperience","","","","","","","no","stopped","","personal","Have you ever been stopped by the police on the street without good reason?"
"136",732,"{""Q0"":""no""}","[object Object]","survey-multi-choice2",135,230763,"0.0-135.0","nfoh8y2aek8lfzhwse1s0pa6yoyjye9t","Tue Mar 21 2017 23:26:42 GMT-0400 (Eastern Daylight Time)","male","Asian","other","",NA,"","policeExperience","","","","","","","no","excessForce","","personal","Have the police ever used excessive force against you?"
"137",931,"{""Q0"":""no""}","[object Object]","survey-multi-choice2",136,231695,"0.0-136.0","nfoh8y2aek8lfzhwse1s0pa6yoyjye9t","Tue Mar 21 2017 23:26:42 GMT-0400 (Eastern Daylight Time)","male","Asian","other","",NA,"","policeExperience","","","","","","","no","corrupt","","personal","Have you ever seen a police officer engage in any corrupt activities (e.g., taking bribes or involvement in the drug trade)?"
"138",5516,"{""Q0"":""male"",""Q1"":""Asian"",""Q2"":""other""}","[object Object]","survey-multi-choice",137,237216,"0.0-137.0","nfoh8y2aek8lfzhwse1s0pa6yoyjye9t","Tue Mar 21 2017 23:26:42 GMT-0400 (Eastern Daylight Time)","male","Asian","other","",NA,"","demographics","","","","","","","","","","",""
"139",3246,"","","instructions",138,241464,"0.0-138.0","nfoh8y2aek8lfzhwse1s0pa6yoyjye9t","Tue Mar 21 2017 23:26:42 GMT-0400 (Eastern Daylight Time)","male","Asian","other","",NA,"[{""page_index"":0,""viewing_time"":956},{""page_index"":1,""viewing_time"":1165},{""page_index"":2,""viewing_time"":481},{""page_index"":3,""viewing_time"":644}]","debriefing","","","","","","","","","","",""
