"","rt","responses","internalResp","trial_type","trial_index","time_elapsed","internal_node_id","randSubjectID","date","sex","race","polAff","stimulus","key_press","view_history","questionType","officerAction","civilianAction","offActName","civActName","order","questionName","response","name","dimension","person","question"
"1",10110,"","[object Object]","survey-text",0,10117,"0.0-0.0","ngkaka199m7fm9r3phem46jd1esgcmns","Thu Feb 09 2017 10:38:01 GMT-0500 (EST)","female","More than one","very liberal","",NA,"","","","","","","","","","","","",""
"2",5482,"","","single-stim",1,16604,"0.0-1.0","ngkaka199m7fm9r3phem46jd1esgcmns","Thu Feb 09 2017 10:38:01 GMT-0500 (EST)","female","More than one","very liberal","<img src='static/images/1602685960_ICS_Credit-0.png' alt='Consent 1' height=1100 width=850><img src='static/images/1602685960_ICS_Credit-1.png' alt='Consent 2' height=1100 width=850></p>",89,"","","","","","","","","","","","",""
"3",14642,"","","instructions",2,32248,"0.0-2.0","ngkaka199m7fm9r3phem46jd1esgcmns","Thu Feb 09 2017 10:38:01 GMT-0500 (EST)","female","More than one","very liberal","",NA,"[{""page_index"":0,""viewing_time"":14641}]","instructions","","","","","","","","","","",""
"4",25371,"","","instructions",3,58621,"0.0-3.0","ngkaka199m7fm9r3phem46jd1esgcmns","Thu Feb 09 2017 10:38:01 GMT-0500 (EST)","female","More than one","very liberal","",NA,"[{""page_index"":0,""viewing_time"":10907},{""page_index"":1,""viewing_time"":3924},{""page_index"":2,""viewing_time"":7625},{""page_index"":3,""viewing_time"":2914}]","instructions","","","","","","","","","","",""
"5",38696,"{""Q0"":99}","[object Object]","survey-likert",4,98356,"0.0-4.0","ngkaka199m7fm9r3phem46jd1esgcmns","Thu Feb 09 2017 10:38:01 GMT-0500 (EST)","female","More than one","very liberal","",NA,"","offCivRatings","the officer waved at the civilian in greeting","the civilian applied a chokehold to the officer","waved","choke","officerCivilian","appropriateCiv","99","","","",""
"6",6034,"{""Q0"":2}","[object Object]","survey-likert",5,104402,"0.0-5.0","ngkaka199m7fm9r3phem46jd1esgcmns","Thu Feb 09 2017 10:38:01 GMT-0500 (EST)","female","More than one","very liberal","",NA,"","offCivRatings","the officer waved at the civilian in greeting","the civilian applied a chokehold to the officer","waved","choke","officerCivilian","acceptableCiv","2","","","",""
"7",9440,"{""Q0"":78}","[object Object]","survey-likert",6,113849,"0.0-6.0","ngkaka199m7fm9r3phem46jd1esgcmns","Thu Feb 09 2017 10:38:01 GMT-0500 (EST)","female","More than one","very liberal","",NA,"","offCivRatings","the officer waved at the civilian in greeting","the civilian applied a chokehold to the officer","waved","choke","officerCivilian","forceCiv","78","","","",""
"8",6219,"{""Q0"":80}","[object Object]","survey-likert",7,120078,"0.0-7.0","ngkaka199m7fm9r3phem46jd1esgcmns","Thu Feb 09 2017 10:38:01 GMT-0500 (EST)","female","More than one","very liberal","",NA,"","offCivRatings","the officer waved at the civilian in greeting","the civilian applied a chokehold to the officer","waved","choke","officerCivilian","punishCiv","80","","","",""
"9",1032,"","","instructions",8,121110,"0.0-8.0","ngkaka199m7fm9r3phem46jd1esgcmns","Thu Feb 09 2017 10:38:01 GMT-0500 (EST)","female","More than one","very liberal","",NA,"[{""page_index"":0,""viewing_time"":1031}]","break","","","","","","","","","","",""
"10",15866,"{""Q0"":100}","[object Object]","survey-likert",9,137186,"0.0-9.0","ngkaka199m7fm9r3phem46jd1esgcmns","Thu Feb 09 2017 10:38:01 GMT-0500 (EST)","female","More than one","very liberal","",NA,"","offCivRatings","the officer shot the civilian in the chest with a beanbag shotgun round","the civilian asked the officer how he was doing","beanbag","asked","civilianOfficer","manipCheckHigh","100","","","",""
"11",4436,"{""Q0"":81}","[object Object]","survey-likert",10,141630,"0.0-10.0","ngkaka199m7fm9r3phem46jd1esgcmns","Thu Feb 09 2017 10:38:01 GMT-0500 (EST)","female","More than one","very liberal","",NA,"","offCivRatings","the officer shot the civilian in the chest with a beanbag shotgun round","the civilian asked the officer how he was doing","beanbag","asked","civilianOfficer","forceOff","81","","","",""
"12",5062,"{""Q0"":98}","[object Object]","survey-likert",11,146700,"0.0-11.0","ngkaka199m7fm9r3phem46jd1esgcmns","Thu Feb 09 2017 10:38:01 GMT-0500 (EST)","female","More than one","very liberal","",NA,"","offCivRatings","the officer shot the civilian in the chest with a beanbag shotgun round","the civilian asked the officer how he was doing","beanbag","asked","civilianOfficer","appropriateOff","98","","","",""
"13",4126,"{""Q0"":3}","[object Object]","survey-likert",12,150833,"0.0-12.0","ngkaka199m7fm9r3phem46jd1esgcmns","Thu Feb 09 2017 10:38:01 GMT-0500 (EST)","female","More than one","very liberal","",NA,"","offCivRatings","the officer shot the civilian in the chest with a beanbag shotgun round","the civilian asked the officer how he was doing","beanbag","asked","civilianOfficer","acceptableOff","3","","","",""
"14",3772,"{""Q0"":81}","[object Object]","survey-likert",13,154612,"0.0-13.0","ngkaka199m7fm9r3phem46jd1esgcmns","Thu Feb 09 2017 10:38:01 GMT-0500 (EST)","female","More than one","very liberal","",NA,"","offCivRatings","the officer shot the civilian in the chest with a beanbag shotgun round","the civilian asked the officer how he was doing","beanbag","asked","civilianOfficer","punishOff","81","","","",""
"15",1125,"","","instructions",14,155737,"0.0-14.0","ngkaka199m7fm9r3phem46jd1esgcmns","Thu Feb 09 2017 10:38:01 GMT-0500 (EST)","female","More than one","very liberal","",NA,"[{""page_index"":0,""viewing_time"":1125}]","break","","","","","","","","","","",""
"16",42448,"{""Q0"":88}","[object Object]","survey-likert",15,198395,"0.0-15.0","ngkaka199m7fm9r3phem46jd1esgcmns","Thu Feb 09 2017 10:38:01 GMT-0500 (EST)","female","More than one","very liberal","",NA,"","offCivRatings","the officer shot the civilian in the chest with a handgun","the civilian pulled away from the officer","handgunChest","pulledAway","officerCivilian","acceptableCiv","88","","","",""
"17",5952,"{""Q0"":19}","[object Object]","survey-likert",16,204354,"0.0-16.0","ngkaka199m7fm9r3phem46jd1esgcmns","Thu Feb 09 2017 10:38:01 GMT-0500 (EST)","female","More than one","very liberal","",NA,"","offCivRatings","the officer shot the civilian in the chest with a handgun","the civilian pulled away from the officer","handgunChest","pulledAway","officerCivilian","forceCiv","19","","","",""
"18",9651,"{""Q0"":54}","[object Object]","survey-likert",17,214013,"0.0-17.0","ngkaka199m7fm9r3phem46jd1esgcmns","Thu Feb 09 2017 10:38:01 GMT-0500 (EST)","female","More than one","very liberal","",NA,"","offCivRatings","the officer shot the civilian in the chest with a handgun","the civilian pulled away from the officer","handgunChest","pulledAway","officerCivilian","appropriateCiv","54","","","",""
"19",5967,"{""Q0"":22}","[object Object]","survey-likert",18,219988,"0.0-18.0","ngkaka199m7fm9r3phem46jd1esgcmns","Thu Feb 09 2017 10:38:01 GMT-0500 (EST)","female","More than one","very liberal","",NA,"","offCivRatings","the officer shot the civilian in the chest with a handgun","the civilian pulled away from the officer","handgunChest","pulledAway","officerCivilian","punishCiv","22","","","",""
"20",1249,"","","instructions",19,221237,"0.0-19.0","ngkaka199m7fm9r3phem46jd1esgcmns","Thu Feb 09 2017 10:38:01 GMT-0500 (EST)","female","More than one","very liberal","",NA,"[{""page_index"":0,""viewing_time"":1248}]","break","","","","","","","","","","",""
"21",19527,"{""Q0"":2}","[object Object]","survey-likert",20,240974,"0.0-20.0","ngkaka199m7fm9r3phem46jd1esgcmns","Thu Feb 09 2017 10:38:01 GMT-0500 (EST)","female","More than one","very liberal","",NA,"","offCivRatings","the officer called the civilian a ""thug""","the civilian shouted ""I don't have to fucking listen to you!"" at the officer","nameCall","dontListen","civilianOfficer","manipCheckLow","2","","","",""
"22",14561,"{""Q0"":63}","[object Object]","survey-likert",21,255545,"0.0-21.0","ngkaka199m7fm9r3phem46jd1esgcmns","Thu Feb 09 2017 10:38:01 GMT-0500 (EST)","female","More than one","very liberal","",NA,"","offCivRatings","the officer called the civilian a ""thug""","the civilian shouted ""I don't have to fucking listen to you!"" at the officer","nameCall","dontListen","civilianOfficer","appropriateOff","63","","","",""
"23",7650,"{""Q0"":48}","[object Object]","survey-likert",22,263203,"0.0-22.0","ngkaka199m7fm9r3phem46jd1esgcmns","Thu Feb 09 2017 10:38:01 GMT-0500 (EST)","female","More than one","very liberal","",NA,"","offCivRatings","the officer called the civilian a ""thug""","the civilian shouted ""I don't have to fucking listen to you!"" at the officer","nameCall","dontListen","civilianOfficer","punishOff","48","","","",""
"24",4799,"{""Q0"":3}","[object Object]","survey-likert",23,268008,"0.0-23.0","ngkaka199m7fm9r3phem46jd1esgcmns","Thu Feb 09 2017 10:38:01 GMT-0500 (EST)","female","More than one","very liberal","",NA,"","offCivRatings","the officer called the civilian a ""thug""","the civilian shouted ""I don't have to fucking listen to you!"" at the officer","nameCall","dontListen","civilianOfficer","forceOff","3","","","",""
"25",3220,"{""Q0"":43}","[object Object]","survey-likert",24,271235,"0.0-24.0","ngkaka199m7fm9r3phem46jd1esgcmns","Thu Feb 09 2017 10:38:01 GMT-0500 (EST)","female","More than one","very liberal","",NA,"","offCivRatings","the officer called the civilian a ""thug""","the civilian shouted ""I don't have to fucking listen to you!"" at the officer","nameCall","dontListen","civilianOfficer","acceptableOff","43","","","",""
"26",1281,"","","instructions",25,272516,"0.0-25.0","ngkaka199m7fm9r3phem46jd1esgcmns","Thu Feb 09 2017 10:38:01 GMT-0500 (EST)","female","More than one","very liberal","",NA,"[{""page_index"":0,""viewing_time"":1280}]","break","","","","","","","","","","",""
"27",15552,"{""Q0"":87}","[object Object]","survey-likert",26,288279,"0.0-26.0","ngkaka199m7fm9r3phem46jd1esgcmns","Thu Feb 09 2017 10:38:01 GMT-0500 (EST)","female","More than one","very liberal","",NA,"","offCivRatings","the officer yelled ""get back!"" at the civilian","the civilian shocked the officer with a tazer","getBack","tazer","officerCivilian","appropriateCiv","87","","","",""
"28",118767,"{""Q0"":86}","[object Object]","survey-likert",27,407056,"0.0-27.0","ngkaka199m7fm9r3phem46jd1esgcmns","Thu Feb 09 2017 10:38:01 GMT-0500 (EST)","female","More than one","very liberal","",NA,"","offCivRatings","the officer yelled ""get back!"" at the civilian","the civilian shocked the officer with a tazer","getBack","tazer","officerCivilian","forceCiv","86","","","",""
"29",3880,"{""Q0"":15}","[object Object]","survey-likert",28,410944,"0.0-28.0","ngkaka199m7fm9r3phem46jd1esgcmns","Thu Feb 09 2017 10:38:01 GMT-0500 (EST)","female","More than one","very liberal","",NA,"","offCivRatings","the officer yelled ""get back!"" at the civilian","the civilian shocked the officer with a tazer","getBack","tazer","officerCivilian","acceptableCiv","15","","","",""
"30",3558,"{""Q0"":80}","[object Object]","survey-likert",29,414507,"0.0-29.0","ngkaka199m7fm9r3phem46jd1esgcmns","Thu Feb 09 2017 10:38:01 GMT-0500 (EST)","female","More than one","very liberal","",NA,"","offCivRatings","the officer yelled ""get back!"" at the civilian","the civilian shocked the officer with a tazer","getBack","tazer","officerCivilian","punishCiv","80","","","",""
"31",935,"","","instructions",30,415443,"0.0-30.0","ngkaka199m7fm9r3phem46jd1esgcmns","Thu Feb 09 2017 10:38:01 GMT-0500 (EST)","female","More than one","very liberal","",NA,"[{""page_index"":0,""viewing_time"":935}]","break","","","","","","","","","","",""
"32",12241,"{""Q0"":93}","[object Object]","survey-likert",31,427892,"0.0-31.0","ngkaka199m7fm9r3phem46jd1esgcmns","Thu Feb 09 2017 10:38:01 GMT-0500 (EST)","female","More than one","very liberal","",NA,"","offCivRatings","the officer sprayed the civilian with pepper spray","the civilian waved at the officer in greeting","pepperSpray","waved","officerCivilian","acceptableCiv","93","","","",""
"33",4018,"{""Q0"":6}","[object Object]","survey-likert",32,431916,"0.0-32.0","ngkaka199m7fm9r3phem46jd1esgcmns","Thu Feb 09 2017 10:38:01 GMT-0500 (EST)","female","More than one","very liberal","",NA,"","offCivRatings","the officer sprayed the civilian with pepper spray","the civilian waved at the officer in greeting","pepperSpray","waved","officerCivilian","forceCiv","6","","","",""
"34",9105,"{""Q0"":37}","[object Object]","survey-likert",33,441026,"0.0-33.0","ngkaka199m7fm9r3phem46jd1esgcmns","Thu Feb 09 2017 10:38:01 GMT-0500 (EST)","female","More than one","very liberal","",NA,"","offCivRatings","the officer sprayed the civilian with pepper spray","the civilian waved at the officer in greeting","pepperSpray","waved","officerCivilian","appropriateCiv","37","","","",""
"35",5012,"{""Q0"":4}","[object Object]","survey-likert",34,446044,"0.0-34.0","ngkaka199m7fm9r3phem46jd1esgcmns","Thu Feb 09 2017 10:38:01 GMT-0500 (EST)","female","More than one","very liberal","",NA,"","offCivRatings","the officer sprayed the civilian with pepper spray","the civilian waved at the officer in greeting","pepperSpray","waved","officerCivilian","punishCiv","4","","","",""
"36",5127,"{""Q0"":1}","[object Object]","survey-likert",35,451178,"0.0-35.0","ngkaka199m7fm9r3phem46jd1esgcmns","Thu Feb 09 2017 10:38:01 GMT-0500 (EST)","female","More than one","very liberal","",NA,"","offCivRatings","the officer sprayed the civilian with pepper spray","the civilian waved at the officer in greeting","pepperSpray","waved","officerCivilian","manipCheckLow","1","","","",""
"37",1871,"","","instructions",36,453050,"0.0-36.0","ngkaka199m7fm9r3phem46jd1esgcmns","Thu Feb 09 2017 10:38:01 GMT-0500 (EST)","female","More than one","very liberal","",NA,"[{""page_index"":0,""viewing_time"":1871}]","break","","","","","","","","","","",""
"38",7084,"{""Q0"":74}","[object Object]","survey-likert",37,460342,"0.0-37.0","ngkaka199m7fm9r3phem46jd1esgcmns","Thu Feb 09 2017 10:38:01 GMT-0500 (EST)","female","More than one","very liberal","",NA,"","offCivRatings","the officer headbutted the civilian in the face","the civilian twisted the arm of the officer, forcing him to the ground","headbutt","armbar","officerCivilian","forceCiv","74","","","",""
"39",4577,"{""Q0"":1}","[object Object]","survey-likert",38,464925,"0.0-38.0","ngkaka199m7fm9r3phem46jd1esgcmns","Thu Feb 09 2017 10:38:01 GMT-0500 (EST)","female","More than one","very liberal","",NA,"","offCivRatings","the officer headbutted the civilian in the face","the civilian twisted the arm of the officer, forcing him to the ground","headbutt","armbar","officerCivilian","manipCheckHigh","1","","","",""
"40",6252,"{""Q0"":72}","[object Object]","survey-likert",39,471184,"0.0-39.0","ngkaka199m7fm9r3phem46jd1esgcmns","Thu Feb 09 2017 10:38:01 GMT-0500 (EST)","female","More than one","very liberal","",NA,"","offCivRatings","the officer headbutted the civilian in the face","the civilian twisted the arm of the officer, forcing him to the ground","headbutt","armbar","officerCivilian","appropriateCiv","72","","","",""
"41",3622,"{""Q0"":72}","[object Object]","survey-likert",40,474814,"0.0-40.0","ngkaka199m7fm9r3phem46jd1esgcmns","Thu Feb 09 2017 10:38:01 GMT-0500 (EST)","female","More than one","very liberal","",NA,"","offCivRatings","the officer headbutted the civilian in the face","the civilian twisted the arm of the officer, forcing him to the ground","headbutt","armbar","officerCivilian","punishCiv","72","","","",""
"42",7299,"{""Q0"":58}","[object Object]","survey-likert",41,482119,"0.0-41.0","ngkaka199m7fm9r3phem46jd1esgcmns","Thu Feb 09 2017 10:38:01 GMT-0500 (EST)","female","More than one","very liberal","",NA,"","offCivRatings","the officer headbutted the civilian in the face","the civilian twisted the arm of the officer, forcing him to the ground","headbutt","armbar","officerCivilian","acceptableCiv","58","","","",""
"43",1040,"","","instructions",42,483160,"0.0-42.0","ngkaka199m7fm9r3phem46jd1esgcmns","Thu Feb 09 2017 10:38:01 GMT-0500 (EST)","female","More than one","very liberal","",NA,"[{""page_index"":0,""viewing_time"":1040}]","break","","","","","","","","","","",""
"44",10159,"{""Q0"":55}","[object Object]","survey-likert",43,493530,"0.0-43.0","ngkaka199m7fm9r3phem46jd1esgcmns","Thu Feb 09 2017 10:38:01 GMT-0500 (EST)","female","More than one","very liberal","",NA,"","offCivRatings","the officer kicked the civilian in the stomach","the civilian struck the officer on the leg with a metal pipe","kickStom","metalPipe","officerCivilian","punishCiv","55","","","",""
"45",2676,"{""Q0"":1}","[object Object]","survey-likert",44,496214,"0.0-44.0","ngkaka199m7fm9r3phem46jd1esgcmns","Thu Feb 09 2017 10:38:01 GMT-0500 (EST)","female","More than one","very liberal","",NA,"","offCivRatings","the officer kicked the civilian in the stomach","the civilian struck the officer on the leg with a metal pipe","kickStom","metalPipe","officerCivilian","manipCheckLow","1","","","",""
"46",5512,"{""Q0"":45}","[object Object]","survey-likert",45,501733,"0.0-45.0","ngkaka199m7fm9r3phem46jd1esgcmns","Thu Feb 09 2017 10:38:01 GMT-0500 (EST)","female","More than one","very liberal","",NA,"","offCivRatings","the officer kicked the civilian in the stomach","the civilian struck the officer on the leg with a metal pipe","kickStom","metalPipe","officerCivilian","acceptableCiv","45","","","",""
"47",4190,"{""Q0"":75}","[object Object]","survey-likert",46,505929,"0.0-46.0","ngkaka199m7fm9r3phem46jd1esgcmns","Thu Feb 09 2017 10:38:01 GMT-0500 (EST)","female","More than one","very liberal","",NA,"","offCivRatings","the officer kicked the civilian in the stomach","the civilian struck the officer on the leg with a metal pipe","kickStom","metalPipe","officerCivilian","appropriateCiv","75","","","",""
"48",3613,"{""Q0"":73}","[object Object]","survey-likert",47,509548,"0.0-47.0","ngkaka199m7fm9r3phem46jd1esgcmns","Thu Feb 09 2017 10:38:01 GMT-0500 (EST)","female","More than one","very liberal","",NA,"","offCivRatings","the officer kicked the civilian in the stomach","the civilian struck the officer on the leg with a metal pipe","kickStom","metalPipe","officerCivilian","forceCiv","73","","","",""
"49",1153,"","","instructions",48,510702,"0.0-48.0","ngkaka199m7fm9r3phem46jd1esgcmns","Thu Feb 09 2017 10:38:01 GMT-0500 (EST)","female","More than one","very liberal","",NA,"[{""page_index"":0,""viewing_time"":1153}]","break","","","","","","","","","","",""
"50",10653,"{""Q0"":73}","[object Object]","survey-likert",49,521564,"0.0-49.0","ngkaka199m7fm9r3phem46jd1esgcmns","Thu Feb 09 2017 10:38:01 GMT-0500 (EST)","female","More than one","very liberal","",NA,"","offCivRatings","the officer struck the civilian in the stomach with a metal flashlight","the civilian slammed the officer's head into the concrete curb","flashlight","headSlam","civilianOfficer","acceptableOff","73","","","",""
"51",3119,"{""Q0"":37}","[object Object]","survey-likert",50,524688,"0.0-50.0","ngkaka199m7fm9r3phem46jd1esgcmns","Thu Feb 09 2017 10:38:01 GMT-0500 (EST)","female","More than one","very liberal","",NA,"","offCivRatings","the officer struck the civilian in the stomach with a metal flashlight","the civilian slammed the officer's head into the concrete curb","flashlight","headSlam","civilianOfficer","punishOff","37","","","",""
"52",5723,"{""Q0"":58}","[object Object]","survey-likert",51,530419,"0.0-51.0","ngkaka199m7fm9r3phem46jd1esgcmns","Thu Feb 09 2017 10:38:01 GMT-0500 (EST)","female","More than one","very liberal","",NA,"","offCivRatings","the officer struck the civilian in the stomach with a metal flashlight","the civilian slammed the officer's head into the concrete curb","flashlight","headSlam","civilianOfficer","forceOff","58","","","",""
"53",2911,"{""Q0"":60}","[object Object]","survey-likert",52,533336,"0.0-52.0","ngkaka199m7fm9r3phem46jd1esgcmns","Thu Feb 09 2017 10:38:01 GMT-0500 (EST)","female","More than one","very liberal","",NA,"","offCivRatings","the officer struck the civilian in the stomach with a metal flashlight","the civilian slammed the officer's head into the concrete curb","flashlight","headSlam","civilianOfficer","appropriateOff","60","","","",""
"54",932,"","","instructions",53,534269,"0.0-53.0","ngkaka199m7fm9r3phem46jd1esgcmns","Thu Feb 09 2017 10:38:01 GMT-0500 (EST)","female","More than one","very liberal","",NA,"[{""page_index"":0,""viewing_time"":931}]","break","","","","","","","","","","",""
"55",7219,"{""Q0"":99}","[object Object]","survey-likert",54,541697,"0.0-54.0","ngkaka199m7fm9r3phem46jd1esgcmns","Thu Feb 09 2017 10:38:01 GMT-0500 (EST)","female","More than one","very liberal","",NA,"","offCivRatings","the officer shot the civilian in the head with a handgun","the civilian headbutted the officer in the face","handgunHead","headbutt","civilianOfficer","forceOff","99","","","",""
"56",3769,"{""Q0"":99}","[object Object]","survey-likert",55,545472,"0.0-55.0","ngkaka199m7fm9r3phem46jd1esgcmns","Thu Feb 09 2017 10:38:01 GMT-0500 (EST)","female","More than one","very liberal","",NA,"","offCivRatings","the officer shot the civilian in the head with a handgun","the civilian headbutted the officer in the face","handgunHead","headbutt","civilianOfficer","appropriateOff","99","","","",""
"57",4546,"{""Q0"":2}","[object Object]","survey-likert",56,550025,"0.0-56.0","ngkaka199m7fm9r3phem46jd1esgcmns","Thu Feb 09 2017 10:38:01 GMT-0500 (EST)","female","More than one","very liberal","",NA,"","offCivRatings","the officer shot the civilian in the head with a handgun","the civilian headbutted the officer in the face","handgunHead","headbutt","civilianOfficer","acceptableOff","2","","","",""
"58",3793,"{""Q0"":84}","[object Object]","survey-likert",57,553824,"0.0-57.0","ngkaka199m7fm9r3phem46jd1esgcmns","Thu Feb 09 2017 10:38:01 GMT-0500 (EST)","female","More than one","very liberal","",NA,"","offCivRatings","the officer shot the civilian in the head with a handgun","the civilian headbutted the officer in the face","handgunHead","headbutt","civilianOfficer","punishOff","84","","","",""
"59",1350,"","","instructions",58,555174,"0.0-58.0","ngkaka199m7fm9r3phem46jd1esgcmns","Thu Feb 09 2017 10:38:01 GMT-0500 (EST)","female","More than one","very liberal","",NA,"[{""page_index"":0,""viewing_time"":1349}]","break","","","","","","","","","","",""
"60",8284,"{""Q0"":65}","[object Object]","survey-likert",59,563667,"0.0-59.0","ngkaka199m7fm9r3phem46jd1esgcmns","Thu Feb 09 2017 10:38:01 GMT-0500 (EST)","female","More than one","very liberal","",NA,"","offCivRatings","the officer shouted ""get your fucking hands up!"" at the civilian","the civilian called the officer a ""pig""","handsUp","nameCall","officerCivilian","acceptableCiv","65","","","",""
"61",3332,"{""Q0"":33}","[object Object]","survey-likert",60,567006,"0.0-60.0","ngkaka199m7fm9r3phem46jd1esgcmns","Thu Feb 09 2017 10:38:01 GMT-0500 (EST)","female","More than one","very liberal","",NA,"","offCivRatings","the officer shouted ""get your fucking hands up!"" at the civilian","the civilian called the officer a ""pig""","handsUp","nameCall","officerCivilian","punishCiv","33","","","",""
"62",3708,"{""Q0"":10}","[object Object]","survey-likert",61,570722,"0.0-61.0","ngkaka199m7fm9r3phem46jd1esgcmns","Thu Feb 09 2017 10:38:01 GMT-0500 (EST)","female","More than one","very liberal","",NA,"","offCivRatings","the officer shouted ""get your fucking hands up!"" at the civilian","the civilian called the officer a ""pig""","handsUp","nameCall","officerCivilian","forceCiv","10","","","",""
"63",4431,"{""Q0"":52}","[object Object]","survey-likert",62,575159,"0.0-62.0","ngkaka199m7fm9r3phem46jd1esgcmns","Thu Feb 09 2017 10:38:01 GMT-0500 (EST)","female","More than one","very liberal","",NA,"","offCivRatings","the officer shouted ""get your fucking hands up!"" at the civilian","the civilian called the officer a ""pig""","handsUp","nameCall","officerCivilian","appropriateCiv","52","","","",""
"64",1000,"","","instructions",63,576159,"0.0-63.0","ngkaka199m7fm9r3phem46jd1esgcmns","Thu Feb 09 2017 10:38:01 GMT-0500 (EST)","female","More than one","very liberal","",NA,"[{""page_index"":0,""viewing_time"":999}]","break","","","","","","","","","","",""
"65",8182,"{""Q0"":88}","[object Object]","survey-likert",64,584549,"0.0-64.0","ngkaka199m7fm9r3phem46jd1esgcmns","Thu Feb 09 2017 10:38:01 GMT-0500 (EST)","female","More than one","very liberal","",NA,"","offCivRatings","the officer purposefully struck the civilian with a motor vehicle","the civilian shot the officer in the head with a handgun","vehicle","handgunHead","civilianOfficer","forceOff","88","","","",""
"66",3046,"{""Q0"":2}","[object Object]","survey-likert",65,587600,"0.0-65.0","ngkaka199m7fm9r3phem46jd1esgcmns","Thu Feb 09 2017 10:38:01 GMT-0500 (EST)","female","More than one","very liberal","",NA,"","offCivRatings","the officer purposefully struck the civilian with a motor vehicle","the civilian shot the officer in the head with a handgun","vehicle","handgunHead","civilianOfficer","manipCheckHigh","2","","","",""
"67",8202,"{""Q0"":1}","[object Object]","survey-likert",66,595809,"0.0-66.0","ngkaka199m7fm9r3phem46jd1esgcmns","Thu Feb 09 2017 10:38:01 GMT-0500 (EST)","female","More than one","very liberal","",NA,"","offCivRatings","the officer purposefully struck the civilian with a motor vehicle","the civilian shot the officer in the head with a handgun","vehicle","handgunHead","civilianOfficer","punishOff","1","","","",""
"68",3840,"{""Q0"":85}","[object Object]","survey-likert",67,599656,"0.0-67.0","ngkaka199m7fm9r3phem46jd1esgcmns","Thu Feb 09 2017 10:38:01 GMT-0500 (EST)","female","More than one","very liberal","",NA,"","offCivRatings","the officer purposefully struck the civilian with a motor vehicle","the civilian shot the officer in the head with a handgun","vehicle","handgunHead","civilianOfficer","acceptableOff","85","","","",""
"69",5903,"{""Q0"":53}","[object Object]","survey-likert",68,605566,"0.0-68.0","ngkaka199m7fm9r3phem46jd1esgcmns","Thu Feb 09 2017 10:38:01 GMT-0500 (EST)","female","More than one","very liberal","",NA,"","offCivRatings","the officer purposefully struck the civilian with a motor vehicle","the civilian shot the officer in the head with a handgun","vehicle","handgunHead","civilianOfficer","appropriateOff","53","","","",""
"70",1223,"","","instructions",69,606789,"0.0-69.0","ngkaka199m7fm9r3phem46jd1esgcmns","Thu Feb 09 2017 10:38:01 GMT-0500 (EST)","female","More than one","very liberal","",NA,"[{""page_index"":0,""viewing_time"":1222}]","break","","","","","","","","","","",""
"71",8272,"{""Q0"":47}","[object Object]","survey-likert",70,615271,"0.0-70.0","ngkaka199m7fm9r3phem46jd1esgcmns","Thu Feb 09 2017 10:38:01 GMT-0500 (EST)","female","More than one","very liberal","",NA,"","offCivRatings","the officer punched the civilian in the face","the civilian kicked the officer in the stomach","punchFace","kickStom","civilianOfficer","appropriateOff","47","","","",""
"72",3283,"{""Q0"":62}","[object Object]","survey-likert",71,618560,"0.0-71.0","ngkaka199m7fm9r3phem46jd1esgcmns","Thu Feb 09 2017 10:38:01 GMT-0500 (EST)","female","More than one","very liberal","",NA,"","offCivRatings","the officer punched the civilian in the face","the civilian kicked the officer in the stomach","punchFace","kickStom","civilianOfficer","acceptableOff","62","","","",""
"73",6853,"{""Q0"":60}","[object Object]","survey-likert",72,625427,"0.0-72.0","ngkaka199m7fm9r3phem46jd1esgcmns","Thu Feb 09 2017 10:38:01 GMT-0500 (EST)","female","More than one","very liberal","",NA,"","offCivRatings","the officer punched the civilian in the face","the civilian kicked the officer in the stomach","punchFace","kickStom","civilianOfficer","forceOff","60","","","",""
"74",3492,"{""Q0"":39}","[object Object]","survey-likert",73,628926,"0.0-73.0","ngkaka199m7fm9r3phem46jd1esgcmns","Thu Feb 09 2017 10:38:01 GMT-0500 (EST)","female","More than one","very liberal","",NA,"","offCivRatings","the officer punched the civilian in the face","the civilian kicked the officer in the stomach","punchFace","kickStom","civilianOfficer","punishOff","39","","","",""
"75",3292,"{""Q0"":1}","[object Object]","survey-likert",74,632227,"0.0-74.0","ngkaka199m7fm9r3phem46jd1esgcmns","Thu Feb 09 2017 10:38:01 GMT-0500 (EST)","female","More than one","very liberal","",NA,"","offCivRatings","the officer punched the civilian in the face","the civilian kicked the officer in the stomach","punchFace","kickStom","civilianOfficer","manipCheckLow","1","","","",""
"76",887,"","","instructions",75,633114,"0.0-75.0","ngkaka199m7fm9r3phem46jd1esgcmns","Thu Feb 09 2017 10:38:01 GMT-0500 (EST)","female","More than one","very liberal","",NA,"[{""page_index"":0,""viewing_time"":886}]","break","","","","","","","","","","",""
"77",7990,"{""Q0"":1}","[object Object]","survey-likert",76,641315,"0.0-76.0","ngkaka199m7fm9r3phem46jd1esgcmns","Thu Feb 09 2017 10:38:01 GMT-0500 (EST)","female","More than one","very liberal","",NA,"","offCivRatings","the officer twisted the arm of the civilian, forcing him to the ground","the civilian hit the officer in the chest with a baseball bat","armbar","ballBat","civilianOfficer","punishOff","1","","","",""
"78",2612,"{""Q0"":83}","[object Object]","survey-likert",77,643933,"0.0-77.0","ngkaka199m7fm9r3phem46jd1esgcmns","Thu Feb 09 2017 10:38:01 GMT-0500 (EST)","female","More than one","very liberal","",NA,"","offCivRatings","the officer twisted the arm of the civilian, forcing him to the ground","the civilian hit the officer in the chest with a baseball bat","armbar","ballBat","civilianOfficer","acceptableOff","83","","","",""
"79",4173,"{""Q0"":64}","[object Object]","survey-likert",78,648112,"0.0-78.0","ngkaka199m7fm9r3phem46jd1esgcmns","Thu Feb 09 2017 10:38:01 GMT-0500 (EST)","female","More than one","very liberal","",NA,"","offCivRatings","the officer twisted the arm of the civilian, forcing him to the ground","the civilian hit the officer in the chest with a baseball bat","armbar","ballBat","civilianOfficer","forceOff","64","","","",""
"80",6779,"{""Q0"":49}","[object Object]","survey-likert",79,654897,"0.0-79.0","ngkaka199m7fm9r3phem46jd1esgcmns","Thu Feb 09 2017 10:38:01 GMT-0500 (EST)","female","More than one","very liberal","",NA,"","offCivRatings","the officer twisted the arm of the civilian, forcing him to the ground","the civilian hit the officer in the chest with a baseball bat","armbar","ballBat","civilianOfficer","appropriateOff","49","","","",""
"81",1214,"","","instructions",80,656112,"0.0-80.0","ngkaka199m7fm9r3phem46jd1esgcmns","Thu Feb 09 2017 10:38:01 GMT-0500 (EST)","female","More than one","very liberal","",NA,"[{""page_index"":0,""viewing_time"":1213}]","break","","","","","","","","","","",""
"82",10701,"{""Q0"":50}","[object Object]","survey-likert",81,667021,"0.0-81.0","ngkaka199m7fm9r3phem46jd1esgcmns","Thu Feb 09 2017 10:38:01 GMT-0500 (EST)","female","More than one","very liberal","",NA,"","offCivRatings","the officer asked the civilian how he was doing","the civilian stood near the officer","asked","stoodNear","officerCivilian","appropriateCiv","50","","","",""
"83",5606,"{""Q0"":97}","[object Object]","survey-likert",82,672634,"0.0-82.0","ngkaka199m7fm9r3phem46jd1esgcmns","Thu Feb 09 2017 10:38:01 GMT-0500 (EST)","female","More than one","very liberal","",NA,"","offCivRatings","the officer asked the civilian how he was doing","the civilian stood near the officer","asked","stoodNear","officerCivilian","acceptableCiv","97","","","",""
"84",4388,"{""Q0"":1}","[object Object]","survey-likert",83,677029,"0.0-83.0","ngkaka199m7fm9r3phem46jd1esgcmns","Thu Feb 09 2017 10:38:01 GMT-0500 (EST)","female","More than one","very liberal","",NA,"","offCivRatings","the officer asked the civilian how he was doing","the civilian stood near the officer","asked","stoodNear","officerCivilian","punishCiv","1","","","",""
"85",4054,"{""Q0"":2}","[object Object]","survey-likert",84,681091,"0.0-84.0","ngkaka199m7fm9r3phem46jd1esgcmns","Thu Feb 09 2017 10:38:01 GMT-0500 (EST)","female","More than one","very liberal","",NA,"","offCivRatings","the officer asked the civilian how he was doing","the civilian stood near the officer","asked","stoodNear","officerCivilian","forceCiv","2","","","",""
"86",1192,"","","instructions",85,682283,"0.0-85.0","ngkaka199m7fm9r3phem46jd1esgcmns","Thu Feb 09 2017 10:38:01 GMT-0500 (EST)","female","More than one","very liberal","",NA,"[{""page_index"":0,""viewing_time"":1191}]","break","","","","","","","","","","",""
"87",8662,"{""Q0"":59}","[object Object]","survey-likert",86,691153,"0.0-86.0","ngkaka199m7fm9r3phem46jd1esgcmns","Thu Feb 09 2017 10:38:01 GMT-0500 (EST)","female","More than one","very liberal","",NA,"","offCivRatings","the officer slammed the civilian's head into the concrete curb","the civilian sprayed the officer with pepper spray","headSlam","pepperSpray","civilianOfficer","punishOff","59","","","",""
"88",7179,"{""Q0"":62}","[object Object]","survey-likert",87,698338,"0.0-87.0","ngkaka199m7fm9r3phem46jd1esgcmns","Thu Feb 09 2017 10:38:01 GMT-0500 (EST)","female","More than one","very liberal","",NA,"","offCivRatings","the officer slammed the civilian's head into the concrete curb","the civilian sprayed the officer with pepper spray","headSlam","pepperSpray","civilianOfficer","appropriateOff","62","","","",""
"89",3868,"{""Q0"":50}","[object Object]","survey-likert",88,702211,"0.0-88.0","ngkaka199m7fm9r3phem46jd1esgcmns","Thu Feb 09 2017 10:38:01 GMT-0500 (EST)","female","More than one","very liberal","",NA,"","offCivRatings","the officer slammed the civilian's head into the concrete curb","the civilian sprayed the officer with pepper spray","headSlam","pepperSpray","civilianOfficer","acceptableOff","50","","","",""
"90",3371,"{""Q0"":1}","[object Object]","survey-likert",89,705590,"0.0-89.0","ngkaka199m7fm9r3phem46jd1esgcmns","Thu Feb 09 2017 10:38:01 GMT-0500 (EST)","female","More than one","very liberal","",NA,"","offCivRatings","the officer slammed the civilian's head into the concrete curb","the civilian sprayed the officer with pepper spray","headSlam","pepperSpray","civilianOfficer","manipCheckLow","1","","","",""
"91",3202,"{""Q0"":69}","[object Object]","survey-likert",90,708796,"0.0-90.0","ngkaka199m7fm9r3phem46jd1esgcmns","Thu Feb 09 2017 10:38:01 GMT-0500 (EST)","female","More than one","very liberal","",NA,"","offCivRatings","the officer slammed the civilian's head into the concrete curb","the civilian sprayed the officer with pepper spray","headSlam","pepperSpray","civilianOfficer","forceOff","69","","","",""
"92",908,"","","instructions",91,709705,"0.0-91.0","ngkaka199m7fm9r3phem46jd1esgcmns","Thu Feb 09 2017 10:38:01 GMT-0500 (EST)","female","More than one","very liberal","",NA,"[{""page_index"":0,""viewing_time"":907}]","break","","","","","","","","","","",""
"93",8700,"{""Q0"":50}","[object Object]","survey-likert",92,718614,"0.0-92.0","ngkaka199m7fm9r3phem46jd1esgcmns","Thu Feb 09 2017 10:38:01 GMT-0500 (EST)","female","More than one","very liberal","",NA,"","offCivRatings","the officer stood near the civilian","the civilian said ""if you touch me, you're gonna get hurt"" to the officer","stoodNear","hurtThreat","civilianOfficer","appropriateOff","50","","","",""
"94",2600,"{""Q0"":30}","[object Object]","survey-likert",93,721220,"0.0-93.0","ngkaka199m7fm9r3phem46jd1esgcmns","Thu Feb 09 2017 10:38:01 GMT-0500 (EST)","female","More than one","very liberal","",NA,"","offCivRatings","the officer stood near the civilian","the civilian said ""if you touch me, you're gonna get hurt"" to the officer","stoodNear","hurtThreat","civilianOfficer","punishOff","30","","","",""
"95",4060,"{""Q0"":75}","[object Object]","survey-likert",94,725288,"0.0-94.0","ngkaka199m7fm9r3phem46jd1esgcmns","Thu Feb 09 2017 10:38:01 GMT-0500 (EST)","female","More than one","very liberal","",NA,"","offCivRatings","the officer stood near the civilian","the civilian said ""if you touch me, you're gonna get hurt"" to the officer","stoodNear","hurtThreat","civilianOfficer","acceptableOff","75","","","",""
"96",5094,"{""Q0"":9}","[object Object]","survey-likert",95,730389,"0.0-95.0","ngkaka199m7fm9r3phem46jd1esgcmns","Thu Feb 09 2017 10:38:01 GMT-0500 (EST)","female","More than one","very liberal","",NA,"","offCivRatings","the officer stood near the civilian","the civilian said ""if you touch me, you're gonna get hurt"" to the officer","stoodNear","hurtThreat","civilianOfficer","forceOff","9","","","",""
"97",916,"","","instructions",96,731305,"0.0-96.0","ngkaka199m7fm9r3phem46jd1esgcmns","Thu Feb 09 2017 10:38:01 GMT-0500 (EST)","female","More than one","very liberal","",NA,"[{""page_index"":0,""viewing_time"":916}]","break","","","","","","","","","","",""
"98",9152,"{""Q0"":98}","[object Object]","survey-likert",97,740667,"0.0-97.0","ngkaka199m7fm9r3phem46jd1esgcmns","Thu Feb 09 2017 10:38:01 GMT-0500 (EST)","female","More than one","very liberal","",NA,"","offCivRatings","the officer put handcuffs on the civilian","the civilian purposefully struck the officer with a motor vehicle","handcuff","vehicle","officerCivilian","appropriateCiv","98","","","",""
"99",2949,"{""Q0"":99}","[object Object]","survey-likert",98,743624,"0.0-98.0","ngkaka199m7fm9r3phem46jd1esgcmns","Thu Feb 09 2017 10:38:01 GMT-0500 (EST)","female","More than one","very liberal","",NA,"","offCivRatings","the officer put handcuffs on the civilian","the civilian purposefully struck the officer with a motor vehicle","handcuff","vehicle","officerCivilian","manipCheckHigh","99","","","",""
"100",3989,"{""Q0"":3}","[object Object]","survey-likert",99,747620,"0.0-99.0","ngkaka199m7fm9r3phem46jd1esgcmns","Thu Feb 09 2017 10:38:01 GMT-0500 (EST)","female","More than one","very liberal","",NA,"","offCivRatings","the officer put handcuffs on the civilian","the civilian purposefully struck the officer with a motor vehicle","handcuff","vehicle","officerCivilian","acceptableCiv","3","","","",""
"101",4757,"{""Q0"":99}","[object Object]","survey-likert",100,752383,"0.0-100.0","ngkaka199m7fm9r3phem46jd1esgcmns","Thu Feb 09 2017 10:38:01 GMT-0500 (EST)","female","More than one","very liberal","",NA,"","offCivRatings","the officer put handcuffs on the civilian","the civilian purposefully struck the officer with a motor vehicle","handcuff","vehicle","officerCivilian","forceCiv","99","","","",""
"102",4292,"{""Q0"":90}","[object Object]","survey-likert",101,756681,"0.0-101.0","ngkaka199m7fm9r3phem46jd1esgcmns","Thu Feb 09 2017 10:38:01 GMT-0500 (EST)","female","More than one","very liberal","",NA,"","offCivRatings","the officer put handcuffs on the civilian","the civilian purposefully struck the officer with a motor vehicle","handcuff","vehicle","officerCivilian","punishCiv","90","","","",""
"103",1852,"","","instructions",102,758533,"0.0-102.0","ngkaka199m7fm9r3phem46jd1esgcmns","Thu Feb 09 2017 10:38:01 GMT-0500 (EST)","female","More than one","very liberal","",NA,"[{""page_index"":0,""viewing_time"":1851}]","break","","","","","","","","","","",""
"104",8616,"{""Q0"":100}","[object Object]","survey-likert",103,767359,"0.0-103.0","ngkaka199m7fm9r3phem46jd1esgcmns","Thu Feb 09 2017 10:38:01 GMT-0500 (EST)","female","More than one","very liberal","",NA,"","offCivRatings","the officer said ""if you touch me, you're gonna get hurt"" to the civilian","the civilian struck the officer in the stomach with a metal flashlight","hurtThreat","flashlight","officerCivilian","manipCheckHigh","100","","","",""
"105",5701,"{""Q0"":82}","[object Object]","survey-likert",104,773065,"0.0-104.0","ngkaka199m7fm9r3phem46jd1esgcmns","Thu Feb 09 2017 10:38:01 GMT-0500 (EST)","female","More than one","very liberal","",NA,"","offCivRatings","the officer said ""if you touch me, you're gonna get hurt"" to the civilian","the civilian struck the officer in the stomach with a metal flashlight","hurtThreat","flashlight","officerCivilian","punishCiv","82","","","",""
"106",3138,"{""Q0"":79}","[object Object]","survey-likert",105,776208,"0.0-105.0","ngkaka199m7fm9r3phem46jd1esgcmns","Thu Feb 09 2017 10:38:01 GMT-0500 (EST)","female","More than one","very liberal","",NA,"","offCivRatings","the officer said ""if you touch me, you're gonna get hurt"" to the civilian","the civilian struck the officer in the stomach with a metal flashlight","hurtThreat","flashlight","officerCivilian","forceCiv","79","","","",""
"107",2258,"{""Q0"":13}","[object Object]","survey-likert",106,778472,"0.0-106.0","ngkaka199m7fm9r3phem46jd1esgcmns","Thu Feb 09 2017 10:38:01 GMT-0500 (EST)","female","More than one","very liberal","",NA,"","offCivRatings","the officer said ""if you touch me, you're gonna get hurt"" to the civilian","the civilian struck the officer in the stomach with a metal flashlight","hurtThreat","flashlight","officerCivilian","acceptableCiv","13","","","",""
"108",4448,"{""Q0"":82}","[object Object]","survey-likert",107,782926,"0.0-107.0","ngkaka199m7fm9r3phem46jd1esgcmns","Thu Feb 09 2017 10:38:01 GMT-0500 (EST)","female","More than one","very liberal","",NA,"","offCivRatings","the officer said ""if you touch me, you're gonna get hurt"" to the civilian","the civilian struck the officer in the stomach with a metal flashlight","hurtThreat","flashlight","officerCivilian","appropriateCiv","82","","","",""
"109",1006,"","","instructions",108,783932,"0.0-108.0","ngkaka199m7fm9r3phem46jd1esgcmns","Thu Feb 09 2017 10:38:01 GMT-0500 (EST)","female","More than one","very liberal","",NA,"[{""page_index"":0,""viewing_time"":1005}]","break","","","","","","","","","","",""
"110",10060,"{""Q0"":74}","[object Object]","survey-likert",109,794201,"0.0-109.0","ngkaka199m7fm9r3phem46jd1esgcmns","Thu Feb 09 2017 10:38:01 GMT-0500 (EST)","female","More than one","very liberal","",NA,"","offCivRatings","the officer shocked the civilian with a tazer","the civilian punched the officer in the face","tazer","punchFace","civilianOfficer","forceOff","74","","","",""
"111",2788,"{""Q0"":28}","[object Object]","survey-likert",110,796999,"0.0-110.0","ngkaka199m7fm9r3phem46jd1esgcmns","Thu Feb 09 2017 10:38:01 GMT-0500 (EST)","female","More than one","very liberal","",NA,"","offCivRatings","the officer shocked the civilian with a tazer","the civilian punched the officer in the face","tazer","punchFace","civilianOfficer","punishOff","28","","","",""
"112",2883,"{""Q0"":79}","[object Object]","survey-likert",111,799887,"0.0-111.0","ngkaka199m7fm9r3phem46jd1esgcmns","Thu Feb 09 2017 10:38:01 GMT-0500 (EST)","female","More than one","very liberal","",NA,"","offCivRatings","the officer shocked the civilian with a tazer","the civilian punched the officer in the face","tazer","punchFace","civilianOfficer","acceptableOff","79","","","",""
"113",38928,"{""Q0"":50}","[object Object]","survey-likert",112,838823,"0.0-112.0","ngkaka199m7fm9r3phem46jd1esgcmns","Thu Feb 09 2017 10:38:01 GMT-0500 (EST)","female","More than one","very liberal","",NA,"","offCivRatings","the officer shocked the civilian with a tazer","the civilian punched the officer in the face","tazer","punchFace","civilianOfficer","appropriateOff","50","","","",""
"114",994,"","","instructions",113,839817,"0.0-113.0","ngkaka199m7fm9r3phem46jd1esgcmns","Thu Feb 09 2017 10:38:01 GMT-0500 (EST)","female","More than one","very liberal","",NA,"[{""page_index"":0,""viewing_time"":994}]","break","","","","","","","","","","",""
"115",7037,"{""Q0"":20}","[object Object]","survey-likert",114,847063,"0.0-114.0","ngkaka199m7fm9r3phem46jd1esgcmns","Thu Feb 09 2017 10:38:01 GMT-0500 (EST)","female","More than one","very liberal","",NA,"","offCivRatings","the officer struck the civilian on the leg with a collapsible baton","the civilian yelled ""get back!"" at the officer","batonLeg","getBack","officerCivilian","punishCiv","20","","","",""
"116",2775,"{""Q0"":50}","[object Object]","survey-likert",115,849844,"0.0-115.0","ngkaka199m7fm9r3phem46jd1esgcmns","Thu Feb 09 2017 10:38:01 GMT-0500 (EST)","female","More than one","very liberal","",NA,"","offCivRatings","the officer struck the civilian on the leg with a collapsible baton","the civilian yelled ""get back!"" at the officer","batonLeg","getBack","officerCivilian","appropriateCiv","50","","","",""
"117",5720,"{""Q0"":10}","[object Object]","survey-likert",116,855570,"0.0-116.0","ngkaka199m7fm9r3phem46jd1esgcmns","Thu Feb 09 2017 10:38:01 GMT-0500 (EST)","female","More than one","very liberal","",NA,"","offCivRatings","the officer struck the civilian on the leg with a collapsible baton","the civilian yelled ""get back!"" at the officer","batonLeg","getBack","officerCivilian","forceCiv","10","","","",""
"118",11736,"{""Q0"":88}","[object Object]","survey-likert",117,867311,"0.0-117.0","ngkaka199m7fm9r3phem46jd1esgcmns","Thu Feb 09 2017 10:38:01 GMT-0500 (EST)","female","More than one","very liberal","",NA,"","offCivRatings","the officer struck the civilian on the leg with a collapsible baton","the civilian yelled ""get back!"" at the officer","batonLeg","getBack","officerCivilian","acceptableCiv","88","","","",""
"119",902,"","","instructions",118,868214,"0.0-118.0","ngkaka199m7fm9r3phem46jd1esgcmns","Thu Feb 09 2017 10:38:01 GMT-0500 (EST)","female","More than one","very liberal","",NA,"[{""page_index"":0,""viewing_time"":902}]","break","","","","","","","","","","",""
"120",7208,"{""Q0"":50}","[object Object]","survey-likert",119,875632,"0.0-119.0","ngkaka199m7fm9r3phem46jd1esgcmns","Thu Feb 09 2017 10:38:01 GMT-0500 (EST)","female","More than one","very liberal","",NA,"","offCivRatings","the officer applied a chokehold to the civilian","the civilian shot the officer in the chest with a handgun","choke","handgunChest","civilianOfficer","appropriateOff","50","","","",""
"121",4852,"{""Q0"":26}","[object Object]","survey-likert",120,880490,"0.0-120.0","ngkaka199m7fm9r3phem46jd1esgcmns","Thu Feb 09 2017 10:38:01 GMT-0500 (EST)","female","More than one","very liberal","",NA,"","offCivRatings","the officer applied a chokehold to the civilian","the civilian shot the officer in the chest with a handgun","choke","handgunChest","civilianOfficer","punishOff","26","","","",""
"122",3208,"{""Q0"":60}","[object Object]","survey-likert",121,883704,"0.0-121.0","ngkaka199m7fm9r3phem46jd1esgcmns","Thu Feb 09 2017 10:38:01 GMT-0500 (EST)","female","More than one","very liberal","",NA,"","offCivRatings","the officer applied a chokehold to the civilian","the civilian shot the officer in the chest with a handgun","choke","handgunChest","civilianOfficer","forceOff","60","","","",""
"123",3638,"{""Q0"":73}","[object Object]","survey-likert",122,887348,"0.0-122.0","ngkaka199m7fm9r3phem46jd1esgcmns","Thu Feb 09 2017 10:38:01 GMT-0500 (EST)","female","More than one","very liberal","",NA,"","offCivRatings","the officer applied a chokehold to the civilian","the civilian shot the officer in the chest with a handgun","choke","handgunChest","civilianOfficer","acceptableOff","73","","","",""
"124",2101,"","","instructions",123,889449,"0.0-123.0","ngkaka199m7fm9r3phem46jd1esgcmns","Thu Feb 09 2017 10:38:01 GMT-0500 (EST)","female","More than one","very liberal","",NA,"[{""page_index"":0,""viewing_time"":2100}]","break","","","","","","","","","","",""
"125",10112,"{""Q0"":60}","[object Object]","survey-likert",124,899772,"0.0-124.0","ngkaka199m7fm9r3phem46jd1esgcmns","Thu Feb 09 2017 10:38:01 GMT-0500 (EST)","female","More than one","very liberal","",NA,"","policeLegitimacy","","","","","","","60","importantValues","normAlignment","",""
"126",5773,"{""Q0"":61}","[object Object]","survey-likert",125,905552,"0.0-125.0","ngkaka199m7fm9r3phem46jd1esgcmns","Thu Feb 09 2017 10:38:01 GMT-0500 (EST)","female","More than one","very liberal","",NA,"","policeLegitimacy","","","","","","","61","rightWrong","normAlignment","",""
"127",7433,"{""Q0"":44}","[object Object]","survey-likert",126,912991,"0.0-126.0","ngkaka199m7fm9r3phem46jd1esgcmns","Thu Feb 09 2017 10:38:01 GMT-0500 (EST)","female","More than one","very liberal","",NA,"","policeLegitimacy","","","","","","","44","support","feltObligation","",""
"128",4170,"{""Q0"":67}","[object Object]","survey-likert",127,917167,"0.0-127.0","ngkaka199m7fm9r3phem46jd1esgcmns","Thu Feb 09 2017 10:38:01 GMT-0500 (EST)","female","More than one","very liberal","",NA,"","policeLegitimacy","","","","","","","67","doTreat","feltObligation","",""
"129",3994,"{""Q0"":57}","[object Object]","survey-likert",128,921167,"0.0-128.0","ngkaka199m7fm9r3phem46jd1esgcmns","Thu Feb 09 2017 10:38:01 GMT-0500 (EST)","female","More than one","very liberal","",NA,"","policeLegitimacy","","","","","","","57","doReasons","feltObligation","",""
"130",4318,"{""Q0"":39}","[object Object]","survey-likert",129,925490,"0.0-129.0","ngkaka199m7fm9r3phem46jd1esgcmns","Thu Feb 09 2017 10:38:01 GMT-0500 (EST)","female","More than one","very liberal","",NA,"","policeLegitimacy","","","","","","","39","communityWants","normAlignment","",""
"131",3144,"{""Q0"":""no""}","[object Object]","survey-multi-choice2",130,928641,"0.0-130.0","ngkaka199m7fm9r3phem46jd1esgcmns","Thu Feb 09 2017 10:38:01 GMT-0500 (EST)","female","More than one","very liberal","",NA,"","policeExperience","","","","","","","no","excessForce","","vicarious","Have the police ever used excessive force against anyone in your household?"
"132",3495,"{""Q0"":""no""}","[object Object]","survey-multi-choice2",131,932138,"0.0-131.0","ngkaka199m7fm9r3phem46jd1esgcmns","Thu Feb 09 2017 10:38:01 GMT-0500 (EST)","female","More than one","very liberal","",NA,"","policeExperience","","","","","","","no","excessForce","","personal","Have the police ever used excessive force against you?"
"133",4536,"{""Q0"":""no""}","[object Object]","survey-multi-choice2",132,936678,"0.0-132.0","ngkaka199m7fm9r3phem46jd1esgcmns","Thu Feb 09 2017 10:38:01 GMT-0500 (EST)","female","More than one","very liberal","",NA,"","policeExperience","","","","","","","no","insultLang","","vicarious","Have the police ever used insulting language toward anyone in your household?"
"134",2702,"{""Q0"":""no""}","[object Object]","survey-multi-choice2",133,939384,"0.0-133.0","ngkaka199m7fm9r3phem46jd1esgcmns","Thu Feb 09 2017 10:38:01 GMT-0500 (EST)","female","More than one","very liberal","",NA,"","policeExperience","","","","","","","no","insultLang","","personal","Have the police ever used insulting language toward you?"
"135",6264,"{""Q0"":""no""}","[object Object]","survey-multi-choice2",134,945650,"0.0-134.0","ngkaka199m7fm9r3phem46jd1esgcmns","Thu Feb 09 2017 10:38:01 GMT-0500 (EST)","female","More than one","very liberal","",NA,"","policeExperience","","","","","","","no","stopped","","personal","Have you ever been stopped by the police on the street without good reason?"
"136",6065,"{""Q0"":""no""}","[object Object]","survey-multi-choice2",135,951717,"0.0-135.0","ngkaka199m7fm9r3phem46jd1esgcmns","Thu Feb 09 2017 10:38:01 GMT-0500 (EST)","female","More than one","very liberal","",NA,"","policeExperience","","","","","","","no","stopped","","vicarious","Has anyone in your household ever been stopped on the street by the police without good reason?"
"137",12685,"{""Q0"":""no""}","[object Object]","survey-multi-choice2",136,964404,"0.0-136.0","ngkaka199m7fm9r3phem46jd1esgcmns","Thu Feb 09 2017 10:38:01 GMT-0500 (EST)","female","More than one","very liberal","",NA,"","policeExperience","","","","","","","no","corrupt","","personal","Have you ever seen a police officer engage in any corrupt activities (e.g., taking bribes or involvement in the drug trade)?"
"138",14765,"{""Q0"":""female"",""Q1"":""More than one"",""Q2"":""very liberal""}","[object Object]","survey-multi-choice",137,979179,"0.0-137.0","ngkaka199m7fm9r3phem46jd1esgcmns","Thu Feb 09 2017 10:38:01 GMT-0500 (EST)","female","More than one","very liberal","",NA,"","demographics","","","","","","","","","","",""
"139",27882,"","","instructions",138,1008064,"0.0-138.0","ngkaka199m7fm9r3phem46jd1esgcmns","Thu Feb 09 2017 10:38:01 GMT-0500 (EST)","female","More than one","very liberal","",NA,"[{""page_index"":0,""viewing_time"":1569},{""page_index"":1,""viewing_time"":8224},{""page_index"":2,""viewing_time"":16397},{""page_index"":3,""viewing_time"":1692}]","debriefing","","","","","","","","","","",""
