"","rt","responses","internalResp","trial_type","trial_index","time_elapsed","internal_node_id","randSubjectID","date","sex","race","polAff","stimulus","key_press","view_history","questionType","officerAction","civilianAction","offActName","civActName","order","questionName","response","name","dimension","person","question"
"1",9222,"","[object Object]","survey-text",0,9227,"0.0-0.0","npbu7vhut4ra7gyv8vr9ztagqej5n7uu","Sun Jan 22 2017 14:51:54 GMT-0500 (EST)","male","Asian","moderate/middle of the road","",NA,"","","","","","","","","","","","",""
"2",29576,"","","single-stim",1,39811,"0.0-1.0","npbu7vhut4ra7gyv8vr9ztagqej5n7uu","Sun Jan 22 2017 14:51:54 GMT-0500 (EST)","male","Asian","moderate/middle of the road","<img src='static/images/1602685960_ICS_Credit-0.png' alt='Consent 1' height=1100 width=850><img src='static/images/1602685960_ICS_Credit-1.png' alt='Consent 2' height=1100 width=850></p>",89,"","","","","","","","","","","","",""
"3",24495,"","","instructions",2,65308,"0.0-2.0","npbu7vhut4ra7gyv8vr9ztagqej5n7uu","Sun Jan 22 2017 14:51:54 GMT-0500 (EST)","male","Asian","moderate/middle of the road","",NA,"[{""page_index"":0,""viewing_time"":24495}]","instructions","","","","","","","","","","",""
"4",11455,"","","instructions",3,77764,"0.0-3.0","npbu7vhut4ra7gyv8vr9ztagqej5n7uu","Sun Jan 22 2017 14:51:54 GMT-0500 (EST)","male","Asian","moderate/middle of the road","",NA,"[{""page_index"":0,""viewing_time"":1681},{""page_index"":1,""viewing_time"":2381},{""page_index"":2,""viewing_time"":3859},{""page_index"":3,""viewing_time"":3534}]","instructions","","","","","","","","","","",""
"5",284043,"{""Q0"":80}","[object Object]","survey-likert",4,362826,"0.0-4.0","npbu7vhut4ra7gyv8vr9ztagqej5n7uu","Sun Jan 22 2017 14:51:54 GMT-0500 (EST)","male","Asian","moderate/middle of the road","",NA,"","offCivRatings","the officer shot the civilian in the chest with a beanbag shotgun round","the civilian sprayed the officer with pepper spray","beanbag","pepperSpray","civilianOfficer","manipCheckHigh","80","","","",""
"6",10442,"{""Q0"":79}","[object Object]","survey-likert",5,373292,"0.0-5.0","npbu7vhut4ra7gyv8vr9ztagqej5n7uu","Sun Jan 22 2017 14:51:54 GMT-0500 (EST)","male","Asian","moderate/middle of the road","",NA,"","offCivRatings","the officer shot the civilian in the chest with a beanbag shotgun round","the civilian sprayed the officer with pepper spray","beanbag","pepperSpray","civilianOfficer","acceptableOff","79","","","",""
"7",70091,"{""Q0"":100}","[object Object]","survey-likert",6,443390,"0.0-6.0","npbu7vhut4ra7gyv8vr9ztagqej5n7uu","Sun Jan 22 2017 14:51:54 GMT-0500 (EST)","male","Asian","moderate/middle of the road","",NA,"","offCivRatings","the officer shot the civilian in the chest with a beanbag shotgun round","the civilian sprayed the officer with pepper spray","beanbag","pepperSpray","civilianOfficer","forceOff","100","","","",""
"8",5130,"{""Q0"":21}","[object Object]","survey-likert",7,448527,"0.0-7.0","npbu7vhut4ra7gyv8vr9ztagqej5n7uu","Sun Jan 22 2017 14:51:54 GMT-0500 (EST)","male","Asian","moderate/middle of the road","",NA,"","offCivRatings","the officer shot the civilian in the chest with a beanbag shotgun round","the civilian sprayed the officer with pepper spray","beanbag","pepperSpray","civilianOfficer","punishOff","21","","","",""
"9",6018,"{""Q0"":61}","[object Object]","survey-likert",8,454554,"0.0-8.0","npbu7vhut4ra7gyv8vr9ztagqej5n7uu","Sun Jan 22 2017 14:51:54 GMT-0500 (EST)","male","Asian","moderate/middle of the road","",NA,"","offCivRatings","the officer shot the civilian in the chest with a beanbag shotgun round","the civilian sprayed the officer with pepper spray","beanbag","pepperSpray","civilianOfficer","appropriateOff","61","","","",""
"10",1168,"","","instructions",9,455722,"0.0-9.0","npbu7vhut4ra7gyv8vr9ztagqej5n7uu","Sun Jan 22 2017 14:51:54 GMT-0500 (EST)","male","Asian","moderate/middle of the road","",NA,"[{""page_index"":0,""viewing_time"":1167}]","break","","","","","","","","","","",""
"11",126621,"{""Q0"":63}","[object Object]","survey-likert",10,582551,"0.0-10.0","npbu7vhut4ra7gyv8vr9ztagqej5n7uu","Sun Jan 22 2017 14:51:54 GMT-0500 (EST)","male","Asian","moderate/middle of the road","",NA,"","offCivRatings","the officer struck the civilian on the leg with a collapsible baton","the civilian stood near the officer","batonLeg","stoodNear","officerCivilian","acceptableCiv","63","","","",""
"12",13054,"{""Q0"":21}","[object Object]","survey-likert",11,595610,"0.0-11.0","npbu7vhut4ra7gyv8vr9ztagqej5n7uu","Sun Jan 22 2017 14:51:54 GMT-0500 (EST)","male","Asian","moderate/middle of the road","",NA,"","offCivRatings","the officer struck the civilian on the leg with a collapsible baton","the civilian stood near the officer","batonLeg","stoodNear","officerCivilian","forceCiv","21","","","",""
"13",3257,"{""Q0"":60}","[object Object]","survey-likert",12,598873,"0.0-12.0","npbu7vhut4ra7gyv8vr9ztagqej5n7uu","Sun Jan 22 2017 14:51:54 GMT-0500 (EST)","male","Asian","moderate/middle of the road","",NA,"","offCivRatings","the officer struck the civilian on the leg with a collapsible baton","the civilian stood near the officer","batonLeg","stoodNear","officerCivilian","punishCiv","60","","","",""
"14",4991,"{""Q0"":70}","[object Object]","survey-likert",13,603868,"0.0-13.0","npbu7vhut4ra7gyv8vr9ztagqej5n7uu","Sun Jan 22 2017 14:51:54 GMT-0500 (EST)","male","Asian","moderate/middle of the road","",NA,"","offCivRatings","the officer struck the civilian on the leg with a collapsible baton","the civilian stood near the officer","batonLeg","stoodNear","officerCivilian","manipCheckLow","70","","","",""
"15",5660,"{""Q0"":36}","[object Object]","survey-likert",14,609535,"0.0-14.0","npbu7vhut4ra7gyv8vr9ztagqej5n7uu","Sun Jan 22 2017 14:51:54 GMT-0500 (EST)","male","Asian","moderate/middle of the road","",NA,"","offCivRatings","the officer struck the civilian on the leg with a collapsible baton","the civilian stood near the officer","batonLeg","stoodNear","officerCivilian","appropriateCiv","36","","","",""
"16",1121,"","","instructions",15,610656,"0.0-15.0","npbu7vhut4ra7gyv8vr9ztagqej5n7uu","Sun Jan 22 2017 14:51:54 GMT-0500 (EST)","male","Asian","moderate/middle of the road","",NA,"[{""page_index"":0,""viewing_time"":1120}]","break","","","","","","","","","","",""
"17",7881,"{""Q0"":52}","[object Object]","survey-likert",16,618749,"0.0-16.0","npbu7vhut4ra7gyv8vr9ztagqej5n7uu","Sun Jan 22 2017 14:51:54 GMT-0500 (EST)","male","Asian","moderate/middle of the road","",NA,"","offCivRatings","the officer called the civilian a ""thug""","the civilian asked the officer how he was doing","nameCall","asked","officerCivilian","forceCiv","52","","","",""
"18",6886,"{""Q0"":81}","[object Object]","survey-likert",17,625642,"0.0-17.0","npbu7vhut4ra7gyv8vr9ztagqej5n7uu","Sun Jan 22 2017 14:51:54 GMT-0500 (EST)","male","Asian","moderate/middle of the road","",NA,"","offCivRatings","the officer called the civilian a ""thug""","the civilian asked the officer how he was doing","nameCall","asked","officerCivilian","appropriateCiv","81","","","",""
"19",4890,"{""Q0"":16}","[object Object]","survey-likert",18,630537,"0.0-18.0","npbu7vhut4ra7gyv8vr9ztagqej5n7uu","Sun Jan 22 2017 14:51:54 GMT-0500 (EST)","male","Asian","moderate/middle of the road","",NA,"","offCivRatings","the officer called the civilian a ""thug""","the civilian asked the officer how he was doing","nameCall","asked","officerCivilian","acceptableCiv","16","","","",""
"20",5418,"{""Q0"":45}","[object Object]","survey-likert",19,635961,"0.0-19.0","npbu7vhut4ra7gyv8vr9ztagqej5n7uu","Sun Jan 22 2017 14:51:54 GMT-0500 (EST)","male","Asian","moderate/middle of the road","",NA,"","offCivRatings","the officer called the civilian a ""thug""","the civilian asked the officer how he was doing","nameCall","asked","officerCivilian","punishCiv","45","","","",""
"21",1200,"","","instructions",20,637161,"0.0-20.0","npbu7vhut4ra7gyv8vr9ztagqej5n7uu","Sun Jan 22 2017 14:51:54 GMT-0500 (EST)","male","Asian","moderate/middle of the road","",NA,"[{""page_index"":0,""viewing_time"":1199}]","break","","","","","","","","","","",""
"22",7040,"{""Q0"":30}","[object Object]","survey-likert",21,644412,"0.0-21.0","npbu7vhut4ra7gyv8vr9ztagqej5n7uu","Sun Jan 22 2017 14:51:54 GMT-0500 (EST)","male","Asian","moderate/middle of the road","",NA,"","offCivRatings","the officer shot the civilian in the head with a handgun","the civilian punched the officer in the face","handgunHead","punchFace","civilianOfficer","appropriateOff","30","","","",""
"23",4475,"{""Q0"":70}","[object Object]","survey-likert",22,648892,"0.0-22.0","npbu7vhut4ra7gyv8vr9ztagqej5n7uu","Sun Jan 22 2017 14:51:54 GMT-0500 (EST)","male","Asian","moderate/middle of the road","",NA,"","offCivRatings","the officer shot the civilian in the head with a handgun","the civilian punched the officer in the face","handgunHead","punchFace","civilianOfficer","forceOff","70","","","",""
"24",6238,"{""Q0"":40}","[object Object]","survey-likert",23,655137,"0.0-23.0","npbu7vhut4ra7gyv8vr9ztagqej5n7uu","Sun Jan 22 2017 14:51:54 GMT-0500 (EST)","male","Asian","moderate/middle of the road","",NA,"","offCivRatings","the officer shot the civilian in the head with a handgun","the civilian punched the officer in the face","handgunHead","punchFace","civilianOfficer","punishOff","40","","","",""
"25",6313,"{""Q0"":85}","[object Object]","survey-likert",24,661454,"0.0-24.0","npbu7vhut4ra7gyv8vr9ztagqej5n7uu","Sun Jan 22 2017 14:51:54 GMT-0500 (EST)","male","Asian","moderate/middle of the road","",NA,"","offCivRatings","the officer shot the civilian in the head with a handgun","the civilian punched the officer in the face","handgunHead","punchFace","civilianOfficer","manipCheckLow","85","","","",""
"26",2164,"{""Q0"":65}","[object Object]","survey-likert",25,663623,"0.0-25.0","npbu7vhut4ra7gyv8vr9ztagqej5n7uu","Sun Jan 22 2017 14:51:54 GMT-0500 (EST)","male","Asian","moderate/middle of the road","",NA,"","offCivRatings","the officer shot the civilian in the head with a handgun","the civilian punched the officer in the face","handgunHead","punchFace","civilianOfficer","acceptableOff","65","","","",""
"27",1196,"","","instructions",26,664820,"0.0-26.0","npbu7vhut4ra7gyv8vr9ztagqej5n7uu","Sun Jan 22 2017 14:51:54 GMT-0500 (EST)","male","Asian","moderate/middle of the road","",NA,"[{""page_index"":0,""viewing_time"":1195}]","break","","","","","","","","","","",""
"28",25247,"{""Q0"":99}","[object Object]","survey-likert",27,690275,"0.0-27.0","npbu7vhut4ra7gyv8vr9ztagqej5n7uu","Sun Jan 22 2017 14:51:54 GMT-0500 (EST)","male","Asian","moderate/middle of the road","",NA,"","offCivRatings","the officer shouted ""get your fucking hands up!"" at the civilian","the civilian called the officer a ""pig""","handsUp","nameCall","civilianOfficer","acceptableOff","99","","","",""
"29",11485,"{""Q0"":10}","[object Object]","survey-likert",28,701766,"0.0-28.0","npbu7vhut4ra7gyv8vr9ztagqej5n7uu","Sun Jan 22 2017 14:51:54 GMT-0500 (EST)","male","Asian","moderate/middle of the road","",NA,"","offCivRatings","the officer shouted ""get your fucking hands up!"" at the civilian","the civilian called the officer a ""pig""","handsUp","nameCall","civilianOfficer","forceOff","10","","","",""
"30",3849,"{""Q0"":1}","[object Object]","survey-likert",29,705620,"0.0-29.0","npbu7vhut4ra7gyv8vr9ztagqej5n7uu","Sun Jan 22 2017 14:51:54 GMT-0500 (EST)","male","Asian","moderate/middle of the road","",NA,"","offCivRatings","the officer shouted ""get your fucking hands up!"" at the civilian","the civilian called the officer a ""pig""","handsUp","nameCall","civilianOfficer","punishOff","1","","","",""
"31",5870,"{""Q0"":80}","[object Object]","survey-likert",30,711496,"0.0-30.0","npbu7vhut4ra7gyv8vr9ztagqej5n7uu","Sun Jan 22 2017 14:51:54 GMT-0500 (EST)","male","Asian","moderate/middle of the road","",NA,"","offCivRatings","the officer shouted ""get your fucking hands up!"" at the civilian","the civilian called the officer a ""pig""","handsUp","nameCall","civilianOfficer","appropriateOff","80","","","",""
"32",5299,"","","instructions",31,716795,"0.0-31.0","npbu7vhut4ra7gyv8vr9ztagqej5n7uu","Sun Jan 22 2017 14:51:54 GMT-0500 (EST)","male","Asian","moderate/middle of the road","",NA,"[{""page_index"":0,""viewing_time"":5298}]","break","","","","","","","","","","",""
"33",65552,"{""Q0"":5}","[object Object]","survey-likert",32,782556,"0.0-32.0","npbu7vhut4ra7gyv8vr9ztagqej5n7uu","Sun Jan 22 2017 14:51:54 GMT-0500 (EST)","male","Asian","moderate/middle of the road","",NA,"","offCivRatings","the officer said ""if you touch me, you're gonna get hurt"" to the civilian","the civilian waved at the officer in greeting","hurtThreat","waved","civilianOfficer","appropriateOff","5","","","",""
"34",7947,"{""Q0"":71}","[object Object]","survey-likert",33,790510,"0.0-33.0","npbu7vhut4ra7gyv8vr9ztagqej5n7uu","Sun Jan 22 2017 14:51:54 GMT-0500 (EST)","male","Asian","moderate/middle of the road","",NA,"","offCivRatings","the officer said ""if you touch me, you're gonna get hurt"" to the civilian","the civilian waved at the officer in greeting","hurtThreat","waved","civilianOfficer","manipCheckLow","71","","","",""
"35",3666,"{""Q0"":4}","[object Object]","survey-likert",34,794181,"0.0-34.0","npbu7vhut4ra7gyv8vr9ztagqej5n7uu","Sun Jan 22 2017 14:51:54 GMT-0500 (EST)","male","Asian","moderate/middle of the road","",NA,"","offCivRatings","the officer said ""if you touch me, you're gonna get hurt"" to the civilian","the civilian waved at the officer in greeting","hurtThreat","waved","civilianOfficer","forceOff","4","","","",""
"36",2810,"{""Q0"":2}","[object Object]","survey-likert",35,796996,"0.0-35.0","npbu7vhut4ra7gyv8vr9ztagqej5n7uu","Sun Jan 22 2017 14:51:54 GMT-0500 (EST)","male","Asian","moderate/middle of the road","",NA,"","offCivRatings","the officer said ""if you touch me, you're gonna get hurt"" to the civilian","the civilian waved at the officer in greeting","hurtThreat","waved","civilianOfficer","acceptableOff","2","","","",""
"37",5717,"{""Q0"":61}","[object Object]","survey-likert",36,802717,"0.0-36.0","npbu7vhut4ra7gyv8vr9ztagqej5n7uu","Sun Jan 22 2017 14:51:54 GMT-0500 (EST)","male","Asian","moderate/middle of the road","",NA,"","offCivRatings","the officer said ""if you touch me, you're gonna get hurt"" to the civilian","the civilian waved at the officer in greeting","hurtThreat","waved","civilianOfficer","punishOff","61","","","",""
"38",1773,"","","instructions",37,804490,"0.0-37.0","npbu7vhut4ra7gyv8vr9ztagqej5n7uu","Sun Jan 22 2017 14:51:54 GMT-0500 (EST)","male","Asian","moderate/middle of the road","",NA,"[{""page_index"":0,""viewing_time"":1773}]","break","","","","","","","","","","",""
"39",9354,"{""Q0"":91}","[object Object]","survey-likert",38,814052,"0.0-38.0","npbu7vhut4ra7gyv8vr9ztagqej5n7uu","Sun Jan 22 2017 14:51:54 GMT-0500 (EST)","male","Asian","moderate/middle of the road","",NA,"","offCivRatings","the officer shocked the civilian with a tazer","the civilian pulled away from the officer","tazer","pulledAway","civilianOfficer","punishOff","91","","","",""
"40",48853,"{""Q0"":64}","[object Object]","survey-likert",39,862909,"0.0-39.0","npbu7vhut4ra7gyv8vr9ztagqej5n7uu","Sun Jan 22 2017 14:51:54 GMT-0500 (EST)","male","Asian","moderate/middle of the road","",NA,"","offCivRatings","the officer shocked the civilian with a tazer","the civilian pulled away from the officer","tazer","pulledAway","civilianOfficer","appropriateOff","64","","","",""
"41",2078,"{""Q0"":73}","[object Object]","survey-likert",40,864992,"0.0-40.0","npbu7vhut4ra7gyv8vr9ztagqej5n7uu","Sun Jan 22 2017 14:51:54 GMT-0500 (EST)","male","Asian","moderate/middle of the road","",NA,"","offCivRatings","the officer shocked the civilian with a tazer","the civilian pulled away from the officer","tazer","pulledAway","civilianOfficer","forceOff","73","","","",""
"42",11271,"{""Q0"":3}","[object Object]","survey-likert",41,876267,"0.0-41.0","npbu7vhut4ra7gyv8vr9ztagqej5n7uu","Sun Jan 22 2017 14:51:54 GMT-0500 (EST)","male","Asian","moderate/middle of the road","",NA,"","offCivRatings","the officer shocked the civilian with a tazer","the civilian pulled away from the officer","tazer","pulledAway","civilianOfficer","acceptableOff","3","","","",""
"43",944,"","","instructions",42,877212,"0.0-42.0","npbu7vhut4ra7gyv8vr9ztagqej5n7uu","Sun Jan 22 2017 14:51:54 GMT-0500 (EST)","male","Asian","moderate/middle of the road","",NA,"[{""page_index"":0,""viewing_time"":943}]","break","","","","","","","","","","",""
"44",51484,"{""Q0"":2}","[object Object]","survey-likert",43,928903,"0.0-43.0","npbu7vhut4ra7gyv8vr9ztagqej5n7uu","Sun Jan 22 2017 14:51:54 GMT-0500 (EST)","male","Asian","moderate/middle of the road","",NA,"","offCivRatings","the officer stood near the civilian","the civilian shot the officer in the head with a handgun","stoodNear","handgunHead","officerCivilian","acceptableCiv","2","","","",""
"45",6301,"{""Q0"":99}","[object Object]","survey-likert",44,935209,"0.0-44.0","npbu7vhut4ra7gyv8vr9ztagqej5n7uu","Sun Jan 22 2017 14:51:54 GMT-0500 (EST)","male","Asian","moderate/middle of the road","",NA,"","offCivRatings","the officer stood near the civilian","the civilian shot the officer in the head with a handgun","stoodNear","handgunHead","officerCivilian","punishCiv","99","","","",""
"46",3505,"{""Q0"":1}","[object Object]","survey-likert",45,938720,"0.0-45.0","npbu7vhut4ra7gyv8vr9ztagqej5n7uu","Sun Jan 22 2017 14:51:54 GMT-0500 (EST)","male","Asian","moderate/middle of the road","",NA,"","offCivRatings","the officer stood near the civilian","the civilian shot the officer in the head with a handgun","stoodNear","handgunHead","officerCivilian","appropriateCiv","1","","","",""
"47",5405,"{""Q0"":95}","[object Object]","survey-likert",46,944131,"0.0-46.0","npbu7vhut4ra7gyv8vr9ztagqej5n7uu","Sun Jan 22 2017 14:51:54 GMT-0500 (EST)","male","Asian","moderate/middle of the road","",NA,"","offCivRatings","the officer stood near the civilian","the civilian shot the officer in the head with a handgun","stoodNear","handgunHead","officerCivilian","forceCiv","95","","","",""
"48",1019,"","","instructions",47,945150,"0.0-47.0","npbu7vhut4ra7gyv8vr9ztagqej5n7uu","Sun Jan 22 2017 14:51:54 GMT-0500 (EST)","male","Asian","moderate/middle of the road","",NA,"[{""page_index"":0,""viewing_time"":1019}]","break","","","","","","","","","","",""
"49",7358,"{""Q0"":2}","[object Object]","survey-likert",48,952716,"0.0-48.0","npbu7vhut4ra7gyv8vr9ztagqej5n7uu","Sun Jan 22 2017 14:51:54 GMT-0500 (EST)","male","Asian","moderate/middle of the road","",NA,"","offCivRatings","the officer slammed the civilian's head into the concrete curb","the civilian purposefully struck the officer with a motor vehicle","headSlam","vehicle","officerCivilian","acceptableCiv","2","","","",""
"50",2318,"{""Q0"":2}","[object Object]","survey-likert",49,955038,"0.0-49.0","npbu7vhut4ra7gyv8vr9ztagqej5n7uu","Sun Jan 22 2017 14:51:54 GMT-0500 (EST)","male","Asian","moderate/middle of the road","",NA,"","offCivRatings","the officer slammed the civilian's head into the concrete curb","the civilian purposefully struck the officer with a motor vehicle","headSlam","vehicle","officerCivilian","appropriateCiv","2","","","",""
"51",5869,"{""Q0"":98}","[object Object]","survey-likert",50,960912,"0.0-50.0","npbu7vhut4ra7gyv8vr9ztagqej5n7uu","Sun Jan 22 2017 14:51:54 GMT-0500 (EST)","male","Asian","moderate/middle of the road","",NA,"","offCivRatings","the officer slammed the civilian's head into the concrete curb","the civilian purposefully struck the officer with a motor vehicle","headSlam","vehicle","officerCivilian","punishCiv","98","","","",""
"52",3780,"{""Q0"":99}","[object Object]","survey-likert",51,964697,"0.0-51.0","npbu7vhut4ra7gyv8vr9ztagqej5n7uu","Sun Jan 22 2017 14:51:54 GMT-0500 (EST)","male","Asian","moderate/middle of the road","",NA,"","offCivRatings","the officer slammed the civilian's head into the concrete curb","the civilian purposefully struck the officer with a motor vehicle","headSlam","vehicle","officerCivilian","forceCiv","99","","","",""
"53",1165,"","","instructions",52,965862,"0.0-52.0","npbu7vhut4ra7gyv8vr9ztagqej5n7uu","Sun Jan 22 2017 14:51:54 GMT-0500 (EST)","male","Asian","moderate/middle of the road","",NA,"[{""page_index"":0,""viewing_time"":1164}]","break","","","","","","","","","","",""
"54",29295,"{""Q0"":74}","[object Object]","survey-likert",53,995365,"0.0-53.0","npbu7vhut4ra7gyv8vr9ztagqej5n7uu","Sun Jan 22 2017 14:51:54 GMT-0500 (EST)","male","Asian","moderate/middle of the road","",NA,"","offCivRatings","the officer applied a chokehold to the civilian","the civilian hit the officer in the chest with a baseball bat","choke","ballBat","civilianOfficer","punishOff","74","","","",""
"55",2245,"{""Q0"":76}","[object Object]","survey-likert",54,997615,"0.0-54.0","npbu7vhut4ra7gyv8vr9ztagqej5n7uu","Sun Jan 22 2017 14:51:54 GMT-0500 (EST)","male","Asian","moderate/middle of the road","",NA,"","offCivRatings","the officer applied a chokehold to the civilian","the civilian hit the officer in the chest with a baseball bat","choke","ballBat","civilianOfficer","forceOff","76","","","",""
"56",8822,"{""Q0"":74}","[object Object]","survey-likert",55,1006443,"0.0-55.0","npbu7vhut4ra7gyv8vr9ztagqej5n7uu","Sun Jan 22 2017 14:51:54 GMT-0500 (EST)","male","Asian","moderate/middle of the road","",NA,"","offCivRatings","the officer applied a chokehold to the civilian","the civilian hit the officer in the chest with a baseball bat","choke","ballBat","civilianOfficer","acceptableOff","74","","","",""
"57",8821,"{""Q0"":28}","[object Object]","survey-likert",56,1015270,"0.0-56.0","npbu7vhut4ra7gyv8vr9ztagqej5n7uu","Sun Jan 22 2017 14:51:54 GMT-0500 (EST)","male","Asian","moderate/middle of the road","",NA,"","offCivRatings","the officer applied a chokehold to the civilian","the civilian hit the officer in the chest with a baseball bat","choke","ballBat","civilianOfficer","appropriateOff","28","","","",""
"58",914,"","","instructions",57,1016185,"0.0-57.0","npbu7vhut4ra7gyv8vr9ztagqej5n7uu","Sun Jan 22 2017 14:51:54 GMT-0500 (EST)","male","Asian","moderate/middle of the road","",NA,"[{""page_index"":0,""viewing_time"":913}]","break","","","","","","","","","","",""
"59",5061,"{""Q0"":63}","[object Object]","survey-likert",58,1021457,"0.0-58.0","npbu7vhut4ra7gyv8vr9ztagqej5n7uu","Sun Jan 22 2017 14:51:54 GMT-0500 (EST)","male","Asian","moderate/middle of the road","",NA,"","offCivRatings","the officer put handcuffs on the civilian","the civilian shocked the officer with a tazer","handcuff","tazer","civilianOfficer","appropriateOff","63","","","",""
"60",2390,"{""Q0"":65}","[object Object]","survey-likert",59,1023851,"0.0-59.0","npbu7vhut4ra7gyv8vr9ztagqej5n7uu","Sun Jan 22 2017 14:51:54 GMT-0500 (EST)","male","Asian","moderate/middle of the road","",NA,"","offCivRatings","the officer put handcuffs on the civilian","the civilian shocked the officer with a tazer","handcuff","tazer","civilianOfficer","acceptableOff","65","","","",""
"61",3626,"{""Q0"":11}","[object Object]","survey-likert",60,1027482,"0.0-60.0","npbu7vhut4ra7gyv8vr9ztagqej5n7uu","Sun Jan 22 2017 14:51:54 GMT-0500 (EST)","male","Asian","moderate/middle of the road","",NA,"","offCivRatings","the officer put handcuffs on the civilian","the civilian shocked the officer with a tazer","handcuff","tazer","civilianOfficer","punishOff","11","","","",""
"62",3065,"{""Q0"":18}","[object Object]","survey-likert",61,1030553,"0.0-61.0","npbu7vhut4ra7gyv8vr9ztagqej5n7uu","Sun Jan 22 2017 14:51:54 GMT-0500 (EST)","male","Asian","moderate/middle of the road","",NA,"","offCivRatings","the officer put handcuffs on the civilian","the civilian shocked the officer with a tazer","handcuff","tazer","civilianOfficer","forceOff","18","","","",""
"63",1297,"","","instructions",62,1031850,"0.0-62.0","npbu7vhut4ra7gyv8vr9ztagqej5n7uu","Sun Jan 22 2017 14:51:54 GMT-0500 (EST)","male","Asian","moderate/middle of the road","",NA,"[{""page_index"":0,""viewing_time"":1296}]","break","","","","","","","","","","",""
"64",31046,"{""Q0"":72}","[object Object]","survey-likert",63,1063104,"0.0-63.0","npbu7vhut4ra7gyv8vr9ztagqej5n7uu","Sun Jan 22 2017 14:51:54 GMT-0500 (EST)","male","Asian","moderate/middle of the road","",NA,"","offCivRatings","the officer waved at the civilian in greeting","the civilian struck the officer in the stomach with a metal flashlight","waved","flashlight","officerCivilian","appropriateCiv","72","","","",""
"65",2362,"{""Q0"":72}","[object Object]","survey-likert",64,1065470,"0.0-64.0","npbu7vhut4ra7gyv8vr9ztagqej5n7uu","Sun Jan 22 2017 14:51:54 GMT-0500 (EST)","male","Asian","moderate/middle of the road","",NA,"","offCivRatings","the officer waved at the civilian in greeting","the civilian struck the officer in the stomach with a metal flashlight","waved","flashlight","officerCivilian","acceptableCiv","72","","","",""
"66",1940,"{""Q0"":77}","[object Object]","survey-likert",65,1067415,"0.0-65.0","npbu7vhut4ra7gyv8vr9ztagqej5n7uu","Sun Jan 22 2017 14:51:54 GMT-0500 (EST)","male","Asian","moderate/middle of the road","",NA,"","offCivRatings","the officer waved at the civilian in greeting","the civilian struck the officer in the stomach with a metal flashlight","waved","flashlight","officerCivilian","punishCiv","77","","","",""
"67",3147,"{""Q0"":25}","[object Object]","survey-likert",66,1070567,"0.0-66.0","npbu7vhut4ra7gyv8vr9ztagqej5n7uu","Sun Jan 22 2017 14:51:54 GMT-0500 (EST)","male","Asian","moderate/middle of the road","",NA,"","offCivRatings","the officer waved at the civilian in greeting","the civilian struck the officer in the stomach with a metal flashlight","waved","flashlight","officerCivilian","forceCiv","25","","","",""
"68",1680,"","","instructions",67,1072248,"0.0-67.0","npbu7vhut4ra7gyv8vr9ztagqej5n7uu","Sun Jan 22 2017 14:51:54 GMT-0500 (EST)","male","Asian","moderate/middle of the road","",NA,"[{""page_index"":0,""viewing_time"":1680}]","break","","","","","","","","","","",""
"69",25540,"{""Q0"":70}","[object Object]","survey-likert",68,1097998,"0.0-68.0","npbu7vhut4ra7gyv8vr9ztagqej5n7uu","Sun Jan 22 2017 14:51:54 GMT-0500 (EST)","male","Asian","moderate/middle of the road","",NA,"","offCivRatings","the officer purposefully struck the civilian with a motor vehicle","the civilian kicked the officer in the stomach","vehicle","kickStom","officerCivilian","manipCheckLow","70","","","",""
"70",6766,"{""Q0"":72}","[object Object]","survey-likert",69,1104771,"0.0-69.0","npbu7vhut4ra7gyv8vr9ztagqej5n7uu","Sun Jan 22 2017 14:51:54 GMT-0500 (EST)","male","Asian","moderate/middle of the road","",NA,"","offCivRatings","the officer purposefully struck the civilian with a motor vehicle","the civilian kicked the officer in the stomach","vehicle","kickStom","officerCivilian","appropriateCiv","72","","","",""
"71",2492,"{""Q0"":71}","[object Object]","survey-likert",70,1107268,"0.0-70.0","npbu7vhut4ra7gyv8vr9ztagqej5n7uu","Sun Jan 22 2017 14:51:54 GMT-0500 (EST)","male","Asian","moderate/middle of the road","",NA,"","offCivRatings","the officer purposefully struck the civilian with a motor vehicle","the civilian kicked the officer in the stomach","vehicle","kickStom","officerCivilian","acceptableCiv","71","","","",""
"72",1986,"{""Q0"":81}","[object Object]","survey-likert",71,1109258,"0.0-71.0","npbu7vhut4ra7gyv8vr9ztagqej5n7uu","Sun Jan 22 2017 14:51:54 GMT-0500 (EST)","male","Asian","moderate/middle of the road","",NA,"","offCivRatings","the officer purposefully struck the civilian with a motor vehicle","the civilian kicked the officer in the stomach","vehicle","kickStom","officerCivilian","forceCiv","81","","","",""
"73",5876,"{""Q0"":67}","[object Object]","survey-likert",72,1115139,"0.0-72.0","npbu7vhut4ra7gyv8vr9ztagqej5n7uu","Sun Jan 22 2017 14:51:54 GMT-0500 (EST)","male","Asian","moderate/middle of the road","",NA,"","offCivRatings","the officer purposefully struck the civilian with a motor vehicle","the civilian kicked the officer in the stomach","vehicle","kickStom","officerCivilian","punishCiv","67","","","",""
"74",888,"","","instructions",73,1116028,"0.0-73.0","npbu7vhut4ra7gyv8vr9ztagqej5n7uu","Sun Jan 22 2017 14:51:54 GMT-0500 (EST)","male","Asian","moderate/middle of the road","",NA,"[{""page_index"":0,""viewing_time"":887}]","break","","","","","","","","","","",""
"75",7500,"{""Q0"":54}","[object Object]","survey-likert",74,1123738,"0.0-74.0","npbu7vhut4ra7gyv8vr9ztagqej5n7uu","Sun Jan 22 2017 14:51:54 GMT-0500 (EST)","male","Asian","moderate/middle of the road","",NA,"","offCivRatings","the officer twisted the arm of the civilian, forcing him to the ground","the civilian applied a chokehold to the officer","armbar","choke","officerCivilian","acceptableCiv","54","","","",""
"76",4259,"{""Q0"":59}","[object Object]","survey-likert",75,1128002,"0.0-75.0","npbu7vhut4ra7gyv8vr9ztagqej5n7uu","Sun Jan 22 2017 14:51:54 GMT-0500 (EST)","male","Asian","moderate/middle of the road","",NA,"","offCivRatings","the officer twisted the arm of the civilian, forcing him to the ground","the civilian applied a chokehold to the officer","armbar","choke","officerCivilian","appropriateCiv","59","","","",""
"77",10324,"{""Q0"":35}","[object Object]","survey-likert",76,1138331,"0.0-76.0","npbu7vhut4ra7gyv8vr9ztagqej5n7uu","Sun Jan 22 2017 14:51:54 GMT-0500 (EST)","male","Asian","moderate/middle of the road","",NA,"","offCivRatings","the officer twisted the arm of the civilian, forcing him to the ground","the civilian applied a chokehold to the officer","armbar","choke","officerCivilian","punishCiv","35","","","",""
"78",3643,"{""Q0"":62}","[object Object]","survey-likert",77,1141979,"0.0-77.0","npbu7vhut4ra7gyv8vr9ztagqej5n7uu","Sun Jan 22 2017 14:51:54 GMT-0500 (EST)","male","Asian","moderate/middle of the road","",NA,"","offCivRatings","the officer twisted the arm of the civilian, forcing him to the ground","the civilian applied a chokehold to the officer","armbar","choke","officerCivilian","forceCiv","62","","","",""
"79",1573,"","","instructions",78,1143552,"0.0-78.0","npbu7vhut4ra7gyv8vr9ztagqej5n7uu","Sun Jan 22 2017 14:51:54 GMT-0500 (EST)","male","Asian","moderate/middle of the road","",NA,"[{""page_index"":0,""viewing_time"":1573}]","break","","","","","","","","","","",""
"80",8698,"{""Q0"":66}","[object Object]","survey-likert",79,1152458,"0.0-79.0","npbu7vhut4ra7gyv8vr9ztagqej5n7uu","Sun Jan 22 2017 14:51:54 GMT-0500 (EST)","male","Asian","moderate/middle of the road","",NA,"","offCivRatings","the officer yelled ""get back!"" at the civilian","the civilian shot the officer in the chest with a handgun","getBack","handgunChest","officerCivilian","manipCheckLow","66","","","",""
"81",3707,"{""Q0"":2}","[object Object]","survey-likert",80,1156170,"0.0-80.0","npbu7vhut4ra7gyv8vr9ztagqej5n7uu","Sun Jan 22 2017 14:51:54 GMT-0500 (EST)","male","Asian","moderate/middle of the road","",NA,"","offCivRatings","the officer yelled ""get back!"" at the civilian","the civilian shot the officer in the chest with a handgun","getBack","handgunChest","officerCivilian","acceptableCiv","2","","","",""
"82",6771,"{""Q0"":3}","[object Object]","survey-likert",81,1162946,"0.0-81.0","npbu7vhut4ra7gyv8vr9ztagqej5n7uu","Sun Jan 22 2017 14:51:54 GMT-0500 (EST)","male","Asian","moderate/middle of the road","",NA,"","offCivRatings","the officer yelled ""get back!"" at the civilian","the civilian shot the officer in the chest with a handgun","getBack","handgunChest","officerCivilian","appropriateCiv","3","","","",""
"83",3952,"{""Q0"":91}","[object Object]","survey-likert",82,1166903,"0.0-82.0","npbu7vhut4ra7gyv8vr9ztagqej5n7uu","Sun Jan 22 2017 14:51:54 GMT-0500 (EST)","male","Asian","moderate/middle of the road","",NA,"","offCivRatings","the officer yelled ""get back!"" at the civilian","the civilian shot the officer in the chest with a handgun","getBack","handgunChest","officerCivilian","punishCiv","91","","","",""
"84",5183,"{""Q0"":95}","[object Object]","survey-likert",83,1172093,"0.0-83.0","npbu7vhut4ra7gyv8vr9ztagqej5n7uu","Sun Jan 22 2017 14:51:54 GMT-0500 (EST)","male","Asian","moderate/middle of the road","",NA,"","offCivRatings","the officer yelled ""get back!"" at the civilian","the civilian shot the officer in the chest with a handgun","getBack","handgunChest","officerCivilian","forceCiv","95","","","",""
"85",33550,"","","instructions",84,1205643,"0.0-84.0","npbu7vhut4ra7gyv8vr9ztagqej5n7uu","Sun Jan 22 2017 14:51:54 GMT-0500 (EST)","male","Asian","moderate/middle of the road","",NA,"[{""page_index"":0,""viewing_time"":33550}]","break","","","","","","","","","","",""
"86",143581,"{""Q0"":61}","[object Object]","survey-likert",85,1349438,"0.0-85.0","npbu7vhut4ra7gyv8vr9ztagqej5n7uu","Sun Jan 22 2017 14:51:54 GMT-0500 (EST)","male","Asian","moderate/middle of the road","",NA,"","offCivRatings","the officer headbutted the civilian in the face","the civilian slammed the officer's head into the concrete curb","headbutt","headSlam","officerCivilian","acceptableCiv","61","","","",""
"87",2832,"{""Q0"":60}","[object Object]","survey-likert",86,1352276,"0.0-86.0","npbu7vhut4ra7gyv8vr9ztagqej5n7uu","Sun Jan 22 2017 14:51:54 GMT-0500 (EST)","male","Asian","moderate/middle of the road","",NA,"","offCivRatings","the officer headbutted the civilian in the face","the civilian slammed the officer's head into the concrete curb","headbutt","headSlam","officerCivilian","manipCheckHigh","60","","","",""
"88",1372,"{""Q0"":72}","[object Object]","survey-likert",87,1353652,"0.0-87.0","npbu7vhut4ra7gyv8vr9ztagqej5n7uu","Sun Jan 22 2017 14:51:54 GMT-0500 (EST)","male","Asian","moderate/middle of the road","",NA,"","offCivRatings","the officer headbutted the civilian in the face","the civilian slammed the officer's head into the concrete curb","headbutt","headSlam","officerCivilian","punishCiv","72","","","",""
"89",2531,"{""Q0"":33}","[object Object]","survey-likert",88,1356188,"0.0-88.0","npbu7vhut4ra7gyv8vr9ztagqej5n7uu","Sun Jan 22 2017 14:51:54 GMT-0500 (EST)","male","Asian","moderate/middle of the road","",NA,"","offCivRatings","the officer headbutted the civilian in the face","the civilian slammed the officer's head into the concrete curb","headbutt","headSlam","officerCivilian","forceCiv","33","","","",""
"90",2069,"{""Q0"":63}","[object Object]","survey-likert",89,1358261,"0.0-89.0","npbu7vhut4ra7gyv8vr9ztagqej5n7uu","Sun Jan 22 2017 14:51:54 GMT-0500 (EST)","male","Asian","moderate/middle of the road","",NA,"","offCivRatings","the officer headbutted the civilian in the face","the civilian slammed the officer's head into the concrete curb","headbutt","headSlam","officerCivilian","appropriateCiv","63","","","",""
"91",836,"","","instructions",90,1359098,"0.0-90.0","npbu7vhut4ra7gyv8vr9ztagqej5n7uu","Sun Jan 22 2017 14:51:54 GMT-0500 (EST)","male","Asian","moderate/middle of the road","",NA,"[{""page_index"":0,""viewing_time"":836}]","break","","","","","","","","","","",""
"92",4696,"{""Q0"":59}","[object Object]","survey-likert",91,1364003,"0.0-91.0","npbu7vhut4ra7gyv8vr9ztagqej5n7uu","Sun Jan 22 2017 14:51:54 GMT-0500 (EST)","male","Asian","moderate/middle of the road","",NA,"","offCivRatings","the officer punched the civilian in the face","the civilian struck the officer on the leg with a metal pipe","punchFace","metalPipe","civilianOfficer","manipCheckHigh","59","","","",""
"93",1637,"{""Q0"":59}","[object Object]","survey-likert",92,1365645,"0.0-92.0","npbu7vhut4ra7gyv8vr9ztagqej5n7uu","Sun Jan 22 2017 14:51:54 GMT-0500 (EST)","male","Asian","moderate/middle of the road","",NA,"","offCivRatings","the officer punched the civilian in the face","the civilian struck the officer on the leg with a metal pipe","punchFace","metalPipe","civilianOfficer","acceptableOff","59","","","",""
"94",1737,"{""Q0"":69}","[object Object]","survey-likert",93,1367387,"0.0-93.0","npbu7vhut4ra7gyv8vr9ztagqej5n7uu","Sun Jan 22 2017 14:51:54 GMT-0500 (EST)","male","Asian","moderate/middle of the road","",NA,"","offCivRatings","the officer punched the civilian in the face","the civilian struck the officer on the leg with a metal pipe","punchFace","metalPipe","civilianOfficer","appropriateOff","69","","","",""
"95",3143,"{""Q0"":31}","[object Object]","survey-likert",94,1370534,"0.0-94.0","npbu7vhut4ra7gyv8vr9ztagqej5n7uu","Sun Jan 22 2017 14:51:54 GMT-0500 (EST)","male","Asian","moderate/middle of the road","",NA,"","offCivRatings","the officer punched the civilian in the face","the civilian struck the officer on the leg with a metal pipe","punchFace","metalPipe","civilianOfficer","punishOff","31","","","",""
"96",2290,"{""Q0"":66}","[object Object]","survey-likert",95,1372829,"0.0-95.0","npbu7vhut4ra7gyv8vr9ztagqej5n7uu","Sun Jan 22 2017 14:51:54 GMT-0500 (EST)","male","Asian","moderate/middle of the road","",NA,"","offCivRatings","the officer punched the civilian in the face","the civilian struck the officer on the leg with a metal pipe","punchFace","metalPipe","civilianOfficer","forceOff","66","","","",""
"97",873,"","","instructions",96,1373702,"0.0-96.0","npbu7vhut4ra7gyv8vr9ztagqej5n7uu","Sun Jan 22 2017 14:51:54 GMT-0500 (EST)","male","Asian","moderate/middle of the road","",NA,"[{""page_index"":0,""viewing_time"":873}]","break","","","","","","","","","","",""
"98",1918,"{""Q0"":64}","[object Object]","survey-likert",97,1375828,"0.0-97.0","npbu7vhut4ra7gyv8vr9ztagqej5n7uu","Sun Jan 22 2017 14:51:54 GMT-0500 (EST)","male","Asian","moderate/middle of the road","",NA,"","offCivRatings","the officer kicked the civilian in the stomach","the civilian headbutted the officer in the face","kickStom","headbutt","civilianOfficer","acceptableOff","64","","","",""
"99",1605,"{""Q0"":65}","[object Object]","survey-likert",98,1377438,"0.0-98.0","npbu7vhut4ra7gyv8vr9ztagqej5n7uu","Sun Jan 22 2017 14:51:54 GMT-0500 (EST)","male","Asian","moderate/middle of the road","",NA,"","offCivRatings","the officer kicked the civilian in the stomach","the civilian headbutted the officer in the face","kickStom","headbutt","civilianOfficer","appropriateOff","65","","","",""
"100",1453,"{""Q0"":78}","[object Object]","survey-likert",99,1378896,"0.0-99.0","npbu7vhut4ra7gyv8vr9ztagqej5n7uu","Sun Jan 22 2017 14:51:54 GMT-0500 (EST)","male","Asian","moderate/middle of the road","",NA,"","offCivRatings","the officer kicked the civilian in the stomach","the civilian headbutted the officer in the face","kickStom","headbutt","civilianOfficer","punishOff","78","","","",""
"101",1456,"{""Q0"":26}","[object Object]","survey-likert",100,1380357,"0.0-100.0","npbu7vhut4ra7gyv8vr9ztagqej5n7uu","Sun Jan 22 2017 14:51:54 GMT-0500 (EST)","male","Asian","moderate/middle of the road","",NA,"","offCivRatings","the officer kicked the civilian in the stomach","the civilian headbutted the officer in the face","kickStom","headbutt","civilianOfficer","forceOff","26","","","",""
"102",1384,"","","instructions",101,1381742,"0.0-101.0","npbu7vhut4ra7gyv8vr9ztagqej5n7uu","Sun Jan 22 2017 14:51:54 GMT-0500 (EST)","male","Asian","moderate/middle of the road","",NA,"[{""page_index"":0,""viewing_time"":1384}]","break","","","","","","","","","","",""
"103",8440,"{""Q0"":26}","[object Object]","survey-likert",102,1390390,"0.0-102.0","npbu7vhut4ra7gyv8vr9ztagqej5n7uu","Sun Jan 22 2017 14:51:54 GMT-0500 (EST)","male","Asian","moderate/middle of the road","",NA,"","offCivRatings","the officer sprayed the civilian with pepper spray","the civilian shouted ""I don't have to fucking listen to you!"" at the officer","pepperSpray","dontListen","civilianOfficer","appropriateOff","26","","","",""
"104",4011,"{""Q0"":30}","[object Object]","survey-likert",103,1394406,"0.0-103.0","npbu7vhut4ra7gyv8vr9ztagqej5n7uu","Sun Jan 22 2017 14:51:54 GMT-0500 (EST)","male","Asian","moderate/middle of the road","",NA,"","offCivRatings","the officer sprayed the civilian with pepper spray","the civilian shouted ""I don't have to fucking listen to you!"" at the officer","pepperSpray","dontListen","civilianOfficer","acceptableOff","30","","","",""
"105",2410,"{""Q0"":75}","[object Object]","survey-likert",104,1396821,"0.0-104.0","npbu7vhut4ra7gyv8vr9ztagqej5n7uu","Sun Jan 22 2017 14:51:54 GMT-0500 (EST)","male","Asian","moderate/middle of the road","",NA,"","offCivRatings","the officer sprayed the civilian with pepper spray","the civilian shouted ""I don't have to fucking listen to you!"" at the officer","pepperSpray","dontListen","civilianOfficer","punishOff","75","","","",""
"106",5582,"{""Q0"":77}","[object Object]","survey-likert",105,1402407,"0.0-105.0","npbu7vhut4ra7gyv8vr9ztagqej5n7uu","Sun Jan 22 2017 14:51:54 GMT-0500 (EST)","male","Asian","moderate/middle of the road","",NA,"","offCivRatings","the officer sprayed the civilian with pepper spray","the civilian shouted ""I don't have to fucking listen to you!"" at the officer","pepperSpray","dontListen","civilianOfficer","forceOff","77","","","",""
"107",695,"","","instructions",106,1403103,"0.0-106.0","npbu7vhut4ra7gyv8vr9ztagqej5n7uu","Sun Jan 22 2017 14:51:54 GMT-0500 (EST)","male","Asian","moderate/middle of the road","",NA,"[{""page_index"":0,""viewing_time"":695}]","break","","","","","","","","","","",""
"108",22425,"{""Q0"":68}","[object Object]","survey-likert",107,1425736,"0.0-107.0","npbu7vhut4ra7gyv8vr9ztagqej5n7uu","Sun Jan 22 2017 14:51:54 GMT-0500 (EST)","male","Asian","moderate/middle of the road","",NA,"","offCivRatings","the officer struck the civilian in the stomach with a metal flashlight","the civilian said ""if you touch me, you're gonna get hurt"" to the officer","flashlight","hurtThreat","officerCivilian","acceptableCiv","68","","","",""
"109",3628,"{""Q0"":60}","[object Object]","survey-likert",108,1429368,"0.0-108.0","npbu7vhut4ra7gyv8vr9ztagqej5n7uu","Sun Jan 22 2017 14:51:54 GMT-0500 (EST)","male","Asian","moderate/middle of the road","",NA,"","offCivRatings","the officer struck the civilian in the stomach with a metal flashlight","the civilian said ""if you touch me, you're gonna get hurt"" to the officer","flashlight","hurtThreat","officerCivilian","forceCiv","60","","","",""
"110",1445,"{""Q0"":22}","[object Object]","survey-likert",109,1430818,"0.0-109.0","npbu7vhut4ra7gyv8vr9ztagqej5n7uu","Sun Jan 22 2017 14:51:54 GMT-0500 (EST)","male","Asian","moderate/middle of the road","",NA,"","offCivRatings","the officer struck the civilian in the stomach with a metal flashlight","the civilian said ""if you touch me, you're gonna get hurt"" to the officer","flashlight","hurtThreat","officerCivilian","punishCiv","22","","","",""
"111",1504,"{""Q0"":80}","[object Object]","survey-likert",110,1432327,"0.0-110.0","npbu7vhut4ra7gyv8vr9ztagqej5n7uu","Sun Jan 22 2017 14:51:54 GMT-0500 (EST)","male","Asian","moderate/middle of the road","",NA,"","offCivRatings","the officer struck the civilian in the stomach with a metal flashlight","the civilian said ""if you touch me, you're gonna get hurt"" to the officer","flashlight","hurtThreat","officerCivilian","appropriateCiv","80","","","",""
"112",1428,"{""Q0"":70}","[object Object]","survey-likert",111,1433760,"0.0-111.0","npbu7vhut4ra7gyv8vr9ztagqej5n7uu","Sun Jan 22 2017 14:51:54 GMT-0500 (EST)","male","Asian","moderate/middle of the road","",NA,"","offCivRatings","the officer struck the civilian in the stomach with a metal flashlight","the civilian said ""if you touch me, you're gonna get hurt"" to the officer","flashlight","hurtThreat","officerCivilian","manipCheckLow","70","","","",""
"113",744,"","","instructions",112,1434505,"0.0-112.0","npbu7vhut4ra7gyv8vr9ztagqej5n7uu","Sun Jan 22 2017 14:51:54 GMT-0500 (EST)","male","Asian","moderate/middle of the road","",NA,"[{""page_index"":0,""viewing_time"":744}]","break","","","","","","","","","","",""
"114",1407,"{""Q0"":65}","[object Object]","survey-likert",113,1436119,"0.0-113.0","npbu7vhut4ra7gyv8vr9ztagqej5n7uu","Sun Jan 22 2017 14:51:54 GMT-0500 (EST)","male","Asian","moderate/middle of the road","",NA,"","offCivRatings","the officer asked the civilian how he was doing","the civilian twisted the arm of the officer, forcing him to the ground","asked","armbar","civilianOfficer","forceOff","65","","","",""
"115",3352,"{""Q0"":32}","[object Object]","survey-likert",114,1439475,"0.0-114.0","npbu7vhut4ra7gyv8vr9ztagqej5n7uu","Sun Jan 22 2017 14:51:54 GMT-0500 (EST)","male","Asian","moderate/middle of the road","",NA,"","offCivRatings","the officer asked the civilian how he was doing","the civilian twisted the arm of the officer, forcing him to the ground","asked","armbar","civilianOfficer","appropriateOff","32","","","",""
"116",2482,"{""Q0"":59}","[object Object]","survey-likert",115,1441961,"0.0-115.0","npbu7vhut4ra7gyv8vr9ztagqej5n7uu","Sun Jan 22 2017 14:51:54 GMT-0500 (EST)","male","Asian","moderate/middle of the road","",NA,"","offCivRatings","the officer asked the civilian how he was doing","the civilian twisted the arm of the officer, forcing him to the ground","asked","armbar","civilianOfficer","manipCheckHigh","59","","","",""
"117",2683,"{""Q0"":74}","[object Object]","survey-likert",116,1444648,"0.0-116.0","npbu7vhut4ra7gyv8vr9ztagqej5n7uu","Sun Jan 22 2017 14:51:54 GMT-0500 (EST)","male","Asian","moderate/middle of the road","",NA,"","offCivRatings","the officer asked the civilian how he was doing","the civilian twisted the arm of the officer, forcing him to the ground","asked","armbar","civilianOfficer","acceptableOff","74","","","",""
"118",2014,"{""Q0"":72}","[object Object]","survey-likert",117,1446667,"0.0-117.0","npbu7vhut4ra7gyv8vr9ztagqej5n7uu","Sun Jan 22 2017 14:51:54 GMT-0500 (EST)","male","Asian","moderate/middle of the road","",NA,"","offCivRatings","the officer asked the civilian how he was doing","the civilian twisted the arm of the officer, forcing him to the ground","asked","armbar","civilianOfficer","punishOff","72","","","",""
"119",1345,"","","instructions",118,1448012,"0.0-118.0","npbu7vhut4ra7gyv8vr9ztagqej5n7uu","Sun Jan 22 2017 14:51:54 GMT-0500 (EST)","male","Asian","moderate/middle of the road","",NA,"[{""page_index"":0,""viewing_time"":1345}]","break","","","","","","","","","","",""
"120",6258,"{""Q0"":66}","[object Object]","survey-likert",119,1454479,"0.0-119.0","npbu7vhut4ra7gyv8vr9ztagqej5n7uu","Sun Jan 22 2017 14:51:54 GMT-0500 (EST)","male","Asian","moderate/middle of the road","",NA,"","offCivRatings","the officer shot the civilian in the chest with a handgun","the civilian yelled ""get back!"" at the officer","handgunChest","getBack","officerCivilian","punishCiv","66","","","",""
"121",1954,"{""Q0"":73}","[object Object]","survey-likert",120,1456437,"0.0-120.0","npbu7vhut4ra7gyv8vr9ztagqej5n7uu","Sun Jan 22 2017 14:51:54 GMT-0500 (EST)","male","Asian","moderate/middle of the road","",NA,"","offCivRatings","the officer shot the civilian in the chest with a handgun","the civilian yelled ""get back!"" at the officer","handgunChest","getBack","officerCivilian","acceptableCiv","73","","","",""
"122",1557,"{""Q0"":73}","[object Object]","survey-likert",121,1457999,"0.0-121.0","npbu7vhut4ra7gyv8vr9ztagqej5n7uu","Sun Jan 22 2017 14:51:54 GMT-0500 (EST)","male","Asian","moderate/middle of the road","",NA,"","offCivRatings","the officer shot the civilian in the chest with a handgun","the civilian yelled ""get back!"" at the officer","handgunChest","getBack","officerCivilian","forceCiv","73","","","",""
"123",5414,"{""Q0"":2}","[object Object]","survey-likert",122,1463418,"0.0-122.0","npbu7vhut4ra7gyv8vr9ztagqej5n7uu","Sun Jan 22 2017 14:51:54 GMT-0500 (EST)","male","Asian","moderate/middle of the road","",NA,"","offCivRatings","the officer shot the civilian in the chest with a handgun","the civilian yelled ""get back!"" at the officer","handgunChest","getBack","officerCivilian","appropriateCiv","2","","","",""
"124",1402,"","","instructions",123,1464820,"0.0-123.0","npbu7vhut4ra7gyv8vr9ztagqej5n7uu","Sun Jan 22 2017 14:51:54 GMT-0500 (EST)","male","Asian","moderate/middle of the road","",NA,"[{""page_index"":0,""viewing_time"":1401}]","break","","","","","","","","","","",""
"125",7379,"{""Q0"":2}","[object Object]","survey-likert",124,1472407,"0.0-124.0","npbu7vhut4ra7gyv8vr9ztagqej5n7uu","Sun Jan 22 2017 14:51:54 GMT-0500 (EST)","male","Asian","moderate/middle of the road","",NA,"","policeLegitimacy","","","","","","","2","support","feltObligation","",""
"126",5021,"{""Q0"":47}","[object Object]","survey-likert",125,1477433,"0.0-125.0","npbu7vhut4ra7gyv8vr9ztagqej5n7uu","Sun Jan 22 2017 14:51:54 GMT-0500 (EST)","male","Asian","moderate/middle of the road","",NA,"","policeLegitimacy","","","","","","","47","importantValues","normAlignment","",""
"127",6984,"{""Q0"":35}","[object Object]","survey-likert",126,1484421,"0.0-126.0","npbu7vhut4ra7gyv8vr9ztagqej5n7uu","Sun Jan 22 2017 14:51:54 GMT-0500 (EST)","male","Asian","moderate/middle of the road","",NA,"","policeLegitimacy","","","","","","","35","doReasons","feltObligation","",""
"128",10807,"{""Q0"":72}","[object Object]","survey-likert",127,1495232,"0.0-127.0","npbu7vhut4ra7gyv8vr9ztagqej5n7uu","Sun Jan 22 2017 14:51:54 GMT-0500 (EST)","male","Asian","moderate/middle of the road","",NA,"","policeLegitimacy","","","","","","","72","rightWrong","normAlignment","",""
"129",3963,"{""Q0"":37}","[object Object]","survey-likert",128,1499200,"0.0-128.0","npbu7vhut4ra7gyv8vr9ztagqej5n7uu","Sun Jan 22 2017 14:51:54 GMT-0500 (EST)","male","Asian","moderate/middle of the road","",NA,"","policeLegitimacy","","","","","","","37","doTreat","feltObligation","",""
"130",4958,"{""Q0"":78}","[object Object]","survey-likert",129,1504163,"0.0-129.0","npbu7vhut4ra7gyv8vr9ztagqej5n7uu","Sun Jan 22 2017 14:51:54 GMT-0500 (EST)","male","Asian","moderate/middle of the road","",NA,"","policeLegitimacy","","","","","","","78","communityWants","normAlignment","",""
"131",4101,"{""Q0"":""no""}","[object Object]","survey-multi-choice2",130,1508269,"0.0-130.0","npbu7vhut4ra7gyv8vr9ztagqej5n7uu","Sun Jan 22 2017 14:51:54 GMT-0500 (EST)","male","Asian","moderate/middle of the road","",NA,"","policeExperience","","","","","","","no","corrupt","","personal","Have you ever seen a police officer engage in any corrupt activities (e.g., taking bribes or involvement in the drug trade)?"
"132",2664,"{""Q0"":""no""}","[object Object]","survey-multi-choice2",131,1510936,"0.0-131.0","npbu7vhut4ra7gyv8vr9ztagqej5n7uu","Sun Jan 22 2017 14:51:54 GMT-0500 (EST)","male","Asian","moderate/middle of the road","",NA,"","policeExperience","","","","","","","no","excessForce","","vicarious","Have the police ever used excessive force against anyone in your household?"
"133",2292,"{""Q0"":""no""}","[object Object]","survey-multi-choice2",132,1513230,"0.0-132.0","npbu7vhut4ra7gyv8vr9ztagqej5n7uu","Sun Jan 22 2017 14:51:54 GMT-0500 (EST)","male","Asian","moderate/middle of the road","",NA,"","policeExperience","","","","","","","no","insultLang","","personal","Have the police ever used insulting language toward you?"
"134",1752,"{""Q0"":""no""}","[object Object]","survey-multi-choice2",133,1514985,"0.0-133.0","npbu7vhut4ra7gyv8vr9ztagqej5n7uu","Sun Jan 22 2017 14:51:54 GMT-0500 (EST)","male","Asian","moderate/middle of the road","",NA,"","policeExperience","","","","","","","no","excessForce","","personal","Have the police ever used excessive force against you?"
"135",2309,"{""Q0"":""no""}","[object Object]","survey-multi-choice2",134,1517296,"0.0-134.0","npbu7vhut4ra7gyv8vr9ztagqej5n7uu","Sun Jan 22 2017 14:51:54 GMT-0500 (EST)","male","Asian","moderate/middle of the road","",NA,"","policeExperience","","","","","","","no","stopped","","personal","Have you ever been stopped by the police on the street without good reason?"
"136",1384,"{""Q0"":""no""}","[object Object]","survey-multi-choice2",135,1518682,"0.0-135.0","npbu7vhut4ra7gyv8vr9ztagqej5n7uu","Sun Jan 22 2017 14:51:54 GMT-0500 (EST)","male","Asian","moderate/middle of the road","",NA,"","policeExperience","","","","","","","no","insultLang","","vicarious","Have the police ever used insulting language toward anyone in your household?"
"137",1693,"{""Q0"":""no""}","[object Object]","survey-multi-choice2",136,1520377,"0.0-136.0","npbu7vhut4ra7gyv8vr9ztagqej5n7uu","Sun Jan 22 2017 14:51:54 GMT-0500 (EST)","male","Asian","moderate/middle of the road","",NA,"","policeExperience","","","","","","","no","stopped","","vicarious","Has anyone in your household ever been stopped on the street by the police without good reason?"
"138",11870,"{""Q0"":""male"",""Q1"":""Asian"",""Q2"":""moderate/middle of the road""}","[object Object]","survey-multi-choice",137,1532254,"0.0-137.0","npbu7vhut4ra7gyv8vr9ztagqej5n7uu","Sun Jan 22 2017 14:51:54 GMT-0500 (EST)","male","Asian","moderate/middle of the road","",NA,"","demographics","","","","","","","","","","",""
"139",5972,"","","instructions",138,1539229,"0.0-138.0","npbu7vhut4ra7gyv8vr9ztagqej5n7uu","Sun Jan 22 2017 14:51:54 GMT-0500 (EST)","male","Asian","moderate/middle of the road","",NA,"[{""page_index"":0,""viewing_time"":1394},{""page_index"":1,""viewing_time"":2026},{""page_index"":2,""viewing_time"":1057},{""page_index"":3,""viewing_time"":1495}]","debriefing","","","","","","","","","","",""
