"","rt","responses","internalResp","trial_type","trial_index","time_elapsed","internal_node_id","randSubjectID","date","sex","race","polAff","stimulus","key_press","view_history","questionType","officerAction","civilianAction","offActName","civActName","order","questionName","response","name","dimension","person","question"
"1",5536,"","[object Object]","survey-text",0,5549,"0.0-0.0","o7h9j788rhs29aexsgn40sxmu08w6atg","Sun Jan 22 2017 13:23:54 GMT-0500 (Eastern Standard Time)","female","Black or African American","moderate/middle of the road","",NA,"","","","","","","","","","","","",""
"2",12122,"","","single-stim",1,18694,"0.0-1.0","o7h9j788rhs29aexsgn40sxmu08w6atg","Sun Jan 22 2017 13:23:54 GMT-0500 (Eastern Standard Time)","female","Black or African American","moderate/middle of the road","<img src='static/images/1602685960_ICS_Credit-0.png' alt='Consent 1' height=1100 width=850><img src='static/images/1602685960_ICS_Credit-1.png' alt='Consent 2' height=1100 width=850></p>",89,"","","","","","","","","","","","",""
"3",3066,"","","instructions",2,22784,"0.0-2.0","o7h9j788rhs29aexsgn40sxmu08w6atg","Sun Jan 22 2017 13:23:54 GMT-0500 (Eastern Standard Time)","female","Black or African American","moderate/middle of the road","",NA,"[{""page_index"":0,""viewing_time"":3065}]","instructions","","","","","","","","","","",""
"4",9583,"","","instructions",3,33373,"0.0-3.0","o7h9j788rhs29aexsgn40sxmu08w6atg","Sun Jan 22 2017 13:23:54 GMT-0500 (Eastern Standard Time)","female","Black or African American","moderate/middle of the road","",NA,"[{""page_index"":0,""viewing_time"":1573},{""page_index"":1,""viewing_time"":2506},{""page_index"":2,""viewing_time"":4263},{""page_index"":3,""viewing_time"":1240}]","instructions","","","","","","","","","","",""
"5",90638,"{""Q0"":16}","[object Object]","survey-likert",4,125092,"0.0-4.0","o7h9j788rhs29aexsgn40sxmu08w6atg","Sun Jan 22 2017 13:23:54 GMT-0500 (Eastern Standard Time)","female","Black or African American","moderate/middle of the road","",NA,"","offCivRatings","the officer shocked the civilian with a tazer","the civilian shouted ""I don't have to fucking listen to you!"" at the officer","tazer","dontListen","officerCivilian","punishCiv","16","","","",""
"6",51378,"{""Q0"":40}","[object Object]","survey-likert",5,176513,"0.0-5.0","o7h9j788rhs29aexsgn40sxmu08w6atg","Sun Jan 22 2017 13:23:54 GMT-0500 (Eastern Standard Time)","female","Black or African American","moderate/middle of the road","",NA,"","offCivRatings","the officer shocked the civilian with a tazer","the civilian shouted ""I don't have to fucking listen to you!"" at the officer","tazer","dontListen","officerCivilian","acceptableCiv","40","","","",""
"7",53270,"{""Q0"":6}","[object Object]","survey-likert",6,229826,"0.0-6.0","o7h9j788rhs29aexsgn40sxmu08w6atg","Sun Jan 22 2017 13:23:54 GMT-0500 (Eastern Standard Time)","female","Black or African American","moderate/middle of the road","",NA,"","offCivRatings","the officer shocked the civilian with a tazer","the civilian shouted ""I don't have to fucking listen to you!"" at the officer","tazer","dontListen","officerCivilian","appropriateCiv","6","","","",""
"8",9073,"{""Q0"":3}","[object Object]","survey-likert",7,238943,"0.0-7.0","o7h9j788rhs29aexsgn40sxmu08w6atg","Sun Jan 22 2017 13:23:54 GMT-0500 (Eastern Standard Time)","female","Black or African American","moderate/middle of the road","",NA,"","offCivRatings","the officer shocked the civilian with a tazer","the civilian shouted ""I don't have to fucking listen to you!"" at the officer","tazer","dontListen","officerCivilian","forceCiv","3","","","",""
"9",1710,"","","instructions",8,240653,"0.0-8.0","o7h9j788rhs29aexsgn40sxmu08w6atg","Sun Jan 22 2017 13:23:54 GMT-0500 (Eastern Standard Time)","female","Black or African American","moderate/middle of the road","",NA,"[{""page_index"":0,""viewing_time"":1709}]","break","","","","","","","","","","",""
"10",15694,"{""Q0"":96}","[object Object]","survey-likert",9,256597,"0.0-9.0","o7h9j788rhs29aexsgn40sxmu08w6atg","Sun Jan 22 2017 13:23:54 GMT-0500 (Eastern Standard Time)","female","Black or African American","moderate/middle of the road","",NA,"","offCivRatings","the officer shot the civilian in the chest with a beanbag shotgun round","the civilian applied a chokehold to the officer","beanbag","choke","officerCivilian","punishCiv","96","","","",""
"11",8273,"{""Q0"":94}","[object Object]","survey-likert",10,264909,"0.0-10.0","o7h9j788rhs29aexsgn40sxmu08w6atg","Sun Jan 22 2017 13:23:54 GMT-0500 (Eastern Standard Time)","female","Black or African American","moderate/middle of the road","",NA,"","offCivRatings","the officer shot the civilian in the chest with a beanbag shotgun round","the civilian applied a chokehold to the officer","beanbag","choke","officerCivilian","forceCiv","94","","","",""
"12",4774,"{""Q0"":1}","[object Object]","survey-likert",11,269724,"0.0-11.0","o7h9j788rhs29aexsgn40sxmu08w6atg","Sun Jan 22 2017 13:23:54 GMT-0500 (Eastern Standard Time)","female","Black or African American","moderate/middle of the road","",NA,"","offCivRatings","the officer shot the civilian in the chest with a beanbag shotgun round","the civilian applied a chokehold to the officer","beanbag","choke","officerCivilian","acceptableCiv","1","","","",""
"13",9114,"{""Q0"":1}","[object Object]","survey-likert",12,278872,"0.0-12.0","o7h9j788rhs29aexsgn40sxmu08w6atg","Sun Jan 22 2017 13:23:54 GMT-0500 (Eastern Standard Time)","female","Black or African American","moderate/middle of the road","",NA,"","offCivRatings","the officer shot the civilian in the chest with a beanbag shotgun round","the civilian applied a chokehold to the officer","beanbag","choke","officerCivilian","manipCheckLow","1","","","",""
"14",11140,"{""Q0"":97}","[object Object]","survey-likert",13,290048,"0.0-13.0","o7h9j788rhs29aexsgn40sxmu08w6atg","Sun Jan 22 2017 13:23:54 GMT-0500 (Eastern Standard Time)","female","Black or African American","moderate/middle of the road","",NA,"","offCivRatings","the officer shot the civilian in the chest with a beanbag shotgun round","the civilian applied a chokehold to the officer","beanbag","choke","officerCivilian","appropriateCiv","97","","","",""
"15",15393,"","","instructions",14,305441,"0.0-14.0","o7h9j788rhs29aexsgn40sxmu08w6atg","Sun Jan 22 2017 13:23:54 GMT-0500 (Eastern Standard Time)","female","Black or African American","moderate/middle of the road","",NA,"[{""page_index"":0,""viewing_time"":15392}]","break","","","","","","","","","","",""
"16",15807,"{""Q0"":100}","[object Object]","survey-likert",15,321500,"0.0-15.0","o7h9j788rhs29aexsgn40sxmu08w6atg","Sun Jan 22 2017 13:23:54 GMT-0500 (Eastern Standard Time)","female","Black or African American","moderate/middle of the road","",NA,"","offCivRatings","the officer applied a chokehold to the civilian","the civilian waved at the officer in greeting","choke","waved","civilianOfficer","punishOff","100","","","",""
"17",6125,"{""Q0"":99}","[object Object]","survey-likert",16,327665,"0.0-16.0","o7h9j788rhs29aexsgn40sxmu08w6atg","Sun Jan 22 2017 13:23:54 GMT-0500 (Eastern Standard Time)","female","Black or African American","moderate/middle of the road","",NA,"","offCivRatings","the officer applied a chokehold to the civilian","the civilian waved at the officer in greeting","choke","waved","civilianOfficer","appropriateOff","99","","","",""
"18",29717,"{""Q0"":97}","[object Object]","survey-likert",17,357414,"0.0-17.0","o7h9j788rhs29aexsgn40sxmu08w6atg","Sun Jan 22 2017 13:23:54 GMT-0500 (Eastern Standard Time)","female","Black or African American","moderate/middle of the road","",NA,"","offCivRatings","the officer applied a chokehold to the civilian","the civilian waved at the officer in greeting","choke","waved","civilianOfficer","forceOff","97","","","",""
"19",28003,"{""Q0"":1}","[object Object]","survey-likert",18,385450,"0.0-18.0","o7h9j788rhs29aexsgn40sxmu08w6atg","Sun Jan 22 2017 13:23:54 GMT-0500 (Eastern Standard Time)","female","Black or African American","moderate/middle of the road","",NA,"","offCivRatings","the officer applied a chokehold to the civilian","the civilian waved at the officer in greeting","choke","waved","civilianOfficer","acceptableOff","1","","","",""
"20",1355,"","","instructions",19,386806,"0.0-19.0","o7h9j788rhs29aexsgn40sxmu08w6atg","Sun Jan 22 2017 13:23:54 GMT-0500 (Eastern Standard Time)","female","Black or African American","moderate/middle of the road","",NA,"[{""page_index"":0,""viewing_time"":1354}]","break","","","","","","","","","","",""
"21",81285,"{""Q0"":97}","[object Object]","survey-likert",20,468343,"0.0-20.0","o7h9j788rhs29aexsgn40sxmu08w6atg","Sun Jan 22 2017 13:23:54 GMT-0500 (Eastern Standard Time)","female","Black or African American","moderate/middle of the road","",NA,"","offCivRatings","the officer struck the civilian on the leg with a collapsible baton","the civilian twisted the arm of the officer, forcing him to the ground","batonLeg","armbar","civilianOfficer","forceOff","97","","","",""
"22",11394,"{""Q0"":100}","[object Object]","survey-likert",21,479770,"0.0-21.0","o7h9j788rhs29aexsgn40sxmu08w6atg","Sun Jan 22 2017 13:23:54 GMT-0500 (Eastern Standard Time)","female","Black or African American","moderate/middle of the road","",NA,"","offCivRatings","the officer struck the civilian on the leg with a collapsible baton","the civilian twisted the arm of the officer, forcing him to the ground","batonLeg","armbar","civilianOfficer","acceptableOff","100","","","",""
"23",199285,"{""Q0"":50}","[object Object]","survey-likert",22,679089,"0.0-22.0","o7h9j788rhs29aexsgn40sxmu08w6atg","Sun Jan 22 2017 13:23:54 GMT-0500 (Eastern Standard Time)","female","Black or African American","moderate/middle of the road","",NA,"","offCivRatings","the officer struck the civilian on the leg with a collapsible baton","the civilian twisted the arm of the officer, forcing him to the ground","batonLeg","armbar","civilianOfficer","appropriateOff","50","","","",""
"24",4096,"{""Q0"":1}","[object Object]","survey-likert",23,683220,"0.0-23.0","o7h9j788rhs29aexsgn40sxmu08w6atg","Sun Jan 22 2017 13:23:54 GMT-0500 (Eastern Standard Time)","female","Black or African American","moderate/middle of the road","",NA,"","offCivRatings","the officer struck the civilian on the leg with a collapsible baton","the civilian twisted the arm of the officer, forcing him to the ground","batonLeg","armbar","civilianOfficer","punishOff","1","","","",""
"25",12665,"{""Q0"":100}","[object Object]","survey-likert",24,695918,"0.0-24.0","o7h9j788rhs29aexsgn40sxmu08w6atg","Sun Jan 22 2017 13:23:54 GMT-0500 (Eastern Standard Time)","female","Black or African American","moderate/middle of the road","",NA,"","offCivRatings","the officer struck the civilian on the leg with a collapsible baton","the civilian twisted the arm of the officer, forcing him to the ground","batonLeg","armbar","civilianOfficer","manipCheckHigh","100","","","",""
"26",1279,"","","instructions",25,697197,"0.0-25.0","o7h9j788rhs29aexsgn40sxmu08w6atg","Sun Jan 22 2017 13:23:54 GMT-0500 (Eastern Standard Time)","female","Black or African American","moderate/middle of the road","",NA,"[{""page_index"":0,""viewing_time"":1278}]","break","","","","","","","","","","",""
"27",8222,"{""Q0"":1}","[object Object]","survey-likert",26,705665,"0.0-26.0","o7h9j788rhs29aexsgn40sxmu08w6atg","Sun Jan 22 2017 13:23:54 GMT-0500 (Eastern Standard Time)","female","Black or African American","moderate/middle of the road","",NA,"","offCivRatings","the officer shouted ""get your fucking hands up!"" at the civilian","the civilian yelled ""get back!"" at the officer","handsUp","getBack","officerCivilian","acceptableCiv","1","","","",""
"28",102798,"{""Q0"":70}","[object Object]","survey-likert",27,808498,"0.0-27.0","o7h9j788rhs29aexsgn40sxmu08w6atg","Sun Jan 22 2017 13:23:54 GMT-0500 (Eastern Standard Time)","female","Black or African American","moderate/middle of the road","",NA,"","offCivRatings","the officer shouted ""get your fucking hands up!"" at the civilian","the civilian yelled ""get back!"" at the officer","handsUp","getBack","officerCivilian","punishCiv","70","","","",""
"29",7889,"{""Q0"":6}","[object Object]","survey-likert",28,816421,"0.0-28.0","o7h9j788rhs29aexsgn40sxmu08w6atg","Sun Jan 22 2017 13:23:54 GMT-0500 (Eastern Standard Time)","female","Black or African American","moderate/middle of the road","",NA,"","offCivRatings","the officer shouted ""get your fucking hands up!"" at the civilian","the civilian yelled ""get back!"" at the officer","handsUp","getBack","officerCivilian","appropriateCiv","6","","","",""
"30",4628,"{""Q0"":1}","[object Object]","survey-likert",29,821087,"0.0-29.0","o7h9j788rhs29aexsgn40sxmu08w6atg","Sun Jan 22 2017 13:23:54 GMT-0500 (Eastern Standard Time)","female","Black or African American","moderate/middle of the road","",NA,"","offCivRatings","the officer shouted ""get your fucking hands up!"" at the civilian","the civilian yelled ""get back!"" at the officer","handsUp","getBack","officerCivilian","forceCiv","1","","","",""
"31",1311,"","","instructions",30,822399,"0.0-30.0","o7h9j788rhs29aexsgn40sxmu08w6atg","Sun Jan 22 2017 13:23:54 GMT-0500 (Eastern Standard Time)","female","Black or African American","moderate/middle of the road","",NA,"[{""page_index"":0,""viewing_time"":1310}]","break","","","","","","","","","","",""
"32",85641,"{""Q0"":25}","[object Object]","survey-likert",31,908275,"0.0-31.0","o7h9j788rhs29aexsgn40sxmu08w6atg","Sun Jan 22 2017 13:23:54 GMT-0500 (Eastern Standard Time)","female","Black or African American","moderate/middle of the road","",NA,"","offCivRatings","the officer shot the civilian in the head with a handgun","the civilian sprayed the officer with pepper spray","handgunHead","pepperSpray","officerCivilian","forceCiv","25","","","",""
"33",11306,"{""Q0"":74}","[object Object]","survey-likert",32,919612,"0.0-32.0","o7h9j788rhs29aexsgn40sxmu08w6atg","Sun Jan 22 2017 13:23:54 GMT-0500 (Eastern Standard Time)","female","Black or African American","moderate/middle of the road","",NA,"","offCivRatings","the officer shot the civilian in the head with a handgun","the civilian sprayed the officer with pepper spray","handgunHead","pepperSpray","officerCivilian","acceptableCiv","74","","","",""
"34",6151,"{""Q0"":65}","[object Object]","survey-likert",33,925797,"0.0-33.0","o7h9j788rhs29aexsgn40sxmu08w6atg","Sun Jan 22 2017 13:23:54 GMT-0500 (Eastern Standard Time)","female","Black or African American","moderate/middle of the road","",NA,"","offCivRatings","the officer shot the civilian in the head with a handgun","the civilian sprayed the officer with pepper spray","handgunHead","pepperSpray","officerCivilian","appropriateCiv","65","","","",""
"35",4296,"{""Q0"":26}","[object Object]","survey-likert",34,930131,"0.0-34.0","o7h9j788rhs29aexsgn40sxmu08w6atg","Sun Jan 22 2017 13:23:54 GMT-0500 (Eastern Standard Time)","female","Black or African American","moderate/middle of the road","",NA,"","offCivRatings","the officer shot the civilian in the head with a handgun","the civilian sprayed the officer with pepper spray","handgunHead","pepperSpray","officerCivilian","punishCiv","26","","","",""
"36",1227,"","","instructions",35,931358,"0.0-35.0","o7h9j788rhs29aexsgn40sxmu08w6atg","Sun Jan 22 2017 13:23:54 GMT-0500 (Eastern Standard Time)","female","Black or African American","moderate/middle of the road","",NA,"[{""page_index"":0,""viewing_time"":1227}]","break","","","","","","","","","","",""
"37",13751,"{""Q0"":70}","[object Object]","survey-likert",36,945355,"0.0-36.0","o7h9j788rhs29aexsgn40sxmu08w6atg","Sun Jan 22 2017 13:23:54 GMT-0500 (Eastern Standard Time)","female","Black or African American","moderate/middle of the road","",NA,"","offCivRatings","the officer headbutted the civilian in the face","the civilian slammed the officer's head into the concrete curb","headbutt","headSlam","civilianOfficer","forceOff","70","","","",""
"38",15744,"{""Q0"":1}","[object Object]","survey-likert",37,961131,"0.0-37.0","o7h9j788rhs29aexsgn40sxmu08w6atg","Sun Jan 22 2017 13:23:54 GMT-0500 (Eastern Standard Time)","female","Black or African American","moderate/middle of the road","",NA,"","offCivRatings","the officer headbutted the civilian in the face","the civilian slammed the officer's head into the concrete curb","headbutt","headSlam","civilianOfficer","appropriateOff","1","","","",""
"39",4977,"{""Q0"":1}","[object Object]","survey-likert",38,966148,"0.0-38.0","o7h9j788rhs29aexsgn40sxmu08w6atg","Sun Jan 22 2017 13:23:54 GMT-0500 (Eastern Standard Time)","female","Black or African American","moderate/middle of the road","",NA,"","offCivRatings","the officer headbutted the civilian in the face","the civilian slammed the officer's head into the concrete curb","headbutt","headSlam","civilianOfficer","acceptableOff","1","","","",""
"40",14187,"{""Q0"":94}","[object Object]","survey-likert",39,980365,"0.0-39.0","o7h9j788rhs29aexsgn40sxmu08w6atg","Sun Jan 22 2017 13:23:54 GMT-0500 (Eastern Standard Time)","female","Black or African American","moderate/middle of the road","",NA,"","offCivRatings","the officer headbutted the civilian in the face","the civilian slammed the officer's head into the concrete curb","headbutt","headSlam","civilianOfficer","punishOff","94","","","",""
"41",1568,"","","instructions",40,981934,"0.0-40.0","o7h9j788rhs29aexsgn40sxmu08w6atg","Sun Jan 22 2017 13:23:54 GMT-0500 (Eastern Standard Time)","female","Black or African American","moderate/middle of the road","",NA,"[{""page_index"":0,""viewing_time"":1568}]","break","","","","","","","","","","",""
"42",10919,"{""Q0"":64}","[object Object]","survey-likert",41,993105,"0.0-41.0","o7h9j788rhs29aexsgn40sxmu08w6atg","Sun Jan 22 2017 13:23:54 GMT-0500 (Eastern Standard Time)","female","Black or African American","moderate/middle of the road","",NA,"","offCivRatings","the officer punched the civilian in the face","the civilian kicked the officer in the stomach","punchFace","kickStom","officerCivilian","appropriateCiv","64","","","",""
"43",554309,"{""Q0"":100}","[object Object]","survey-likert",42,1547447,"0.0-42.0","o7h9j788rhs29aexsgn40sxmu08w6atg","Sun Jan 22 2017 13:23:54 GMT-0500 (Eastern Standard Time)","female","Black or African American","moderate/middle of the road","",NA,"","offCivRatings","the officer punched the civilian in the face","the civilian kicked the officer in the stomach","punchFace","kickStom","officerCivilian","manipCheckHigh","100","","","",""
"44",22124,"{""Q0"":80}","[object Object]","survey-likert",43,1569607,"0.0-43.0","o7h9j788rhs29aexsgn40sxmu08w6atg","Sun Jan 22 2017 13:23:54 GMT-0500 (Eastern Standard Time)","female","Black or African American","moderate/middle of the road","",NA,"","offCivRatings","the officer punched the civilian in the face","the civilian kicked the officer in the stomach","punchFace","kickStom","officerCivilian","forceCiv","80","","","",""
"45",5645,"{""Q0"":60}","[object Object]","survey-likert",44,1575283,"0.0-44.0","o7h9j788rhs29aexsgn40sxmu08w6atg","Sun Jan 22 2017 13:23:54 GMT-0500 (Eastern Standard Time)","female","Black or African American","moderate/middle of the road","",NA,"","offCivRatings","the officer punched the civilian in the face","the civilian kicked the officer in the stomach","punchFace","kickStom","officerCivilian","punishCiv","60","","","",""
"46",7735,"{""Q0"":50}","[object Object]","survey-likert",45,1583049,"0.0-45.0","o7h9j788rhs29aexsgn40sxmu08w6atg","Sun Jan 22 2017 13:23:54 GMT-0500 (Eastern Standard Time)","female","Black or African American","moderate/middle of the road","",NA,"","offCivRatings","the officer punched the civilian in the face","the civilian kicked the officer in the stomach","punchFace","kickStom","officerCivilian","acceptableCiv","50","","","",""
"47",1352,"","","instructions",46,1584403,"0.0-46.0","o7h9j788rhs29aexsgn40sxmu08w6atg","Sun Jan 22 2017 13:23:54 GMT-0500 (Eastern Standard Time)","female","Black or African American","moderate/middle of the road","",NA,"[{""page_index"":0,""viewing_time"":1352}]","break","","","","","","","","","","",""
"48",11720,"{""Q0"":90}","[object Object]","survey-likert",47,1596380,"0.0-47.0","o7h9j788rhs29aexsgn40sxmu08w6atg","Sun Jan 22 2017 13:23:54 GMT-0500 (Eastern Standard Time)","female","Black or African American","moderate/middle of the road","",NA,"","offCivRatings","the officer yelled ""get back!"" at the civilian","the civilian headbutted the officer in the face","getBack","headbutt","officerCivilian","appropriateCiv","90","","","",""
"49",6595,"{""Q0"":95}","[object Object]","survey-likert",48,1603008,"0.0-48.0","o7h9j788rhs29aexsgn40sxmu08w6atg","Sun Jan 22 2017 13:23:54 GMT-0500 (Eastern Standard Time)","female","Black or African American","moderate/middle of the road","",NA,"","offCivRatings","the officer yelled ""get back!"" at the civilian","the civilian headbutted the officer in the face","getBack","headbutt","officerCivilian","punishCiv","95","","","",""
"50",4040,"{""Q0"":1}","[object Object]","survey-likert",49,1607086,"0.0-49.0","o7h9j788rhs29aexsgn40sxmu08w6atg","Sun Jan 22 2017 13:23:54 GMT-0500 (Eastern Standard Time)","female","Black or African American","moderate/middle of the road","",NA,"","offCivRatings","the officer yelled ""get back!"" at the civilian","the civilian headbutted the officer in the face","getBack","headbutt","officerCivilian","acceptableCiv","1","","","",""
"51",7689,"{""Q0"":94}","[object Object]","survey-likert",50,1614811,"0.0-50.0","o7h9j788rhs29aexsgn40sxmu08w6atg","Sun Jan 22 2017 13:23:54 GMT-0500 (Eastern Standard Time)","female","Black or African American","moderate/middle of the road","",NA,"","offCivRatings","the officer yelled ""get back!"" at the civilian","the civilian headbutted the officer in the face","getBack","headbutt","officerCivilian","forceCiv","94","","","",""
"52",1344,"","","instructions",51,1616155,"0.0-51.0","o7h9j788rhs29aexsgn40sxmu08w6atg","Sun Jan 22 2017 13:23:54 GMT-0500 (Eastern Standard Time)","female","Black or African American","moderate/middle of the road","",NA,"[{""page_index"":0,""viewing_time"":1343}]","break","","","","","","","","","","",""
"53",12497,"{""Q0"":60}","[object Object]","survey-likert",52,1628898,"0.0-52.0","o7h9j788rhs29aexsgn40sxmu08w6atg","Sun Jan 22 2017 13:23:54 GMT-0500 (Eastern Standard Time)","female","Black or African American","moderate/middle of the road","",NA,"","offCivRatings","the officer slammed the civilian's head into the concrete curb","the civilian purposefully struck the officer with a motor vehicle","headSlam","vehicle","civilianOfficer","punishOff","60","","","",""
"54",11175,"{""Q0"":70}","[object Object]","survey-likert",53,1640104,"0.0-53.0","o7h9j788rhs29aexsgn40sxmu08w6atg","Sun Jan 22 2017 13:23:54 GMT-0500 (Eastern Standard Time)","female","Black or African American","moderate/middle of the road","",NA,"","offCivRatings","the officer slammed the civilian's head into the concrete curb","the civilian purposefully struck the officer with a motor vehicle","headSlam","vehicle","civilianOfficer","appropriateOff","70","","","",""
"55",43456,"{""Q0"":74}","[object Object]","survey-likert",54,1683591,"0.0-54.0","o7h9j788rhs29aexsgn40sxmu08w6atg","Sun Jan 22 2017 13:23:54 GMT-0500 (Eastern Standard Time)","female","Black or African American","moderate/middle of the road","",NA,"","offCivRatings","the officer slammed the civilian's head into the concrete curb","the civilian purposefully struck the officer with a motor vehicle","headSlam","vehicle","civilianOfficer","forceOff","74","","","",""
"56",8677,"{""Q0"":36}","[object Object]","survey-likert",55,1692300,"0.0-55.0","o7h9j788rhs29aexsgn40sxmu08w6atg","Sun Jan 22 2017 13:23:54 GMT-0500 (Eastern Standard Time)","female","Black or African American","moderate/middle of the road","",NA,"","offCivRatings","the officer slammed the civilian's head into the concrete curb","the civilian purposefully struck the officer with a motor vehicle","headSlam","vehicle","civilianOfficer","acceptableOff","36","","","",""
"57",2055,"","","instructions",56,1694356,"0.0-56.0","o7h9j788rhs29aexsgn40sxmu08w6atg","Sun Jan 22 2017 13:23:54 GMT-0500 (Eastern Standard Time)","female","Black or African American","moderate/middle of the road","",NA,"[{""page_index"":0,""viewing_time"":2055}]","break","","","","","","","","","","",""
"58",52425,"{""Q0"":40}","[object Object]","survey-likert",57,1747026,"0.0-57.0","o7h9j788rhs29aexsgn40sxmu08w6atg","Sun Jan 22 2017 13:23:54 GMT-0500 (Eastern Standard Time)","female","Black or African American","moderate/middle of the road","",NA,"","offCivRatings","the officer sprayed the civilian with pepper spray","the civilian hit the officer in the chest with a baseball bat","pepperSpray","ballBat","civilianOfficer","forceOff","40","","","",""
"59",4397,"{""Q0"":1}","[object Object]","survey-likert",58,1751453,"0.0-58.0","o7h9j788rhs29aexsgn40sxmu08w6atg","Sun Jan 22 2017 13:23:54 GMT-0500 (Eastern Standard Time)","female","Black or African American","moderate/middle of the road","",NA,"","offCivRatings","the officer sprayed the civilian with pepper spray","the civilian hit the officer in the chest with a baseball bat","pepperSpray","ballBat","civilianOfficer","manipCheckLow","1","","","",""
"60",15030,"{""Q0"":100}","[object Object]","survey-likert",59,1766520,"0.0-59.0","o7h9j788rhs29aexsgn40sxmu08w6atg","Sun Jan 22 2017 13:23:54 GMT-0500 (Eastern Standard Time)","female","Black or African American","moderate/middle of the road","",NA,"","offCivRatings","the officer sprayed the civilian with pepper spray","the civilian hit the officer in the chest with a baseball bat","pepperSpray","ballBat","civilianOfficer","acceptableOff","100","","","",""
"61",4468,"{""Q0"":1}","[object Object]","survey-likert",60,1771020,"0.0-60.0","o7h9j788rhs29aexsgn40sxmu08w6atg","Sun Jan 22 2017 13:23:54 GMT-0500 (Eastern Standard Time)","female","Black or African American","moderate/middle of the road","",NA,"","offCivRatings","the officer sprayed the civilian with pepper spray","the civilian hit the officer in the chest with a baseball bat","pepperSpray","ballBat","civilianOfficer","punishOff","1","","","",""
"62",4782,"{""Q0"":50}","[object Object]","survey-likert",61,1775845,"0.0-61.0","o7h9j788rhs29aexsgn40sxmu08w6atg","Sun Jan 22 2017 13:23:54 GMT-0500 (Eastern Standard Time)","female","Black or African American","moderate/middle of the road","",NA,"","offCivRatings","the officer sprayed the civilian with pepper spray","the civilian hit the officer in the chest with a baseball bat","pepperSpray","ballBat","civilianOfficer","appropriateOff","50","","","",""
"63",1555,"","","instructions",62,1777400,"0.0-62.0","o7h9j788rhs29aexsgn40sxmu08w6atg","Sun Jan 22 2017 13:23:54 GMT-0500 (Eastern Standard Time)","female","Black or African American","moderate/middle of the road","",NA,"[{""page_index"":0,""viewing_time"":1555}]","break","","","","","","","","","","",""
"64",141805,"{""Q0"":16}","[object Object]","survey-likert",63,1919454,"0.0-63.0","o7h9j788rhs29aexsgn40sxmu08w6atg","Sun Jan 22 2017 13:23:54 GMT-0500 (Eastern Standard Time)","female","Black or African American","moderate/middle of the road","",NA,"","offCivRatings","the officer waved at the civilian in greeting","the civilian pulled away from the officer","waved","pulledAway","officerCivilian","acceptableCiv","16","","","",""
"65",5759,"{""Q0"":50}","[object Object]","survey-likert",64,1925247,"0.0-64.0","o7h9j788rhs29aexsgn40sxmu08w6atg","Sun Jan 22 2017 13:23:54 GMT-0500 (Eastern Standard Time)","female","Black or African American","moderate/middle of the road","",NA,"","offCivRatings","the officer waved at the civilian in greeting","the civilian pulled away from the officer","waved","pulledAway","officerCivilian","forceCiv","50","","","",""
"66",10083,"{""Q0"":69}","[object Object]","survey-likert",65,1935364,"0.0-65.0","o7h9j788rhs29aexsgn40sxmu08w6atg","Sun Jan 22 2017 13:23:54 GMT-0500 (Eastern Standard Time)","female","Black or African American","moderate/middle of the road","",NA,"","offCivRatings","the officer waved at the civilian in greeting","the civilian pulled away from the officer","waved","pulledAway","officerCivilian","appropriateCiv","69","","","",""
"67",43571,"{""Q0"":50}","[object Object]","survey-likert",66,1978969,"0.0-66.0","o7h9j788rhs29aexsgn40sxmu08w6atg","Sun Jan 22 2017 13:23:54 GMT-0500 (Eastern Standard Time)","female","Black or African American","moderate/middle of the road","",NA,"","offCivRatings","the officer waved at the civilian in greeting","the civilian pulled away from the officer","waved","pulledAway","officerCivilian","punishCiv","50","","","",""
"68",1978,"","","instructions",67,1980948,"0.0-67.0","o7h9j788rhs29aexsgn40sxmu08w6atg","Sun Jan 22 2017 13:23:54 GMT-0500 (Eastern Standard Time)","female","Black or African American","moderate/middle of the road","",NA,"[{""page_index"":0,""viewing_time"":1978}]","break","","","","","","","","","","",""
"69",19025,"{""Q0"":1}","[object Object]","survey-likert",68,2000215,"0.0-68.0","o7h9j788rhs29aexsgn40sxmu08w6atg","Sun Jan 22 2017 13:23:54 GMT-0500 (Eastern Standard Time)","female","Black or African American","moderate/middle of the road","",NA,"","offCivRatings","the officer asked the civilian how he was doing","the civilian punched the officer in the face","asked","punchFace","civilianOfficer","punishOff","1","","","",""
"70",4609,"{""Q0"":100}","[object Object]","survey-likert",69,2004855,"0.0-69.0","o7h9j788rhs29aexsgn40sxmu08w6atg","Sun Jan 22 2017 13:23:54 GMT-0500 (Eastern Standard Time)","female","Black or African American","moderate/middle of the road","",NA,"","offCivRatings","the officer asked the civilian how he was doing","the civilian punched the officer in the face","asked","punchFace","civilianOfficer","acceptableOff","100","","","",""
"71",17653,"{""Q0"":1}","[object Object]","survey-likert",70,2022541,"0.0-70.0","o7h9j788rhs29aexsgn40sxmu08w6atg","Sun Jan 22 2017 13:23:54 GMT-0500 (Eastern Standard Time)","female","Black or African American","moderate/middle of the road","",NA,"","offCivRatings","the officer asked the civilian how he was doing","the civilian punched the officer in the face","asked","punchFace","civilianOfficer","forceOff","1","","","",""
"72",72396,"{""Q0"":50}","[object Object]","survey-likert",71,2094967,"0.0-71.0","o7h9j788rhs29aexsgn40sxmu08w6atg","Sun Jan 22 2017 13:23:54 GMT-0500 (Eastern Standard Time)","female","Black or African American","moderate/middle of the road","",NA,"","offCivRatings","the officer asked the civilian how he was doing","the civilian punched the officer in the face","asked","punchFace","civilianOfficer","appropriateOff","50","","","",""
"73",1374,"","","instructions",72,2096341,"0.0-72.0","o7h9j788rhs29aexsgn40sxmu08w6atg","Sun Jan 22 2017 13:23:54 GMT-0500 (Eastern Standard Time)","female","Black or African American","moderate/middle of the road","",NA,"[{""page_index"":0,""viewing_time"":1373}]","break","","","","","","","","","","",""
"74",9472,"{""Q0"":80}","[object Object]","survey-likert",73,2106064,"0.0-73.0","o7h9j788rhs29aexsgn40sxmu08w6atg","Sun Jan 22 2017 13:23:54 GMT-0500 (Eastern Standard Time)","female","Black or African American","moderate/middle of the road","",NA,"","offCivRatings","the officer called the civilian a ""thug""","the civilian shocked the officer with a tazer","nameCall","tazer","officerCivilian","appropriateCiv","80","","","",""
"75",3405,"{""Q0"":50}","[object Object]","survey-likert",74,2109502,"0.0-74.0","o7h9j788rhs29aexsgn40sxmu08w6atg","Sun Jan 22 2017 13:23:54 GMT-0500 (Eastern Standard Time)","female","Black or African American","moderate/middle of the road","",NA,"","offCivRatings","the officer called the civilian a ""thug""","the civilian shocked the officer with a tazer","nameCall","tazer","officerCivilian","acceptableCiv","50","","","",""
"76",4821,"{""Q0"":65}","[object Object]","survey-likert",75,2114354,"0.0-75.0","o7h9j788rhs29aexsgn40sxmu08w6atg","Sun Jan 22 2017 13:23:54 GMT-0500 (Eastern Standard Time)","female","Black or African American","moderate/middle of the road","",NA,"","offCivRatings","the officer called the civilian a ""thug""","the civilian shocked the officer with a tazer","nameCall","tazer","officerCivilian","punishCiv","65","","","",""
"77",6993,"{""Q0"":70}","[object Object]","survey-likert",76,2121385,"0.0-76.0","o7h9j788rhs29aexsgn40sxmu08w6atg","Sun Jan 22 2017 13:23:54 GMT-0500 (Eastern Standard Time)","female","Black or African American","moderate/middle of the road","",NA,"","offCivRatings","the officer called the civilian a ""thug""","the civilian shocked the officer with a tazer","nameCall","tazer","officerCivilian","forceCiv","70","","","",""
"78",3979,"{""Q0"":1}","[object Object]","survey-likert",77,2125395,"0.0-77.0","o7h9j788rhs29aexsgn40sxmu08w6atg","Sun Jan 22 2017 13:23:54 GMT-0500 (Eastern Standard Time)","female","Black or African American","moderate/middle of the road","",NA,"","offCivRatings","the officer called the civilian a ""thug""","the civilian shocked the officer with a tazer","nameCall","tazer","officerCivilian","manipCheckLow","1","","","",""
"79",1467,"","","instructions",78,2126862,"0.0-78.0","o7h9j788rhs29aexsgn40sxmu08w6atg","Sun Jan 22 2017 13:23:54 GMT-0500 (Eastern Standard Time)","female","Black or African American","moderate/middle of the road","",NA,"[{""page_index"":0,""viewing_time"":1467}]","break","","","","","","","","","","",""
"80",9956,"{""Q0"":97}","[object Object]","survey-likert",79,2137060,"0.0-79.0","o7h9j788rhs29aexsgn40sxmu08w6atg","Sun Jan 22 2017 13:23:54 GMT-0500 (Eastern Standard Time)","female","Black or African American","moderate/middle of the road","",NA,"","offCivRatings","the officer twisted the arm of the civilian, forcing him to the ground","the civilian called the officer a ""pig""","armbar","nameCall","civilianOfficer","punishOff","97","","","",""
"81",4507,"{""Q0"":96}","[object Object]","survey-likert",80,2141614,"0.0-80.0","o7h9j788rhs29aexsgn40sxmu08w6atg","Sun Jan 22 2017 13:23:54 GMT-0500 (Eastern Standard Time)","female","Black or African American","moderate/middle of the road","",NA,"","offCivRatings","the officer twisted the arm of the civilian, forcing him to the ground","the civilian called the officer a ""pig""","armbar","nameCall","civilianOfficer","forceOff","96","","","",""
"82",43369,"{""Q0"":96}","[object Object]","survey-likert",81,2185014,"0.0-81.0","o7h9j788rhs29aexsgn40sxmu08w6atg","Sun Jan 22 2017 13:23:54 GMT-0500 (Eastern Standard Time)","female","Black or African American","moderate/middle of the road","",NA,"","offCivRatings","the officer twisted the arm of the civilian, forcing him to the ground","the civilian called the officer a ""pig""","armbar","nameCall","civilianOfficer","appropriateOff","96","","","",""
"83",4489,"{""Q0"":1}","[object Object]","survey-likert",82,2189537,"0.0-82.0","o7h9j788rhs29aexsgn40sxmu08w6atg","Sun Jan 22 2017 13:23:54 GMT-0500 (Eastern Standard Time)","female","Black or African American","moderate/middle of the road","",NA,"","offCivRatings","the officer twisted the arm of the civilian, forcing him to the ground","the civilian called the officer a ""pig""","armbar","nameCall","civilianOfficer","acceptableOff","1","","","",""
"84",1151,"","","instructions",83,2190688,"0.0-83.0","o7h9j788rhs29aexsgn40sxmu08w6atg","Sun Jan 22 2017 13:23:54 GMT-0500 (Eastern Standard Time)","female","Black or African American","moderate/middle of the road","",NA,"[{""page_index"":0,""viewing_time"":1150}]","break","","","","","","","","","","",""
"85",12955,"{""Q0"":100}","[object Object]","survey-likert",84,2203888,"0.0-84.0","o7h9j788rhs29aexsgn40sxmu08w6atg","Sun Jan 22 2017 13:23:54 GMT-0500 (Eastern Standard Time)","female","Black or African American","moderate/middle of the road","",NA,"","offCivRatings","the officer purposefully struck the civilian with a motor vehicle","the civilian stood near the officer","vehicle","stoodNear","officerCivilian","manipCheckHigh","100","","","",""
"86",4326,"{""Q0"":1}","[object Object]","survey-likert",85,2208245,"0.0-85.0","o7h9j788rhs29aexsgn40sxmu08w6atg","Sun Jan 22 2017 13:23:54 GMT-0500 (Eastern Standard Time)","female","Black or African American","moderate/middle of the road","",NA,"","offCivRatings","the officer purposefully struck the civilian with a motor vehicle","the civilian stood near the officer","vehicle","stoodNear","officerCivilian","punishCiv","1","","","",""
"87",3973,"{""Q0"":1}","[object Object]","survey-likert",86,2212248,"0.0-86.0","o7h9j788rhs29aexsgn40sxmu08w6atg","Sun Jan 22 2017 13:23:54 GMT-0500 (Eastern Standard Time)","female","Black or African American","moderate/middle of the road","",NA,"","offCivRatings","the officer purposefully struck the civilian with a motor vehicle","the civilian stood near the officer","vehicle","stoodNear","officerCivilian","forceCiv","1","","","",""
"88",8259,"{""Q0"":1}","[object Object]","survey-likert",87,2220537,"0.0-87.0","o7h9j788rhs29aexsgn40sxmu08w6atg","Sun Jan 22 2017 13:23:54 GMT-0500 (Eastern Standard Time)","female","Black or African American","moderate/middle of the road","",NA,"","offCivRatings","the officer purposefully struck the civilian with a motor vehicle","the civilian stood near the officer","vehicle","stoodNear","officerCivilian","appropriateCiv","1","","","",""
"89",4225,"{""Q0"":100}","[object Object]","survey-likert",88,2224793,"0.0-88.0","o7h9j788rhs29aexsgn40sxmu08w6atg","Sun Jan 22 2017 13:23:54 GMT-0500 (Eastern Standard Time)","female","Black or African American","moderate/middle of the road","",NA,"","offCivRatings","the officer purposefully struck the civilian with a motor vehicle","the civilian stood near the officer","vehicle","stoodNear","officerCivilian","acceptableCiv","100","","","",""
"90",1106,"","","instructions",89,2225900,"0.0-89.0","o7h9j788rhs29aexsgn40sxmu08w6atg","Sun Jan 22 2017 13:23:54 GMT-0500 (Eastern Standard Time)","female","Black or African American","moderate/middle of the road","",NA,"[{""page_index"":0,""viewing_time"":1105}]","break","","","","","","","","","","",""
"91",6507,"{""Q0"":1}","[object Object]","survey-likert",90,2232646,"0.0-90.0","o7h9j788rhs29aexsgn40sxmu08w6atg","Sun Jan 22 2017 13:23:54 GMT-0500 (Eastern Standard Time)","female","Black or African American","moderate/middle of the road","",NA,"","offCivRatings","the officer stood near the civilian","the civilian shot the officer in the head with a handgun","stoodNear","handgunHead","civilianOfficer","forceOff","1","","","",""
"92",3230,"{""Q0"":1}","[object Object]","survey-likert",91,2235910,"0.0-91.0","o7h9j788rhs29aexsgn40sxmu08w6atg","Sun Jan 22 2017 13:23:54 GMT-0500 (Eastern Standard Time)","female","Black or African American","moderate/middle of the road","",NA,"","offCivRatings","the officer stood near the civilian","the civilian shot the officer in the head with a handgun","stoodNear","handgunHead","civilianOfficer","punishOff","1","","","",""
"93",4158,"{""Q0"":100}","[object Object]","survey-likert",92,2240100,"0.0-92.0","o7h9j788rhs29aexsgn40sxmu08w6atg","Sun Jan 22 2017 13:23:54 GMT-0500 (Eastern Standard Time)","female","Black or African American","moderate/middle of the road","",NA,"","offCivRatings","the officer stood near the civilian","the civilian shot the officer in the head with a handgun","stoodNear","handgunHead","civilianOfficer","acceptableOff","100","","","",""
"94",3284,"{""Q0"":100}","[object Object]","survey-likert",93,2243423,"0.0-93.0","o7h9j788rhs29aexsgn40sxmu08w6atg","Sun Jan 22 2017 13:23:54 GMT-0500 (Eastern Standard Time)","female","Black or African American","moderate/middle of the road","",NA,"","offCivRatings","the officer stood near the civilian","the civilian shot the officer in the head with a handgun","stoodNear","handgunHead","civilianOfficer","manipCheckHigh","100","","","",""
"95",10287,"{""Q0"":1}","[object Object]","survey-likert",94,2253740,"0.0-94.0","o7h9j788rhs29aexsgn40sxmu08w6atg","Sun Jan 22 2017 13:23:54 GMT-0500 (Eastern Standard Time)","female","Black or African American","moderate/middle of the road","",NA,"","offCivRatings","the officer stood near the civilian","the civilian shot the officer in the head with a handgun","stoodNear","handgunHead","civilianOfficer","appropriateOff","1","","","",""
"96",1284,"","","instructions",95,2255024,"0.0-95.0","o7h9j788rhs29aexsgn40sxmu08w6atg","Sun Jan 22 2017 13:23:54 GMT-0500 (Eastern Standard Time)","female","Black or African American","moderate/middle of the road","",NA,"[{""page_index"":0,""viewing_time"":1283}]","break","","","","","","","","","","",""
"97",81043,"{""Q0"":89}","[object Object]","survey-likert",96,2336334,"0.0-96.0","o7h9j788rhs29aexsgn40sxmu08w6atg","Sun Jan 22 2017 13:23:54 GMT-0500 (Eastern Standard Time)","female","Black or African American","moderate/middle of the road","",NA,"","offCivRatings","the officer shot the civilian in the chest with a handgun","the civilian struck the officer in the stomach with a metal flashlight","handgunChest","flashlight","civilianOfficer","forceOff","89","","","",""
"98",16310,"{""Q0"":77}","[object Object]","survey-likert",97,2352677,"0.0-97.0","o7h9j788rhs29aexsgn40sxmu08w6atg","Sun Jan 22 2017 13:23:54 GMT-0500 (Eastern Standard Time)","female","Black or African American","moderate/middle of the road","",NA,"","offCivRatings","the officer shot the civilian in the chest with a handgun","the civilian struck the officer in the stomach with a metal flashlight","handgunChest","flashlight","civilianOfficer","punishOff","77","","","",""
"99",8235,"{""Q0"":50}","[object Object]","survey-likert",98,2360943,"0.0-98.0","o7h9j788rhs29aexsgn40sxmu08w6atg","Sun Jan 22 2017 13:23:54 GMT-0500 (Eastern Standard Time)","female","Black or African American","moderate/middle of the road","",NA,"","offCivRatings","the officer shot the civilian in the chest with a handgun","the civilian struck the officer in the stomach with a metal flashlight","handgunChest","flashlight","civilianOfficer","acceptableOff","50","","","",""
"100",5381,"{""Q0"":89}","[object Object]","survey-likert",99,2366357,"0.0-99.0","o7h9j788rhs29aexsgn40sxmu08w6atg","Sun Jan 22 2017 13:23:54 GMT-0500 (Eastern Standard Time)","female","Black or African American","moderate/middle of the road","",NA,"","offCivRatings","the officer shot the civilian in the chest with a handgun","the civilian struck the officer in the stomach with a metal flashlight","handgunChest","flashlight","civilianOfficer","appropriateOff","89","","","",""
"101",1218,"","","instructions",100,2367576,"0.0-100.0","o7h9j788rhs29aexsgn40sxmu08w6atg","Sun Jan 22 2017 13:23:54 GMT-0500 (Eastern Standard Time)","female","Black or African American","moderate/middle of the road","",NA,"[{""page_index"":0,""viewing_time"":1217}]","break","","","","","","","","","","",""
"102",23958,"{""Q0"":16}","[object Object]","survey-likert",101,2391792,"0.0-101.0","o7h9j788rhs29aexsgn40sxmu08w6atg","Sun Jan 22 2017 13:23:54 GMT-0500 (Eastern Standard Time)","female","Black or African American","moderate/middle of the road","",NA,"","offCivRatings","the officer struck the civilian in the stomach with a metal flashlight","the civilian shot the officer in the chest with a handgun","flashlight","handgunChest","officerCivilian","acceptableCiv","16","","","",""
"103",37844,"{""Q0"":90}","[object Object]","survey-likert",102,2429676,"0.0-102.0","o7h9j788rhs29aexsgn40sxmu08w6atg","Sun Jan 22 2017 13:23:54 GMT-0500 (Eastern Standard Time)","female","Black or African American","moderate/middle of the road","",NA,"","offCivRatings","the officer struck the civilian in the stomach with a metal flashlight","the civilian shot the officer in the chest with a handgun","flashlight","handgunChest","officerCivilian","punishCiv","90","","","",""
"104",3703,"{""Q0"":93}","[object Object]","survey-likert",103,2433414,"0.0-103.0","o7h9j788rhs29aexsgn40sxmu08w6atg","Sun Jan 22 2017 13:23:54 GMT-0500 (Eastern Standard Time)","female","Black or African American","moderate/middle of the road","",NA,"","offCivRatings","the officer struck the civilian in the stomach with a metal flashlight","the civilian shot the officer in the chest with a handgun","flashlight","handgunChest","officerCivilian","forceCiv","93","","","",""
"105",6306,"{""Q0"":91}","[object Object]","survey-likert",104,2439751,"0.0-104.0","o7h9j788rhs29aexsgn40sxmu08w6atg","Sun Jan 22 2017 13:23:54 GMT-0500 (Eastern Standard Time)","female","Black or African American","moderate/middle of the road","",NA,"","offCivRatings","the officer struck the civilian in the stomach with a metal flashlight","the civilian shot the officer in the chest with a handgun","flashlight","handgunChest","officerCivilian","appropriateCiv","91","","","",""
"106",1103,"","","instructions",105,2440854,"0.0-105.0","o7h9j788rhs29aexsgn40sxmu08w6atg","Sun Jan 22 2017 13:23:54 GMT-0500 (Eastern Standard Time)","female","Black or African American","moderate/middle of the road","",NA,"[{""page_index"":0,""viewing_time"":1102}]","break","","","","","","","","","","",""
"107",10799,"{""Q0"":1}","[object Object]","survey-likert",106,2451894,"0.0-106.0","o7h9j788rhs29aexsgn40sxmu08w6atg","Sun Jan 22 2017 13:23:54 GMT-0500 (Eastern Standard Time)","female","Black or African American","moderate/middle of the road","",NA,"","offCivRatings","the officer said ""if you touch me, you're gonna get hurt"" to the civilian","the civilian struck the officer on the leg with a metal pipe","hurtThreat","metalPipe","civilianOfficer","punishOff","1","","","",""
"108",14944,"{""Q0"":19}","[object Object]","survey-likert",107,2466870,"0.0-107.0","o7h9j788rhs29aexsgn40sxmu08w6atg","Sun Jan 22 2017 13:23:54 GMT-0500 (Eastern Standard Time)","female","Black or African American","moderate/middle of the road","",NA,"","offCivRatings","the officer said ""if you touch me, you're gonna get hurt"" to the civilian","the civilian struck the officer on the leg with a metal pipe","hurtThreat","metalPipe","civilianOfficer","appropriateOff","19","","","",""
"109",4173,"{""Q0"":100}","[object Object]","survey-likert",108,2471075,"0.0-108.0","o7h9j788rhs29aexsgn40sxmu08w6atg","Sun Jan 22 2017 13:23:54 GMT-0500 (Eastern Standard Time)","female","Black or African American","moderate/middle of the road","",NA,"","offCivRatings","the officer said ""if you touch me, you're gonna get hurt"" to the civilian","the civilian struck the officer on the leg with a metal pipe","hurtThreat","metalPipe","civilianOfficer","manipCheckHigh","100","","","",""
"110",6297,"{""Q0"":94}","[object Object]","survey-likert",109,2477404,"0.0-109.0","o7h9j788rhs29aexsgn40sxmu08w6atg","Sun Jan 22 2017 13:23:54 GMT-0500 (Eastern Standard Time)","female","Black or African American","moderate/middle of the road","",NA,"","offCivRatings","the officer said ""if you touch me, you're gonna get hurt"" to the civilian","the civilian struck the officer on the leg with a metal pipe","hurtThreat","metalPipe","civilianOfficer","acceptableOff","94","","","",""
"111",5224,"{""Q0"":2}","[object Object]","survey-likert",110,2482665,"0.0-110.0","o7h9j788rhs29aexsgn40sxmu08w6atg","Sun Jan 22 2017 13:23:54 GMT-0500 (Eastern Standard Time)","female","Black or African American","moderate/middle of the road","",NA,"","offCivRatings","the officer said ""if you touch me, you're gonna get hurt"" to the civilian","the civilian struck the officer on the leg with a metal pipe","hurtThreat","metalPipe","civilianOfficer","forceOff","2","","","",""
"112",4007,"","","instructions",111,2486673,"0.0-111.0","o7h9j788rhs29aexsgn40sxmu08w6atg","Sun Jan 22 2017 13:23:54 GMT-0500 (Eastern Standard Time)","female","Black or African American","moderate/middle of the road","",NA,"[{""page_index"":0,""viewing_time"":4007}]","break","","","","","","","","","","",""
"113",7400,"{""Q0"":1}","[object Object]","survey-likert",112,2494313,"0.0-112.0","o7h9j788rhs29aexsgn40sxmu08w6atg","Sun Jan 22 2017 13:23:54 GMT-0500 (Eastern Standard Time)","female","Black or African American","moderate/middle of the road","",NA,"","offCivRatings","the officer put handcuffs on the civilian","the civilian asked the officer how he was doing","handcuff","asked","civilianOfficer","acceptableOff","1","","","",""
"114",20560,"{""Q0"":1}","[object Object]","survey-likert",113,2514907,"0.0-113.0","o7h9j788rhs29aexsgn40sxmu08w6atg","Sun Jan 22 2017 13:23:54 GMT-0500 (Eastern Standard Time)","female","Black or African American","moderate/middle of the road","",NA,"","offCivRatings","the officer put handcuffs on the civilian","the civilian asked the officer how he was doing","handcuff","asked","civilianOfficer","manipCheckLow","1","","","",""
"115",19751,"{""Q0"":51}","[object Object]","survey-likert",114,2534693,"0.0-114.0","o7h9j788rhs29aexsgn40sxmu08w6atg","Sun Jan 22 2017 13:23:54 GMT-0500 (Eastern Standard Time)","female","Black or African American","moderate/middle of the road","",NA,"","offCivRatings","the officer put handcuffs on the civilian","the civilian asked the officer how he was doing","handcuff","asked","civilianOfficer","forceOff","51","","","",""
"116",14820,"{""Q0"":21}","[object Object]","survey-likert",115,2549547,"0.0-115.0","o7h9j788rhs29aexsgn40sxmu08w6atg","Sun Jan 22 2017 13:23:54 GMT-0500 (Eastern Standard Time)","female","Black or African American","moderate/middle of the road","",NA,"","offCivRatings","the officer put handcuffs on the civilian","the civilian asked the officer how he was doing","handcuff","asked","civilianOfficer","punishOff","21","","","",""
"117",56101,"{""Q0"":69}","[object Object]","survey-likert",116,2605681,"0.0-116.0","o7h9j788rhs29aexsgn40sxmu08w6atg","Sun Jan 22 2017 13:23:54 GMT-0500 (Eastern Standard Time)","female","Black or African American","moderate/middle of the road","",NA,"","offCivRatings","the officer put handcuffs on the civilian","the civilian asked the officer how he was doing","handcuff","asked","civilianOfficer","appropriateOff","69","","","",""
"118",1257,"","","instructions",117,2606938,"0.0-117.0","o7h9j788rhs29aexsgn40sxmu08w6atg","Sun Jan 22 2017 13:23:54 GMT-0500 (Eastern Standard Time)","female","Black or African American","moderate/middle of the road","",NA,"[{""page_index"":0,""viewing_time"":1256}]","break","","","","","","","","","","",""
"119",9770,"{""Q0"":7}","[object Object]","survey-likert",118,2616952,"0.0-118.0","o7h9j788rhs29aexsgn40sxmu08w6atg","Sun Jan 22 2017 13:23:54 GMT-0500 (Eastern Standard Time)","female","Black or African American","moderate/middle of the road","",NA,"","offCivRatings","the officer kicked the civilian in the stomach","the civilian said ""if you touch me, you're gonna get hurt"" to the officer","kickStom","hurtThreat","officerCivilian","punishCiv","7","","","",""
"120",72544,"{""Q0"":80}","[object Object]","survey-likert",119,2689532,"0.0-119.0","o7h9j788rhs29aexsgn40sxmu08w6atg","Sun Jan 22 2017 13:23:54 GMT-0500 (Eastern Standard Time)","female","Black or African American","moderate/middle of the road","",NA,"","offCivRatings","the officer kicked the civilian in the stomach","the civilian said ""if you touch me, you're gonna get hurt"" to the officer","kickStom","hurtThreat","officerCivilian","acceptableCiv","80","","","",""
"121",12134,"{""Q0"":1}","[object Object]","survey-likert",120,2701697,"0.0-120.0","o7h9j788rhs29aexsgn40sxmu08w6atg","Sun Jan 22 2017 13:23:54 GMT-0500 (Eastern Standard Time)","female","Black or African American","moderate/middle of the road","",NA,"","offCivRatings","the officer kicked the civilian in the stomach","the civilian said ""if you touch me, you're gonna get hurt"" to the officer","kickStom","hurtThreat","officerCivilian","manipCheckLow","1","","","",""
"122",40106,"{""Q0"":21}","[object Object]","survey-likert",121,2741840,"0.0-121.0","o7h9j788rhs29aexsgn40sxmu08w6atg","Sun Jan 22 2017 13:23:54 GMT-0500 (Eastern Standard Time)","female","Black or African American","moderate/middle of the road","",NA,"","offCivRatings","the officer kicked the civilian in the stomach","the civilian said ""if you touch me, you're gonna get hurt"" to the officer","kickStom","hurtThreat","officerCivilian","appropriateCiv","21","","","",""
"123",3561,"{""Q0"":1}","[object Object]","survey-likert",122,2745447,"0.0-122.0","o7h9j788rhs29aexsgn40sxmu08w6atg","Sun Jan 22 2017 13:23:54 GMT-0500 (Eastern Standard Time)","female","Black or African American","moderate/middle of the road","",NA,"","offCivRatings","the officer kicked the civilian in the stomach","the civilian said ""if you touch me, you're gonna get hurt"" to the officer","kickStom","hurtThreat","officerCivilian","forceCiv","1","","","",""
"124",1296,"","","instructions",123,2746743,"0.0-123.0","o7h9j788rhs29aexsgn40sxmu08w6atg","Sun Jan 22 2017 13:23:54 GMT-0500 (Eastern Standard Time)","female","Black or African American","moderate/middle of the road","",NA,"[{""page_index"":0,""viewing_time"":1296}]","break","","","","","","","","","","",""
"125",16295,"{""Q0"":51}","[object Object]","survey-likert",124,2763279,"0.0-124.0","o7h9j788rhs29aexsgn40sxmu08w6atg","Sun Jan 22 2017 13:23:54 GMT-0500 (Eastern Standard Time)","female","Black or African American","moderate/middle of the road","",NA,"","policeLegitimacy","","","","","","","51","doTreat","feltObligation","",""
"126",6773,"{""Q0"":51}","[object Object]","survey-likert",125,2770085,"0.0-125.0","o7h9j788rhs29aexsgn40sxmu08w6atg","Sun Jan 22 2017 13:23:54 GMT-0500 (Eastern Standard Time)","female","Black or African American","moderate/middle of the road","",NA,"","policeLegitimacy","","","","","","","51","importantValues","normAlignment","",""
"127",12320,"{""Q0"":55}","[object Object]","survey-likert",126,2782435,"0.0-126.0","o7h9j788rhs29aexsgn40sxmu08w6atg","Sun Jan 22 2017 13:23:54 GMT-0500 (Eastern Standard Time)","female","Black or African American","moderate/middle of the road","",NA,"","policeLegitimacy","","","","","","","55","communityWants","normAlignment","",""
"128",4777,"{""Q0"":55}","[object Object]","survey-likert",127,2787266,"0.0-127.0","o7h9j788rhs29aexsgn40sxmu08w6atg","Sun Jan 22 2017 13:23:54 GMT-0500 (Eastern Standard Time)","female","Black or African American","moderate/middle of the road","",NA,"","policeLegitimacy","","","","","","","55","rightWrong","normAlignment","",""
"129",7777,"{""Q0"":52}","[object Object]","survey-likert",128,2795076,"0.0-128.0","o7h9j788rhs29aexsgn40sxmu08w6atg","Sun Jan 22 2017 13:23:54 GMT-0500 (Eastern Standard Time)","female","Black or African American","moderate/middle of the road","",NA,"","policeLegitimacy","","","","","","","52","support","feltObligation","",""
"130",5833,"{""Q0"":53}","[object Object]","survey-likert",129,2800942,"0.0-129.0","o7h9j788rhs29aexsgn40sxmu08w6atg","Sun Jan 22 2017 13:23:54 GMT-0500 (Eastern Standard Time)","female","Black or African American","moderate/middle of the road","",NA,"","policeLegitimacy","","","","","","","53","doReasons","feltObligation","",""
"131",9829,"{""Q0"":""no""}","[object Object]","survey-multi-choice2",130,2810790,"0.0-130.0","o7h9j788rhs29aexsgn40sxmu08w6atg","Sun Jan 22 2017 13:23:54 GMT-0500 (Eastern Standard Time)","female","Black or African American","moderate/middle of the road","",NA,"","policeExperience","","","","","","","no","excessForce","","vicarious","Have the police ever used excessive force against anyone in your household?"
"132",18295,"{""Q0"":""yes""}","[object Object]","survey-multi-choice2",131,2829097,"0.0-131.0","o7h9j788rhs29aexsgn40sxmu08w6atg","Sun Jan 22 2017 13:23:54 GMT-0500 (Eastern Standard Time)","female","Black or African American","moderate/middle of the road","",NA,"","policeExperience","","","","","","","yes","corrupt","","personal","Have you ever seen a police officer engage in any corrupt activities (e.g., taking bribes or involvement in the drug trade)?"
"133",42519,"{""Q0"":""no""}","[object Object]","survey-multi-choice2",132,2871629,"0.0-132.0","o7h9j788rhs29aexsgn40sxmu08w6atg","Sun Jan 22 2017 13:23:54 GMT-0500 (Eastern Standard Time)","female","Black or African American","moderate/middle of the road","",NA,"","policeExperience","","","","","","","no","stopped","","vicarious","Has anyone in your household ever been stopped on the street by the police without good reason?"
"134",4782,"{""Q0"":""no""}","[object Object]","survey-multi-choice2",133,2876424,"0.0-133.0","o7h9j788rhs29aexsgn40sxmu08w6atg","Sun Jan 22 2017 13:23:54 GMT-0500 (Eastern Standard Time)","female","Black or African American","moderate/middle of the road","",NA,"","policeExperience","","","","","","","no","excessForce","","personal","Have the police ever used excessive force against you?"
"135",8086,"{""Q0"":""no""}","[object Object]","survey-multi-choice2",134,2884524,"0.0-134.0","o7h9j788rhs29aexsgn40sxmu08w6atg","Sun Jan 22 2017 13:23:54 GMT-0500 (Eastern Standard Time)","female","Black or African American","moderate/middle of the road","",NA,"","policeExperience","","","","","","","no","insultLang","","vicarious","Have the police ever used insulting language toward anyone in your household?"
"136",5043,"{""Q0"":""no""}","[object Object]","survey-multi-choice2",135,2889580,"0.0-135.0","o7h9j788rhs29aexsgn40sxmu08w6atg","Sun Jan 22 2017 13:23:54 GMT-0500 (Eastern Standard Time)","female","Black or African American","moderate/middle of the road","",NA,"","policeExperience","","","","","","","no","stopped","","personal","Have you ever been stopped by the police on the street without good reason?"
"137",3707,"{""Q0"":""no""}","[object Object]","survey-multi-choice2",136,2893299,"0.0-136.0","o7h9j788rhs29aexsgn40sxmu08w6atg","Sun Jan 22 2017 13:23:54 GMT-0500 (Eastern Standard Time)","female","Black or African American","moderate/middle of the road","",NA,"","policeExperience","","","","","","","no","insultLang","","personal","Have the police ever used insulting language toward you?"
"138",16582,"{""Q0"":""female"",""Q1"":""Black or African American"",""Q2"":""moderate/middle of the road""}","[object Object]","survey-multi-choice",137,2909962,"0.0-137.0","o7h9j788rhs29aexsgn40sxmu08w6atg","Sun Jan 22 2017 13:23:54 GMT-0500 (Eastern Standard Time)","female","Black or African American","moderate/middle of the road","",NA,"","demographics","","","","","","","","","","",""
"139",7205,"","","instructions",138,2918185,"0.0-138.0","o7h9j788rhs29aexsgn40sxmu08w6atg","Sun Jan 22 2017 13:23:54 GMT-0500 (Eastern Standard Time)","female","Black or African American","moderate/middle of the road","",NA,"[{""page_index"":0,""viewing_time"":1547},{""page_index"":1,""viewing_time"":3519},{""page_index"":2,""viewing_time"":594},{""page_index"":3,""viewing_time"":1544}]","debriefing","","","","","","","","","","",""
