"","rt","responses","internalResp","trial_type","trial_index","time_elapsed","internal_node_id","randSubjectID","date","sex","race","polAff","stimulus","key_press","view_history","questionType","officerAction","civilianAction","offActName","civActName","order","questionName","response","name","dimension","person","question"
"1",6288,"","[object Object]","survey-text",0,6293,"0.0-0.0","obvxzhlcqzp1h1hf0faad680xmf964cs","Sun Apr 02 2017 14:28:52 GMT-0400 (US Eastern Daylight Time)","female","White","slightly conservative","",NA,"","","","","","","","","","","","",""
"2",5644,"","","single-stim",1,12959,"0.0-1.0","obvxzhlcqzp1h1hf0faad680xmf964cs","Sun Apr 02 2017 14:28:52 GMT-0400 (US Eastern Daylight Time)","female","White","slightly conservative","<img src='static/images/1602685960_ICS_Credit-0.png' alt='Consent 1' height=1100 width=850><img src='static/images/1602685960_ICS_Credit-1.png' alt='Consent 2' height=1100 width=850></p>",89,"","","","","","","","","","","","",""
"3",9921,"","","instructions",2,23892,"0.0-2.0","obvxzhlcqzp1h1hf0faad680xmf964cs","Sun Apr 02 2017 14:28:52 GMT-0400 (US Eastern Daylight Time)","female","White","slightly conservative","",NA,"[{""page_index"":0,""viewing_time"":9920}]","instructions","","","","","","","","","","",""
"4",60524,"","","instructions",3,85416,"0.0-3.0","obvxzhlcqzp1h1hf0faad680xmf964cs","Sun Apr 02 2017 14:28:52 GMT-0400 (US Eastern Daylight Time)","female","White","slightly conservative","",NA,"[{""page_index"":0,""viewing_time"":30930},{""page_index"":1,""viewing_time"":14995},{""page_index"":2,""viewing_time"":6836},{""page_index"":3,""viewing_time"":7763}]","instructions","","","","","","","","","","",""
"5",58589,"{""Q0"":1}","[object Object]","survey-likert",4,145065,"0.0-4.0","obvxzhlcqzp1h1hf0faad680xmf964cs","Sun Apr 02 2017 14:28:52 GMT-0400 (US Eastern Daylight Time)","female","White","slightly conservative","",NA,"","offCivRatings","the officer stood near the civilian","the civilian twisted the arm of the officer, forcing him to the ground","stoodNear","armbar","officerCivilian","acceptableCiv","1","","","",""
"6",41276,"{""Q0"":85}","[object Object]","survey-likert",5,186347,"0.0-5.0","obvxzhlcqzp1h1hf0faad680xmf964cs","Sun Apr 02 2017 14:28:52 GMT-0400 (US Eastern Daylight Time)","female","White","slightly conservative","",NA,"","offCivRatings","the officer stood near the civilian","the civilian twisted the arm of the officer, forcing him to the ground","stoodNear","armbar","officerCivilian","forceCiv","85","","","",""
"7",12839,"{""Q0"":100}","[object Object]","survey-likert",6,199192,"0.0-6.0","obvxzhlcqzp1h1hf0faad680xmf964cs","Sun Apr 02 2017 14:28:52 GMT-0400 (US Eastern Daylight Time)","female","White","slightly conservative","",NA,"","offCivRatings","the officer stood near the civilian","the civilian twisted the arm of the officer, forcing him to the ground","stoodNear","armbar","officerCivilian","appropriateCiv","100","","","",""
"8",13407,"{""Q0"":65}","[object Object]","survey-likert",7,212605,"0.0-7.0","obvxzhlcqzp1h1hf0faad680xmf964cs","Sun Apr 02 2017 14:28:52 GMT-0400 (US Eastern Daylight Time)","female","White","slightly conservative","",NA,"","offCivRatings","the officer stood near the civilian","the civilian twisted the arm of the officer, forcing him to the ground","stoodNear","armbar","officerCivilian","punishCiv","65","","","",""
"9",1631,"","","instructions",8,214236,"0.0-8.0","obvxzhlcqzp1h1hf0faad680xmf964cs","Sun Apr 02 2017 14:28:52 GMT-0400 (US Eastern Daylight Time)","female","White","slightly conservative","",NA,"[{""page_index"":0,""viewing_time"":1630}]","break","","","","","","","","","","",""
"10",54426,"{""Q0"":80}","[object Object]","survey-likert",9,268885,"0.0-9.0","obvxzhlcqzp1h1hf0faad680xmf964cs","Sun Apr 02 2017 14:28:52 GMT-0400 (US Eastern Daylight Time)","female","White","slightly conservative","",NA,"","offCivRatings","the officer shocked the civilian with a tazer","the civilian purposefully struck the officer with a motor vehicle","tazer","vehicle","civilianOfficer","acceptableOff","80","","","",""
"11",12295,"{""Q0"":75}","[object Object]","survey-likert",10,281186,"0.0-10.0","obvxzhlcqzp1h1hf0faad680xmf964cs","Sun Apr 02 2017 14:28:52 GMT-0400 (US Eastern Daylight Time)","female","White","slightly conservative","",NA,"","offCivRatings","the officer shocked the civilian with a tazer","the civilian purposefully struck the officer with a motor vehicle","tazer","vehicle","civilianOfficer","forceOff","75","","","",""
"12",17972,"{""Q0"":100}","[object Object]","survey-likert",11,299163,"0.0-11.0","obvxzhlcqzp1h1hf0faad680xmf964cs","Sun Apr 02 2017 14:28:52 GMT-0400 (US Eastern Daylight Time)","female","White","slightly conservative","",NA,"","offCivRatings","the officer shocked the civilian with a tazer","the civilian purposefully struck the officer with a motor vehicle","tazer","vehicle","civilianOfficer","manipCheckHigh","100","","","",""
"13",20748,"{""Q0"":60}","[object Object]","survey-likert",12,319916,"0.0-12.0","obvxzhlcqzp1h1hf0faad680xmf964cs","Sun Apr 02 2017 14:28:52 GMT-0400 (US Eastern Daylight Time)","female","White","slightly conservative","",NA,"","offCivRatings","the officer shocked the civilian with a tazer","the civilian purposefully struck the officer with a motor vehicle","tazer","vehicle","civilianOfficer","appropriateOff","60","","","",""
"14",15453,"{""Q0"":25}","[object Object]","survey-likert",13,335374,"0.0-13.0","obvxzhlcqzp1h1hf0faad680xmf964cs","Sun Apr 02 2017 14:28:52 GMT-0400 (US Eastern Daylight Time)","female","White","slightly conservative","",NA,"","offCivRatings","the officer shocked the civilian with a tazer","the civilian purposefully struck the officer with a motor vehicle","tazer","vehicle","civilianOfficer","punishOff","25","","","",""
"15",10946,"","","instructions",14,346321,"0.0-14.0","obvxzhlcqzp1h1hf0faad680xmf964cs","Sun Apr 02 2017 14:28:52 GMT-0400 (US Eastern Daylight Time)","female","White","slightly conservative","",NA,"[{""page_index"":0,""viewing_time"":10946}]","break","","","","","","","","","","",""
"16",29161,"{""Q0"":1}","[object Object]","survey-likert",15,375699,"0.0-15.0","obvxzhlcqzp1h1hf0faad680xmf964cs","Sun Apr 02 2017 14:28:52 GMT-0400 (US Eastern Daylight Time)","female","White","slightly conservative","",NA,"","offCivRatings","the officer struck the civilian on the leg with a collapsible baton","the civilian said ""if you touch me, you're gonna get hurt"" to the officer","batonLeg","hurtThreat","officerCivilian","forceCiv","1","","","",""
"17",5832,"{""Q0"":1}","[object Object]","survey-likert",16,381536,"0.0-16.0","obvxzhlcqzp1h1hf0faad680xmf964cs","Sun Apr 02 2017 14:28:52 GMT-0400 (US Eastern Daylight Time)","female","White","slightly conservative","",NA,"","offCivRatings","the officer struck the civilian on the leg with a collapsible baton","the civilian said ""if you touch me, you're gonna get hurt"" to the officer","batonLeg","hurtThreat","officerCivilian","manipCheckLow","1","","","",""
"18",39227,"{""Q0"":50}","[object Object]","survey-likert",17,420769,"0.0-17.0","obvxzhlcqzp1h1hf0faad680xmf964cs","Sun Apr 02 2017 14:28:52 GMT-0400 (US Eastern Daylight Time)","female","White","slightly conservative","",NA,"","offCivRatings","the officer struck the civilian on the leg with a collapsible baton","the civilian said ""if you touch me, you're gonna get hurt"" to the officer","batonLeg","hurtThreat","officerCivilian","appropriateCiv","50","","","",""
"19",23824,"{""Q0"":45}","[object Object]","survey-likert",18,444597,"0.0-18.0","obvxzhlcqzp1h1hf0faad680xmf964cs","Sun Apr 02 2017 14:28:52 GMT-0400 (US Eastern Daylight Time)","female","White","slightly conservative","",NA,"","offCivRatings","the officer struck the civilian on the leg with a collapsible baton","the civilian said ""if you touch me, you're gonna get hurt"" to the officer","batonLeg","hurtThreat","officerCivilian","acceptableCiv","45","","","",""
"20",13942,"{""Q0"":31}","[object Object]","survey-likert",19,458543,"0.0-19.0","obvxzhlcqzp1h1hf0faad680xmf964cs","Sun Apr 02 2017 14:28:52 GMT-0400 (US Eastern Daylight Time)","female","White","slightly conservative","",NA,"","offCivRatings","the officer struck the civilian on the leg with a collapsible baton","the civilian said ""if you touch me, you're gonna get hurt"" to the officer","batonLeg","hurtThreat","officerCivilian","punishCiv","31","","","",""
"21",1559,"","","instructions",20,460102,"0.0-20.0","obvxzhlcqzp1h1hf0faad680xmf964cs","Sun Apr 02 2017 14:28:52 GMT-0400 (US Eastern Daylight Time)","female","White","slightly conservative","",NA,"[{""page_index"":0,""viewing_time"":1559}]","break","","","","","","","","","","",""
"22",21452,"{""Q0"":1}","[object Object]","survey-likert",21,481774,"0.0-21.0","obvxzhlcqzp1h1hf0faad680xmf964cs","Sun Apr 02 2017 14:28:52 GMT-0400 (US Eastern Daylight Time)","female","White","slightly conservative","",NA,"","offCivRatings","the officer called the civilian a ""thug""","the civilian hit the officer in the chest with a baseball bat","nameCall","ballBat","officerCivilian","acceptableCiv","1","","","",""
"23",11345,"{""Q0"":90}","[object Object]","survey-likert",22,493124,"0.0-22.0","obvxzhlcqzp1h1hf0faad680xmf964cs","Sun Apr 02 2017 14:28:52 GMT-0400 (US Eastern Daylight Time)","female","White","slightly conservative","",NA,"","offCivRatings","the officer called the civilian a ""thug""","the civilian hit the officer in the chest with a baseball bat","nameCall","ballBat","officerCivilian","forceCiv","90","","","",""
"24",8185,"{""Q0"":75}","[object Object]","survey-likert",23,501312,"0.0-23.0","obvxzhlcqzp1h1hf0faad680xmf964cs","Sun Apr 02 2017 14:28:52 GMT-0400 (US Eastern Daylight Time)","female","White","slightly conservative","",NA,"","offCivRatings","the officer called the civilian a ""thug""","the civilian hit the officer in the chest with a baseball bat","nameCall","ballBat","officerCivilian","punishCiv","75","","","",""
"25",7794,"{""Q0"":96}","[object Object]","survey-likert",24,509111,"0.0-24.0","obvxzhlcqzp1h1hf0faad680xmf964cs","Sun Apr 02 2017 14:28:52 GMT-0400 (US Eastern Daylight Time)","female","White","slightly conservative","",NA,"","offCivRatings","the officer called the civilian a ""thug""","the civilian hit the officer in the chest with a baseball bat","nameCall","ballBat","officerCivilian","appropriateCiv","96","","","",""
"26",1378,"","","instructions",25,510490,"0.0-25.0","obvxzhlcqzp1h1hf0faad680xmf964cs","Sun Apr 02 2017 14:28:52 GMT-0400 (US Eastern Daylight Time)","female","White","slightly conservative","",NA,"[{""page_index"":0,""viewing_time"":1378}]","break","","","","","","","","","","",""
"27",14766,"{""Q0"":80}","[object Object]","survey-likert",26,525477,"0.0-26.0","obvxzhlcqzp1h1hf0faad680xmf964cs","Sun Apr 02 2017 14:28:52 GMT-0400 (US Eastern Daylight Time)","female","White","slightly conservative","",NA,"","offCivRatings","the officer said ""if you touch me, you're gonna get hurt"" to the civilian","the civilian headbutted the officer in the face","hurtThreat","headbutt","officerCivilian","forceCiv","80","","","",""
"28",7253,"{""Q0"":75}","[object Object]","survey-likert",27,532735,"0.0-27.0","obvxzhlcqzp1h1hf0faad680xmf964cs","Sun Apr 02 2017 14:28:52 GMT-0400 (US Eastern Daylight Time)","female","White","slightly conservative","",NA,"","offCivRatings","the officer said ""if you touch me, you're gonna get hurt"" to the civilian","the civilian headbutted the officer in the face","hurtThreat","headbutt","officerCivilian","punishCiv","75","","","",""
"29",10888,"{""Q0"":100}","[object Object]","survey-likert",28,543627,"0.0-28.0","obvxzhlcqzp1h1hf0faad680xmf964cs","Sun Apr 02 2017 14:28:52 GMT-0400 (US Eastern Daylight Time)","female","White","slightly conservative","",NA,"","offCivRatings","the officer said ""if you touch me, you're gonna get hurt"" to the civilian","the civilian headbutted the officer in the face","hurtThreat","headbutt","officerCivilian","appropriateCiv","100","","","",""
"30",4736,"{""Q0"":1}","[object Object]","survey-likert",29,548367,"0.0-29.0","obvxzhlcqzp1h1hf0faad680xmf964cs","Sun Apr 02 2017 14:28:52 GMT-0400 (US Eastern Daylight Time)","female","White","slightly conservative","",NA,"","offCivRatings","the officer said ""if you touch me, you're gonna get hurt"" to the civilian","the civilian headbutted the officer in the face","hurtThreat","headbutt","officerCivilian","acceptableCiv","1","","","",""
"31",3595,"{""Q0"":1}","[object Object]","survey-likert",30,551967,"0.0-30.0","obvxzhlcqzp1h1hf0faad680xmf964cs","Sun Apr 02 2017 14:28:52 GMT-0400 (US Eastern Daylight Time)","female","White","slightly conservative","",NA,"","offCivRatings","the officer said ""if you touch me, you're gonna get hurt"" to the civilian","the civilian headbutted the officer in the face","hurtThreat","headbutt","officerCivilian","manipCheckLow","1","","","",""
"32",1378,"","","instructions",31,553346,"0.0-31.0","obvxzhlcqzp1h1hf0faad680xmf964cs","Sun Apr 02 2017 14:28:52 GMT-0400 (US Eastern Daylight Time)","female","White","slightly conservative","",NA,"[{""page_index"":0,""viewing_time"":1378}]","break","","","","","","","","","","",""
"33",21977,"{""Q0"":80}","[object Object]","survey-likert",32,575538,"0.0-32.0","obvxzhlcqzp1h1hf0faad680xmf964cs","Sun Apr 02 2017 14:28:52 GMT-0400 (US Eastern Daylight Time)","female","White","slightly conservative","",NA,"","offCivRatings","the officer purposefully struck the civilian with a motor vehicle","the civilian sprayed the officer with pepper spray","vehicle","pepperSpray","civilianOfficer","appropriateOff","80","","","",""
"34",6247,"{""Q0"":66}","[object Object]","survey-likert",33,581789,"0.0-33.0","obvxzhlcqzp1h1hf0faad680xmf964cs","Sun Apr 02 2017 14:28:52 GMT-0400 (US Eastern Daylight Time)","female","White","slightly conservative","",NA,"","offCivRatings","the officer purposefully struck the civilian with a motor vehicle","the civilian sprayed the officer with pepper spray","vehicle","pepperSpray","civilianOfficer","punishOff","66","","","",""
"35",5334,"{""Q0"":100}","[object Object]","survey-likert",34,587127,"0.0-34.0","obvxzhlcqzp1h1hf0faad680xmf964cs","Sun Apr 02 2017 14:28:52 GMT-0400 (US Eastern Daylight Time)","female","White","slightly conservative","",NA,"","offCivRatings","the officer purposefully struck the civilian with a motor vehicle","the civilian sprayed the officer with pepper spray","vehicle","pepperSpray","civilianOfficer","manipCheckHigh","100","","","",""
"36",16360,"{""Q0"":82}","[object Object]","survey-likert",35,603491,"0.0-35.0","obvxzhlcqzp1h1hf0faad680xmf964cs","Sun Apr 02 2017 14:28:52 GMT-0400 (US Eastern Daylight Time)","female","White","slightly conservative","",NA,"","offCivRatings","the officer purposefully struck the civilian with a motor vehicle","the civilian sprayed the officer with pepper spray","vehicle","pepperSpray","civilianOfficer","forceOff","82","","","",""
"37",13398,"{""Q0"":26}","[object Object]","survey-likert",36,616894,"0.0-36.0","obvxzhlcqzp1h1hf0faad680xmf964cs","Sun Apr 02 2017 14:28:52 GMT-0400 (US Eastern Daylight Time)","female","White","slightly conservative","",NA,"","offCivRatings","the officer purposefully struck the civilian with a motor vehicle","the civilian sprayed the officer with pepper spray","vehicle","pepperSpray","civilianOfficer","acceptableOff","26","","","",""
"38",1331,"","","instructions",37,618226,"0.0-37.0","obvxzhlcqzp1h1hf0faad680xmf964cs","Sun Apr 02 2017 14:28:52 GMT-0400 (US Eastern Daylight Time)","female","White","slightly conservative","",NA,"[{""page_index"":0,""viewing_time"":1331}]","break","","","","","","","","","","",""
"39",26429,"{""Q0"":1}","[object Object]","survey-likert",38,644879,"0.0-38.0","obvxzhlcqzp1h1hf0faad680xmf964cs","Sun Apr 02 2017 14:28:52 GMT-0400 (US Eastern Daylight Time)","female","White","slightly conservative","",NA,"","offCivRatings","the officer yelled ""get back!"" at the civilian","the civilian slammed the officer's head into the concrete curb","getBack","headSlam","civilianOfficer","appropriateOff","1","","","",""
"40",4447,"{""Q0"":100}","[object Object]","survey-likert",39,649330,"0.0-39.0","obvxzhlcqzp1h1hf0faad680xmf964cs","Sun Apr 02 2017 14:28:52 GMT-0400 (US Eastern Daylight Time)","female","White","slightly conservative","",NA,"","offCivRatings","the officer yelled ""get back!"" at the civilian","the civilian slammed the officer's head into the concrete curb","getBack","headSlam","civilianOfficer","acceptableOff","100","","","",""
"41",6811,"{""Q0"":1}","[object Object]","survey-likert",40,656146,"0.0-40.0","obvxzhlcqzp1h1hf0faad680xmf964cs","Sun Apr 02 2017 14:28:52 GMT-0400 (US Eastern Daylight Time)","female","White","slightly conservative","",NA,"","offCivRatings","the officer yelled ""get back!"" at the civilian","the civilian slammed the officer's head into the concrete curb","getBack","headSlam","civilianOfficer","forceOff","1","","","",""
"42",3919,"{""Q0"":1}","[object Object]","survey-likert",41,660073,"0.0-41.0","obvxzhlcqzp1h1hf0faad680xmf964cs","Sun Apr 02 2017 14:28:52 GMT-0400 (US Eastern Daylight Time)","female","White","slightly conservative","",NA,"","offCivRatings","the officer yelled ""get back!"" at the civilian","the civilian slammed the officer's head into the concrete curb","getBack","headSlam","civilianOfficer","punishOff","1","","","",""
"43",4274,"{""Q0"":1}","[object Object]","survey-likert",42,664351,"0.0-42.0","obvxzhlcqzp1h1hf0faad680xmf964cs","Sun Apr 02 2017 14:28:52 GMT-0400 (US Eastern Daylight Time)","female","White","slightly conservative","",NA,"","offCivRatings","the officer yelled ""get back!"" at the civilian","the civilian slammed the officer's head into the concrete curb","getBack","headSlam","civilianOfficer","manipCheckLow","1","","","",""
"44",2314,"","","instructions",43,666666,"0.0-43.0","obvxzhlcqzp1h1hf0faad680xmf964cs","Sun Apr 02 2017 14:28:52 GMT-0400 (US Eastern Daylight Time)","female","White","slightly conservative","",NA,"[{""page_index"":0,""viewing_time"":2314}]","break","","","","","","","","","","",""
"45",11819,"{""Q0"":100}","[object Object]","survey-likert",44,678698,"0.0-44.0","obvxzhlcqzp1h1hf0faad680xmf964cs","Sun Apr 02 2017 14:28:52 GMT-0400 (US Eastern Daylight Time)","female","White","slightly conservative","",NA,"","offCivRatings","the officer waved at the civilian in greeting","the civilian kicked the officer in the stomach","waved","kickStom","officerCivilian","appropriateCiv","100","","","",""
"46",13626,"{""Q0"":75}","[object Object]","survey-likert",45,692328,"0.0-45.0","obvxzhlcqzp1h1hf0faad680xmf964cs","Sun Apr 02 2017 14:28:52 GMT-0400 (US Eastern Daylight Time)","female","White","slightly conservative","",NA,"","offCivRatings","the officer waved at the civilian in greeting","the civilian kicked the officer in the stomach","waved","kickStom","officerCivilian","punishCiv","75","","","",""
"47",4579,"{""Q0"":70}","[object Object]","survey-likert",46,696912,"0.0-46.0","obvxzhlcqzp1h1hf0faad680xmf964cs","Sun Apr 02 2017 14:28:52 GMT-0400 (US Eastern Daylight Time)","female","White","slightly conservative","",NA,"","offCivRatings","the officer waved at the civilian in greeting","the civilian kicked the officer in the stomach","waved","kickStom","officerCivilian","forceCiv","70","","","",""
"48",3368,"{""Q0"":1}","[object Object]","survey-likert",47,700284,"0.0-47.0","obvxzhlcqzp1h1hf0faad680xmf964cs","Sun Apr 02 2017 14:28:52 GMT-0400 (US Eastern Daylight Time)","female","White","slightly conservative","",NA,"","offCivRatings","the officer waved at the civilian in greeting","the civilian kicked the officer in the stomach","waved","kickStom","officerCivilian","acceptableCiv","1","","","",""
"49",1379,"","","instructions",48,701663,"0.0-48.0","obvxzhlcqzp1h1hf0faad680xmf964cs","Sun Apr 02 2017 14:28:52 GMT-0400 (US Eastern Daylight Time)","female","White","slightly conservative","",NA,"[{""page_index"":0,""viewing_time"":1379}]","break","","","","","","","","","","",""
"50",8494,"{""Q0"":1}","[object Object]","survey-likert",49,710383,"0.0-49.0","obvxzhlcqzp1h1hf0faad680xmf964cs","Sun Apr 02 2017 14:28:52 GMT-0400 (US Eastern Daylight Time)","female","White","slightly conservative","",NA,"","offCivRatings","the officer shot the civilian in the chest with a handgun","the civilian waved at the officer in greeting","handgunChest","waved","civilianOfficer","manipCheckLow","1","","","",""
"51",4304,"{""Q0"":100}","[object Object]","survey-likert",50,714691,"0.0-50.0","obvxzhlcqzp1h1hf0faad680xmf964cs","Sun Apr 02 2017 14:28:52 GMT-0400 (US Eastern Daylight Time)","female","White","slightly conservative","",NA,"","offCivRatings","the officer shot the civilian in the chest with a handgun","the civilian waved at the officer in greeting","handgunChest","waved","civilianOfficer","appropriateOff","100","","","",""
"52",4627,"{""Q0"":100}","[object Object]","survey-likert",51,719322,"0.0-51.0","obvxzhlcqzp1h1hf0faad680xmf964cs","Sun Apr 02 2017 14:28:52 GMT-0400 (US Eastern Daylight Time)","female","White","slightly conservative","",NA,"","offCivRatings","the officer shot the civilian in the chest with a handgun","the civilian waved at the officer in greeting","handgunChest","waved","civilianOfficer","punishOff","100","","","",""
"53",3523,"{""Q0"":1}","[object Object]","survey-likert",52,722849,"0.0-52.0","obvxzhlcqzp1h1hf0faad680xmf964cs","Sun Apr 02 2017 14:28:52 GMT-0400 (US Eastern Daylight Time)","female","White","slightly conservative","",NA,"","offCivRatings","the officer shot the civilian in the chest with a handgun","the civilian waved at the officer in greeting","handgunChest","waved","civilianOfficer","acceptableOff","1","","","",""
"54",3633,"{""Q0"":100}","[object Object]","survey-likert",53,726486,"0.0-53.0","obvxzhlcqzp1h1hf0faad680xmf964cs","Sun Apr 02 2017 14:28:52 GMT-0400 (US Eastern Daylight Time)","female","White","slightly conservative","",NA,"","offCivRatings","the officer shot the civilian in the chest with a handgun","the civilian waved at the officer in greeting","handgunChest","waved","civilianOfficer","forceOff","100","","","",""
"55",1319,"","","instructions",54,727805,"0.0-54.0","obvxzhlcqzp1h1hf0faad680xmf964cs","Sun Apr 02 2017 14:28:52 GMT-0400 (US Eastern Daylight Time)","female","White","slightly conservative","",NA,"[{""page_index"":0,""viewing_time"":1319}]","break","","","","","","","","","","",""
"56",25646,"{""Q0"":100}","[object Object]","survey-likert",55,753669,"0.0-55.0","obvxzhlcqzp1h1hf0faad680xmf964cs","Sun Apr 02 2017 14:28:52 GMT-0400 (US Eastern Daylight Time)","female","White","slightly conservative","",NA,"","offCivRatings","the officer sprayed the civilian with pepper spray","the civilian applied a chokehold to the officer","pepperSpray","choke","civilianOfficer","acceptableOff","100","","","",""
"57",4975,"{""Q0"":41}","[object Object]","survey-likert",56,758648,"0.0-56.0","obvxzhlcqzp1h1hf0faad680xmf964cs","Sun Apr 02 2017 14:28:52 GMT-0400 (US Eastern Daylight Time)","female","White","slightly conservative","",NA,"","offCivRatings","the officer sprayed the civilian with pepper spray","the civilian applied a chokehold to the officer","pepperSpray","choke","civilianOfficer","appropriateOff","41","","","",""
"58",5479,"{""Q0"":60}","[object Object]","survey-likert",57,764131,"0.0-57.0","obvxzhlcqzp1h1hf0faad680xmf964cs","Sun Apr 02 2017 14:28:52 GMT-0400 (US Eastern Daylight Time)","female","White","slightly conservative","",NA,"","offCivRatings","the officer sprayed the civilian with pepper spray","the civilian applied a chokehold to the officer","pepperSpray","choke","civilianOfficer","forceOff","60","","","",""
"59",3741,"{""Q0"":1}","[object Object]","survey-likert",58,767876,"0.0-58.0","obvxzhlcqzp1h1hf0faad680xmf964cs","Sun Apr 02 2017 14:28:52 GMT-0400 (US Eastern Daylight Time)","female","White","slightly conservative","",NA,"","offCivRatings","the officer sprayed the civilian with pepper spray","the civilian applied a chokehold to the officer","pepperSpray","choke","civilianOfficer","punishOff","1","","","",""
"60",1379,"","","instructions",59,769255,"0.0-59.0","obvxzhlcqzp1h1hf0faad680xmf964cs","Sun Apr 02 2017 14:28:52 GMT-0400 (US Eastern Daylight Time)","female","White","slightly conservative","",NA,"[{""page_index"":0,""viewing_time"":1379}]","break","","","","","","","","","","",""
"61",15451,"{""Q0"":50}","[object Object]","survey-likert",60,784921,"0.0-60.0","obvxzhlcqzp1h1hf0faad680xmf964cs","Sun Apr 02 2017 14:28:52 GMT-0400 (US Eastern Daylight Time)","female","White","slightly conservative","",NA,"","offCivRatings","the officer asked the civilian how he was doing","the civilian stood near the officer","asked","stoodNear","officerCivilian","appropriateCiv","50","","","",""
"62",3872,"{""Q0"":1}","[object Object]","survey-likert",61,788797,"0.0-61.0","obvxzhlcqzp1h1hf0faad680xmf964cs","Sun Apr 02 2017 14:28:52 GMT-0400 (US Eastern Daylight Time)","female","White","slightly conservative","",NA,"","offCivRatings","the officer asked the civilian how he was doing","the civilian stood near the officer","asked","stoodNear","officerCivilian","manipCheckLow","1","","","",""
"63",6031,"{""Q0"":100}","[object Object]","survey-likert",62,794833,"0.0-62.0","obvxzhlcqzp1h1hf0faad680xmf964cs","Sun Apr 02 2017 14:28:52 GMT-0400 (US Eastern Daylight Time)","female","White","slightly conservative","",NA,"","offCivRatings","the officer asked the civilian how he was doing","the civilian stood near the officer","asked","stoodNear","officerCivilian","acceptableCiv","100","","","",""
"64",3822,"{""Q0"":1}","[object Object]","survey-likert",63,798663,"0.0-63.0","obvxzhlcqzp1h1hf0faad680xmf964cs","Sun Apr 02 2017 14:28:52 GMT-0400 (US Eastern Daylight Time)","female","White","slightly conservative","",NA,"","offCivRatings","the officer asked the civilian how he was doing","the civilian stood near the officer","asked","stoodNear","officerCivilian","forceCiv","1","","","",""
"65",4564,"{""Q0"":1}","[object Object]","survey-likert",64,803231,"0.0-64.0","obvxzhlcqzp1h1hf0faad680xmf964cs","Sun Apr 02 2017 14:28:52 GMT-0400 (US Eastern Daylight Time)","female","White","slightly conservative","",NA,"","offCivRatings","the officer asked the civilian how he was doing","the civilian stood near the officer","asked","stoodNear","officerCivilian","punishCiv","1","","","",""
"66",1680,"","","instructions",65,804911,"0.0-65.0","obvxzhlcqzp1h1hf0faad680xmf964cs","Sun Apr 02 2017 14:28:52 GMT-0400 (US Eastern Daylight Time)","female","White","slightly conservative","",NA,"[{""page_index"":0,""viewing_time"":1680}]","break","","","","","","","","","","",""
"67",9812,"{""Q0"":1}","[object Object]","survey-likert",66,814946,"0.0-66.0","obvxzhlcqzp1h1hf0faad680xmf964cs","Sun Apr 02 2017 14:28:52 GMT-0400 (US Eastern Daylight Time)","female","White","slightly conservative","",NA,"","offCivRatings","the officer slammed the civilian's head into the concrete curb","the civilian asked the officer how he was doing","headSlam","asked","officerCivilian","punishCiv","1","","","",""
"68",27103,"{""Q0"":1}","[object Object]","survey-likert",67,842054,"0.0-67.0","obvxzhlcqzp1h1hf0faad680xmf964cs","Sun Apr 02 2017 14:28:52 GMT-0400 (US Eastern Daylight Time)","female","White","slightly conservative","",NA,"","offCivRatings","the officer slammed the civilian's head into the concrete curb","the civilian asked the officer how he was doing","headSlam","asked","officerCivilian","appropriateCiv","1","","","",""
"69",4112,"{""Q0"":1}","[object Object]","survey-likert",68,846169,"0.0-68.0","obvxzhlcqzp1h1hf0faad680xmf964cs","Sun Apr 02 2017 14:28:52 GMT-0400 (US Eastern Daylight Time)","female","White","slightly conservative","",NA,"","offCivRatings","the officer slammed the civilian's head into the concrete curb","the civilian asked the officer how he was doing","headSlam","asked","officerCivilian","forceCiv","1","","","",""
"70",3703,"{""Q0"":100}","[object Object]","survey-likert",69,849877,"0.0-69.0","obvxzhlcqzp1h1hf0faad680xmf964cs","Sun Apr 02 2017 14:28:52 GMT-0400 (US Eastern Daylight Time)","female","White","slightly conservative","",NA,"","offCivRatings","the officer slammed the civilian's head into the concrete curb","the civilian asked the officer how he was doing","headSlam","asked","officerCivilian","acceptableCiv","100","","","",""
"71",1176,"","","instructions",70,851053,"0.0-70.0","obvxzhlcqzp1h1hf0faad680xmf964cs","Sun Apr 02 2017 14:28:52 GMT-0400 (US Eastern Daylight Time)","female","White","slightly conservative","",NA,"[{""page_index"":0,""viewing_time"":1176}]","break","","","","","","","","","","",""
"72",83216,"{""Q0"":21}","[object Object]","survey-likert",71,934492,"0.0-71.0","obvxzhlcqzp1h1hf0faad680xmf964cs","Sun Apr 02 2017 14:28:52 GMT-0400 (US Eastern Daylight Time)","female","White","slightly conservative","",NA,"","offCivRatings","the officer kicked the civilian in the stomach","the civilian struck the officer in the stomach with a metal flashlight","kickStom","flashlight","officerCivilian","acceptableCiv","21","","","",""
"73",18368,"{""Q0"":25}","[object Object]","survey-likert",72,952865,"0.0-72.0","obvxzhlcqzp1h1hf0faad680xmf964cs","Sun Apr 02 2017 14:28:52 GMT-0400 (US Eastern Daylight Time)","female","White","slightly conservative","",NA,"","offCivRatings","the officer kicked the civilian in the stomach","the civilian struck the officer in the stomach with a metal flashlight","kickStom","flashlight","officerCivilian","punishCiv","25","","","",""
"74",11768,"{""Q0"":54}","[object Object]","survey-likert",73,964637,"0.0-73.0","obvxzhlcqzp1h1hf0faad680xmf964cs","Sun Apr 02 2017 14:28:52 GMT-0400 (US Eastern Daylight Time)","female","White","slightly conservative","",NA,"","offCivRatings","the officer kicked the civilian in the stomach","the civilian struck the officer in the stomach with a metal flashlight","kickStom","flashlight","officerCivilian","appropriateCiv","54","","","",""
"75",9527,"{""Q0"":80}","[object Object]","survey-likert",74,974168,"0.0-74.0","obvxzhlcqzp1h1hf0faad680xmf964cs","Sun Apr 02 2017 14:28:52 GMT-0400 (US Eastern Daylight Time)","female","White","slightly conservative","",NA,"","offCivRatings","the officer kicked the civilian in the stomach","the civilian struck the officer in the stomach with a metal flashlight","kickStom","flashlight","officerCivilian","forceCiv","80","","","",""
"76",1511,"","","instructions",75,975679,"0.0-75.0","obvxzhlcqzp1h1hf0faad680xmf964cs","Sun Apr 02 2017 14:28:52 GMT-0400 (US Eastern Daylight Time)","female","White","slightly conservative","",NA,"[{""page_index"":0,""viewing_time"":1510}]","break","","","","","","","","","","",""
"77",63664,"{""Q0"":36}","[object Object]","survey-likert",76,1039571,"0.0-76.0","obvxzhlcqzp1h1hf0faad680xmf964cs","Sun Apr 02 2017 14:28:52 GMT-0400 (US Eastern Daylight Time)","female","White","slightly conservative","",NA,"","offCivRatings","the officer headbutted the civilian in the face","the civilian punched the officer in the face","headbutt","punchFace","civilianOfficer","punishOff","36","","","",""
"78",7885,"{""Q0"":65}","[object Object]","survey-likert",77,1047461,"0.0-77.0","obvxzhlcqzp1h1hf0faad680xmf964cs","Sun Apr 02 2017 14:28:52 GMT-0400 (US Eastern Daylight Time)","female","White","slightly conservative","",NA,"","offCivRatings","the officer headbutted the civilian in the face","the civilian punched the officer in the face","headbutt","punchFace","civilianOfficer","forceOff","65","","","",""
"79",4712,"{""Q0"":60}","[object Object]","survey-likert",78,1052177,"0.0-78.0","obvxzhlcqzp1h1hf0faad680xmf964cs","Sun Apr 02 2017 14:28:52 GMT-0400 (US Eastern Daylight Time)","female","White","slightly conservative","",NA,"","offCivRatings","the officer headbutted the civilian in the face","the civilian punched the officer in the face","headbutt","punchFace","civilianOfficer","acceptableOff","60","","","",""
"80",3260,"{""Q0"":1}","[object Object]","survey-likert",79,1055440,"0.0-79.0","obvxzhlcqzp1h1hf0faad680xmf964cs","Sun Apr 02 2017 14:28:52 GMT-0400 (US Eastern Daylight Time)","female","White","slightly conservative","",NA,"","offCivRatings","the officer headbutted the civilian in the face","the civilian punched the officer in the face","headbutt","punchFace","civilianOfficer","manipCheckLow","1","","","",""
"81",9114,"{""Q0"":50}","[object Object]","survey-likert",80,1064558,"0.0-80.0","obvxzhlcqzp1h1hf0faad680xmf964cs","Sun Apr 02 2017 14:28:52 GMT-0400 (US Eastern Daylight Time)","female","White","slightly conservative","",NA,"","offCivRatings","the officer headbutted the civilian in the face","the civilian punched the officer in the face","headbutt","punchFace","civilianOfficer","appropriateOff","50","","","",""
"82",1162,"","","instructions",81,1065720,"0.0-81.0","obvxzhlcqzp1h1hf0faad680xmf964cs","Sun Apr 02 2017 14:28:52 GMT-0400 (US Eastern Daylight Time)","female","White","slightly conservative","",NA,"[{""page_index"":0,""viewing_time"":1162}]","break","","","","","","","","","","",""
"83",15449,"{""Q0"":30}","[object Object]","survey-likert",82,1081385,"0.0-82.0","obvxzhlcqzp1h1hf0faad680xmf964cs","Sun Apr 02 2017 14:28:52 GMT-0400 (US Eastern Daylight Time)","female","White","slightly conservative","",NA,"","offCivRatings","the officer punched the civilian in the face","the civilian shot the officer in the chest with a handgun","punchFace","handgunChest","civilianOfficer","appropriateOff","30","","","",""
"84",6510,"{""Q0"":70}","[object Object]","survey-likert",83,1087900,"0.0-83.0","obvxzhlcqzp1h1hf0faad680xmf964cs","Sun Apr 02 2017 14:28:52 GMT-0400 (US Eastern Daylight Time)","female","White","slightly conservative","",NA,"","offCivRatings","the officer punched the civilian in the face","the civilian shot the officer in the chest with a handgun","punchFace","handgunChest","civilianOfficer","forceOff","70","","","",""
"85",6055,"{""Q0"":100}","[object Object]","survey-likert",84,1093959,"0.0-84.0","obvxzhlcqzp1h1hf0faad680xmf964cs","Sun Apr 02 2017 14:28:52 GMT-0400 (US Eastern Daylight Time)","female","White","slightly conservative","",NA,"","offCivRatings","the officer punched the civilian in the face","the civilian shot the officer in the chest with a handgun","punchFace","handgunChest","civilianOfficer","acceptableOff","100","","","",""
"86",9245,"{""Q0"":1}","[object Object]","survey-likert",85,1103208,"0.0-85.0","obvxzhlcqzp1h1hf0faad680xmf964cs","Sun Apr 02 2017 14:28:52 GMT-0400 (US Eastern Daylight Time)","female","White","slightly conservative","",NA,"","offCivRatings","the officer punched the civilian in the face","the civilian shot the officer in the chest with a handgun","punchFace","handgunChest","civilianOfficer","punishOff","1","","","",""
"87",1150,"","","instructions",86,1104359,"0.0-86.0","obvxzhlcqzp1h1hf0faad680xmf964cs","Sun Apr 02 2017 14:28:52 GMT-0400 (US Eastern Daylight Time)","female","White","slightly conservative","",NA,"[{""page_index"":0,""viewing_time"":1150}]","break","","","","","","","","","","",""
"88",13929,"{""Q0"":79}","[object Object]","survey-likert",87,1118504,"0.0-87.0","obvxzhlcqzp1h1hf0faad680xmf964cs","Sun Apr 02 2017 14:28:52 GMT-0400 (US Eastern Daylight Time)","female","White","slightly conservative","",NA,"","offCivRatings","the officer shot the civilian in the head with a handgun","the civilian shocked the officer with a tazer","handgunHead","tazer","officerCivilian","forceCiv","79","","","",""
"89",15423,"{""Q0"":41}","[object Object]","survey-likert",88,1133931,"0.0-88.0","obvxzhlcqzp1h1hf0faad680xmf964cs","Sun Apr 02 2017 14:28:52 GMT-0400 (US Eastern Daylight Time)","female","White","slightly conservative","",NA,"","offCivRatings","the officer shot the civilian in the head with a handgun","the civilian shocked the officer with a tazer","handgunHead","tazer","officerCivilian","appropriateCiv","41","","","",""
"90",13014,"{""Q0"":1}","[object Object]","survey-likert",89,1146949,"0.0-89.0","obvxzhlcqzp1h1hf0faad680xmf964cs","Sun Apr 02 2017 14:28:52 GMT-0400 (US Eastern Daylight Time)","female","White","slightly conservative","",NA,"","offCivRatings","the officer shot the civilian in the head with a handgun","the civilian shocked the officer with a tazer","handgunHead","tazer","officerCivilian","punishCiv","1","","","",""
"91",3609,"{""Q0"":100}","[object Object]","survey-likert",90,1150562,"0.0-90.0","obvxzhlcqzp1h1hf0faad680xmf964cs","Sun Apr 02 2017 14:28:52 GMT-0400 (US Eastern Daylight Time)","female","White","slightly conservative","",NA,"","offCivRatings","the officer shot the civilian in the head with a handgun","the civilian shocked the officer with a tazer","handgunHead","tazer","officerCivilian","manipCheckHigh","100","","","",""
"92",14264,"{""Q0"":91}","[object Object]","survey-likert",91,1164830,"0.0-91.0","obvxzhlcqzp1h1hf0faad680xmf964cs","Sun Apr 02 2017 14:28:52 GMT-0400 (US Eastern Daylight Time)","female","White","slightly conservative","",NA,"","offCivRatings","the officer shot the civilian in the head with a handgun","the civilian shocked the officer with a tazer","handgunHead","tazer","officerCivilian","acceptableCiv","91","","","",""
"93",1367,"","","instructions",92,1166197,"0.0-92.0","obvxzhlcqzp1h1hf0faad680xmf964cs","Sun Apr 02 2017 14:28:52 GMT-0400 (US Eastern Daylight Time)","female","White","slightly conservative","",NA,"[{""page_index"":0,""viewing_time"":1366}]","break","","","","","","","","","","",""
"94",22600,"{""Q0"":62}","[object Object]","survey-likert",93,1189021,"0.0-93.0","obvxzhlcqzp1h1hf0faad680xmf964cs","Sun Apr 02 2017 14:28:52 GMT-0400 (US Eastern Daylight Time)","female","White","slightly conservative","",NA,"","offCivRatings","the officer twisted the arm of the civilian, forcing him to the ground","the civilian pulled away from the officer","armbar","pulledAway","officerCivilian","appropriateCiv","62","","","",""
"95",8491,"{""Q0"":1}","[object Object]","survey-likert",94,1197516,"0.0-94.0","obvxzhlcqzp1h1hf0faad680xmf964cs","Sun Apr 02 2017 14:28:52 GMT-0400 (US Eastern Daylight Time)","female","White","slightly conservative","",NA,"","offCivRatings","the officer twisted the arm of the civilian, forcing him to the ground","the civilian pulled away from the officer","armbar","pulledAway","officerCivilian","punishCiv","1","","","",""
"96",25232,"{""Q0"":36}","[object Object]","survey-likert",95,1222754,"0.0-95.0","obvxzhlcqzp1h1hf0faad680xmf964cs","Sun Apr 02 2017 14:28:52 GMT-0400 (US Eastern Daylight Time)","female","White","slightly conservative","",NA,"","offCivRatings","the officer twisted the arm of the civilian, forcing him to the ground","the civilian pulled away from the officer","armbar","pulledAway","officerCivilian","acceptableCiv","36","","","",""
"97",6367,"{""Q0"":44}","[object Object]","survey-likert",96,1229125,"0.0-96.0","obvxzhlcqzp1h1hf0faad680xmf964cs","Sun Apr 02 2017 14:28:52 GMT-0400 (US Eastern Daylight Time)","female","White","slightly conservative","",NA,"","offCivRatings","the officer twisted the arm of the civilian, forcing him to the ground","the civilian pulled away from the officer","armbar","pulledAway","officerCivilian","forceCiv","44","","","",""
"98",1391,"","","instructions",97,1230516,"0.0-97.0","obvxzhlcqzp1h1hf0faad680xmf964cs","Sun Apr 02 2017 14:28:52 GMT-0400 (US Eastern Daylight Time)","female","White","slightly conservative","",NA,"[{""page_index"":0,""viewing_time"":1390}]","break","","","","","","","","","","",""
"99",42168,"{""Q0"":71}","[object Object]","survey-likert",98,1272896,"0.0-98.0","obvxzhlcqzp1h1hf0faad680xmf964cs","Sun Apr 02 2017 14:28:52 GMT-0400 (US Eastern Daylight Time)","female","White","slightly conservative","",NA,"","offCivRatings","the officer struck the civilian in the stomach with a metal flashlight","the civilian called the officer a ""pig""","flashlight","nameCall","civilianOfficer","forceOff","71","","","",""
"100",8330,"{""Q0"":1}","[object Object]","survey-likert",99,1281230,"0.0-99.0","obvxzhlcqzp1h1hf0faad680xmf964cs","Sun Apr 02 2017 14:28:52 GMT-0400 (US Eastern Daylight Time)","female","White","slightly conservative","",NA,"","offCivRatings","the officer struck the civilian in the stomach with a metal flashlight","the civilian called the officer a ""pig""","flashlight","nameCall","civilianOfficer","acceptableOff","1","","","",""
"101",6846,"{""Q0"":91}","[object Object]","survey-likert",100,1288080,"0.0-100.0","obvxzhlcqzp1h1hf0faad680xmf964cs","Sun Apr 02 2017 14:28:52 GMT-0400 (US Eastern Daylight Time)","female","White","slightly conservative","",NA,"","offCivRatings","the officer struck the civilian in the stomach with a metal flashlight","the civilian called the officer a ""pig""","flashlight","nameCall","civilianOfficer","appropriateOff","91","","","",""
"102",16209,"{""Q0"":51}","[object Object]","survey-likert",101,1304293,"0.0-101.0","obvxzhlcqzp1h1hf0faad680xmf964cs","Sun Apr 02 2017 14:28:52 GMT-0400 (US Eastern Daylight Time)","female","White","slightly conservative","",NA,"","offCivRatings","the officer struck the civilian in the stomach with a metal flashlight","the civilian called the officer a ""pig""","flashlight","nameCall","civilianOfficer","punishOff","51","","","",""
"103",1415,"","","instructions",102,1305708,"0.0-102.0","obvxzhlcqzp1h1hf0faad680xmf964cs","Sun Apr 02 2017 14:28:52 GMT-0400 (US Eastern Daylight Time)","female","White","slightly conservative","",NA,"[{""page_index"":0,""viewing_time"":1415}]","break","","","","","","","","","","",""
"104",15192,"{""Q0"":50}","[object Object]","survey-likert",103,1321119,"0.0-103.0","obvxzhlcqzp1h1hf0faad680xmf964cs","Sun Apr 02 2017 14:28:52 GMT-0400 (US Eastern Daylight Time)","female","White","slightly conservative","",NA,"","offCivRatings","the officer put handcuffs on the civilian","the civilian shouted ""I don't have to fucking listen to you!"" at the officer","handcuff","dontListen","civilianOfficer","appropriateOff","50","","","",""
"105",4452,"{""Q0"":100}","[object Object]","survey-likert",104,1325575,"0.0-104.0","obvxzhlcqzp1h1hf0faad680xmf964cs","Sun Apr 02 2017 14:28:52 GMT-0400 (US Eastern Daylight Time)","female","White","slightly conservative","",NA,"","offCivRatings","the officer put handcuffs on the civilian","the civilian shouted ""I don't have to fucking listen to you!"" at the officer","handcuff","dontListen","civilianOfficer","acceptableOff","100","","","",""
"106",7542,"{""Q0"":45}","[object Object]","survey-likert",105,1333122,"0.0-105.0","obvxzhlcqzp1h1hf0faad680xmf964cs","Sun Apr 02 2017 14:28:52 GMT-0400 (US Eastern Daylight Time)","female","White","slightly conservative","",NA,"","offCivRatings","the officer put handcuffs on the civilian","the civilian shouted ""I don't have to fucking listen to you!"" at the officer","handcuff","dontListen","civilianOfficer","forceOff","45","","","",""
"107",3750,"{""Q0"":1}","[object Object]","survey-likert",106,1336877,"0.0-106.0","obvxzhlcqzp1h1hf0faad680xmf964cs","Sun Apr 02 2017 14:28:52 GMT-0400 (US Eastern Daylight Time)","female","White","slightly conservative","",NA,"","offCivRatings","the officer put handcuffs on the civilian","the civilian shouted ""I don't have to fucking listen to you!"" at the officer","handcuff","dontListen","civilianOfficer","punishOff","1","","","",""
"108",1523,"","","instructions",107,1338400,"0.0-107.0","obvxzhlcqzp1h1hf0faad680xmf964cs","Sun Apr 02 2017 14:28:52 GMT-0400 (US Eastern Daylight Time)","female","White","slightly conservative","",NA,"[{""page_index"":0,""viewing_time"":1523}]","break","","","","","","","","","","",""
"109",14242,"{""Q0"":100}","[object Object]","survey-likert",108,1352866,"0.0-108.0","obvxzhlcqzp1h1hf0faad680xmf964cs","Sun Apr 02 2017 14:28:52 GMT-0400 (US Eastern Daylight Time)","female","White","slightly conservative","",NA,"","offCivRatings","the officer shouted ""get your fucking hands up!"" at the civilian","the civilian shot the officer in the head with a handgun","handsUp","handgunHead","officerCivilian","punishCiv","100","","","",""
"110",3295,"{""Q0"":1}","[object Object]","survey-likert",109,1356165,"0.0-109.0","obvxzhlcqzp1h1hf0faad680xmf964cs","Sun Apr 02 2017 14:28:52 GMT-0400 (US Eastern Daylight Time)","female","White","slightly conservative","",NA,"","offCivRatings","the officer shouted ""get your fucking hands up!"" at the civilian","the civilian shot the officer in the head with a handgun","handsUp","handgunHead","officerCivilian","acceptableCiv","1","","","",""
"111",3391,"{""Q0"":2}","[object Object]","survey-likert",110,1359560,"0.0-110.0","obvxzhlcqzp1h1hf0faad680xmf964cs","Sun Apr 02 2017 14:28:52 GMT-0400 (US Eastern Daylight Time)","female","White","slightly conservative","",NA,"","offCivRatings","the officer shouted ""get your fucking hands up!"" at the civilian","the civilian shot the officer in the head with a handgun","handsUp","handgunHead","officerCivilian","manipCheckLow","2","","","",""
"112",4890,"{""Q0"":100}","[object Object]","survey-likert",111,1364455,"0.0-111.0","obvxzhlcqzp1h1hf0faad680xmf964cs","Sun Apr 02 2017 14:28:52 GMT-0400 (US Eastern Daylight Time)","female","White","slightly conservative","",NA,"","offCivRatings","the officer shouted ""get your fucking hands up!"" at the civilian","the civilian shot the officer in the head with a handgun","handsUp","handgunHead","officerCivilian","forceCiv","100","","","",""
"113",5332,"{""Q0"":100}","[object Object]","survey-likert",112,1369792,"0.0-112.0","obvxzhlcqzp1h1hf0faad680xmf964cs","Sun Apr 02 2017 14:28:52 GMT-0400 (US Eastern Daylight Time)","female","White","slightly conservative","",NA,"","offCivRatings","the officer shouted ""get your fucking hands up!"" at the civilian","the civilian shot the officer in the head with a handgun","handsUp","handgunHead","officerCivilian","appropriateCiv","100","","","",""
"114",1427,"","","instructions",113,1371219,"0.0-113.0","obvxzhlcqzp1h1hf0faad680xmf964cs","Sun Apr 02 2017 14:28:52 GMT-0400 (US Eastern Daylight Time)","female","White","slightly conservative","",NA,"[{""page_index"":0,""viewing_time"":1426}]","break","","","","","","","","","","",""
"115",21840,"{""Q0"":39}","[object Object]","survey-likert",114,1393270,"0.0-114.0","obvxzhlcqzp1h1hf0faad680xmf964cs","Sun Apr 02 2017 14:28:52 GMT-0400 (US Eastern Daylight Time)","female","White","slightly conservative","",NA,"","offCivRatings","the officer shot the civilian in the chest with a beanbag shotgun round","the civilian yelled ""get back!"" at the officer","beanbag","getBack","civilianOfficer","acceptableOff","39","","","",""
"116",16216,"{""Q0"":35}","[object Object]","survey-likert",115,1409490,"0.0-115.0","obvxzhlcqzp1h1hf0faad680xmf964cs","Sun Apr 02 2017 14:28:52 GMT-0400 (US Eastern Daylight Time)","female","White","slightly conservative","",NA,"","offCivRatings","the officer shot the civilian in the chest with a beanbag shotgun round","the civilian yelled ""get back!"" at the officer","beanbag","getBack","civilianOfficer","punishOff","35","","","",""
"117",7180,"{""Q0"":70}","[object Object]","survey-likert",116,1416675,"0.0-116.0","obvxzhlcqzp1h1hf0faad680xmf964cs","Sun Apr 02 2017 14:28:52 GMT-0400 (US Eastern Daylight Time)","female","White","slightly conservative","",NA,"","offCivRatings","the officer shot the civilian in the chest with a beanbag shotgun round","the civilian yelled ""get back!"" at the officer","beanbag","getBack","civilianOfficer","appropriateOff","70","","","",""
"118",6401,"{""Q0"":79}","[object Object]","survey-likert",117,1423080,"0.0-117.0","obvxzhlcqzp1h1hf0faad680xmf964cs","Sun Apr 02 2017 14:28:52 GMT-0400 (US Eastern Daylight Time)","female","White","slightly conservative","",NA,"","offCivRatings","the officer shot the civilian in the chest with a beanbag shotgun round","the civilian yelled ""get back!"" at the officer","beanbag","getBack","civilianOfficer","forceOff","79","","","",""
"119",1367,"","","instructions",118,1424447,"0.0-118.0","obvxzhlcqzp1h1hf0faad680xmf964cs","Sun Apr 02 2017 14:28:52 GMT-0400 (US Eastern Daylight Time)","female","White","slightly conservative","",NA,"[{""page_index"":0,""viewing_time"":1366}]","break","","","","","","","","","","",""
"120",16757,"{""Q0"":10}","[object Object]","survey-likert",119,1441424,"0.0-119.0","obvxzhlcqzp1h1hf0faad680xmf964cs","Sun Apr 02 2017 14:28:52 GMT-0400 (US Eastern Daylight Time)","female","White","slightly conservative","",NA,"","offCivRatings","the officer applied a chokehold to the civilian","the civilian struck the officer on the leg with a metal pipe","choke","metalPipe","civilianOfficer","punishOff","10","","","",""
"121",5670,"{""Q0"":56}","[object Object]","survey-likert",120,1447098,"0.0-120.0","obvxzhlcqzp1h1hf0faad680xmf964cs","Sun Apr 02 2017 14:28:52 GMT-0400 (US Eastern Daylight Time)","female","White","slightly conservative","",NA,"","offCivRatings","the officer applied a chokehold to the civilian","the civilian struck the officer on the leg with a metal pipe","choke","metalPipe","civilianOfficer","appropriateOff","56","","","",""
"122",5707,"{""Q0"":69}","[object Object]","survey-likert",121,1452807,"0.0-121.0","obvxzhlcqzp1h1hf0faad680xmf964cs","Sun Apr 02 2017 14:28:52 GMT-0400 (US Eastern Daylight Time)","female","White","slightly conservative","",NA,"","offCivRatings","the officer applied a chokehold to the civilian","the civilian struck the officer on the leg with a metal pipe","choke","metalPipe","civilianOfficer","forceOff","69","","","",""
"123",8320,"{""Q0"":100}","[object Object]","survey-likert",122,1461132,"0.0-122.0","obvxzhlcqzp1h1hf0faad680xmf964cs","Sun Apr 02 2017 14:28:52 GMT-0400 (US Eastern Daylight Time)","female","White","slightly conservative","",NA,"","offCivRatings","the officer applied a chokehold to the civilian","the civilian struck the officer on the leg with a metal pipe","choke","metalPipe","civilianOfficer","acceptableOff","100","","","",""
"124",1283,"","","instructions",123,1462415,"0.0-123.0","obvxzhlcqzp1h1hf0faad680xmf964cs","Sun Apr 02 2017 14:28:52 GMT-0400 (US Eastern Daylight Time)","female","White","slightly conservative","",NA,"[{""page_index"":0,""viewing_time"":1283}]","break","","","","","","","","","","",""
"125",15600,"{""Q0"":91}","[object Object]","survey-likert",124,1478241,"0.0-124.0","obvxzhlcqzp1h1hf0faad680xmf964cs","Sun Apr 02 2017 14:28:52 GMT-0400 (US Eastern Daylight Time)","female","White","slightly conservative","",NA,"","policeLegitimacy","","","","","","","91","rightWrong","normAlignment","",""
"126",15398,"{""Q0"":90}","[object Object]","survey-likert",125,1493643,"0.0-125.0","obvxzhlcqzp1h1hf0faad680xmf964cs","Sun Apr 02 2017 14:28:52 GMT-0400 (US Eastern Daylight Time)","female","White","slightly conservative","",NA,"","policeLegitimacy","","","","","","","90","support","feltObligation","",""
"127",6386,"{""Q0"":100}","[object Object]","survey-likert",126,1500034,"0.0-126.0","obvxzhlcqzp1h1hf0faad680xmf964cs","Sun Apr 02 2017 14:28:52 GMT-0400 (US Eastern Daylight Time)","female","White","slightly conservative","",NA,"","policeLegitimacy","","","","","","","100","communityWants","normAlignment","",""
"128",4518,"{""Q0"":100}","[object Object]","survey-likert",127,1504556,"0.0-127.0","obvxzhlcqzp1h1hf0faad680xmf964cs","Sun Apr 02 2017 14:28:52 GMT-0400 (US Eastern Daylight Time)","female","White","slightly conservative","",NA,"","policeLegitimacy","","","","","","","100","importantValues","normAlignment","",""
"129",12351,"{""Q0"":100}","[object Object]","survey-likert",128,1516911,"0.0-128.0","obvxzhlcqzp1h1hf0faad680xmf964cs","Sun Apr 02 2017 14:28:52 GMT-0400 (US Eastern Daylight Time)","female","White","slightly conservative","",NA,"","policeLegitimacy","","","","","","","100","doTreat","feltObligation","",""
"130",6427,"{""Q0"":100}","[object Object]","survey-likert",129,1523342,"0.0-129.0","obvxzhlcqzp1h1hf0faad680xmf964cs","Sun Apr 02 2017 14:28:52 GMT-0400 (US Eastern Daylight Time)","female","White","slightly conservative","",NA,"","policeLegitimacy","","","","","","","100","doReasons","feltObligation","",""
"131",4518,"{""Q0"":""no""}","[object Object]","survey-multi-choice2",130,1527865,"0.0-130.0","obvxzhlcqzp1h1hf0faad680xmf964cs","Sun Apr 02 2017 14:28:52 GMT-0400 (US Eastern Daylight Time)","female","White","slightly conservative","",NA,"","policeExperience","","","","","","","no","excessForce","","vicarious","Have the police ever used excessive force against anyone in your household?"
"132",2912,"{""Q0"":""no""}","[object Object]","survey-multi-choice2",131,1530779,"0.0-131.0","obvxzhlcqzp1h1hf0faad680xmf964cs","Sun Apr 02 2017 14:28:52 GMT-0400 (US Eastern Daylight Time)","female","White","slightly conservative","",NA,"","policeExperience","","","","","","","no","insultLang","","personal","Have the police ever used insulting language toward you?"
"133",3940,"{""Q0"":""no""}","[object Object]","survey-multi-choice2",132,1534721,"0.0-132.0","obvxzhlcqzp1h1hf0faad680xmf964cs","Sun Apr 02 2017 14:28:52 GMT-0400 (US Eastern Daylight Time)","female","White","slightly conservative","",NA,"","policeExperience","","","","","","","no","corrupt","","personal","Have you ever seen a police officer engage in any corrupt activities (e.g., taking bribes or involvement in the drug trade)?"
"134",3154,"{""Q0"":""no""}","[object Object]","survey-multi-choice2",133,1537877,"0.0-133.0","obvxzhlcqzp1h1hf0faad680xmf964cs","Sun Apr 02 2017 14:28:52 GMT-0400 (US Eastern Daylight Time)","female","White","slightly conservative","",NA,"","policeExperience","","","","","","","no","insultLang","","vicarious","Have the police ever used insulting language toward anyone in your household?"
"135",4747,"{""Q0"":""no""}","[object Object]","survey-multi-choice2",134,1542627,"0.0-134.0","obvxzhlcqzp1h1hf0faad680xmf964cs","Sun Apr 02 2017 14:28:52 GMT-0400 (US Eastern Daylight Time)","female","White","slightly conservative","",NA,"","policeExperience","","","","","","","no","stopped","","personal","Have you ever been stopped by the police on the street without good reason?"
"136",2830,"{""Q0"":""no""}","[object Object]","survey-multi-choice2",135,1545458,"0.0-135.0","obvxzhlcqzp1h1hf0faad680xmf964cs","Sun Apr 02 2017 14:28:52 GMT-0400 (US Eastern Daylight Time)","female","White","slightly conservative","",NA,"","policeExperience","","","","","","","no","excessForce","","personal","Have the police ever used excessive force against you?"
"137",3693,"{""Q0"":""no""}","[object Object]","survey-multi-choice2",136,1549153,"0.0-136.0","obvxzhlcqzp1h1hf0faad680xmf964cs","Sun Apr 02 2017 14:28:52 GMT-0400 (US Eastern Daylight Time)","female","White","slightly conservative","",NA,"","policeExperience","","","","","","","no","stopped","","vicarious","Has anyone in your household ever been stopped on the street by the police without good reason?"
"138",13462,"{""Q0"":""female"",""Q1"":""White"",""Q2"":""slightly conservative""}","[object Object]","survey-multi-choice",137,1562621,"0.0-137.0","obvxzhlcqzp1h1hf0faad680xmf964cs","Sun Apr 02 2017 14:28:52 GMT-0400 (US Eastern Daylight Time)","female","White","slightly conservative","",NA,"","demographics","","","","","","","","","","",""
"139",44650,"","","instructions",138,1608278,"0.0-138.0","obvxzhlcqzp1h1hf0faad680xmf964cs","Sun Apr 02 2017 14:28:52 GMT-0400 (US Eastern Daylight Time)","female","White","slightly conservative","",NA,"[{""page_index"":0,""viewing_time"":2462},{""page_index"":1,""viewing_time"":11270},{""page_index"":2,""viewing_time"":26464},{""page_index"":3,""viewing_time"":4454}]","debriefing","","","","","","","","","","",""
