"","rt","responses","internalResp","trial_type","trial_index","time_elapsed","internal_node_id","randSubjectID","date","sex","race","polAff","stimulus","key_press","view_history","questionType","officerAction","civilianAction","offActName","civActName","order","questionName","response","name","dimension","person","question"
"1",6872,"","[object Object]","survey-text",0,6888,"0.0-0.0","ofg3e1l370nlwju1wgzt86hlt498ac94","Tue Apr 25 2017 18:38:35 GMT-0400 (US Eastern Daylight Time)","male","White","liberal","",NA,"","","","","","","","","","","","",""
"2",11804,"","","single-stim",1,19700,"0.0-1.0","ofg3e1l370nlwju1wgzt86hlt498ac94","Tue Apr 25 2017 18:38:35 GMT-0400 (US Eastern Daylight Time)","male","White","liberal","<img src='static/images/1602685960_ICS_Credit-0.png' alt='Consent 1' height=1100 width=850><img src='static/images/1602685960_ICS_Credit-1.png' alt='Consent 2' height=1100 width=850></p>",89,"","","","","","","","","","","","",""
"3",6062,"","","instructions",2,26765,"0.0-2.0","ofg3e1l370nlwju1wgzt86hlt498ac94","Tue Apr 25 2017 18:38:35 GMT-0400 (US Eastern Daylight Time)","male","White","liberal","",NA,"[{""page_index"":0,""viewing_time"":6061}]","instructions","","","","","","","","","","",""
"4",57648,"","","instructions",3,85415,"0.0-3.0","ofg3e1l370nlwju1wgzt86hlt498ac94","Tue Apr 25 2017 18:38:35 GMT-0400 (US Eastern Daylight Time)","male","White","liberal","",NA,"[{""page_index"":0,""viewing_time"":32005},{""page_index"":1,""viewing_time"":6872},{""page_index"":2,""viewing_time"":16912},{""page_index"":3,""viewing_time"":1858}]","instructions","","","","","","","","","","",""
"5",26447,"{""Q0"":1}","[object Object]","survey-likert",4,112927,"0.0-4.0","ofg3e1l370nlwju1wgzt86hlt498ac94","Tue Apr 25 2017 18:38:35 GMT-0400 (US Eastern Daylight Time)","male","White","liberal","",NA,"","offCivRatings","the officer applied a chokehold to the civilian","the civilian slammed the officer's head into the concrete curb","choke","headSlam","civilianOfficer","punishOff","1","","","",""
"6",15905,"{""Q0"":75}","[object Object]","survey-likert",5,128853,"0.0-5.0","ofg3e1l370nlwju1wgzt86hlt498ac94","Tue Apr 25 2017 18:38:35 GMT-0400 (US Eastern Daylight Time)","male","White","liberal","",NA,"","offCivRatings","the officer applied a chokehold to the civilian","the civilian slammed the officer's head into the concrete curb","choke","headSlam","civilianOfficer","forceOff","75","","","",""
"7",15174,"{""Q0"":50}","[object Object]","survey-likert",6,144047,"0.0-6.0","ofg3e1l370nlwju1wgzt86hlt498ac94","Tue Apr 25 2017 18:38:35 GMT-0400 (US Eastern Daylight Time)","male","White","liberal","",NA,"","offCivRatings","the officer applied a chokehold to the civilian","the civilian slammed the officer's head into the concrete curb","choke","headSlam","civilianOfficer","appropriateOff","50","","","",""
"8",9618,"{""Q0"":1}","[object Object]","survey-likert",7,153683,"0.0-7.0","ofg3e1l370nlwju1wgzt86hlt498ac94","Tue Apr 25 2017 18:38:35 GMT-0400 (US Eastern Daylight Time)","male","White","liberal","",NA,"","offCivRatings","the officer applied a chokehold to the civilian","the civilian slammed the officer's head into the concrete curb","choke","headSlam","civilianOfficer","manipCheckLow","1","","","",""
"9",4005,"{""Q0"":100}","[object Object]","survey-likert",8,157709,"0.0-8.0","ofg3e1l370nlwju1wgzt86hlt498ac94","Tue Apr 25 2017 18:38:35 GMT-0400 (US Eastern Daylight Time)","male","White","liberal","",NA,"","offCivRatings","the officer applied a chokehold to the civilian","the civilian slammed the officer's head into the concrete curb","choke","headSlam","civilianOfficer","acceptableOff","100","","","",""
"10",2390,"","","instructions",9,160099,"0.0-9.0","ofg3e1l370nlwju1wgzt86hlt498ac94","Tue Apr 25 2017 18:38:35 GMT-0400 (US Eastern Daylight Time)","male","White","liberal","",NA,"[{""page_index"":0,""viewing_time"":2389}]","break","","","","","","","","","","",""
"11",21409,"{""Q0"":1}","[object Object]","survey-likert",10,181730,"0.0-10.0","ofg3e1l370nlwju1wgzt86hlt498ac94","Tue Apr 25 2017 18:38:35 GMT-0400 (US Eastern Daylight Time)","male","White","liberal","",NA,"","offCivRatings","the officer called the civilian a ""thug""","the civilian called the officer a ""pig""","nameCall","nameCall","officerCivilian","punishCiv","1","","","",""
"12",13990,"{""Q0"":41}","[object Object]","survey-likert",11,195742,"0.0-11.0","ofg3e1l370nlwju1wgzt86hlt498ac94","Tue Apr 25 2017 18:38:35 GMT-0400 (US Eastern Daylight Time)","male","White","liberal","",NA,"","offCivRatings","the officer called the civilian a ""thug""","the civilian called the officer a ""pig""","nameCall","nameCall","officerCivilian","acceptableCiv","41","","","",""
"13",7230,"{""Q0"":50}","[object Object]","survey-likert",12,202993,"0.0-12.0","ofg3e1l370nlwju1wgzt86hlt498ac94","Tue Apr 25 2017 18:38:35 GMT-0400 (US Eastern Daylight Time)","male","White","liberal","",NA,"","offCivRatings","the officer called the civilian a ""thug""","the civilian called the officer a ""pig""","nameCall","nameCall","officerCivilian","appropriateCiv","50","","","",""
"14",8924,"{""Q0"":3}","[object Object]","survey-likert",13,211934,"0.0-13.0","ofg3e1l370nlwju1wgzt86hlt498ac94","Tue Apr 25 2017 18:38:35 GMT-0400 (US Eastern Daylight Time)","male","White","liberal","",NA,"","offCivRatings","the officer called the civilian a ""thug""","the civilian called the officer a ""pig""","nameCall","nameCall","officerCivilian","forceCiv","3","","","",""
"15",1347,"","","instructions",14,213283,"0.0-14.0","ofg3e1l370nlwju1wgzt86hlt498ac94","Tue Apr 25 2017 18:38:35 GMT-0400 (US Eastern Daylight Time)","male","White","liberal","",NA,"[{""page_index"":0,""viewing_time"":1347}]","break","","","","","","","","","","",""
"16",18936,"{""Q0"":100}","[object Object]","survey-likert",15,232435,"0.0-15.0","ofg3e1l370nlwju1wgzt86hlt498ac94","Tue Apr 25 2017 18:38:35 GMT-0400 (US Eastern Daylight Time)","male","White","liberal","",NA,"","offCivRatings","the officer headbutted the civilian in the face","the civilian kicked the officer in the stomach","headbutt","kickStom","officerCivilian","acceptableCiv","100","","","",""
"17",4655,"{""Q0"":1}","[object Object]","survey-likert",16,237110,"0.0-16.0","ofg3e1l370nlwju1wgzt86hlt498ac94","Tue Apr 25 2017 18:38:35 GMT-0400 (US Eastern Daylight Time)","male","White","liberal","",NA,"","offCivRatings","the officer headbutted the civilian in the face","the civilian kicked the officer in the stomach","headbutt","kickStom","officerCivilian","manipCheckHigh","1","","","",""
"18",8905,"{""Q0"":1}","[object Object]","survey-likert",17,246035,"0.0-17.0","ofg3e1l370nlwju1wgzt86hlt498ac94","Tue Apr 25 2017 18:38:35 GMT-0400 (US Eastern Daylight Time)","male","White","liberal","",NA,"","offCivRatings","the officer headbutted the civilian in the face","the civilian kicked the officer in the stomach","headbutt","kickStom","officerCivilian","punishCiv","1","","","",""
"19",13542,"{""Q0"":50}","[object Object]","survey-likert",18,259594,"0.0-18.0","ofg3e1l370nlwju1wgzt86hlt498ac94","Tue Apr 25 2017 18:38:35 GMT-0400 (US Eastern Daylight Time)","male","White","liberal","",NA,"","offCivRatings","the officer headbutted the civilian in the face","the civilian kicked the officer in the stomach","headbutt","kickStom","officerCivilian","appropriateCiv","50","","","",""
"20",14056,"{""Q0"":75}","[object Object]","survey-likert",19,273667,"0.0-19.0","ofg3e1l370nlwju1wgzt86hlt498ac94","Tue Apr 25 2017 18:38:35 GMT-0400 (US Eastern Daylight Time)","male","White","liberal","",NA,"","offCivRatings","the officer headbutted the civilian in the face","the civilian kicked the officer in the stomach","headbutt","kickStom","officerCivilian","forceCiv","75","","","",""
"21",1407,"","","instructions",20,275074,"0.0-20.0","ofg3e1l370nlwju1wgzt86hlt498ac94","Tue Apr 25 2017 18:38:35 GMT-0400 (US Eastern Daylight Time)","male","White","liberal","",NA,"[{""page_index"":0,""viewing_time"":1406}]","break","","","","","","","","","","",""
"22",18531,"{""Q0"":1}","[object Object]","survey-likert",21,293833,"0.0-21.0","ofg3e1l370nlwju1wgzt86hlt498ac94","Tue Apr 25 2017 18:38:35 GMT-0400 (US Eastern Daylight Time)","male","White","liberal","",NA,"","offCivRatings","the officer struck the civilian on the leg with a collapsible baton","the civilian asked the officer how he was doing","batonLeg","asked","civilianOfficer","manipCheckLow","1","","","",""
"23",11296,"{""Q0"":80}","[object Object]","survey-likert",22,305146,"0.0-22.0","ofg3e1l370nlwju1wgzt86hlt498ac94","Tue Apr 25 2017 18:38:35 GMT-0400 (US Eastern Daylight Time)","male","White","liberal","",NA,"","offCivRatings","the officer struck the civilian on the leg with a collapsible baton","the civilian asked the officer how he was doing","batonLeg","asked","civilianOfficer","forceOff","80","","","",""
"24",14435,"{""Q0"":90}","[object Object]","survey-likert",23,319600,"0.0-23.0","ofg3e1l370nlwju1wgzt86hlt498ac94","Tue Apr 25 2017 18:38:35 GMT-0400 (US Eastern Daylight Time)","male","White","liberal","",NA,"","offCivRatings","the officer struck the civilian on the leg with a collapsible baton","the civilian asked the officer how he was doing","batonLeg","asked","civilianOfficer","punishOff","90","","","",""
"25",15039,"{""Q0"":95}","[object Object]","survey-likert",24,334657,"0.0-24.0","ofg3e1l370nlwju1wgzt86hlt498ac94","Tue Apr 25 2017 18:38:35 GMT-0400 (US Eastern Daylight Time)","male","White","liberal","",NA,"","offCivRatings","the officer struck the civilian on the leg with a collapsible baton","the civilian asked the officer how he was doing","batonLeg","asked","civilianOfficer","appropriateOff","95","","","",""
"26",9560,"{""Q0"":2}","[object Object]","survey-likert",25,344232,"0.0-25.0","ofg3e1l370nlwju1wgzt86hlt498ac94","Tue Apr 25 2017 18:38:35 GMT-0400 (US Eastern Daylight Time)","male","White","liberal","",NA,"","offCivRatings","the officer struck the civilian on the leg with a collapsible baton","the civilian asked the officer how he was doing","batonLeg","asked","civilianOfficer","acceptableOff","2","","","",""
"27",1835,"","","instructions",26,346067,"0.0-26.0","ofg3e1l370nlwju1wgzt86hlt498ac94","Tue Apr 25 2017 18:38:35 GMT-0400 (US Eastern Daylight Time)","male","White","liberal","",NA,"[{""page_index"":0,""viewing_time"":1834}]","break","","","","","","","","","","",""
"28",20648,"{""Q0"":7}","[object Object]","survey-likert",27,366938,"0.0-27.0","ofg3e1l370nlwju1wgzt86hlt498ac94","Tue Apr 25 2017 18:38:35 GMT-0400 (US Eastern Daylight Time)","male","White","liberal","",NA,"","offCivRatings","the officer yelled ""get back!"" at the civilian","the civilian pulled away from the officer","getBack","pulledAway","civilianOfficer","forceOff","7","","","",""
"29",4188,"{""Q0"":1}","[object Object]","survey-likert",28,371143,"0.0-28.0","ofg3e1l370nlwju1wgzt86hlt498ac94","Tue Apr 25 2017 18:38:35 GMT-0400 (US Eastern Daylight Time)","male","White","liberal","",NA,"","offCivRatings","the officer yelled ""get back!"" at the civilian","the civilian pulled away from the officer","getBack","pulledAway","civilianOfficer","punishOff","1","","","",""
"30",13989,"{""Q0"":35}","[object Object]","survey-likert",29,385148,"0.0-29.0","ofg3e1l370nlwju1wgzt86hlt498ac94","Tue Apr 25 2017 18:38:35 GMT-0400 (US Eastern Daylight Time)","male","White","liberal","",NA,"","offCivRatings","the officer yelled ""get back!"" at the civilian","the civilian pulled away from the officer","getBack","pulledAway","civilianOfficer","appropriateOff","35","","","",""
"31",5191,"{""Q0"":100}","[object Object]","survey-likert",30,390357,"0.0-30.0","ofg3e1l370nlwju1wgzt86hlt498ac94","Tue Apr 25 2017 18:38:35 GMT-0400 (US Eastern Daylight Time)","male","White","liberal","",NA,"","offCivRatings","the officer yelled ""get back!"" at the civilian","the civilian pulled away from the officer","getBack","pulledAway","civilianOfficer","acceptableOff","100","","","",""
"32",1611,"","","instructions",31,391968,"0.0-31.0","ofg3e1l370nlwju1wgzt86hlt498ac94","Tue Apr 25 2017 18:38:35 GMT-0400 (US Eastern Daylight Time)","male","White","liberal","",NA,"[{""page_index"":0,""viewing_time"":1610}]","break","","","","","","","","","","",""
"33",39804,"{""Q0"":50}","[object Object]","survey-likert",32,431990,"0.0-32.0","ofg3e1l370nlwju1wgzt86hlt498ac94","Tue Apr 25 2017 18:38:35 GMT-0400 (US Eastern Daylight Time)","male","White","liberal","",NA,"","offCivRatings","the officer kicked the civilian in the stomach","the civilian headbutted the officer in the face","kickStom","headbutt","civilianOfficer","appropriateOff","50","","","",""
"34",11422,"{""Q0"":80}","[object Object]","survey-likert",33,443428,"0.0-33.0","ofg3e1l370nlwju1wgzt86hlt498ac94","Tue Apr 25 2017 18:38:35 GMT-0400 (US Eastern Daylight Time)","male","White","liberal","",NA,"","offCivRatings","the officer kicked the civilian in the stomach","the civilian headbutted the officer in the face","kickStom","headbutt","civilianOfficer","forceOff","80","","","",""
"35",4393,"{""Q0"":100}","[object Object]","survey-likert",34,447838,"0.0-34.0","ofg3e1l370nlwju1wgzt86hlt498ac94","Tue Apr 25 2017 18:38:35 GMT-0400 (US Eastern Daylight Time)","male","White","liberal","",NA,"","offCivRatings","the officer kicked the civilian in the stomach","the civilian headbutted the officer in the face","kickStom","headbutt","civilianOfficer","acceptableOff","100","","","",""
"36",4356,"{""Q0"":1}","[object Object]","survey-likert",35,452210,"0.0-35.0","ofg3e1l370nlwju1wgzt86hlt498ac94","Tue Apr 25 2017 18:38:35 GMT-0400 (US Eastern Daylight Time)","male","White","liberal","",NA,"","offCivRatings","the officer kicked the civilian in the stomach","the civilian headbutted the officer in the face","kickStom","headbutt","civilianOfficer","punishOff","1","","","",""
"37",979,"","","instructions",36,453189,"0.0-36.0","ofg3e1l370nlwju1wgzt86hlt498ac94","Tue Apr 25 2017 18:38:35 GMT-0400 (US Eastern Daylight Time)","male","White","liberal","",NA,"[{""page_index"":0,""viewing_time"":978}]","break","","","","","","","","","","",""
"38",10455,"{""Q0"":100}","[object Object]","survey-likert",37,463862,"0.0-37.0","ofg3e1l370nlwju1wgzt86hlt498ac94","Tue Apr 25 2017 18:38:35 GMT-0400 (US Eastern Daylight Time)","male","White","liberal","",NA,"","offCivRatings","the officer twisted the arm of the civilian, forcing him to the ground","the civilian purposefully struck the officer with a motor vehicle","armbar","vehicle","officerCivilian","forceCiv","100","","","",""
"39",6341,"{""Q0"":100}","[object Object]","survey-likert",38,470218,"0.0-38.0","ofg3e1l370nlwju1wgzt86hlt498ac94","Tue Apr 25 2017 18:38:35 GMT-0400 (US Eastern Daylight Time)","male","White","liberal","",NA,"","offCivRatings","the officer twisted the arm of the civilian, forcing him to the ground","the civilian purposefully struck the officer with a motor vehicle","armbar","vehicle","officerCivilian","appropriateCiv","100","","","",""
"40",3391,"{""Q0"":100}","[object Object]","survey-likert",39,473630,"0.0-39.0","ofg3e1l370nlwju1wgzt86hlt498ac94","Tue Apr 25 2017 18:38:35 GMT-0400 (US Eastern Daylight Time)","male","White","liberal","",NA,"","offCivRatings","the officer twisted the arm of the civilian, forcing him to the ground","the civilian purposefully struck the officer with a motor vehicle","armbar","vehicle","officerCivilian","punishCiv","100","","","",""
"41",4028,"{""Q0"":1}","[object Object]","survey-likert",40,477673,"0.0-40.0","ofg3e1l370nlwju1wgzt86hlt498ac94","Tue Apr 25 2017 18:38:35 GMT-0400 (US Eastern Daylight Time)","male","White","liberal","",NA,"","offCivRatings","the officer twisted the arm of the civilian, forcing him to the ground","the civilian purposefully struck the officer with a motor vehicle","armbar","vehicle","officerCivilian","manipCheckLow","1","","","",""
"42",3154,"{""Q0"":1}","[object Object]","survey-likert",41,480843,"0.0-41.0","ofg3e1l370nlwju1wgzt86hlt498ac94","Tue Apr 25 2017 18:38:35 GMT-0400 (US Eastern Daylight Time)","male","White","liberal","",NA,"","offCivRatings","the officer twisted the arm of the civilian, forcing him to the ground","the civilian purposefully struck the officer with a motor vehicle","armbar","vehicle","officerCivilian","acceptableCiv","1","","","",""
"43",1077,"","","instructions",42,481920,"0.0-42.0","ofg3e1l370nlwju1wgzt86hlt498ac94","Tue Apr 25 2017 18:38:35 GMT-0400 (US Eastern Daylight Time)","male","White","liberal","",NA,"[{""page_index"":0,""viewing_time"":1076}]","break","","","","","","","","","","",""
"44",9982,"{""Q0"":1}","[object Object]","survey-likert",43,492120,"0.0-43.0","ofg3e1l370nlwju1wgzt86hlt498ac94","Tue Apr 25 2017 18:38:35 GMT-0400 (US Eastern Daylight Time)","male","White","liberal","",NA,"","offCivRatings","the officer struck the civilian in the stomach with a metal flashlight","the civilian shocked the officer with a tazer","flashlight","tazer","civilianOfficer","punishOff","1","","","",""
"45",8004,"{""Q0"":87}","[object Object]","survey-likert",44,500140,"0.0-44.0","ofg3e1l370nlwju1wgzt86hlt498ac94","Tue Apr 25 2017 18:38:35 GMT-0400 (US Eastern Daylight Time)","male","White","liberal","",NA,"","offCivRatings","the officer struck the civilian in the stomach with a metal flashlight","the civilian shocked the officer with a tazer","flashlight","tazer","civilianOfficer","forceOff","87","","","",""
"46",5486,"{""Q0"":50}","[object Object]","survey-likert",45,505642,"0.0-45.0","ofg3e1l370nlwju1wgzt86hlt498ac94","Tue Apr 25 2017 18:38:35 GMT-0400 (US Eastern Daylight Time)","male","White","liberal","",NA,"","offCivRatings","the officer struck the civilian in the stomach with a metal flashlight","the civilian shocked the officer with a tazer","flashlight","tazer","civilianOfficer","appropriateOff","50","","","",""
"47",14027,"{""Q0"":100}","[object Object]","survey-likert",46,519687,"0.0-46.0","ofg3e1l370nlwju1wgzt86hlt498ac94","Tue Apr 25 2017 18:38:35 GMT-0400 (US Eastern Daylight Time)","male","White","liberal","",NA,"","offCivRatings","the officer struck the civilian in the stomach with a metal flashlight","the civilian shocked the officer with a tazer","flashlight","tazer","civilianOfficer","acceptableOff","100","","","",""
"48",998,"","","instructions",47,520685,"0.0-47.0","ofg3e1l370nlwju1wgzt86hlt498ac94","Tue Apr 25 2017 18:38:35 GMT-0400 (US Eastern Daylight Time)","male","White","liberal","",NA,"[{""page_index"":0,""viewing_time"":997}]","break","","","","","","","","","","",""
"49",23238,"{""Q0"":30}","[object Object]","survey-likert",48,544140,"0.0-48.0","ofg3e1l370nlwju1wgzt86hlt498ac94","Tue Apr 25 2017 18:38:35 GMT-0400 (US Eastern Daylight Time)","male","White","liberal","",NA,"","offCivRatings","the officer shouted ""get your fucking hands up!"" at the civilian","the civilian said ""if you touch me, you're gonna get hurt"" to the officer","handsUp","hurtThreat","civilianOfficer","forceOff","30","","","",""
"50",8751,"{""Q0"":50}","[object Object]","survey-likert",49,552907,"0.0-49.0","ofg3e1l370nlwju1wgzt86hlt498ac94","Tue Apr 25 2017 18:38:35 GMT-0400 (US Eastern Daylight Time)","male","White","liberal","",NA,"","offCivRatings","the officer shouted ""get your fucking hands up!"" at the civilian","the civilian said ""if you touch me, you're gonna get hurt"" to the officer","handsUp","hurtThreat","civilianOfficer","appropriateOff","50","","","",""
"51",6380,"{""Q0"":1}","[object Object]","survey-likert",50,559303,"0.0-50.0","ofg3e1l370nlwju1wgzt86hlt498ac94","Tue Apr 25 2017 18:38:35 GMT-0400 (US Eastern Daylight Time)","male","White","liberal","",NA,"","offCivRatings","the officer shouted ""get your fucking hands up!"" at the civilian","the civilian said ""if you touch me, you're gonna get hurt"" to the officer","handsUp","hurtThreat","civilianOfficer","manipCheckLow","1","","","",""
"52",5233,"{""Q0"":1}","[object Object]","survey-likert",51,564551,"0.0-51.0","ofg3e1l370nlwju1wgzt86hlt498ac94","Tue Apr 25 2017 18:38:35 GMT-0400 (US Eastern Daylight Time)","male","White","liberal","",NA,"","offCivRatings","the officer shouted ""get your fucking hands up!"" at the civilian","the civilian said ""if you touch me, you're gonna get hurt"" to the officer","handsUp","hurtThreat","civilianOfficer","punishOff","1","","","",""
"53",6679,"{""Q0"":100}","[object Object]","survey-likert",52,571248,"0.0-52.0","ofg3e1l370nlwju1wgzt86hlt498ac94","Tue Apr 25 2017 18:38:35 GMT-0400 (US Eastern Daylight Time)","male","White","liberal","",NA,"","offCivRatings","the officer shouted ""get your fucking hands up!"" at the civilian","the civilian said ""if you touch me, you're gonna get hurt"" to the officer","handsUp","hurtThreat","civilianOfficer","acceptableOff","100","","","",""
"54",1163,"","","instructions",53,572412,"0.0-53.0","ofg3e1l370nlwju1wgzt86hlt498ac94","Tue Apr 25 2017 18:38:35 GMT-0400 (US Eastern Daylight Time)","male","White","liberal","",NA,"[{""page_index"":0,""viewing_time"":1162}]","break","","","","","","","","","","",""
"55",10525,"{""Q0"":1}","[object Object]","survey-likert",54,583155,"0.0-54.0","ofg3e1l370nlwju1wgzt86hlt498ac94","Tue Apr 25 2017 18:38:35 GMT-0400 (US Eastern Daylight Time)","male","White","liberal","",NA,"","offCivRatings","the officer stood near the civilian","the civilian shot the officer in the head with a handgun","stoodNear","handgunHead","officerCivilian","acceptableCiv","1","","","",""
"56",3007,"{""Q0"":100}","[object Object]","survey-likert",55,586177,"0.0-55.0","ofg3e1l370nlwju1wgzt86hlt498ac94","Tue Apr 25 2017 18:38:35 GMT-0400 (US Eastern Daylight Time)","male","White","liberal","",NA,"","offCivRatings","the officer stood near the civilian","the civilian shot the officer in the head with a handgun","stoodNear","handgunHead","officerCivilian","forceCiv","100","","","",""
"57",3394,"{""Q0"":100}","[object Object]","survey-likert",56,589589,"0.0-56.0","ofg3e1l370nlwju1wgzt86hlt498ac94","Tue Apr 25 2017 18:38:35 GMT-0400 (US Eastern Daylight Time)","male","White","liberal","",NA,"","offCivRatings","the officer stood near the civilian","the civilian shot the officer in the head with a handgun","stoodNear","handgunHead","officerCivilian","punishCiv","100","","","",""
"58",4356,"{""Q0"":100}","[object Object]","survey-likert",57,593962,"0.0-57.0","ofg3e1l370nlwju1wgzt86hlt498ac94","Tue Apr 25 2017 18:38:35 GMT-0400 (US Eastern Daylight Time)","male","White","liberal","",NA,"","offCivRatings","the officer stood near the civilian","the civilian shot the officer in the head with a handgun","stoodNear","handgunHead","officerCivilian","appropriateCiv","100","","","",""
"59",3745,"{""Q0"":100}","[object Object]","survey-likert",58,597723,"0.0-58.0","ofg3e1l370nlwju1wgzt86hlt498ac94","Tue Apr 25 2017 18:38:35 GMT-0400 (US Eastern Daylight Time)","male","White","liberal","",NA,"","offCivRatings","the officer stood near the civilian","the civilian shot the officer in the head with a handgun","stoodNear","handgunHead","officerCivilian","manipCheckHigh","100","","","",""
"60",1406,"","","instructions",59,599129,"0.0-59.0","ofg3e1l370nlwju1wgzt86hlt498ac94","Tue Apr 25 2017 18:38:35 GMT-0400 (US Eastern Daylight Time)","male","White","liberal","",NA,"[{""page_index"":0,""viewing_time"":1406}]","break","","","","","","","","","","",""
"61",37574,"{""Q0"":21}","[object Object]","survey-likert",60,636920,"0.0-60.0","ofg3e1l370nlwju1wgzt86hlt498ac94","Tue Apr 25 2017 18:38:35 GMT-0400 (US Eastern Daylight Time)","male","White","liberal","",NA,"","offCivRatings","the officer purposefully struck the civilian with a motor vehicle","the civilian yelled ""get back!"" at the officer","vehicle","getBack","officerCivilian","appropriateCiv","21","","","",""
"62",3922,"{""Q0"":100}","[object Object]","survey-likert",61,640857,"0.0-61.0","ofg3e1l370nlwju1wgzt86hlt498ac94","Tue Apr 25 2017 18:38:35 GMT-0400 (US Eastern Daylight Time)","male","White","liberal","",NA,"","offCivRatings","the officer purposefully struck the civilian with a motor vehicle","the civilian yelled ""get back!"" at the officer","vehicle","getBack","officerCivilian","acceptableCiv","100","","","",""
"63",3260,"{""Q0"":1}","[object Object]","survey-likert",62,644132,"0.0-62.0","ofg3e1l370nlwju1wgzt86hlt498ac94","Tue Apr 25 2017 18:38:35 GMT-0400 (US Eastern Daylight Time)","male","White","liberal","",NA,"","offCivRatings","the officer purposefully struck the civilian with a motor vehicle","the civilian yelled ""get back!"" at the officer","vehicle","getBack","officerCivilian","punishCiv","1","","","",""
"64",6128,"{""Q0"":11}","[object Object]","survey-likert",63,650276,"0.0-63.0","ofg3e1l370nlwju1wgzt86hlt498ac94","Tue Apr 25 2017 18:38:35 GMT-0400 (US Eastern Daylight Time)","male","White","liberal","",NA,"","offCivRatings","the officer purposefully struck the civilian with a motor vehicle","the civilian yelled ""get back!"" at the officer","vehicle","getBack","officerCivilian","forceCiv","11","","","",""
"65",1164,"","","instructions",64,651440,"0.0-64.0","ofg3e1l370nlwju1wgzt86hlt498ac94","Tue Apr 25 2017 18:38:35 GMT-0400 (US Eastern Daylight Time)","male","White","liberal","",NA,"[{""page_index"":0,""viewing_time"":1163}]","break","","","","","","","","","","",""
"66",49839,"{""Q0"":1}","[object Object]","survey-likert",65,701496,"0.0-65.0","ofg3e1l370nlwju1wgzt86hlt498ac94","Tue Apr 25 2017 18:38:35 GMT-0400 (US Eastern Daylight Time)","male","White","liberal","",NA,"","offCivRatings","the officer slammed the civilian's head into the concrete curb","the civilian struck the officer in the stomach with a metal flashlight","headSlam","flashlight","officerCivilian","acceptableCiv","1","","","",""
"67",5457,"{""Q0"":79}","[object Object]","survey-likert",66,706968,"0.0-66.0","ofg3e1l370nlwju1wgzt86hlt498ac94","Tue Apr 25 2017 18:38:35 GMT-0400 (US Eastern Daylight Time)","male","White","liberal","",NA,"","offCivRatings","the officer slammed the civilian's head into the concrete curb","the civilian struck the officer in the stomach with a metal flashlight","headSlam","flashlight","officerCivilian","punishCiv","79","","","",""
"68",3229,"{""Q0"":100}","[object Object]","survey-likert",67,710215,"0.0-67.0","ofg3e1l370nlwju1wgzt86hlt498ac94","Tue Apr 25 2017 18:38:35 GMT-0400 (US Eastern Daylight Time)","male","White","liberal","",NA,"","offCivRatings","the officer slammed the civilian's head into the concrete curb","the civilian struck the officer in the stomach with a metal flashlight","headSlam","flashlight","officerCivilian","manipCheckHigh","100","","","",""
"69",7381,"{""Q0"":80}","[object Object]","survey-likert",68,717611,"0.0-68.0","ofg3e1l370nlwju1wgzt86hlt498ac94","Tue Apr 25 2017 18:38:35 GMT-0400 (US Eastern Daylight Time)","male","White","liberal","",NA,"","offCivRatings","the officer slammed the civilian's head into the concrete curb","the civilian struck the officer in the stomach with a metal flashlight","headSlam","flashlight","officerCivilian","forceCiv","80","","","",""
"70",7421,"{""Q0"":90}","[object Object]","survey-likert",69,725046,"0.0-69.0","ofg3e1l370nlwju1wgzt86hlt498ac94","Tue Apr 25 2017 18:38:35 GMT-0400 (US Eastern Daylight Time)","male","White","liberal","",NA,"","offCivRatings","the officer slammed the civilian's head into the concrete curb","the civilian struck the officer in the stomach with a metal flashlight","headSlam","flashlight","officerCivilian","appropriateCiv","90","","","",""
"71",1220,"","","instructions",70,726267,"0.0-70.0","ofg3e1l370nlwju1wgzt86hlt498ac94","Tue Apr 25 2017 18:38:35 GMT-0400 (US Eastern Daylight Time)","male","White","liberal","",NA,"[{""page_index"":0,""viewing_time"":1219}]","break","","","","","","","","","","",""
"72",10648,"{""Q0"":100}","[object Object]","survey-likert",71,737133,"0.0-71.0","ofg3e1l370nlwju1wgzt86hlt498ac94","Tue Apr 25 2017 18:38:35 GMT-0400 (US Eastern Daylight Time)","male","White","liberal","",NA,"","offCivRatings","the officer shot the civilian in the chest with a beanbag shotgun round","the civilian hit the officer in the chest with a baseball bat","beanbag","ballBat","civilianOfficer","acceptableOff","100","","","",""
"73",4397,"{""Q0"":1}","[object Object]","survey-likert",72,741545,"0.0-72.0","ofg3e1l370nlwju1wgzt86hlt498ac94","Tue Apr 25 2017 18:38:35 GMT-0400 (US Eastern Daylight Time)","male","White","liberal","",NA,"","offCivRatings","the officer shot the civilian in the chest with a beanbag shotgun round","the civilian hit the officer in the chest with a baseball bat","beanbag","ballBat","civilianOfficer","punishOff","1","","","",""
"74",9802,"{""Q0"":94}","[object Object]","survey-likert",73,751362,"0.0-73.0","ofg3e1l370nlwju1wgzt86hlt498ac94","Tue Apr 25 2017 18:38:35 GMT-0400 (US Eastern Daylight Time)","male","White","liberal","",NA,"","offCivRatings","the officer shot the civilian in the chest with a beanbag shotgun round","the civilian hit the officer in the chest with a baseball bat","beanbag","ballBat","civilianOfficer","forceOff","94","","","",""
"75",12337,"{""Q0"":51}","[object Object]","survey-likert",74,763714,"0.0-74.0","ofg3e1l370nlwju1wgzt86hlt498ac94","Tue Apr 25 2017 18:38:35 GMT-0400 (US Eastern Daylight Time)","male","White","liberal","",NA,"","offCivRatings","the officer shot the civilian in the chest with a beanbag shotgun round","the civilian hit the officer in the chest with a baseball bat","beanbag","ballBat","civilianOfficer","appropriateOff","51","","","",""
"76",1125,"","","instructions",75,764839,"0.0-75.0","ofg3e1l370nlwju1wgzt86hlt498ac94","Tue Apr 25 2017 18:38:35 GMT-0400 (US Eastern Daylight Time)","male","White","liberal","",NA,"[{""page_index"":0,""viewing_time"":1124}]","break","","","","","","","","","","",""
"77",12906,"{""Q0"":7}","[object Object]","survey-likert",76,777964,"0.0-76.0","ofg3e1l370nlwju1wgzt86hlt498ac94","Tue Apr 25 2017 18:38:35 GMT-0400 (US Eastern Daylight Time)","male","White","liberal","",NA,"","offCivRatings","the officer said ""if you touch me, you're gonna get hurt"" to the civilian","the civilian sprayed the officer with pepper spray","hurtThreat","pepperSpray","civilianOfficer","forceOff","7","","","",""
"78",3198,"{""Q0"":1}","[object Object]","survey-likert",77,781179,"0.0-77.0","ofg3e1l370nlwju1wgzt86hlt498ac94","Tue Apr 25 2017 18:38:35 GMT-0400 (US Eastern Daylight Time)","male","White","liberal","",NA,"","offCivRatings","the officer said ""if you touch me, you're gonna get hurt"" to the civilian","the civilian sprayed the officer with pepper spray","hurtThreat","pepperSpray","civilianOfficer","punishOff","1","","","",""
"79",3144,"{""Q0"":100}","[object Object]","survey-likert",78,784338,"0.0-78.0","ofg3e1l370nlwju1wgzt86hlt498ac94","Tue Apr 25 2017 18:38:35 GMT-0400 (US Eastern Daylight Time)","male","White","liberal","",NA,"","offCivRatings","the officer said ""if you touch me, you're gonna get hurt"" to the civilian","the civilian sprayed the officer with pepper spray","hurtThreat","pepperSpray","civilianOfficer","acceptableOff","100","","","",""
"80",8381,"{""Q0"":11}","[object Object]","survey-likert",79,792735,"0.0-79.0","ofg3e1l370nlwju1wgzt86hlt498ac94","Tue Apr 25 2017 18:38:35 GMT-0400 (US Eastern Daylight Time)","male","White","liberal","",NA,"","offCivRatings","the officer said ""if you touch me, you're gonna get hurt"" to the civilian","the civilian sprayed the officer with pepper spray","hurtThreat","pepperSpray","civilianOfficer","appropriateOff","11","","","",""
"81",1123,"","","instructions",80,793859,"0.0-80.0","ofg3e1l370nlwju1wgzt86hlt498ac94","Tue Apr 25 2017 18:38:35 GMT-0400 (US Eastern Daylight Time)","male","White","liberal","",NA,"[{""page_index"":0,""viewing_time"":1122}]","break","","","","","","","","","","",""
"82",14275,"{""Q0"":100}","[object Object]","survey-likert",81,808351,"0.0-81.0","ofg3e1l370nlwju1wgzt86hlt498ac94","Tue Apr 25 2017 18:38:35 GMT-0400 (US Eastern Daylight Time)","male","White","liberal","",NA,"","offCivRatings","the officer waved at the civilian in greeting","the civilian twisted the arm of the officer, forcing him to the ground","waved","armbar","officerCivilian","appropriateCiv","100","","","",""
"83",9537,"{""Q0"":80}","[object Object]","survey-likert",82,817904,"0.0-82.0","ofg3e1l370nlwju1wgzt86hlt498ac94","Tue Apr 25 2017 18:38:35 GMT-0400 (US Eastern Daylight Time)","male","White","liberal","",NA,"","offCivRatings","the officer waved at the civilian in greeting","the civilian twisted the arm of the officer, forcing him to the ground","waved","armbar","officerCivilian","forceCiv","80","","","",""
"84",4113,"{""Q0"":1}","[object Object]","survey-likert",83,822036,"0.0-83.0","ofg3e1l370nlwju1wgzt86hlt498ac94","Tue Apr 25 2017 18:38:35 GMT-0400 (US Eastern Daylight Time)","male","White","liberal","",NA,"","offCivRatings","the officer waved at the civilian in greeting","the civilian twisted the arm of the officer, forcing him to the ground","waved","armbar","officerCivilian","acceptableCiv","1","","","",""
"85",8547,"{""Q0"":90}","[object Object]","survey-likert",84,830600,"0.0-84.0","ofg3e1l370nlwju1wgzt86hlt498ac94","Tue Apr 25 2017 18:38:35 GMT-0400 (US Eastern Daylight Time)","male","White","liberal","",NA,"","offCivRatings","the officer waved at the civilian in greeting","the civilian twisted the arm of the officer, forcing him to the ground","waved","armbar","officerCivilian","punishCiv","90","","","",""
"86",1115,"","","instructions",85,831715,"0.0-85.0","ofg3e1l370nlwju1wgzt86hlt498ac94","Tue Apr 25 2017 18:38:35 GMT-0400 (US Eastern Daylight Time)","male","White","liberal","",NA,"[{""page_index"":0,""viewing_time"":1114}]","break","","","","","","","","","","",""
"87",7628,"{""Q0"":1}","[object Object]","survey-likert",86,839559,"0.0-86.0","ofg3e1l370nlwju1wgzt86hlt498ac94","Tue Apr 25 2017 18:38:35 GMT-0400 (US Eastern Daylight Time)","male","White","liberal","",NA,"","offCivRatings","the officer put handcuffs on the civilian","the civilian waved at the officer in greeting","handcuff","waved","officerCivilian","punishCiv","1","","","",""
"88",5008,"{""Q0"":1}","[object Object]","survey-likert",87,844582,"0.0-87.0","ofg3e1l370nlwju1wgzt86hlt498ac94","Tue Apr 25 2017 18:38:35 GMT-0400 (US Eastern Daylight Time)","male","White","liberal","",NA,"","offCivRatings","the officer put handcuffs on the civilian","the civilian waved at the officer in greeting","handcuff","waved","officerCivilian","forceCiv","1","","","",""
"89",4744,"{""Q0"":100}","[object Object]","survey-likert",88,849344,"0.0-88.0","ofg3e1l370nlwju1wgzt86hlt498ac94","Tue Apr 25 2017 18:38:35 GMT-0400 (US Eastern Daylight Time)","male","White","liberal","",NA,"","offCivRatings","the officer put handcuffs on the civilian","the civilian waved at the officer in greeting","handcuff","waved","officerCivilian","acceptableCiv","100","","","",""
"90",7708,"{""Q0"":50}","[object Object]","survey-likert",89,857068,"0.0-89.0","ofg3e1l370nlwju1wgzt86hlt498ac94","Tue Apr 25 2017 18:38:35 GMT-0400 (US Eastern Daylight Time)","male","White","liberal","",NA,"","offCivRatings","the officer put handcuffs on the civilian","the civilian waved at the officer in greeting","handcuff","waved","officerCivilian","appropriateCiv","50","","","",""
"91",1095,"","","instructions",90,858164,"0.0-90.0","ofg3e1l370nlwju1wgzt86hlt498ac94","Tue Apr 25 2017 18:38:35 GMT-0400 (US Eastern Daylight Time)","male","White","liberal","",NA,"[{""page_index"":0,""viewing_time"":1094}]","break","","","","","","","","","","",""
"92",58864,"{""Q0"":100}","[object Object]","survey-likert",91,917244,"0.0-91.0","ofg3e1l370nlwju1wgzt86hlt498ac94","Tue Apr 25 2017 18:38:35 GMT-0400 (US Eastern Daylight Time)","male","White","liberal","",NA,"","offCivRatings","the officer asked the civilian how he was doing","the civilian stood near the officer","asked","stoodNear","officerCivilian","acceptableCiv","100","","","",""
"93",50582,"{""Q0"":1}","[object Object]","survey-likert",92,967842,"0.0-92.0","ofg3e1l370nlwju1wgzt86hlt498ac94","Tue Apr 25 2017 18:38:35 GMT-0400 (US Eastern Daylight Time)","male","White","liberal","",NA,"","offCivRatings","the officer asked the civilian how he was doing","the civilian stood near the officer","asked","stoodNear","officerCivilian","forceCiv","1","","","",""
"94",7731,"{""Q0"":50}","[object Object]","survey-likert",93,975591,"0.0-93.0","ofg3e1l370nlwju1wgzt86hlt498ac94","Tue Apr 25 2017 18:38:35 GMT-0400 (US Eastern Daylight Time)","male","White","liberal","",NA,"","offCivRatings","the officer asked the civilian how he was doing","the civilian stood near the officer","asked","stoodNear","officerCivilian","appropriateCiv","50","","","",""
"95",8663,"{""Q0"":1}","[object Object]","survey-likert",94,984271,"0.0-94.0","ofg3e1l370nlwju1wgzt86hlt498ac94","Tue Apr 25 2017 18:38:35 GMT-0400 (US Eastern Daylight Time)","male","White","liberal","",NA,"","offCivRatings","the officer asked the civilian how he was doing","the civilian stood near the officer","asked","stoodNear","officerCivilian","punishCiv","1","","","",""
"96",1679,"","","instructions",95,985950,"0.0-95.0","ofg3e1l370nlwju1wgzt86hlt498ac94","Tue Apr 25 2017 18:38:35 GMT-0400 (US Eastern Daylight Time)","male","White","liberal","",NA,"[{""page_index"":0,""viewing_time"":1678}]","break","","","","","","","","","","",""
"97",26926,"{""Q0"":100}","[object Object]","survey-likert",96,1013094,"0.0-96.0","ofg3e1l370nlwju1wgzt86hlt498ac94","Tue Apr 25 2017 18:38:35 GMT-0400 (US Eastern Daylight Time)","male","White","liberal","",NA,"","offCivRatings","the officer punched the civilian in the face","the civilian shot the officer in the chest with a handgun","punchFace","handgunChest","civilianOfficer","acceptableOff","100","","","",""
"98",14001,"{""Q0"":51}","[object Object]","survey-likert",97,1027111,"0.0-97.0","ofg3e1l370nlwju1wgzt86hlt498ac94","Tue Apr 25 2017 18:38:35 GMT-0400 (US Eastern Daylight Time)","male","White","liberal","",NA,"","offCivRatings","the officer punched the civilian in the face","the civilian shot the officer in the chest with a handgun","punchFace","handgunChest","civilianOfficer","forceOff","51","","","",""
"99",4631,"{""Q0"":11}","[object Object]","survey-likert",98,1031757,"0.0-98.0","ofg3e1l370nlwju1wgzt86hlt498ac94","Tue Apr 25 2017 18:38:35 GMT-0400 (US Eastern Daylight Time)","male","White","liberal","",NA,"","offCivRatings","the officer punched the civilian in the face","the civilian shot the officer in the chest with a handgun","punchFace","handgunChest","civilianOfficer","appropriateOff","11","","","",""
"100",4996,"{""Q0"":1}","[object Object]","survey-likert",99,1036768,"0.0-99.0","ofg3e1l370nlwju1wgzt86hlt498ac94","Tue Apr 25 2017 18:38:35 GMT-0400 (US Eastern Daylight Time)","male","White","liberal","",NA,"","offCivRatings","the officer punched the civilian in the face","the civilian shot the officer in the chest with a handgun","punchFace","handgunChest","civilianOfficer","punishOff","1","","","",""
"101",5853,"{""Q0"":99}","[object Object]","survey-likert",100,1042638,"0.0-100.0","ofg3e1l370nlwju1wgzt86hlt498ac94","Tue Apr 25 2017 18:38:35 GMT-0400 (US Eastern Daylight Time)","male","White","liberal","",NA,"","offCivRatings","the officer punched the civilian in the face","the civilian shot the officer in the chest with a handgun","punchFace","handgunChest","civilianOfficer","manipCheckHigh","99","","","",""
"102",3301,"","","instructions",101,1045941,"0.0-101.0","ofg3e1l370nlwju1wgzt86hlt498ac94","Tue Apr 25 2017 18:38:35 GMT-0400 (US Eastern Daylight Time)","male","White","liberal","",NA,"[{""page_index"":0,""viewing_time"":3301}]","break","","","","","","","","","","",""
"103",18108,"{""Q0"":1}","[object Object]","survey-likert",102,1064276,"0.0-102.0","ofg3e1l370nlwju1wgzt86hlt498ac94","Tue Apr 25 2017 18:38:35 GMT-0400 (US Eastern Daylight Time)","male","White","liberal","",NA,"","offCivRatings","the officer shot the civilian in the chest with a handgun","the civilian applied a chokehold to the officer","handgunChest","choke","civilianOfficer","punishOff","1","","","",""
"104",3853,"{""Q0"":100}","[object Object]","survey-likert",103,1068145,"0.0-103.0","ofg3e1l370nlwju1wgzt86hlt498ac94","Tue Apr 25 2017 18:38:35 GMT-0400 (US Eastern Daylight Time)","male","White","liberal","",NA,"","offCivRatings","the officer shot the civilian in the chest with a handgun","the civilian applied a chokehold to the officer","handgunChest","choke","civilianOfficer","forceOff","100","","","",""
"105",6045,"{""Q0"":100}","[object Object]","survey-likert",104,1074208,"0.0-104.0","ofg3e1l370nlwju1wgzt86hlt498ac94","Tue Apr 25 2017 18:38:35 GMT-0400 (US Eastern Daylight Time)","male","White","liberal","",NA,"","offCivRatings","the officer shot the civilian in the chest with a handgun","the civilian applied a chokehold to the officer","handgunChest","choke","civilianOfficer","acceptableOff","100","","","",""
"106",7306,"{""Q0"":50}","[object Object]","survey-likert",105,1081529,"0.0-105.0","ofg3e1l370nlwju1wgzt86hlt498ac94","Tue Apr 25 2017 18:38:35 GMT-0400 (US Eastern Daylight Time)","male","White","liberal","",NA,"","offCivRatings","the officer shot the civilian in the chest with a handgun","the civilian applied a chokehold to the officer","handgunChest","choke","civilianOfficer","appropriateOff","50","","","",""
"107",1864,"","","instructions",106,1083393,"0.0-106.0","ofg3e1l370nlwju1wgzt86hlt498ac94","Tue Apr 25 2017 18:38:35 GMT-0400 (US Eastern Daylight Time)","male","White","liberal","",NA,"[{""page_index"":0,""viewing_time"":1862}]","break","","","","","","","","","","",""
"108",83105,"{""Q0"":100}","[object Object]","survey-likert",107,1166714,"0.0-107.0","ofg3e1l370nlwju1wgzt86hlt498ac94","Tue Apr 25 2017 18:38:35 GMT-0400 (US Eastern Daylight Time)","male","White","liberal","",NA,"","offCivRatings","the officer shot the civilian in the head with a handgun","the civilian struck the officer on the leg with a metal pipe","handgunHead","metalPipe","officerCivilian","punishCiv","100","","","",""
"109",13405,"{""Q0"":1}","[object Object]","survey-likert",108,1180133,"0.0-108.0","ofg3e1l370nlwju1wgzt86hlt498ac94","Tue Apr 25 2017 18:38:35 GMT-0400 (US Eastern Daylight Time)","male","White","liberal","",NA,"","offCivRatings","the officer shot the civilian in the head with a handgun","the civilian struck the officer on the leg with a metal pipe","handgunHead","metalPipe","officerCivilian","acceptableCiv","1","","","",""
"110",3755,"{""Q0"":100}","[object Object]","survey-likert",109,1183902,"0.0-109.0","ofg3e1l370nlwju1wgzt86hlt498ac94","Tue Apr 25 2017 18:38:35 GMT-0400 (US Eastern Daylight Time)","male","White","liberal","",NA,"","offCivRatings","the officer shot the civilian in the head with a handgun","the civilian struck the officer on the leg with a metal pipe","handgunHead","metalPipe","officerCivilian","appropriateCiv","100","","","",""
"111",3580,"{""Q0"":75}","[object Object]","survey-likert",110,1187497,"0.0-110.0","ofg3e1l370nlwju1wgzt86hlt498ac94","Tue Apr 25 2017 18:38:35 GMT-0400 (US Eastern Daylight Time)","male","White","liberal","",NA,"","offCivRatings","the officer shot the civilian in the head with a handgun","the civilian struck the officer on the leg with a metal pipe","handgunHead","metalPipe","officerCivilian","forceCiv","75","","","",""
"112",1017,"","","instructions",111,1188515,"0.0-111.0","ofg3e1l370nlwju1wgzt86hlt498ac94","Tue Apr 25 2017 18:38:35 GMT-0400 (US Eastern Daylight Time)","male","White","liberal","",NA,"[{""page_index"":0,""viewing_time"":1016}]","break","","","","","","","","","","",""
"113",9359,"{""Q0"":15}","[object Object]","survey-likert",112,1198096,"0.0-112.0","ofg3e1l370nlwju1wgzt86hlt498ac94","Tue Apr 25 2017 18:38:35 GMT-0400 (US Eastern Daylight Time)","male","White","liberal","",NA,"","offCivRatings","the officer sprayed the civilian with pepper spray","the civilian shouted ""I don't have to fucking listen to you!"" at the officer","pepperSpray","dontListen","officerCivilian","forceCiv","15","","","",""
"114",14006,"{""Q0"":90}","[object Object]","survey-likert",113,1212124,"0.0-113.0","ofg3e1l370nlwju1wgzt86hlt498ac94","Tue Apr 25 2017 18:38:35 GMT-0400 (US Eastern Daylight Time)","male","White","liberal","",NA,"","offCivRatings","the officer sprayed the civilian with pepper spray","the civilian shouted ""I don't have to fucking listen to you!"" at the officer","pepperSpray","dontListen","officerCivilian","acceptableCiv","90","","","",""
"115",4420,"{""Q0"":100}","[object Object]","survey-likert",114,1216561,"0.0-114.0","ofg3e1l370nlwju1wgzt86hlt498ac94","Tue Apr 25 2017 18:38:35 GMT-0400 (US Eastern Daylight Time)","male","White","liberal","",NA,"","offCivRatings","the officer sprayed the civilian with pepper spray","the civilian shouted ""I don't have to fucking listen to you!"" at the officer","pepperSpray","dontListen","officerCivilian","manipCheckHigh","100","","","",""
"116",10033,"{""Q0"":50}","[object Object]","survey-likert",115,1226611,"0.0-115.0","ofg3e1l370nlwju1wgzt86hlt498ac94","Tue Apr 25 2017 18:38:35 GMT-0400 (US Eastern Daylight Time)","male","White","liberal","",NA,"","offCivRatings","the officer sprayed the civilian with pepper spray","the civilian shouted ""I don't have to fucking listen to you!"" at the officer","pepperSpray","dontListen","officerCivilian","appropriateCiv","50","","","",""
"117",3763,"{""Q0"":1}","[object Object]","survey-likert",116,1230390,"0.0-116.0","ofg3e1l370nlwju1wgzt86hlt498ac94","Tue Apr 25 2017 18:38:35 GMT-0400 (US Eastern Daylight Time)","male","White","liberal","",NA,"","offCivRatings","the officer sprayed the civilian with pepper spray","the civilian shouted ""I don't have to fucking listen to you!"" at the officer","pepperSpray","dontListen","officerCivilian","punishCiv","1","","","",""
"118",1387,"","","instructions",117,1231778,"0.0-117.0","ofg3e1l370nlwju1wgzt86hlt498ac94","Tue Apr 25 2017 18:38:35 GMT-0400 (US Eastern Daylight Time)","male","White","liberal","",NA,"[{""page_index"":0,""viewing_time"":1386}]","break","","","","","","","","","","",""
"119",8579,"{""Q0"":1}","[object Object]","survey-likert",118,1240575,"0.0-118.0","ofg3e1l370nlwju1wgzt86hlt498ac94","Tue Apr 25 2017 18:38:35 GMT-0400 (US Eastern Daylight Time)","male","White","liberal","",NA,"","offCivRatings","the officer shocked the civilian with a tazer","the civilian punched the officer in the face","tazer","punchFace","civilianOfficer","punishOff","1","","","",""
"120",7895,"{""Q0"":50}","[object Object]","survey-likert",119,1248486,"0.0-119.0","ofg3e1l370nlwju1wgzt86hlt498ac94","Tue Apr 25 2017 18:38:35 GMT-0400 (US Eastern Daylight Time)","male","White","liberal","",NA,"","offCivRatings","the officer shocked the civilian with a tazer","the civilian punched the officer in the face","tazer","punchFace","civilianOfficer","appropriateOff","50","","","",""
"121",50064,"{""Q0"":80}","[object Object]","survey-likert",120,1298567,"0.0-120.0","ofg3e1l370nlwju1wgzt86hlt498ac94","Tue Apr 25 2017 18:38:35 GMT-0400 (US Eastern Daylight Time)","male","White","liberal","",NA,"","offCivRatings","the officer shocked the civilian with a tazer","the civilian punched the officer in the face","tazer","punchFace","civilianOfficer","forceOff","80","","","",""
"122",15263,"{""Q0"":1}","[object Object]","survey-likert",121,1313844,"0.0-121.0","ofg3e1l370nlwju1wgzt86hlt498ac94","Tue Apr 25 2017 18:38:35 GMT-0400 (US Eastern Daylight Time)","male","White","liberal","",NA,"","offCivRatings","the officer shocked the civilian with a tazer","the civilian punched the officer in the face","tazer","punchFace","civilianOfficer","manipCheckLow","1","","","",""
"123",5289,"{""Q0"":100}","[object Object]","survey-likert",122,1319149,"0.0-122.0","ofg3e1l370nlwju1wgzt86hlt498ac94","Tue Apr 25 2017 18:38:35 GMT-0400 (US Eastern Daylight Time)","male","White","liberal","",NA,"","offCivRatings","the officer shocked the civilian with a tazer","the civilian punched the officer in the face","tazer","punchFace","civilianOfficer","acceptableOff","100","","","",""
"124",2018,"","","instructions",123,1321168,"0.0-123.0","ofg3e1l370nlwju1wgzt86hlt498ac94","Tue Apr 25 2017 18:38:35 GMT-0400 (US Eastern Daylight Time)","male","White","liberal","",NA,"[{""page_index"":0,""viewing_time"":2017}]","break","","","","","","","","","","",""
"125",17427,"{""Q0"":89}","[object Object]","survey-likert",124,1338811,"0.0-124.0","ofg3e1l370nlwju1wgzt86hlt498ac94","Tue Apr 25 2017 18:38:35 GMT-0400 (US Eastern Daylight Time)","male","White","liberal","",NA,"","policeLegitimacy","","","","","","","89","doReasons","feltObligation","",""
"126",8558,"{""Q0"":75}","[object Object]","survey-likert",125,1347384,"0.0-125.0","ofg3e1l370nlwju1wgzt86hlt498ac94","Tue Apr 25 2017 18:38:35 GMT-0400 (US Eastern Daylight Time)","male","White","liberal","",NA,"","policeLegitimacy","","","","","","","75","importantValues","normAlignment","",""
"127",13282,"{""Q0"":75}","[object Object]","survey-likert",126,1360681,"0.0-126.0","ofg3e1l370nlwju1wgzt86hlt498ac94","Tue Apr 25 2017 18:38:35 GMT-0400 (US Eastern Daylight Time)","male","White","liberal","",NA,"","policeLegitimacy","","","","","","","75","rightWrong","normAlignment","",""
"128",13584,"{""Q0"":90}","[object Object]","survey-likert",127,1374280,"0.0-127.0","ofg3e1l370nlwju1wgzt86hlt498ac94","Tue Apr 25 2017 18:38:35 GMT-0400 (US Eastern Daylight Time)","male","White","liberal","",NA,"","policeLegitimacy","","","","","","","90","doTreat","feltObligation","",""
"129",11276,"{""Q0"":11}","[object Object]","survey-likert",128,1385573,"0.0-128.0","ofg3e1l370nlwju1wgzt86hlt498ac94","Tue Apr 25 2017 18:38:35 GMT-0400 (US Eastern Daylight Time)","male","White","liberal","",NA,"","policeLegitimacy","","","","","","","11","support","feltObligation","",""
"130",6220,"{""Q0"":80}","[object Object]","survey-likert",129,1391808,"0.0-129.0","ofg3e1l370nlwju1wgzt86hlt498ac94","Tue Apr 25 2017 18:38:35 GMT-0400 (US Eastern Daylight Time)","male","White","liberal","",NA,"","policeLegitimacy","","","","","","","80","communityWants","normAlignment","",""
"131",3697,"{""Q0"":""no""}","[object Object]","survey-multi-choice2",130,1395524,"0.0-130.0","ofg3e1l370nlwju1wgzt86hlt498ac94","Tue Apr 25 2017 18:38:35 GMT-0400 (US Eastern Daylight Time)","male","White","liberal","",NA,"","policeExperience","","","","","","","no","excessForce","","vicarious","Have the police ever used excessive force against anyone in your household?"
"132",2450,"{""Q0"":""no""}","[object Object]","survey-multi-choice2",131,1397981,"0.0-131.0","ofg3e1l370nlwju1wgzt86hlt498ac94","Tue Apr 25 2017 18:38:35 GMT-0400 (US Eastern Daylight Time)","male","White","liberal","",NA,"","policeExperience","","","","","","","no","excessForce","","personal","Have the police ever used excessive force against you?"
"133",3909,"{""Q0"":""yes""}","[object Object]","survey-multi-choice2",132,1401899,"0.0-132.0","ofg3e1l370nlwju1wgzt86hlt498ac94","Tue Apr 25 2017 18:38:35 GMT-0400 (US Eastern Daylight Time)","male","White","liberal","",NA,"","policeExperience","","","","","","","yes","insultLang","","personal","Have the police ever used insulting language toward you?"
"134",3940,"{""Q0"":""yes""}","[object Object]","survey-multi-choice2",133,1405846,"0.0-133.0","ofg3e1l370nlwju1wgzt86hlt498ac94","Tue Apr 25 2017 18:38:35 GMT-0400 (US Eastern Daylight Time)","male","White","liberal","",NA,"","policeExperience","","","","","","","yes","stopped","","vicarious","Has anyone in your household ever been stopped on the street by the police without good reason?"
"135",2493,"{""Q0"":""yes""}","[object Object]","survey-multi-choice2",134,1408345,"0.0-134.0","ofg3e1l370nlwju1wgzt86hlt498ac94","Tue Apr 25 2017 18:38:35 GMT-0400 (US Eastern Daylight Time)","male","White","liberal","",NA,"","policeExperience","","","","","","","yes","stopped","","personal","Have you ever been stopped by the police on the street without good reason?"
"136",7732,"{""Q0"":""yes""}","[object Object]","survey-multi-choice2",135,1416083,"0.0-135.0","ofg3e1l370nlwju1wgzt86hlt498ac94","Tue Apr 25 2017 18:38:35 GMT-0400 (US Eastern Daylight Time)","male","White","liberal","",NA,"","policeExperience","","","","","","","yes","insultLang","","vicarious","Have the police ever used insulting language toward anyone in your household?"
"137",3446,"{""Q0"":""no""}","[object Object]","survey-multi-choice2",136,1419535,"0.0-136.0","ofg3e1l370nlwju1wgzt86hlt498ac94","Tue Apr 25 2017 18:38:35 GMT-0400 (US Eastern Daylight Time)","male","White","liberal","",NA,"","policeExperience","","","","","","","no","corrupt","","personal","Have you ever seen a police officer engage in any corrupt activities (e.g., taking bribes or involvement in the drug trade)?"
"138",11679,"{""Q0"":""male"",""Q1"":""White"",""Q2"":""liberal""}","[object Object]","survey-multi-choice",137,1431240,"0.0-137.0","ofg3e1l370nlwju1wgzt86hlt498ac94","Tue Apr 25 2017 18:38:35 GMT-0400 (US Eastern Daylight Time)","male","White","liberal","",NA,"","demographics","","","","","","","","","","",""
"139",8035,"","","instructions",138,1440279,"0.0-138.0","ofg3e1l370nlwju1wgzt86hlt498ac94","Tue Apr 25 2017 18:38:35 GMT-0400 (US Eastern Daylight Time)","male","White","liberal","",NA,"[{""page_index"":0,""viewing_time"":1878},{""page_index"":1,""viewing_time"":1926},{""page_index"":2,""viewing_time"":2313},{""page_index"":3,""viewing_time"":1917}]","debriefing","","","","","","","","","","",""
