"","rt","responses","internalResp","trial_type","trial_index","time_elapsed","internal_node_id","randSubjectID","date","sex","race","polAff","stimulus","key_press","view_history","questionType","officerAction","civilianAction","offActName","civActName","order","questionName","response","name","dimension","person","question"
"1",17428,"","[object Object]","survey-text",0,17448,"0.0-0.0","ogao6jfahcltae2vpf32exqmne3ezdmw","Sun Jan 29 2017 17:04:38 GMT-0800 (Pacific Standard Time)","female","Black or African American","don't know/not political","",NA,"","","","","","","","","","","","",""
"2",725841,"","","single-stim",1,744300,"0.0-1.0","ogao6jfahcltae2vpf32exqmne3ezdmw","Sun Jan 29 2017 17:04:38 GMT-0800 (Pacific Standard Time)","female","Black or African American","don't know/not political","<img src='static/images/1602685960_ICS_Credit-0.png' alt='Consent 1' height=1100 width=850><img src='static/images/1602685960_ICS_Credit-1.png' alt='Consent 2' height=1100 width=850></p>",89,"","","","","","","","","","","","",""
"3",31260,"","","instructions",2,776571,"0.0-2.0","ogao6jfahcltae2vpf32exqmne3ezdmw","Sun Jan 29 2017 17:04:38 GMT-0800 (Pacific Standard Time)","female","Black or African American","don't know/not political","",NA,"[{""page_index"":0,""viewing_time"":31258}]","instructions","","","","","","","","","","",""
"4",837595,"","","instructions",3,1615185,"0.0-3.0","ogao6jfahcltae2vpf32exqmne3ezdmw","Sun Jan 29 2017 17:04:38 GMT-0800 (Pacific Standard Time)","female","Black or African American","don't know/not political","",NA,"[{""page_index"":0,""viewing_time"":71977},{""page_index"":1,""viewing_time"":617700},{""page_index"":2,""viewing_time"":34927},{""page_index"":3,""viewing_time"":112988}]","instructions","","","","","","","","","","",""
"5",80962,"{""Q0"":42}","[object Object]","survey-likert",4,1697262,"0.0-4.0","ogao6jfahcltae2vpf32exqmne3ezdmw","Sun Jan 29 2017 17:04:38 GMT-0800 (Pacific Standard Time)","female","Black or African American","don't know/not political","",NA,"","offCivRatings","the officer said ""if you touch me, you're gonna get hurt"" to the civilian","the civilian waved at the officer in greeting","hurtThreat","waved","officerCivilian","appropriateCiv","42","","","",""
"6",53681,"{""Q0"":6}","[object Object]","survey-likert",5,1751005,"0.0-5.0","ogao6jfahcltae2vpf32exqmne3ezdmw","Sun Jan 29 2017 17:04:38 GMT-0800 (Pacific Standard Time)","female","Black or African American","don't know/not political","",NA,"","offCivRatings","the officer said ""if you touch me, you're gonna get hurt"" to the civilian","the civilian waved at the officer in greeting","hurtThreat","waved","officerCivilian","forceCiv","6","","","",""
"7",9713,"{""Q0"":99}","[object Object]","survey-likert",6,1760739,"0.0-6.0","ogao6jfahcltae2vpf32exqmne3ezdmw","Sun Jan 29 2017 17:04:38 GMT-0800 (Pacific Standard Time)","female","Black or African American","don't know/not political","",NA,"","offCivRatings","the officer said ""if you touch me, you're gonna get hurt"" to the civilian","the civilian waved at the officer in greeting","hurtThreat","waved","officerCivilian","acceptableCiv","99","","","",""
"8",8815,"{""Q0"":1}","[object Object]","survey-likert",7,1769582,"0.0-7.0","ogao6jfahcltae2vpf32exqmne3ezdmw","Sun Jan 29 2017 17:04:38 GMT-0800 (Pacific Standard Time)","female","Black or African American","don't know/not political","",NA,"","offCivRatings","the officer said ""if you touch me, you're gonna get hurt"" to the civilian","the civilian waved at the officer in greeting","hurtThreat","waved","officerCivilian","punishCiv","1","","","",""
"9",1293,"","","instructions",8,1770876,"0.0-8.0","ogao6jfahcltae2vpf32exqmne3ezdmw","Sun Jan 29 2017 17:04:38 GMT-0800 (Pacific Standard Time)","female","Black or African American","don't know/not political","",NA,"[{""page_index"":0,""viewing_time"":1292}]","break","","","","","","","","","","",""
"10",258522,"{""Q0"":85}","[object Object]","survey-likert",9,2029625,"0.0-9.0","ogao6jfahcltae2vpf32exqmne3ezdmw","Sun Jan 29 2017 17:04:38 GMT-0800 (Pacific Standard Time)","female","Black or African American","don't know/not political","",NA,"","offCivRatings","the officer headbutted the civilian in the face","the civilian purposefully struck the officer with a motor vehicle","headbutt","vehicle","civilianOfficer","forceOff","85","","","",""
"11",10495,"{""Q0"":15}","[object Object]","survey-likert",10,2040138,"0.0-10.0","ogao6jfahcltae2vpf32exqmne3ezdmw","Sun Jan 29 2017 17:04:38 GMT-0800 (Pacific Standard Time)","female","Black or African American","don't know/not political","",NA,"","offCivRatings","the officer headbutted the civilian in the face","the civilian purposefully struck the officer with a motor vehicle","headbutt","vehicle","civilianOfficer","acceptableOff","15","","","",""
"12",12991,"{""Q0"":65}","[object Object]","survey-likert",11,2053149,"0.0-11.0","ogao6jfahcltae2vpf32exqmne3ezdmw","Sun Jan 29 2017 17:04:38 GMT-0800 (Pacific Standard Time)","female","Black or African American","don't know/not political","",NA,"","offCivRatings","the officer headbutted the civilian in the face","the civilian purposefully struck the officer with a motor vehicle","headbutt","vehicle","civilianOfficer","punishOff","65","","","",""
"13",8554,"{""Q0"":85}","[object Object]","survey-likert",12,2061723,"0.0-12.0","ogao6jfahcltae2vpf32exqmne3ezdmw","Sun Jan 29 2017 17:04:38 GMT-0800 (Pacific Standard Time)","female","Black or African American","don't know/not political","",NA,"","offCivRatings","the officer headbutted the civilian in the face","the civilian purposefully struck the officer with a motor vehicle","headbutt","vehicle","civilianOfficer","appropriateOff","85","","","",""
"14",1316,"","","instructions",13,2063039,"0.0-13.0","ogao6jfahcltae2vpf32exqmne3ezdmw","Sun Jan 29 2017 17:04:38 GMT-0800 (Pacific Standard Time)","female","Black or African American","don't know/not political","",NA,"[{""page_index"":0,""viewing_time"":1316}]","break","","","","","","","","","","",""
"15",46273,"{""Q0"":100}","[object Object]","survey-likert",14,2109537,"0.0-14.0","ogao6jfahcltae2vpf32exqmne3ezdmw","Sun Jan 29 2017 17:04:38 GMT-0800 (Pacific Standard Time)","female","Black or African American","don't know/not political","",NA,"","offCivRatings","the officer struck the civilian in the stomach with a metal flashlight","the civilian kicked the officer in the stomach","flashlight","kickStom","officerCivilian","manipCheckHigh","100","","","",""
"16",8975,"{""Q0"":25}","[object Object]","survey-likert",15,2118527,"0.0-15.0","ogao6jfahcltae2vpf32exqmne3ezdmw","Sun Jan 29 2017 17:04:38 GMT-0800 (Pacific Standard Time)","female","Black or African American","don't know/not political","",NA,"","offCivRatings","the officer struck the civilian in the stomach with a metal flashlight","the civilian kicked the officer in the stomach","flashlight","kickStom","officerCivilian","acceptableCiv","25","","","",""
"17",11173,"{""Q0"":75}","[object Object]","survey-likert",16,2129716,"0.0-16.0","ogao6jfahcltae2vpf32exqmne3ezdmw","Sun Jan 29 2017 17:04:38 GMT-0800 (Pacific Standard Time)","female","Black or African American","don't know/not political","",NA,"","offCivRatings","the officer struck the civilian in the stomach with a metal flashlight","the civilian kicked the officer in the stomach","flashlight","kickStom","officerCivilian","forceCiv","75","","","",""
"18",12434,"{""Q0"":76}","[object Object]","survey-likert",17,2142167,"0.0-17.0","ogao6jfahcltae2vpf32exqmne3ezdmw","Sun Jan 29 2017 17:04:38 GMT-0800 (Pacific Standard Time)","female","Black or African American","don't know/not political","",NA,"","offCivRatings","the officer struck the civilian in the stomach with a metal flashlight","the civilian kicked the officer in the stomach","flashlight","kickStom","officerCivilian","punishCiv","76","","","",""
"19",7349,"{""Q0"":75}","[object Object]","survey-likert",18,2149535,"0.0-18.0","ogao6jfahcltae2vpf32exqmne3ezdmw","Sun Jan 29 2017 17:04:38 GMT-0800 (Pacific Standard Time)","female","Black or African American","don't know/not political","",NA,"","offCivRatings","the officer struck the civilian in the stomach with a metal flashlight","the civilian kicked the officer in the stomach","flashlight","kickStom","officerCivilian","appropriateCiv","75","","","",""
"20",1289,"","","instructions",19,2150826,"0.0-19.0","ogao6jfahcltae2vpf32exqmne3ezdmw","Sun Jan 29 2017 17:04:38 GMT-0800 (Pacific Standard Time)","female","Black or African American","don't know/not political","",NA,"[{""page_index"":0,""viewing_time"":1288}]","break","","","","","","","","","","",""
"21",43776,"{""Q0"":1}","[object Object]","survey-likert",20,2194827,"0.0-20.0","ogao6jfahcltae2vpf32exqmne3ezdmw","Sun Jan 29 2017 17:04:38 GMT-0800 (Pacific Standard Time)","female","Black or African American","don't know/not political","",NA,"","offCivRatings","the officer asked the civilian how he was doing","the civilian twisted the arm of the officer, forcing him to the ground","asked","armbar","civilianOfficer","manipCheckLow","1","","","",""
"22",31504,"{""Q0"":1}","[object Object]","survey-likert",21,2226354,"0.0-21.0","ogao6jfahcltae2vpf32exqmne3ezdmw","Sun Jan 29 2017 17:04:38 GMT-0800 (Pacific Standard Time)","female","Black or African American","don't know/not political","",NA,"","offCivRatings","the officer asked the civilian how he was doing","the civilian twisted the arm of the officer, forcing him to the ground","asked","armbar","civilianOfficer","punishOff","1","","","",""
"23",15088,"{""Q0"":51}","[object Object]","survey-likert",22,2241459,"0.0-22.0","ogao6jfahcltae2vpf32exqmne3ezdmw","Sun Jan 29 2017 17:04:38 GMT-0800 (Pacific Standard Time)","female","Black or African American","don't know/not political","",NA,"","offCivRatings","the officer asked the civilian how he was doing","the civilian twisted the arm of the officer, forcing him to the ground","asked","armbar","civilianOfficer","appropriateOff","51","","","",""
"24",11406,"{""Q0"":50}","[object Object]","survey-likert",23,2252880,"0.0-23.0","ogao6jfahcltae2vpf32exqmne3ezdmw","Sun Jan 29 2017 17:04:38 GMT-0800 (Pacific Standard Time)","female","Black or African American","don't know/not political","",NA,"","offCivRatings","the officer asked the civilian how he was doing","the civilian twisted the arm of the officer, forcing him to the ground","asked","armbar","civilianOfficer","forceOff","50","","","",""
"25",9512,"{""Q0"":100}","[object Object]","survey-likert",24,2262407,"0.0-24.0","ogao6jfahcltae2vpf32exqmne3ezdmw","Sun Jan 29 2017 17:04:38 GMT-0800 (Pacific Standard Time)","female","Black or African American","don't know/not political","",NA,"","offCivRatings","the officer asked the civilian how he was doing","the civilian twisted the arm of the officer, forcing him to the ground","asked","armbar","civilianOfficer","acceptableOff","100","","","",""
"26",1186,"","","instructions",25,2263593,"0.0-25.0","ogao6jfahcltae2vpf32exqmne3ezdmw","Sun Jan 29 2017 17:04:38 GMT-0800 (Pacific Standard Time)","female","Black or African American","don't know/not political","",NA,"[{""page_index"":0,""viewing_time"":1183}]","break","","","","","","","","","","",""
"27",31123,"{""Q0"":65}","[object Object]","survey-likert",26,2294931,"0.0-26.0","ogao6jfahcltae2vpf32exqmne3ezdmw","Sun Jan 29 2017 17:04:38 GMT-0800 (Pacific Standard Time)","female","Black or African American","don't know/not political","",NA,"","offCivRatings","the officer sprayed the civilian with pepper spray","the civilian pulled away from the officer","pepperSpray","pulledAway","officerCivilian","acceptableCiv","65","","","",""
"28",9958,"{""Q0"":35}","[object Object]","survey-likert",27,2304909,"0.0-27.0","ogao6jfahcltae2vpf32exqmne3ezdmw","Sun Jan 29 2017 17:04:38 GMT-0800 (Pacific Standard Time)","female","Black or African American","don't know/not political","",NA,"","offCivRatings","the officer sprayed the civilian with pepper spray","the civilian pulled away from the officer","pepperSpray","pulledAway","officerCivilian","punishCiv","35","","","",""
"29",17246,"{""Q0"":55}","[object Object]","survey-likert",28,2322172,"0.0-28.0","ogao6jfahcltae2vpf32exqmne3ezdmw","Sun Jan 29 2017 17:04:38 GMT-0800 (Pacific Standard Time)","female","Black or African American","don't know/not political","",NA,"","offCivRatings","the officer sprayed the civilian with pepper spray","the civilian pulled away from the officer","pepperSpray","pulledAway","officerCivilian","forceCiv","55","","","",""
"30",9966,"{""Q0"":64}","[object Object]","survey-likert",29,2332156,"0.0-29.0","ogao6jfahcltae2vpf32exqmne3ezdmw","Sun Jan 29 2017 17:04:38 GMT-0800 (Pacific Standard Time)","female","Black or African American","don't know/not political","",NA,"","offCivRatings","the officer sprayed the civilian with pepper spray","the civilian pulled away from the officer","pepperSpray","pulledAway","officerCivilian","appropriateCiv","64","","","",""
"31",1520,"","","instructions",30,2333676,"0.0-30.0","ogao6jfahcltae2vpf32exqmne3ezdmw","Sun Jan 29 2017 17:04:38 GMT-0800 (Pacific Standard Time)","female","Black or African American","don't know/not political","",NA,"[{""page_index"":0,""viewing_time"":1519}]","break","","","","","","","","","","",""
"32",130719,"{""Q0"":100}","[object Object]","survey-likert",31,2464617,"0.0-31.0","ogao6jfahcltae2vpf32exqmne3ezdmw","Sun Jan 29 2017 17:04:38 GMT-0800 (Pacific Standard Time)","female","Black or African American","don't know/not political","",NA,"","offCivRatings","the officer waved at the civilian in greeting","the civilian yelled ""get back!"" at the officer","waved","getBack","officerCivilian","manipCheckHigh","100","","","",""
"33",65431,"{""Q0"":55}","[object Object]","survey-likert",32,2530063,"0.0-32.0","ogao6jfahcltae2vpf32exqmne3ezdmw","Sun Jan 29 2017 17:04:38 GMT-0800 (Pacific Standard Time)","female","Black or African American","don't know/not political","",NA,"","offCivRatings","the officer waved at the civilian in greeting","the civilian yelled ""get back!"" at the officer","waved","getBack","officerCivilian","appropriateCiv","55","","","",""
"34",44948,"{""Q0"":55}","[object Object]","survey-likert",33,2575025,"0.0-33.0","ogao6jfahcltae2vpf32exqmne3ezdmw","Sun Jan 29 2017 17:04:38 GMT-0800 (Pacific Standard Time)","female","Black or African American","don't know/not political","",NA,"","offCivRatings","the officer waved at the civilian in greeting","the civilian yelled ""get back!"" at the officer","waved","getBack","officerCivilian","forceCiv","55","","","",""
"35",7572,"{""Q0"":47}","[object Object]","survey-likert",34,2582610,"0.0-34.0","ogao6jfahcltae2vpf32exqmne3ezdmw","Sun Jan 29 2017 17:04:38 GMT-0800 (Pacific Standard Time)","female","Black or African American","don't know/not political","",NA,"","offCivRatings","the officer waved at the civilian in greeting","the civilian yelled ""get back!"" at the officer","waved","getBack","officerCivilian","punishCiv","47","","","",""
"36",6481,"{""Q0"":45}","[object Object]","survey-likert",35,2589105,"0.0-35.0","ogao6jfahcltae2vpf32exqmne3ezdmw","Sun Jan 29 2017 17:04:38 GMT-0800 (Pacific Standard Time)","female","Black or African American","don't know/not political","",NA,"","offCivRatings","the officer waved at the civilian in greeting","the civilian yelled ""get back!"" at the officer","waved","getBack","officerCivilian","acceptableCiv","45","","","",""
"37",1601,"","","instructions",36,2590707,"0.0-36.0","ogao6jfahcltae2vpf32exqmne3ezdmw","Sun Jan 29 2017 17:04:38 GMT-0800 (Pacific Standard Time)","female","Black or African American","don't know/not political","",NA,"[{""page_index"":0,""viewing_time"":1600}]","break","","","","","","","","","","",""
"38",74320,"{""Q0"":75}","[object Object]","survey-likert",37,2665254,"0.0-37.0","ogao6jfahcltae2vpf32exqmne3ezdmw","Sun Jan 29 2017 17:04:38 GMT-0800 (Pacific Standard Time)","female","Black or African American","don't know/not political","",NA,"","offCivRatings","the officer struck the civilian on the leg with a collapsible baton","the civilian applied a chokehold to the officer","batonLeg","choke","civilianOfficer","appropriateOff","75","","","",""
"39",10830,"{""Q0"":36}","[object Object]","survey-likert",38,2676097,"0.0-38.0","ogao6jfahcltae2vpf32exqmne3ezdmw","Sun Jan 29 2017 17:04:38 GMT-0800 (Pacific Standard Time)","female","Black or African American","don't know/not political","",NA,"","offCivRatings","the officer struck the civilian on the leg with a collapsible baton","the civilian applied a chokehold to the officer","batonLeg","choke","civilianOfficer","acceptableOff","36","","","",""
"40",4001,"{""Q0"":56}","[object Object]","survey-likert",39,2680112,"0.0-39.0","ogao6jfahcltae2vpf32exqmne3ezdmw","Sun Jan 29 2017 17:04:38 GMT-0800 (Pacific Standard Time)","female","Black or African American","don't know/not political","",NA,"","offCivRatings","the officer struck the civilian on the leg with a collapsible baton","the civilian applied a chokehold to the officer","batonLeg","choke","civilianOfficer","forceOff","56","","","",""
"41",7408,"{""Q0"":65}","[object Object]","survey-likert",40,2687542,"0.0-40.0","ogao6jfahcltae2vpf32exqmne3ezdmw","Sun Jan 29 2017 17:04:38 GMT-0800 (Pacific Standard Time)","female","Black or African American","don't know/not political","",NA,"","offCivRatings","the officer struck the civilian on the leg with a collapsible baton","the civilian applied a chokehold to the officer","batonLeg","choke","civilianOfficer","punishOff","65","","","",""
"42",1396,"","","instructions",41,2688938,"0.0-41.0","ogao6jfahcltae2vpf32exqmne3ezdmw","Sun Jan 29 2017 17:04:38 GMT-0800 (Pacific Standard Time)","female","Black or African American","don't know/not political","",NA,"[{""page_index"":0,""viewing_time"":1395}]","break","","","","","","","","","","",""
"43",12115,"{""Q0"":1}","[object Object]","survey-likert",42,2701279,"0.0-42.0","ogao6jfahcltae2vpf32exqmne3ezdmw","Sun Jan 29 2017 17:04:38 GMT-0800 (Pacific Standard Time)","female","Black or African American","don't know/not political","",NA,"","offCivRatings","the officer shot the civilian in the head with a handgun","the civilian shot the officer in the head with a handgun","handgunHead","handgunHead","civilianOfficer","manipCheckLow","1","","","",""
"44",8554,"{""Q0"":100}","[object Object]","survey-likert",43,2709849,"0.0-43.0","ogao6jfahcltae2vpf32exqmne3ezdmw","Sun Jan 29 2017 17:04:38 GMT-0800 (Pacific Standard Time)","female","Black or African American","don't know/not political","",NA,"","offCivRatings","the officer shot the civilian in the head with a handgun","the civilian shot the officer in the head with a handgun","handgunHead","handgunHead","civilianOfficer","punishOff","100","","","",""
"45",4827,"{""Q0"":84}","[object Object]","survey-likert",44,2714692,"0.0-44.0","ogao6jfahcltae2vpf32exqmne3ezdmw","Sun Jan 29 2017 17:04:38 GMT-0800 (Pacific Standard Time)","female","Black or African American","don't know/not political","",NA,"","offCivRatings","the officer shot the civilian in the head with a handgun","the civilian shot the officer in the head with a handgun","handgunHead","handgunHead","civilianOfficer","appropriateOff","84","","","",""
"46",5036,"{""Q0"":65}","[object Object]","survey-likert",45,2719747,"0.0-45.0","ogao6jfahcltae2vpf32exqmne3ezdmw","Sun Jan 29 2017 17:04:38 GMT-0800 (Pacific Standard Time)","female","Black or African American","don't know/not political","",NA,"","offCivRatings","the officer shot the civilian in the head with a handgun","the civilian shot the officer in the head with a handgun","handgunHead","handgunHead","civilianOfficer","acceptableOff","65","","","",""
"47",16642,"{""Q0"":85}","[object Object]","survey-likert",46,2736405,"0.0-46.0","ogao6jfahcltae2vpf32exqmne3ezdmw","Sun Jan 29 2017 17:04:38 GMT-0800 (Pacific Standard Time)","female","Black or African American","don't know/not political","",NA,"","offCivRatings","the officer shot the civilian in the head with a handgun","the civilian shot the officer in the head with a handgun","handgunHead","handgunHead","civilianOfficer","forceOff","85","","","",""
"48",990,"","","instructions",47,2737395,"0.0-47.0","ogao6jfahcltae2vpf32exqmne3ezdmw","Sun Jan 29 2017 17:04:38 GMT-0800 (Pacific Standard Time)","female","Black or African American","don't know/not political","",NA,"[{""page_index"":0,""viewing_time"":986}]","break","","","","","","","","","","",""
"49",14569,"{""Q0"":2}","[object Object]","survey-likert",48,2752185,"0.0-48.0","ogao6jfahcltae2vpf32exqmne3ezdmw","Sun Jan 29 2017 17:04:38 GMT-0800 (Pacific Standard Time)","female","Black or African American","don't know/not political","",NA,"","offCivRatings","the officer put handcuffs on the civilian","the civilian stood near the officer","handcuff","stoodNear","officerCivilian","punishCiv","2","","","",""
"50",5700,"{""Q0"":15}","[object Object]","survey-likert",49,2757901,"0.0-49.0","ogao6jfahcltae2vpf32exqmne3ezdmw","Sun Jan 29 2017 17:04:38 GMT-0800 (Pacific Standard Time)","female","Black or African American","don't know/not political","",NA,"","offCivRatings","the officer put handcuffs on the civilian","the civilian stood near the officer","handcuff","stoodNear","officerCivilian","forceCiv","15","","","",""
"51",84712,"{""Q0"":46}","[object Object]","survey-likert",50,2842629,"0.0-50.0","ogao6jfahcltae2vpf32exqmne3ezdmw","Sun Jan 29 2017 17:04:38 GMT-0800 (Pacific Standard Time)","female","Black or African American","don't know/not political","",NA,"","offCivRatings","the officer put handcuffs on the civilian","the civilian stood near the officer","handcuff","stoodNear","officerCivilian","appropriateCiv","46","","","",""
"52",8691,"{""Q0"":100}","[object Object]","survey-likert",51,2851335,"0.0-51.0","ogao6jfahcltae2vpf32exqmne3ezdmw","Sun Jan 29 2017 17:04:38 GMT-0800 (Pacific Standard Time)","female","Black or African American","don't know/not political","",NA,"","offCivRatings","the officer put handcuffs on the civilian","the civilian stood near the officer","handcuff","stoodNear","officerCivilian","acceptableCiv","100","","","",""
"53",2119,"","","instructions",52,2853454,"0.0-52.0","ogao6jfahcltae2vpf32exqmne3ezdmw","Sun Jan 29 2017 17:04:38 GMT-0800 (Pacific Standard Time)","female","Black or African American","don't know/not political","",NA,"[{""page_index"":0,""viewing_time"":2118}]","break","","","","","","","","","","",""
"54",34405,"{""Q0"":75}","[object Object]","survey-likert",53,2888074,"0.0-53.0","ogao6jfahcltae2vpf32exqmne3ezdmw","Sun Jan 29 2017 17:04:38 GMT-0800 (Pacific Standard Time)","female","Black or African American","don't know/not political","",NA,"","offCivRatings","the officer stood near the civilian","the civilian hit the officer in the chest with a baseball bat","stoodNear","ballBat","officerCivilian","forceCiv","75","","","",""
"55",6405,"{""Q0"":1}","[object Object]","survey-likert",54,2894496,"0.0-54.0","ogao6jfahcltae2vpf32exqmne3ezdmw","Sun Jan 29 2017 17:04:38 GMT-0800 (Pacific Standard Time)","female","Black or African American","don't know/not political","",NA,"","offCivRatings","the officer stood near the civilian","the civilian hit the officer in the chest with a baseball bat","stoodNear","ballBat","officerCivilian","manipCheckLow","1","","","",""
"56",108332,"{""Q0"":1}","[object Object]","survey-likert",55,3002843,"0.0-55.0","ogao6jfahcltae2vpf32exqmne3ezdmw","Sun Jan 29 2017 17:04:38 GMT-0800 (Pacific Standard Time)","female","Black or African American","don't know/not political","",NA,"","offCivRatings","the officer stood near the civilian","the civilian hit the officer in the chest with a baseball bat","stoodNear","ballBat","officerCivilian","acceptableCiv","1","","","",""
"57",5630,"{""Q0"":65}","[object Object]","survey-likert",56,3008489,"0.0-56.0","ogao6jfahcltae2vpf32exqmne3ezdmw","Sun Jan 29 2017 17:04:38 GMT-0800 (Pacific Standard Time)","female","Black or African American","don't know/not political","",NA,"","offCivRatings","the officer stood near the civilian","the civilian hit the officer in the chest with a baseball bat","stoodNear","ballBat","officerCivilian","punishCiv","65","","","",""
"58",7075,"{""Q0"":65}","[object Object]","survey-likert",57,3015580,"0.0-57.0","ogao6jfahcltae2vpf32exqmne3ezdmw","Sun Jan 29 2017 17:04:38 GMT-0800 (Pacific Standard Time)","female","Black or African American","don't know/not political","",NA,"","offCivRatings","the officer stood near the civilian","the civilian hit the officer in the chest with a baseball bat","stoodNear","ballBat","officerCivilian","appropriateCiv","65","","","",""
"59",1116,"","","instructions",58,3016696,"0.0-58.0","ogao6jfahcltae2vpf32exqmne3ezdmw","Sun Jan 29 2017 17:04:38 GMT-0800 (Pacific Standard Time)","female","Black or African American","don't know/not political","",NA,"[{""page_index"":0,""viewing_time"":1115}]","break","","","","","","","","","","",""
"60",29310,"{""Q0"":85}","[object Object]","survey-likert",59,3046226,"0.0-59.0","ogao6jfahcltae2vpf32exqmne3ezdmw","Sun Jan 29 2017 17:04:38 GMT-0800 (Pacific Standard Time)","female","Black or African American","don't know/not political","",NA,"","offCivRatings","the officer twisted the arm of the civilian, forcing him to the ground","the civilian shocked the officer with a tazer","armbar","tazer","officerCivilian","appropriateCiv","85","","","",""
"61",6362,"{""Q0"":85}","[object Object]","survey-likert",60,3052605,"0.0-60.0","ogao6jfahcltae2vpf32exqmne3ezdmw","Sun Jan 29 2017 17:04:38 GMT-0800 (Pacific Standard Time)","female","Black or African American","don't know/not political","",NA,"","offCivRatings","the officer twisted the arm of the civilian, forcing him to the ground","the civilian shocked the officer with a tazer","armbar","tazer","officerCivilian","punishCiv","85","","","",""
"62",4670,"{""Q0"":74}","[object Object]","survey-likert",61,3057291,"0.0-61.0","ogao6jfahcltae2vpf32exqmne3ezdmw","Sun Jan 29 2017 17:04:38 GMT-0800 (Pacific Standard Time)","female","Black or African American","don't know/not political","",NA,"","offCivRatings","the officer twisted the arm of the civilian, forcing him to the ground","the civilian shocked the officer with a tazer","armbar","tazer","officerCivilian","forceCiv","74","","","",""
"63",8656,"{""Q0"":25}","[object Object]","survey-likert",62,3065964,"0.0-62.0","ogao6jfahcltae2vpf32exqmne3ezdmw","Sun Jan 29 2017 17:04:38 GMT-0800 (Pacific Standard Time)","female","Black or African American","don't know/not political","",NA,"","offCivRatings","the officer twisted the arm of the civilian, forcing him to the ground","the civilian shocked the officer with a tazer","armbar","tazer","officerCivilian","acceptableCiv","25","","","",""
"64",1340,"","","instructions",63,3067304,"0.0-63.0","ogao6jfahcltae2vpf32exqmne3ezdmw","Sun Jan 29 2017 17:04:38 GMT-0800 (Pacific Standard Time)","female","Black or African American","don't know/not political","",NA,"[{""page_index"":0,""viewing_time"":1337}]","break","","","","","","","","","","",""
"65",77323,"{""Q0"":65}","[object Object]","survey-likert",64,3144861,"0.0-64.0","ogao6jfahcltae2vpf32exqmne3ezdmw","Sun Jan 29 2017 17:04:38 GMT-0800 (Pacific Standard Time)","female","Black or African American","don't know/not political","",NA,"","offCivRatings","the officer purposefully struck the civilian with a motor vehicle","the civilian punched the officer in the face","vehicle","punchFace","officerCivilian","forceCiv","65","","","",""
"66",5207,"{""Q0"":1}","[object Object]","survey-likert",65,3150083,"0.0-65.0","ogao6jfahcltae2vpf32exqmne3ezdmw","Sun Jan 29 2017 17:04:38 GMT-0800 (Pacific Standard Time)","female","Black or African American","don't know/not political","",NA,"","offCivRatings","the officer purposefully struck the civilian with a motor vehicle","the civilian punched the officer in the face","vehicle","punchFace","officerCivilian","manipCheckLow","1","","","",""
"67",6720,"{""Q0"":55}","[object Object]","survey-likert",66,3156816,"0.0-66.0","ogao6jfahcltae2vpf32exqmne3ezdmw","Sun Jan 29 2017 17:04:38 GMT-0800 (Pacific Standard Time)","female","Black or African American","don't know/not political","",NA,"","offCivRatings","the officer purposefully struck the civilian with a motor vehicle","the civilian punched the officer in the face","vehicle","punchFace","officerCivilian","acceptableCiv","55","","","",""
"68",9182,"{""Q0"":56}","[object Object]","survey-likert",67,3166014,"0.0-67.0","ogao6jfahcltae2vpf32exqmne3ezdmw","Sun Jan 29 2017 17:04:38 GMT-0800 (Pacific Standard Time)","female","Black or African American","don't know/not political","",NA,"","offCivRatings","the officer purposefully struck the civilian with a motor vehicle","the civilian punched the officer in the face","vehicle","punchFace","officerCivilian","appropriateCiv","56","","","",""
"69",5573,"{""Q0"":45}","[object Object]","survey-likert",68,3171600,"0.0-68.0","ogao6jfahcltae2vpf32exqmne3ezdmw","Sun Jan 29 2017 17:04:38 GMT-0800 (Pacific Standard Time)","female","Black or African American","don't know/not political","",NA,"","offCivRatings","the officer purposefully struck the civilian with a motor vehicle","the civilian punched the officer in the face","vehicle","punchFace","officerCivilian","punishCiv","45","","","",""
"70",1044,"","","instructions",69,3172645,"0.0-69.0","ogao6jfahcltae2vpf32exqmne3ezdmw","Sun Jan 29 2017 17:04:38 GMT-0800 (Pacific Standard Time)","female","Black or African American","don't know/not political","",NA,"[{""page_index"":0,""viewing_time"":1043}]","break","","","","","","","","","","",""
"71",13621,"{""Q0"":64}","[object Object]","survey-likert",70,3186481,"0.0-70.0","ogao6jfahcltae2vpf32exqmne3ezdmw","Sun Jan 29 2017 17:04:38 GMT-0800 (Pacific Standard Time)","female","Black or African American","don't know/not political","",NA,"","offCivRatings","the officer shouted ""get your fucking hands up!"" at the civilian","the civilian asked the officer how he was doing","handsUp","asked","civilianOfficer","punishOff","64","","","",""
"72",6732,"{""Q0"":15}","[object Object]","survey-likert",71,3193229,"0.0-71.0","ogao6jfahcltae2vpf32exqmne3ezdmw","Sun Jan 29 2017 17:04:38 GMT-0800 (Pacific Standard Time)","female","Black or African American","don't know/not political","",NA,"","offCivRatings","the officer shouted ""get your fucking hands up!"" at the civilian","the civilian asked the officer how he was doing","handsUp","asked","civilianOfficer","acceptableOff","15","","","",""
"73",97091,"{""Q0"":66}","[object Object]","survey-likert",72,3290334,"0.0-72.0","ogao6jfahcltae2vpf32exqmne3ezdmw","Sun Jan 29 2017 17:04:38 GMT-0800 (Pacific Standard Time)","female","Black or African American","don't know/not political","",NA,"","offCivRatings","the officer shouted ""get your fucking hands up!"" at the civilian","the civilian asked the officer how he was doing","handsUp","asked","civilianOfficer","appropriateOff","66","","","",""
"74",45827,"{""Q0"":61}","[object Object]","survey-likert",73,3336177,"0.0-73.0","ogao6jfahcltae2vpf32exqmne3ezdmw","Sun Jan 29 2017 17:04:38 GMT-0800 (Pacific Standard Time)","female","Black or African American","don't know/not political","",NA,"","offCivRatings","the officer shouted ""get your fucking hands up!"" at the civilian","the civilian asked the officer how he was doing","handsUp","asked","civilianOfficer","forceOff","61","","","",""
"75",1812,"","","instructions",74,3337989,"0.0-74.0","ogao6jfahcltae2vpf32exqmne3ezdmw","Sun Jan 29 2017 17:04:38 GMT-0800 (Pacific Standard Time)","female","Black or African American","don't know/not political","",NA,"[{""page_index"":0,""viewing_time"":1811}]","break","","","","","","","","","","",""
"76",1534236,"{""Q0"":43}","[object Object]","survey-likert",75,4872449,"0.0-75.0","ogao6jfahcltae2vpf32exqmne3ezdmw","Sun Jan 29 2017 17:04:38 GMT-0800 (Pacific Standard Time)","female","Black or African American","don't know/not political","",NA,"","offCivRatings","the officer shot the civilian in the chest with a handgun","the civilian sprayed the officer with pepper spray","handgunChest","pepperSpray","officerCivilian","punishCiv","43","","","",""
"77",15731,"{""Q0"":54}","[object Object]","survey-likert",76,4888195,"0.0-76.0","ogao6jfahcltae2vpf32exqmne3ezdmw","Sun Jan 29 2017 17:04:38 GMT-0800 (Pacific Standard Time)","female","Black or African American","don't know/not political","",NA,"","offCivRatings","the officer shot the civilian in the chest with a handgun","the civilian sprayed the officer with pepper spray","handgunChest","pepperSpray","officerCivilian","acceptableCiv","54","","","",""
"78",6957,"{""Q0"":76}","[object Object]","survey-likert",77,4895167,"0.0-77.0","ogao6jfahcltae2vpf32exqmne3ezdmw","Sun Jan 29 2017 17:04:38 GMT-0800 (Pacific Standard Time)","female","Black or African American","don't know/not political","",NA,"","offCivRatings","the officer shot the civilian in the chest with a handgun","the civilian sprayed the officer with pepper spray","handgunChest","pepperSpray","officerCivilian","forceCiv","76","","","",""
"79",6596,"{""Q0"":74}","[object Object]","survey-likert",78,4901780,"0.0-78.0","ogao6jfahcltae2vpf32exqmne3ezdmw","Sun Jan 29 2017 17:04:38 GMT-0800 (Pacific Standard Time)","female","Black or African American","don't know/not political","",NA,"","offCivRatings","the officer shot the civilian in the chest with a handgun","the civilian sprayed the officer with pepper spray","handgunChest","pepperSpray","officerCivilian","appropriateCiv","74","","","",""
"80",1408,"","","instructions",79,4903189,"0.0-79.0","ogao6jfahcltae2vpf32exqmne3ezdmw","Sun Jan 29 2017 17:04:38 GMT-0800 (Pacific Standard Time)","female","Black or African American","don't know/not political","",NA,"[{""page_index"":0,""viewing_time"":1407}]","break","","","","","","","","","","",""
"81",16323,"{""Q0"":82}","[object Object]","survey-likert",80,4919730,"0.0-80.0","ogao6jfahcltae2vpf32exqmne3ezdmw","Sun Jan 29 2017 17:04:38 GMT-0800 (Pacific Standard Time)","female","Black or African American","don't know/not political","",NA,"","offCivRatings","the officer kicked the civilian in the stomach","the civilian headbutted the officer in the face","kickStom","headbutt","civilianOfficer","forceOff","82","","","",""
"82",293219,"{""Q0"":84}","[object Object]","survey-likert",81,5212964,"0.0-81.0","ogao6jfahcltae2vpf32exqmne3ezdmw","Sun Jan 29 2017 17:04:38 GMT-0800 (Pacific Standard Time)","female","Black or African American","don't know/not political","",NA,"","offCivRatings","the officer kicked the civilian in the stomach","the civilian headbutted the officer in the face","kickStom","headbutt","civilianOfficer","appropriateOff","84","","","",""
"83",29527,"{""Q0"":36}","[object Object]","survey-likert",82,5242506,"0.0-82.0","ogao6jfahcltae2vpf32exqmne3ezdmw","Sun Jan 29 2017 17:04:38 GMT-0800 (Pacific Standard Time)","female","Black or African American","don't know/not political","",NA,"","offCivRatings","the officer kicked the civilian in the stomach","the civilian headbutted the officer in the face","kickStom","headbutt","civilianOfficer","acceptableOff","36","","","",""
"84",111697,"{""Q0"":65}","[object Object]","survey-likert",83,5354221,"0.0-83.0","ogao6jfahcltae2vpf32exqmne3ezdmw","Sun Jan 29 2017 17:04:38 GMT-0800 (Pacific Standard Time)","female","Black or African American","don't know/not political","",NA,"","offCivRatings","the officer kicked the civilian in the stomach","the civilian headbutted the officer in the face","kickStom","headbutt","civilianOfficer","punishOff","65","","","",""
"85",1359,"","","instructions",84,5355580,"0.0-84.0","ogao6jfahcltae2vpf32exqmne3ezdmw","Sun Jan 29 2017 17:04:38 GMT-0800 (Pacific Standard Time)","female","Black or African American","don't know/not political","",NA,"[{""page_index"":0,""viewing_time"":1358}]","break","","","","","","","","","","",""
"86",42004,"{""Q0"":15}","[object Object]","survey-likert",85,5397810,"0.0-85.0","ogao6jfahcltae2vpf32exqmne3ezdmw","Sun Jan 29 2017 17:04:38 GMT-0800 (Pacific Standard Time)","female","Black or African American","don't know/not political","",NA,"","offCivRatings","the officer shot the civilian in the chest with a beanbag shotgun round","the civilian struck the officer on the leg with a metal pipe","beanbag","metalPipe","civilianOfficer","acceptableOff","15","","","",""
"87",7445,"{""Q0"":70}","[object Object]","survey-likert",86,5405269,"0.0-86.0","ogao6jfahcltae2vpf32exqmne3ezdmw","Sun Jan 29 2017 17:04:38 GMT-0800 (Pacific Standard Time)","female","Black or African American","don't know/not political","",NA,"","offCivRatings","the officer shot the civilian in the chest with a beanbag shotgun round","the civilian struck the officer on the leg with a metal pipe","beanbag","metalPipe","civilianOfficer","appropriateOff","70","","","",""
"88",6374,"{""Q0"":84}","[object Object]","survey-likert",87,5411660,"0.0-87.0","ogao6jfahcltae2vpf32exqmne3ezdmw","Sun Jan 29 2017 17:04:38 GMT-0800 (Pacific Standard Time)","female","Black or African American","don't know/not political","",NA,"","offCivRatings","the officer shot the civilian in the chest with a beanbag shotgun round","the civilian struck the officer on the leg with a metal pipe","beanbag","metalPipe","civilianOfficer","punishOff","84","","","",""
"89",5942,"{""Q0"":98}","[object Object]","survey-likert",88,5417619,"0.0-88.0","ogao6jfahcltae2vpf32exqmne3ezdmw","Sun Jan 29 2017 17:04:38 GMT-0800 (Pacific Standard Time)","female","Black or African American","don't know/not political","",NA,"","offCivRatings","the officer shot the civilian in the chest with a beanbag shotgun round","the civilian struck the officer on the leg with a metal pipe","beanbag","metalPipe","civilianOfficer","forceOff","98","","","",""
"90",102210,"{""Q0"":1}","[object Object]","survey-likert",89,5519848,"0.0-89.0","ogao6jfahcltae2vpf32exqmne3ezdmw","Sun Jan 29 2017 17:04:38 GMT-0800 (Pacific Standard Time)","female","Black or African American","don't know/not political","",NA,"","offCivRatings","the officer shot the civilian in the chest with a beanbag shotgun round","the civilian struck the officer on the leg with a metal pipe","beanbag","metalPipe","civilianOfficer","manipCheckLow","1","","","",""
"91",1456,"","","instructions",90,5521304,"0.0-90.0","ogao6jfahcltae2vpf32exqmne3ezdmw","Sun Jan 29 2017 17:04:38 GMT-0800 (Pacific Standard Time)","female","Black or African American","don't know/not political","",NA,"[{""page_index"":0,""viewing_time"":1455}]","break","","","","","","","","","","",""
"92",38651,"{""Q0"":15}","[object Object]","survey-likert",91,5560171,"0.0-91.0","ogao6jfahcltae2vpf32exqmne3ezdmw","Sun Jan 29 2017 17:04:38 GMT-0800 (Pacific Standard Time)","female","Black or African American","don't know/not political","",NA,"","offCivRatings","the officer called the civilian a ""thug""","the civilian struck the officer in the stomach with a metal flashlight","nameCall","flashlight","officerCivilian","punishCiv","15","","","",""
"93",40737,"{""Q0"":85}","[object Object]","survey-likert",92,5600925,"0.0-92.0","ogao6jfahcltae2vpf32exqmne3ezdmw","Sun Jan 29 2017 17:04:38 GMT-0800 (Pacific Standard Time)","female","Black or African American","don't know/not political","",NA,"","offCivRatings","the officer called the civilian a ""thug""","the civilian struck the officer in the stomach with a metal flashlight","nameCall","flashlight","officerCivilian","acceptableCiv","85","","","",""
"94",5946,"{""Q0"":55}","[object Object]","survey-likert",93,5606886,"0.0-93.0","ogao6jfahcltae2vpf32exqmne3ezdmw","Sun Jan 29 2017 17:04:38 GMT-0800 (Pacific Standard Time)","female","Black or African American","don't know/not political","",NA,"","offCivRatings","the officer called the civilian a ""thug""","the civilian struck the officer in the stomach with a metal flashlight","nameCall","flashlight","officerCivilian","forceCiv","55","","","",""
"95",9158,"{""Q0"":55}","[object Object]","survey-likert",94,5616060,"0.0-94.0","ogao6jfahcltae2vpf32exqmne3ezdmw","Sun Jan 29 2017 17:04:38 GMT-0800 (Pacific Standard Time)","female","Black or African American","don't know/not political","",NA,"","offCivRatings","the officer called the civilian a ""thug""","the civilian struck the officer in the stomach with a metal flashlight","nameCall","flashlight","officerCivilian","appropriateCiv","55","","","",""
"96",1215,"","","instructions",95,5617275,"0.0-95.0","ogao6jfahcltae2vpf32exqmne3ezdmw","Sun Jan 29 2017 17:04:38 GMT-0800 (Pacific Standard Time)","female","Black or African American","don't know/not political","",NA,"[{""page_index"":0,""viewing_time"":1214}]","break","","","","","","","","","","",""
"97",30700,"{""Q0"":15}","[object Object]","survey-likert",96,5648201,"0.0-96.0","ogao6jfahcltae2vpf32exqmne3ezdmw","Sun Jan 29 2017 17:04:38 GMT-0800 (Pacific Standard Time)","female","Black or African American","don't know/not political","",NA,"","offCivRatings","the officer yelled ""get back!"" at the civilian","the civilian slammed the officer's head into the concrete curb","getBack","headSlam","civilianOfficer","punishOff","15","","","",""
"98",41561,"{""Q0"":50}","[object Object]","survey-likert",97,5689778,"0.0-97.0","ogao6jfahcltae2vpf32exqmne3ezdmw","Sun Jan 29 2017 17:04:38 GMT-0800 (Pacific Standard Time)","female","Black or African American","don't know/not political","",NA,"","offCivRatings","the officer yelled ""get back!"" at the civilian","the civilian slammed the officer's head into the concrete curb","getBack","headSlam","civilianOfficer","appropriateOff","50","","","",""
"99",155932,"{""Q0"":99}","[object Object]","survey-likert",98,5845725,"0.0-98.0","ogao6jfahcltae2vpf32exqmne3ezdmw","Sun Jan 29 2017 17:04:38 GMT-0800 (Pacific Standard Time)","female","Black or African American","don't know/not political","",NA,"","offCivRatings","the officer yelled ""get back!"" at the civilian","the civilian slammed the officer's head into the concrete curb","getBack","headSlam","civilianOfficer","acceptableOff","99","","","",""
"100",56096,"{""Q0"":11}","[object Object]","survey-likert",99,5901837,"0.0-99.0","ogao6jfahcltae2vpf32exqmne3ezdmw","Sun Jan 29 2017 17:04:38 GMT-0800 (Pacific Standard Time)","female","Black or African American","don't know/not political","",NA,"","offCivRatings","the officer yelled ""get back!"" at the civilian","the civilian slammed the officer's head into the concrete curb","getBack","headSlam","civilianOfficer","forceOff","11","","","",""
"101",1867,"","","instructions",100,5903704,"0.0-100.0","ogao6jfahcltae2vpf32exqmne3ezdmw","Sun Jan 29 2017 17:04:38 GMT-0800 (Pacific Standard Time)","female","Black or African American","don't know/not political","",NA,"[{""page_index"":0,""viewing_time"":1866}]","break","","","","","","","","","","",""
"102",175676,"{""Q0"":16}","[object Object]","survey-likert",101,6079597,"0.0-101.0","ogao6jfahcltae2vpf32exqmne3ezdmw","Sun Jan 29 2017 17:04:38 GMT-0800 (Pacific Standard Time)","female","Black or African American","don't know/not political","",NA,"","offCivRatings","the officer punched the civilian in the face","the civilian shouted ""I don't have to fucking listen to you!"" at the officer","punchFace","dontListen","officerCivilian","forceCiv","16","","","",""
"103",9739,"{""Q0"":99}","[object Object]","survey-likert",102,6089351,"0.0-102.0","ogao6jfahcltae2vpf32exqmne3ezdmw","Sun Jan 29 2017 17:04:38 GMT-0800 (Pacific Standard Time)","female","Black or African American","don't know/not political","",NA,"","offCivRatings","the officer punched the civilian in the face","the civilian shouted ""I don't have to fucking listen to you!"" at the officer","punchFace","dontListen","officerCivilian","manipCheckHigh","99","","","",""
"104",20438,"{""Q0"":20}","[object Object]","survey-likert",103,6109803,"0.0-103.0","ogao6jfahcltae2vpf32exqmne3ezdmw","Sun Jan 29 2017 17:04:38 GMT-0800 (Pacific Standard Time)","female","Black or African American","don't know/not political","",NA,"","offCivRatings","the officer punched the civilian in the face","the civilian shouted ""I don't have to fucking listen to you!"" at the officer","punchFace","dontListen","officerCivilian","appropriateCiv","20","","","",""
"105",29775,"{""Q0"":90}","[object Object]","survey-likert",104,6139595,"0.0-104.0","ogao6jfahcltae2vpf32exqmne3ezdmw","Sun Jan 29 2017 17:04:38 GMT-0800 (Pacific Standard Time)","female","Black or African American","don't know/not political","",NA,"","offCivRatings","the officer punched the civilian in the face","the civilian shouted ""I don't have to fucking listen to you!"" at the officer","punchFace","dontListen","officerCivilian","acceptableCiv","90","","","",""
"106",63047,"{""Q0"":6}","[object Object]","survey-likert",105,6202658,"0.0-105.0","ogao6jfahcltae2vpf32exqmne3ezdmw","Sun Jan 29 2017 17:04:38 GMT-0800 (Pacific Standard Time)","female","Black or African American","don't know/not political","",NA,"","offCivRatings","the officer punched the civilian in the face","the civilian shouted ""I don't have to fucking listen to you!"" at the officer","punchFace","dontListen","officerCivilian","punishCiv","6","","","",""
"107",1556,"","","instructions",106,6204214,"0.0-106.0","ogao6jfahcltae2vpf32exqmne3ezdmw","Sun Jan 29 2017 17:04:38 GMT-0800 (Pacific Standard Time)","female","Black or African American","don't know/not political","",NA,"[{""page_index"":0,""viewing_time"":1555}]","break","","","","","","","","","","",""
"108",28131,"{""Q0"":85}","[object Object]","survey-likert",107,6232568,"0.0-107.0","ogao6jfahcltae2vpf32exqmne3ezdmw","Sun Jan 29 2017 17:04:38 GMT-0800 (Pacific Standard Time)","female","Black or African American","don't know/not political","",NA,"","offCivRatings","the officer shocked the civilian with a tazer","the civilian said ""if you touch me, you're gonna get hurt"" to the officer","tazer","hurtThreat","civilianOfficer","appropriateOff","85","","","",""
"109",158124,"{""Q0"":7}","[object Object]","survey-likert",108,6390708,"0.0-108.0","ogao6jfahcltae2vpf32exqmne3ezdmw","Sun Jan 29 2017 17:04:38 GMT-0800 (Pacific Standard Time)","female","Black or African American","don't know/not political","",NA,"","offCivRatings","the officer shocked the civilian with a tazer","the civilian said ""if you touch me, you're gonna get hurt"" to the officer","tazer","hurtThreat","civilianOfficer","acceptableOff","7","","","",""
"110",8197,"{""Q0"":85}","[object Object]","survey-likert",109,6398920,"0.0-109.0","ogao6jfahcltae2vpf32exqmne3ezdmw","Sun Jan 29 2017 17:04:38 GMT-0800 (Pacific Standard Time)","female","Black or African American","don't know/not political","",NA,"","offCivRatings","the officer shocked the civilian with a tazer","the civilian said ""if you touch me, you're gonna get hurt"" to the officer","tazer","hurtThreat","civilianOfficer","forceOff","85","","","",""
"111",8499,"{""Q0"":99}","[object Object]","survey-likert",110,6407434,"0.0-110.0","ogao6jfahcltae2vpf32exqmne3ezdmw","Sun Jan 29 2017 17:04:38 GMT-0800 (Pacific Standard Time)","female","Black or African American","don't know/not political","",NA,"","offCivRatings","the officer shocked the civilian with a tazer","the civilian said ""if you touch me, you're gonna get hurt"" to the officer","tazer","hurtThreat","civilianOfficer","punishOff","99","","","",""
"112",1633,"","","instructions",111,6409067,"0.0-111.0","ogao6jfahcltae2vpf32exqmne3ezdmw","Sun Jan 29 2017 17:04:38 GMT-0800 (Pacific Standard Time)","female","Black or African American","don't know/not political","",NA,"[{""page_index"":0,""viewing_time"":1632}]","break","","","","","","","","","","",""
"113",32912,"{""Q0"":2}","[object Object]","survey-likert",112,6442206,"0.0-112.0","ogao6jfahcltae2vpf32exqmne3ezdmw","Sun Jan 29 2017 17:04:38 GMT-0800 (Pacific Standard Time)","female","Black or African American","don't know/not political","",NA,"","offCivRatings","the officer slammed the civilian's head into the concrete curb","the civilian shot the officer in the chest with a handgun","headSlam","handgunChest","civilianOfficer","manipCheckLow","2","","","",""
"114",105568,"{""Q0"":55}","[object Object]","survey-likert",113,6547790,"0.0-113.0","ogao6jfahcltae2vpf32exqmne3ezdmw","Sun Jan 29 2017 17:04:38 GMT-0800 (Pacific Standard Time)","female","Black or African American","don't know/not political","",NA,"","offCivRatings","the officer slammed the civilian's head into the concrete curb","the civilian shot the officer in the chest with a handgun","headSlam","handgunChest","civilianOfficer","punishOff","55","","","",""
"115",11437,"{""Q0"":44}","[object Object]","survey-likert",114,6559243,"0.0-114.0","ogao6jfahcltae2vpf32exqmne3ezdmw","Sun Jan 29 2017 17:04:38 GMT-0800 (Pacific Standard Time)","female","Black or African American","don't know/not political","",NA,"","offCivRatings","the officer slammed the civilian's head into the concrete curb","the civilian shot the officer in the chest with a handgun","headSlam","handgunChest","civilianOfficer","acceptableOff","44","","","",""
"116",14022,"{""Q0"":52}","[object Object]","survey-likert",115,6573281,"0.0-115.0","ogao6jfahcltae2vpf32exqmne3ezdmw","Sun Jan 29 2017 17:04:38 GMT-0800 (Pacific Standard Time)","female","Black or African American","don't know/not political","",NA,"","offCivRatings","the officer slammed the civilian's head into the concrete curb","the civilian shot the officer in the chest with a handgun","headSlam","handgunChest","civilianOfficer","appropriateOff","52","","","",""
"117",7678,"{""Q0"":75}","[object Object]","survey-likert",116,6580974,"0.0-116.0","ogao6jfahcltae2vpf32exqmne3ezdmw","Sun Jan 29 2017 17:04:38 GMT-0800 (Pacific Standard Time)","female","Black or African American","don't know/not political","",NA,"","offCivRatings","the officer slammed the civilian's head into the concrete curb","the civilian shot the officer in the chest with a handgun","headSlam","handgunChest","civilianOfficer","forceOff","75","","","",""
"118",1273,"","","instructions",117,6582247,"0.0-117.0","ogao6jfahcltae2vpf32exqmne3ezdmw","Sun Jan 29 2017 17:04:38 GMT-0800 (Pacific Standard Time)","female","Black or African American","don't know/not political","",NA,"[{""page_index"":0,""viewing_time"":1272}]","break","","","","","","","","","","",""
"119",29275,"{""Q0"":99}","[object Object]","survey-likert",118,6611740,"0.0-118.0","ogao6jfahcltae2vpf32exqmne3ezdmw","Sun Jan 29 2017 17:04:38 GMT-0800 (Pacific Standard Time)","female","Black or African American","don't know/not political","",NA,"","offCivRatings","the officer applied a chokehold to the civilian","the civilian called the officer a ""pig""","choke","nameCall","civilianOfficer","manipCheckHigh","99","","","",""
"120",38096,"{""Q0"":100}","[object Object]","survey-likert",119,6649854,"0.0-119.0","ogao6jfahcltae2vpf32exqmne3ezdmw","Sun Jan 29 2017 17:04:38 GMT-0800 (Pacific Standard Time)","female","Black or African American","don't know/not political","",NA,"","offCivRatings","the officer applied a chokehold to the civilian","the civilian called the officer a ""pig""","choke","nameCall","civilianOfficer","punishOff","100","","","",""
"121",4387,"{""Q0"":100}","[object Object]","survey-likert",120,6654257,"0.0-120.0","ogao6jfahcltae2vpf32exqmne3ezdmw","Sun Jan 29 2017 17:04:38 GMT-0800 (Pacific Standard Time)","female","Black or African American","don't know/not political","",NA,"","offCivRatings","the officer applied a chokehold to the civilian","the civilian called the officer a ""pig""","choke","nameCall","civilianOfficer","appropriateOff","100","","","",""
"122",4443,"{""Q0"":1}","[object Object]","survey-likert",121,6658714,"0.0-121.0","ogao6jfahcltae2vpf32exqmne3ezdmw","Sun Jan 29 2017 17:04:38 GMT-0800 (Pacific Standard Time)","female","Black or African American","don't know/not political","",NA,"","offCivRatings","the officer applied a chokehold to the civilian","the civilian called the officer a ""pig""","choke","nameCall","civilianOfficer","acceptableOff","1","","","",""
"123",51319,"{""Q0"":93}","[object Object]","survey-likert",122,6710047,"0.0-122.0","ogao6jfahcltae2vpf32exqmne3ezdmw","Sun Jan 29 2017 17:04:38 GMT-0800 (Pacific Standard Time)","female","Black or African American","don't know/not political","",NA,"","offCivRatings","the officer applied a chokehold to the civilian","the civilian called the officer a ""pig""","choke","nameCall","civilianOfficer","forceOff","93","","","",""
"124",1671,"","","instructions",123,6711719,"0.0-123.0","ogao6jfahcltae2vpf32exqmne3ezdmw","Sun Jan 29 2017 17:04:38 GMT-0800 (Pacific Standard Time)","female","Black or African American","don't know/not political","",NA,"[{""page_index"":0,""viewing_time"":1670}]","break","","","","","","","","","","",""
"125",14627,"{""Q0"":37}","[object Object]","survey-likert",124,6726565,"0.0-124.0","ogao6jfahcltae2vpf32exqmne3ezdmw","Sun Jan 29 2017 17:04:38 GMT-0800 (Pacific Standard Time)","female","Black or African American","don't know/not political","",NA,"","policeLegitimacy","","","","","","","37","doTreat","feltObligation","",""
"126",8971,"{""Q0"":35}","[object Object]","survey-likert",125,6735554,"0.0-125.0","ogao6jfahcltae2vpf32exqmne3ezdmw","Sun Jan 29 2017 17:04:38 GMT-0800 (Pacific Standard Time)","female","Black or African American","don't know/not political","",NA,"","policeLegitimacy","","","","","","","35","communityWants","normAlignment","",""
"127",9793,"{""Q0"":44}","[object Object]","survey-likert",126,6745366,"0.0-126.0","ogao6jfahcltae2vpf32exqmne3ezdmw","Sun Jan 29 2017 17:04:38 GMT-0800 (Pacific Standard Time)","female","Black or African American","don't know/not political","",NA,"","policeLegitimacy","","","","","","","44","rightWrong","normAlignment","",""
"128",7034,"{""Q0"":44}","[object Object]","survey-likert",127,6752413,"0.0-127.0","ogao6jfahcltae2vpf32exqmne3ezdmw","Sun Jan 29 2017 17:04:38 GMT-0800 (Pacific Standard Time)","female","Black or African American","don't know/not political","",NA,"","policeLegitimacy","","","","","","","44","importantValues","normAlignment","",""
"129",6569,"{""Q0"":1}","[object Object]","survey-likert",128,6758995,"0.0-128.0","ogao6jfahcltae2vpf32exqmne3ezdmw","Sun Jan 29 2017 17:04:38 GMT-0800 (Pacific Standard Time)","female","Black or African American","don't know/not political","",NA,"","policeLegitimacy","","","","","","","1","support","feltObligation","",""
"130",10858,"{""Q0"":15}","[object Object]","survey-likert",129,6769869,"0.0-129.0","ogao6jfahcltae2vpf32exqmne3ezdmw","Sun Jan 29 2017 17:04:38 GMT-0800 (Pacific Standard Time)","female","Black or African American","don't know/not political","",NA,"","policeLegitimacy","","","","","","","15","doReasons","feltObligation","",""
"131",6392,"{""Q0"":""no""}","[object Object]","survey-multi-choice2",130,6776281,"0.0-130.0","ogao6jfahcltae2vpf32exqmne3ezdmw","Sun Jan 29 2017 17:04:38 GMT-0800 (Pacific Standard Time)","female","Black or African American","don't know/not political","",NA,"","policeExperience","","","","","","","no","corrupt","","personal","Have you ever seen a police officer engage in any corrupt activities (e.g., taking bribes or involvement in the drug trade)?"
"132",8280,"{""Q0"":""yes""}","[object Object]","survey-multi-choice2",131,6784568,"0.0-131.0","ogao6jfahcltae2vpf32exqmne3ezdmw","Sun Jan 29 2017 17:04:38 GMT-0800 (Pacific Standard Time)","female","Black or African American","don't know/not political","",NA,"","policeExperience","","","","","","","yes","stopped","","personal","Have you ever been stopped by the police on the street without good reason?"
"133",9346,"{""Q0"":""yes""}","[object Object]","survey-multi-choice2",132,6793925,"0.0-132.0","ogao6jfahcltae2vpf32exqmne3ezdmw","Sun Jan 29 2017 17:04:38 GMT-0800 (Pacific Standard Time)","female","Black or African American","don't know/not political","",NA,"","policeExperience","","","","","","","yes","excessForce","","vicarious","Have the police ever used excessive force against anyone in your household?"
"134",5524,"{""Q0"":""yes""}","[object Object]","survey-multi-choice2",133,6799455,"0.0-133.0","ogao6jfahcltae2vpf32exqmne3ezdmw","Sun Jan 29 2017 17:04:38 GMT-0800 (Pacific Standard Time)","female","Black or African American","don't know/not political","",NA,"","policeExperience","","","","","","","yes","insultLang","","vicarious","Have the police ever used insulting language toward anyone in your household?"
"135",4771,"{""Q0"":""yes""}","[object Object]","survey-multi-choice2",134,6804231,"0.0-134.0","ogao6jfahcltae2vpf32exqmne3ezdmw","Sun Jan 29 2017 17:04:38 GMT-0800 (Pacific Standard Time)","female","Black or African American","don't know/not political","",NA,"","policeExperience","","","","","","","yes","stopped","","vicarious","Has anyone in your household ever been stopped on the street by the police without good reason?"
"136",3665,"{""Q0"":""no""}","[object Object]","survey-multi-choice2",135,6807905,"0.0-135.0","ogao6jfahcltae2vpf32exqmne3ezdmw","Sun Jan 29 2017 17:04:38 GMT-0800 (Pacific Standard Time)","female","Black or African American","don't know/not political","",NA,"","policeExperience","","","","","","","no","insultLang","","personal","Have the police ever used insulting language toward you?"
"137",2866,"{""Q0"":""no""}","[object Object]","survey-multi-choice2",136,6810777,"0.0-136.0","ogao6jfahcltae2vpf32exqmne3ezdmw","Sun Jan 29 2017 17:04:38 GMT-0800 (Pacific Standard Time)","female","Black or African American","don't know/not political","",NA,"","policeExperience","","","","","","","no","excessForce","","personal","Have the police ever used excessive force against you?"
"138",16239,"{""Q0"":""female"",""Q1"":""Black or African American"",""Q2"":""don't know/not political""}","[object Object]","survey-multi-choice",137,6827040,"0.0-137.0","ogao6jfahcltae2vpf32exqmne3ezdmw","Sun Jan 29 2017 17:04:38 GMT-0800 (Pacific Standard Time)","female","Black or African American","don't know/not political","",NA,"","demographics","","","","","","","","","","",""
"139",44975,"","","instructions",138,6873024,"0.0-138.0","ogao6jfahcltae2vpf32exqmne3ezdmw","Sun Jan 29 2017 17:04:38 GMT-0800 (Pacific Standard Time)","female","Black or African American","don't know/not political","",NA,"[{""page_index"":0,""viewing_time"":3435},{""page_index"":1,""viewing_time"":34007},{""page_index"":2,""viewing_time"":4172},{""page_index"":3,""viewing_time"":3360}]","debriefing","","","","","","","","","","",""
