"","rt","responses","internalResp","trial_type","trial_index","time_elapsed","internal_node_id","randSubjectID","date","sex","race","polAff","stimulus","key_press","view_history","questionType","officerAction","civilianAction","offActName","civActName","order","questionName","response","name","dimension","person","question"
"1",7484,"","[object Object]","survey-text",0,7494,"0.0-0.0","omke8adb9hlosrucpzxjrvs8ppvxt691","Wed Apr 26 2017 20:22:36 GMT-0400 (Eastern Daylight Time)","male","Black or African American","moderate/middle of the road","",NA,"","","","","","","","","","","","",""
"2",8537,"","","single-stim",1,17054,"0.0-1.0","omke8adb9hlosrucpzxjrvs8ppvxt691","Wed Apr 26 2017 20:22:36 GMT-0400 (Eastern Daylight Time)","male","Black or African American","moderate/middle of the road","<img src='static/images/1602685960_ICS_Credit-0.png' alt='Consent 1' height=1100 width=850><img src='static/images/1602685960_ICS_Credit-1.png' alt='Consent 2' height=1100 width=850></p>",89,"","","","","","","","","","","","",""
"3",1729,"","","instructions",2,19800,"0.0-2.0","omke8adb9hlosrucpzxjrvs8ppvxt691","Wed Apr 26 2017 20:22:36 GMT-0400 (Eastern Daylight Time)","male","Black or African American","moderate/middle of the road","",NA,"[{""page_index"":0,""viewing_time"":1729}]","instructions","","","","","","","","","","",""
"4",5301,"","","instructions",3,26120,"0.0-3.0","omke8adb9hlosrucpzxjrvs8ppvxt691","Wed Apr 26 2017 20:22:36 GMT-0400 (Eastern Daylight Time)","male","Black or African American","moderate/middle of the road","",NA,"[{""page_index"":0,""viewing_time"":860},{""page_index"":1,""viewing_time"":1237},{""page_index"":2,""viewing_time"":1108},{""page_index"":3,""viewing_time"":2096}]","instructions","","","","","","","","","","",""
"5",8538,"{""Q0"":64}","[object Object]","survey-likert",4,35729,"0.0-4.0","omke8adb9hlosrucpzxjrvs8ppvxt691","Wed Apr 26 2017 20:22:36 GMT-0400 (Eastern Daylight Time)","male","Black or African American","moderate/middle of the road","",NA,"","offCivRatings","the officer shouted ""get your fucking hands up!"" at the civilian","the civilian asked the officer how he was doing","handsUp","asked","civilianOfficer","forceOff","64","","","",""
"6",3335,"{""Q0"":56}","[object Object]","survey-likert",5,39086,"0.0-5.0","omke8adb9hlosrucpzxjrvs8ppvxt691","Wed Apr 26 2017 20:22:36 GMT-0400 (Eastern Daylight Time)","male","Black or African American","moderate/middle of the road","",NA,"","offCivRatings","the officer shouted ""get your fucking hands up!"" at the civilian","the civilian asked the officer how he was doing","handsUp","asked","civilianOfficer","appropriateOff","56","","","",""
"7",2683,"{""Q0"":61}","[object Object]","survey-likert",6,41786,"0.0-6.0","omke8adb9hlosrucpzxjrvs8ppvxt691","Wed Apr 26 2017 20:22:36 GMT-0400 (Eastern Daylight Time)","male","Black or African American","moderate/middle of the road","",NA,"","offCivRatings","the officer shouted ""get your fucking hands up!"" at the civilian","the civilian asked the officer how he was doing","handsUp","asked","civilianOfficer","punishOff","61","","","",""
"8",1483,"{""Q0"":62}","[object Object]","survey-likert",7,43315,"0.0-7.0","omke8adb9hlosrucpzxjrvs8ppvxt691","Wed Apr 26 2017 20:22:36 GMT-0400 (Eastern Daylight Time)","male","Black or African American","moderate/middle of the road","",NA,"","offCivRatings","the officer shouted ""get your fucking hands up!"" at the civilian","the civilian asked the officer how he was doing","handsUp","asked","civilianOfficer","acceptableOff","62","","","",""
"9",1331,"","","instructions",8,44646,"0.0-8.0","omke8adb9hlosrucpzxjrvs8ppvxt691","Wed Apr 26 2017 20:22:36 GMT-0400 (Eastern Daylight Time)","male","Black or African American","moderate/middle of the road","",NA,"[{""page_index"":0,""viewing_time"":1330}]","break","","","","","","","","","","",""
"10",1778,"{""Q0"":38}","[object Object]","survey-likert",9,46665,"0.0-9.0","omke8adb9hlosrucpzxjrvs8ppvxt691","Wed Apr 26 2017 20:22:36 GMT-0400 (Eastern Daylight Time)","male","Black or African American","moderate/middle of the road","",NA,"","offCivRatings","the officer punched the civilian in the face","the civilian said ""if you touch me, you're gonna get hurt"" to the officer","punchFace","hurtThreat","civilianOfficer","acceptableOff","38","","","",""
"11",4076,"{""Q0"":47}","[object Object]","survey-likert",10,50795,"0.0-10.0","omke8adb9hlosrucpzxjrvs8ppvxt691","Wed Apr 26 2017 20:22:36 GMT-0400 (Eastern Daylight Time)","male","Black or African American","moderate/middle of the road","",NA,"","offCivRatings","the officer punched the civilian in the face","the civilian said ""if you touch me, you're gonna get hurt"" to the officer","punchFace","hurtThreat","civilianOfficer","appropriateOff","47","","","",""
"12",2580,"{""Q0"":60}","[object Object]","survey-likert",11,53413,"0.0-11.0","omke8adb9hlosrucpzxjrvs8ppvxt691","Wed Apr 26 2017 20:22:36 GMT-0400 (Eastern Daylight Time)","male","Black or African American","moderate/middle of the road","",NA,"","offCivRatings","the officer punched the civilian in the face","the civilian said ""if you touch me, you're gonna get hurt"" to the officer","punchFace","hurtThreat","civilianOfficer","punishOff","60","","","",""
"13",3031,"{""Q0"":47}","[object Object]","survey-likert",12,56495,"0.0-12.0","omke8adb9hlosrucpzxjrvs8ppvxt691","Wed Apr 26 2017 20:22:36 GMT-0400 (Eastern Daylight Time)","male","Black or African American","moderate/middle of the road","",NA,"","offCivRatings","the officer punched the civilian in the face","the civilian said ""if you touch me, you're gonna get hurt"" to the officer","punchFace","hurtThreat","civilianOfficer","forceOff","47","","","",""
"14",1144,"","","instructions",13,57639,"0.0-13.0","omke8adb9hlosrucpzxjrvs8ppvxt691","Wed Apr 26 2017 20:22:36 GMT-0400 (Eastern Daylight Time)","male","Black or African American","moderate/middle of the road","",NA,"[{""page_index"":0,""viewing_time"":1143}]","break","","","","","","","","","","",""
"15",3097,"{""Q0"":56}","[object Object]","survey-likert",14,60976,"0.0-14.0","omke8adb9hlosrucpzxjrvs8ppvxt691","Wed Apr 26 2017 20:22:36 GMT-0400 (Eastern Daylight Time)","male","Black or African American","moderate/middle of the road","",NA,"","offCivRatings","the officer stood near the civilian","the civilian applied a chokehold to the officer","stoodNear","choke","civilianOfficer","punishOff","56","","","",""
"16",2596,"{""Q0"":52}","[object Object]","survey-likert",15,63640,"0.0-15.0","omke8adb9hlosrucpzxjrvs8ppvxt691","Wed Apr 26 2017 20:22:36 GMT-0400 (Eastern Daylight Time)","male","Black or African American","moderate/middle of the road","",NA,"","offCivRatings","the officer stood near the civilian","the civilian applied a chokehold to the officer","stoodNear","choke","civilianOfficer","acceptableOff","52","","","",""
"17",2214,"{""Q0"":39}","[object Object]","survey-likert",16,65889,"0.0-16.0","omke8adb9hlosrucpzxjrvs8ppvxt691","Wed Apr 26 2017 20:22:36 GMT-0400 (Eastern Daylight Time)","male","Black or African American","moderate/middle of the road","",NA,"","offCivRatings","the officer stood near the civilian","the civilian applied a chokehold to the officer","stoodNear","choke","civilianOfficer","forceOff","39","","","",""
"18",2572,"{""Q0"":38}","[object Object]","survey-likert",17,68508,"0.0-17.0","omke8adb9hlosrucpzxjrvs8ppvxt691","Wed Apr 26 2017 20:22:36 GMT-0400 (Eastern Daylight Time)","male","Black or African American","moderate/middle of the road","",NA,"","offCivRatings","the officer stood near the civilian","the civilian applied a chokehold to the officer","stoodNear","choke","civilianOfficer","appropriateOff","38","","","",""
"19",1012,"","","instructions",18,69521,"0.0-18.0","omke8adb9hlosrucpzxjrvs8ppvxt691","Wed Apr 26 2017 20:22:36 GMT-0400 (Eastern Daylight Time)","male","Black or African American","moderate/middle of the road","",NA,"[{""page_index"":0,""viewing_time"":1011}]","break","","","","","","","","","","",""
"20",1747,"{""Q0"":78}","[object Object]","survey-likert",19,71505,"0.0-19.0","omke8adb9hlosrucpzxjrvs8ppvxt691","Wed Apr 26 2017 20:22:36 GMT-0400 (Eastern Daylight Time)","male","Black or African American","moderate/middle of the road","",NA,"","offCivRatings","the officer struck the civilian in the stomach with a metal flashlight","the civilian called the officer a ""pig""","flashlight","nameCall","officerCivilian","forceCiv","78","","","",""
"21",2192,"{""Q0"":58}","[object Object]","survey-likert",20,73722,"0.0-20.0","omke8adb9hlosrucpzxjrvs8ppvxt691","Wed Apr 26 2017 20:22:36 GMT-0400 (Eastern Daylight Time)","male","Black or African American","moderate/middle of the road","",NA,"","offCivRatings","the officer struck the civilian in the stomach with a metal flashlight","the civilian called the officer a ""pig""","flashlight","nameCall","officerCivilian","acceptableCiv","58","","","",""
"22",2942,"{""Q0"":65}","[object Object]","survey-likert",21,76703,"0.0-21.0","omke8adb9hlosrucpzxjrvs8ppvxt691","Wed Apr 26 2017 20:22:36 GMT-0400 (Eastern Daylight Time)","male","Black or African American","moderate/middle of the road","",NA,"","offCivRatings","the officer struck the civilian in the stomach with a metal flashlight","the civilian called the officer a ""pig""","flashlight","nameCall","officerCivilian","punishCiv","65","","","",""
"23",5581,"{""Q0"":57}","[object Object]","survey-likert",22,82317,"0.0-22.0","omke8adb9hlosrucpzxjrvs8ppvxt691","Wed Apr 26 2017 20:22:36 GMT-0400 (Eastern Daylight Time)","male","Black or African American","moderate/middle of the road","",NA,"","offCivRatings","the officer struck the civilian in the stomach with a metal flashlight","the civilian called the officer a ""pig""","flashlight","nameCall","officerCivilian","appropriateCiv","57","","","",""
"24",998,"","","instructions",23,83316,"0.0-23.0","omke8adb9hlosrucpzxjrvs8ppvxt691","Wed Apr 26 2017 20:22:36 GMT-0400 (Eastern Daylight Time)","male","Black or African American","moderate/middle of the road","",NA,"[{""page_index"":0,""viewing_time"":997}]","break","","","","","","","","","","",""
"25",1961,"{""Q0"":62}","[object Object]","survey-likert",24,85516,"0.0-24.0","omke8adb9hlosrucpzxjrvs8ppvxt691","Wed Apr 26 2017 20:22:36 GMT-0400 (Eastern Daylight Time)","male","Black or African American","moderate/middle of the road","",NA,"","offCivRatings","the officer asked the civilian how he was doing","the civilian slammed the officer's head into the concrete curb","asked","headSlam","civilianOfficer","appropriateOff","62","","","",""
"26",7964,"{""Q0"":60}","[object Object]","survey-likert",25,93514,"0.0-25.0","omke8adb9hlosrucpzxjrvs8ppvxt691","Wed Apr 26 2017 20:22:36 GMT-0400 (Eastern Daylight Time)","male","Black or African American","moderate/middle of the road","",NA,"","offCivRatings","the officer asked the civilian how he was doing","the civilian slammed the officer's head into the concrete curb","asked","headSlam","civilianOfficer","forceOff","60","","","",""
"27",3567,"{""Q0"":59}","[object Object]","survey-likert",26,97114,"0.0-26.0","omke8adb9hlosrucpzxjrvs8ppvxt691","Wed Apr 26 2017 20:22:36 GMT-0400 (Eastern Daylight Time)","male","Black or African American","moderate/middle of the road","",NA,"","offCivRatings","the officer asked the civilian how he was doing","the civilian slammed the officer's head into the concrete curb","asked","headSlam","civilianOfficer","punishOff","59","","","",""
"28",6174,"{""Q0"":65}","[object Object]","survey-likert",27,103327,"0.0-27.0","omke8adb9hlosrucpzxjrvs8ppvxt691","Wed Apr 26 2017 20:22:36 GMT-0400 (Eastern Daylight Time)","male","Black or African American","moderate/middle of the road","",NA,"","offCivRatings","the officer asked the civilian how he was doing","the civilian slammed the officer's head into the concrete curb","asked","headSlam","civilianOfficer","acceptableOff","65","","","",""
"29",1001,"","","instructions",28,104329,"0.0-28.0","omke8adb9hlosrucpzxjrvs8ppvxt691","Wed Apr 26 2017 20:22:36 GMT-0400 (Eastern Daylight Time)","male","Black or African American","moderate/middle of the road","",NA,"[{""page_index"":0,""viewing_time"":1000}]","break","","","","","","","","","","",""
"30",2819,"{""Q0"":51}","[object Object]","survey-likert",29,107393,"0.0-29.0","omke8adb9hlosrucpzxjrvs8ppvxt691","Wed Apr 26 2017 20:22:36 GMT-0400 (Eastern Daylight Time)","male","Black or African American","moderate/middle of the road","",NA,"","offCivRatings","the officer headbutted the civilian in the face","the civilian kicked the officer in the stomach","headbutt","kickStom","civilianOfficer","appropriateOff","51","","","",""
"31",2849,"{""Q0"":55}","[object Object]","survey-likert",30,110275,"0.0-30.0","omke8adb9hlosrucpzxjrvs8ppvxt691","Wed Apr 26 2017 20:22:36 GMT-0400 (Eastern Daylight Time)","male","Black or African American","moderate/middle of the road","",NA,"","offCivRatings","the officer headbutted the civilian in the face","the civilian kicked the officer in the stomach","headbutt","kickStom","civilianOfficer","forceOff","55","","","",""
"32",1951,"{""Q0"":56}","[object Object]","survey-likert",31,112257,"0.0-31.0","omke8adb9hlosrucpzxjrvs8ppvxt691","Wed Apr 26 2017 20:22:36 GMT-0400 (Eastern Daylight Time)","male","Black or African American","moderate/middle of the road","",NA,"","offCivRatings","the officer headbutted the civilian in the face","the civilian kicked the officer in the stomach","headbutt","kickStom","civilianOfficer","acceptableOff","56","","","",""
"33",1716,"{""Q0"":56}","[object Object]","survey-likert",32,114007,"0.0-32.0","omke8adb9hlosrucpzxjrvs8ppvxt691","Wed Apr 26 2017 20:22:36 GMT-0400 (Eastern Daylight Time)","male","Black or African American","moderate/middle of the road","",NA,"","offCivRatings","the officer headbutted the civilian in the face","the civilian kicked the officer in the stomach","headbutt","kickStom","civilianOfficer","manipCheckLow","56","","","",""
"34",5550,"{""Q0"":58}","[object Object]","survey-likert",33,119590,"0.0-33.0","omke8adb9hlosrucpzxjrvs8ppvxt691","Wed Apr 26 2017 20:22:36 GMT-0400 (Eastern Daylight Time)","male","Black or African American","moderate/middle of the road","",NA,"","offCivRatings","the officer headbutted the civilian in the face","the civilian kicked the officer in the stomach","headbutt","kickStom","civilianOfficer","punishOff","58","","","",""
"35",1079,"","","instructions",34,120669,"0.0-34.0","omke8adb9hlosrucpzxjrvs8ppvxt691","Wed Apr 26 2017 20:22:36 GMT-0400 (Eastern Daylight Time)","male","Black or African American","moderate/middle of the road","",NA,"[{""page_index"":0,""viewing_time"":1078}]","break","","","","","","","","","","",""
"36",2853,"{""Q0"":44}","[object Object]","survey-likert",35,123760,"0.0-35.0","omke8adb9hlosrucpzxjrvs8ppvxt691","Wed Apr 26 2017 20:22:36 GMT-0400 (Eastern Daylight Time)","male","Black or African American","moderate/middle of the road","",NA,"","offCivRatings","the officer slammed the civilian's head into the concrete curb","the civilian shot the officer in the head with a handgun","headSlam","handgunHead","civilianOfficer","forceOff","44","","","",""
"37",2850,"{""Q0"":51}","[object Object]","survey-likert",36,126641,"0.0-36.0","omke8adb9hlosrucpzxjrvs8ppvxt691","Wed Apr 26 2017 20:22:36 GMT-0400 (Eastern Daylight Time)","male","Black or African American","moderate/middle of the road","",NA,"","offCivRatings","the officer slammed the civilian's head into the concrete curb","the civilian shot the officer in the head with a handgun","headSlam","handgunHead","civilianOfficer","acceptableOff","51","","","",""
"38",1461,"{""Q0"":57}","[object Object]","survey-likert",37,128135,"0.0-37.0","omke8adb9hlosrucpzxjrvs8ppvxt691","Wed Apr 26 2017 20:22:36 GMT-0400 (Eastern Daylight Time)","male","Black or African American","moderate/middle of the road","",NA,"","offCivRatings","the officer slammed the civilian's head into the concrete curb","the civilian shot the officer in the head with a handgun","headSlam","handgunHead","civilianOfficer","appropriateOff","57","","","",""
"39",1956,"{""Q0"":57}","[object Object]","survey-likert",38,130123,"0.0-38.0","omke8adb9hlosrucpzxjrvs8ppvxt691","Wed Apr 26 2017 20:22:36 GMT-0400 (Eastern Daylight Time)","male","Black or African American","moderate/middle of the road","",NA,"","offCivRatings","the officer slammed the civilian's head into the concrete curb","the civilian shot the officer in the head with a handgun","headSlam","handgunHead","civilianOfficer","punishOff","57","","","",""
"40",5210,"{""Q0"":57}","[object Object]","survey-likert",39,135365,"0.0-39.0","omke8adb9hlosrucpzxjrvs8ppvxt691","Wed Apr 26 2017 20:22:36 GMT-0400 (Eastern Daylight Time)","male","Black or African American","moderate/middle of the road","",NA,"","offCivRatings","the officer slammed the civilian's head into the concrete curb","the civilian shot the officer in the head with a handgun","headSlam","handgunHead","civilianOfficer","manipCheckLow","57","","","",""
"41",1079,"","","instructions",40,136445,"0.0-40.0","omke8adb9hlosrucpzxjrvs8ppvxt691","Wed Apr 26 2017 20:22:36 GMT-0400 (Eastern Daylight Time)","male","Black or African American","moderate/middle of the road","",NA,"[{""page_index"":0,""viewing_time"":1078}]","break","","","","","","","","","","",""
"42",2130,"{""Q0"":58}","[object Object]","survey-likert",41,138816,"0.0-41.0","omke8adb9hlosrucpzxjrvs8ppvxt691","Wed Apr 26 2017 20:22:36 GMT-0400 (Eastern Daylight Time)","male","Black or African American","moderate/middle of the road","",NA,"","offCivRatings","the officer shot the civilian in the chest with a handgun","the civilian twisted the arm of the officer, forcing him to the ground","handgunChest","armbar","civilianOfficer","punishOff","58","","","",""
"43",7430,"{""Q0"":60}","[object Object]","survey-likert",42,146279,"0.0-42.0","omke8adb9hlosrucpzxjrvs8ppvxt691","Wed Apr 26 2017 20:22:36 GMT-0400 (Eastern Daylight Time)","male","Black or African American","moderate/middle of the road","",NA,"","offCivRatings","the officer shot the civilian in the chest with a handgun","the civilian twisted the arm of the officer, forcing him to the ground","handgunChest","armbar","civilianOfficer","forceOff","60","","","",""
"44",9267,"{""Q0"":44}","[object Object]","survey-likert",43,155579,"0.0-43.0","omke8adb9hlosrucpzxjrvs8ppvxt691","Wed Apr 26 2017 20:22:36 GMT-0400 (Eastern Daylight Time)","male","Black or African American","moderate/middle of the road","",NA,"","offCivRatings","the officer shot the civilian in the chest with a handgun","the civilian twisted the arm of the officer, forcing him to the ground","handgunChest","armbar","civilianOfficer","acceptableOff","44","","","",""
"45",1950,"{""Q0"":58}","[object Object]","survey-likert",44,157561,"0.0-44.0","omke8adb9hlosrucpzxjrvs8ppvxt691","Wed Apr 26 2017 20:22:36 GMT-0400 (Eastern Daylight Time)","male","Black or African American","moderate/middle of the road","",NA,"","offCivRatings","the officer shot the civilian in the chest with a handgun","the civilian twisted the arm of the officer, forcing him to the ground","handgunChest","armbar","civilianOfficer","manipCheckHigh","58","","","",""
"46",5644,"{""Q0"":56}","[object Object]","survey-likert",45,163245,"0.0-45.0","omke8adb9hlosrucpzxjrvs8ppvxt691","Wed Apr 26 2017 20:22:36 GMT-0400 (Eastern Daylight Time)","male","Black or African American","moderate/middle of the road","",NA,"","offCivRatings","the officer shot the civilian in the chest with a handgun","the civilian twisted the arm of the officer, forcing him to the ground","handgunChest","armbar","civilianOfficer","appropriateOff","56","","","",""
"47",924,"","","instructions",46,164170,"0.0-46.0","omke8adb9hlosrucpzxjrvs8ppvxt691","Wed Apr 26 2017 20:22:36 GMT-0400 (Eastern Daylight Time)","male","Black or African American","moderate/middle of the road","",NA,"[{""page_index"":0,""viewing_time"":923}]","break","","","","","","","","","","",""
"48",1665,"{""Q0"":57}","[object Object]","survey-likert",47,166071,"0.0-47.0","omke8adb9hlosrucpzxjrvs8ppvxt691","Wed Apr 26 2017 20:22:36 GMT-0400 (Eastern Daylight Time)","male","Black or African American","moderate/middle of the road","",NA,"","offCivRatings","the officer called the civilian a ""thug""","the civilian headbutted the officer in the face","nameCall","headbutt","civilianOfficer","acceptableOff","57","","","",""
"49",1732,"{""Q0"":59}","[object Object]","survey-likert",48,167839,"0.0-48.0","omke8adb9hlosrucpzxjrvs8ppvxt691","Wed Apr 26 2017 20:22:36 GMT-0400 (Eastern Daylight Time)","male","Black or African American","moderate/middle of the road","",NA,"","offCivRatings","the officer called the civilian a ""thug""","the civilian headbutted the officer in the face","nameCall","headbutt","civilianOfficer","manipCheckHigh","59","","","",""
"50",1623,"{""Q0"":58}","[object Object]","survey-likert",49,169505,"0.0-49.0","omke8adb9hlosrucpzxjrvs8ppvxt691","Wed Apr 26 2017 20:22:36 GMT-0400 (Eastern Daylight Time)","male","Black or African American","moderate/middle of the road","",NA,"","offCivRatings","the officer called the civilian a ""thug""","the civilian headbutted the officer in the face","nameCall","headbutt","civilianOfficer","punishOff","58","","","",""
"51",3666,"{""Q0"":58}","[object Object]","survey-likert",50,173204,"0.0-50.0","omke8adb9hlosrucpzxjrvs8ppvxt691","Wed Apr 26 2017 20:22:36 GMT-0400 (Eastern Daylight Time)","male","Black or African American","moderate/middle of the road","",NA,"","offCivRatings","the officer called the civilian a ""thug""","the civilian headbutted the officer in the face","nameCall","headbutt","civilianOfficer","forceOff","58","","","",""
"52",1550,"{""Q0"":57}","[object Object]","survey-likert",51,174786,"0.0-51.0","omke8adb9hlosrucpzxjrvs8ppvxt691","Wed Apr 26 2017 20:22:36 GMT-0400 (Eastern Daylight Time)","male","Black or African American","moderate/middle of the road","",NA,"","offCivRatings","the officer called the civilian a ""thug""","the civilian headbutted the officer in the face","nameCall","headbutt","civilianOfficer","appropriateOff","57","","","",""
"53",903,"","","instructions",52,175689,"0.0-52.0","omke8adb9hlosrucpzxjrvs8ppvxt691","Wed Apr 26 2017 20:22:36 GMT-0400 (Eastern Daylight Time)","male","Black or African American","moderate/middle of the road","",NA,"[{""page_index"":0,""viewing_time"":902}]","break","","","","","","","","","","",""
"54",1848,"{""Q0"":52}","[object Object]","survey-likert",53,177786,"0.0-53.0","omke8adb9hlosrucpzxjrvs8ppvxt691","Wed Apr 26 2017 20:22:36 GMT-0400 (Eastern Daylight Time)","male","Black or African American","moderate/middle of the road","",NA,"","offCivRatings","the officer purposefully struck the civilian with a motor vehicle","the civilian yelled ""get back!"" at the officer","vehicle","getBack","civilianOfficer","appropriateOff","52","","","",""
"55",1452,"{""Q0"":56}","[object Object]","survey-likert",54,179270,"0.0-54.0","omke8adb9hlosrucpzxjrvs8ppvxt691","Wed Apr 26 2017 20:22:36 GMT-0400 (Eastern Daylight Time)","male","Black or African American","moderate/middle of the road","",NA,"","offCivRatings","the officer purposefully struck the civilian with a motor vehicle","the civilian yelled ""get back!"" at the officer","vehicle","getBack","civilianOfficer","acceptableOff","56","","","",""
"56",1502,"{""Q0"":52}","[object Object]","survey-likert",55,180802,"0.0-55.0","omke8adb9hlosrucpzxjrvs8ppvxt691","Wed Apr 26 2017 20:22:36 GMT-0400 (Eastern Daylight Time)","male","Black or African American","moderate/middle of the road","",NA,"","offCivRatings","the officer purposefully struck the civilian with a motor vehicle","the civilian yelled ""get back!"" at the officer","vehicle","getBack","civilianOfficer","punishOff","52","","","",""
"57",1414,"{""Q0"":53}","[object Object]","survey-likert",56,182251,"0.0-56.0","omke8adb9hlosrucpzxjrvs8ppvxt691","Wed Apr 26 2017 20:22:36 GMT-0400 (Eastern Daylight Time)","male","Black or African American","moderate/middle of the road","",NA,"","offCivRatings","the officer purposefully struck the civilian with a motor vehicle","the civilian yelled ""get back!"" at the officer","vehicle","getBack","civilianOfficer","forceOff","53","","","",""
"58",914,"","","instructions",57,183167,"0.0-57.0","omke8adb9hlosrucpzxjrvs8ppvxt691","Wed Apr 26 2017 20:22:36 GMT-0400 (Eastern Daylight Time)","male","Black or African American","moderate/middle of the road","",NA,"[{""page_index"":0,""viewing_time"":914}]","break","","","","","","","","","","",""
"59",1633,"{""Q0"":58}","[object Object]","survey-likert",58,185032,"0.0-58.0","omke8adb9hlosrucpzxjrvs8ppvxt691","Wed Apr 26 2017 20:22:36 GMT-0400 (Eastern Daylight Time)","male","Black or African American","moderate/middle of the road","",NA,"","offCivRatings","the officer shocked the civilian with a tazer","the civilian purposefully struck the officer with a motor vehicle","tazer","vehicle","officerCivilian","punishCiv","58","","","",""
"60",1570,"{""Q0"":57}","[object Object]","survey-likert",59,186616,"0.0-59.0","omke8adb9hlosrucpzxjrvs8ppvxt691","Wed Apr 26 2017 20:22:36 GMT-0400 (Eastern Daylight Time)","male","Black or African American","moderate/middle of the road","",NA,"","offCivRatings","the officer shocked the civilian with a tazer","the civilian purposefully struck the officer with a motor vehicle","tazer","vehicle","officerCivilian","appropriateCiv","57","","","",""
"61",1433,"{""Q0"":53}","[object Object]","survey-likert",60,188083,"0.0-60.0","omke8adb9hlosrucpzxjrvs8ppvxt691","Wed Apr 26 2017 20:22:36 GMT-0400 (Eastern Daylight Time)","male","Black or African American","moderate/middle of the road","",NA,"","offCivRatings","the officer shocked the civilian with a tazer","the civilian purposefully struck the officer with a motor vehicle","tazer","vehicle","officerCivilian","acceptableCiv","53","","","",""
"62",1890,"{""Q0"":48}","[object Object]","survey-likert",61,190003,"0.0-61.0","omke8adb9hlosrucpzxjrvs8ppvxt691","Wed Apr 26 2017 20:22:36 GMT-0400 (Eastern Daylight Time)","male","Black or African American","moderate/middle of the road","",NA,"","offCivRatings","the officer shocked the civilian with a tazer","the civilian purposefully struck the officer with a motor vehicle","tazer","vehicle","officerCivilian","forceCiv","48","","","",""
"63",1094,"","","instructions",62,191098,"0.0-62.0","omke8adb9hlosrucpzxjrvs8ppvxt691","Wed Apr 26 2017 20:22:36 GMT-0400 (Eastern Daylight Time)","male","Black or African American","moderate/middle of the road","",NA,"[{""page_index"":0,""viewing_time"":1093}]","break","","","","","","","","","","",""
"64",2479,"{""Q0"":52}","[object Object]","survey-likert",63,193813,"0.0-63.0","omke8adb9hlosrucpzxjrvs8ppvxt691","Wed Apr 26 2017 20:22:36 GMT-0400 (Eastern Daylight Time)","male","Black or African American","moderate/middle of the road","",NA,"","offCivRatings","the officer said ""if you touch me, you're gonna get hurt"" to the civilian","the civilian shocked the officer with a tazer","hurtThreat","tazer","officerCivilian","forceCiv","52","","","",""
"65",3380,"{""Q0"":57}","[object Object]","survey-likert",64,197229,"0.0-64.0","omke8adb9hlosrucpzxjrvs8ppvxt691","Wed Apr 26 2017 20:22:36 GMT-0400 (Eastern Daylight Time)","male","Black or African American","moderate/middle of the road","",NA,"","offCivRatings","the officer said ""if you touch me, you're gonna get hurt"" to the civilian","the civilian shocked the officer with a tazer","hurtThreat","tazer","officerCivilian","acceptableCiv","57","","","",""
"66",1770,"{""Q0"":57}","[object Object]","survey-likert",65,199035,"0.0-65.0","omke8adb9hlosrucpzxjrvs8ppvxt691","Wed Apr 26 2017 20:22:36 GMT-0400 (Eastern Daylight Time)","male","Black or African American","moderate/middle of the road","",NA,"","offCivRatings","the officer said ""if you touch me, you're gonna get hurt"" to the civilian","the civilian shocked the officer with a tazer","hurtThreat","tazer","officerCivilian","appropriateCiv","57","","","",""
"67",3303,"{""Q0"":58}","[object Object]","survey-likert",66,202371,"0.0-66.0","omke8adb9hlosrucpzxjrvs8ppvxt691","Wed Apr 26 2017 20:22:36 GMT-0400 (Eastern Daylight Time)","male","Black or African American","moderate/middle of the road","",NA,"","offCivRatings","the officer said ""if you touch me, you're gonna get hurt"" to the civilian","the civilian shocked the officer with a tazer","hurtThreat","tazer","officerCivilian","punishCiv","58","","","",""
"68",9069,"{""Q0"":59}","[object Object]","survey-likert",67,211475,"0.0-67.0","omke8adb9hlosrucpzxjrvs8ppvxt691","Wed Apr 26 2017 20:22:36 GMT-0400 (Eastern Daylight Time)","male","Black or African American","moderate/middle of the road","",NA,"","offCivRatings","the officer said ""if you touch me, you're gonna get hurt"" to the civilian","the civilian shocked the officer with a tazer","hurtThreat","tazer","officerCivilian","manipCheckHigh","59","","","",""
"69",1047,"","","instructions",68,212522,"0.0-68.0","omke8adb9hlosrucpzxjrvs8ppvxt691","Wed Apr 26 2017 20:22:36 GMT-0400 (Eastern Daylight Time)","male","Black or African American","moderate/middle of the road","",NA,"[{""page_index"":0,""viewing_time"":1046}]","break","","","","","","","","","","",""
"70",1995,"{""Q0"":58}","[object Object]","survey-likert",69,214756,"0.0-69.0","omke8adb9hlosrucpzxjrvs8ppvxt691","Wed Apr 26 2017 20:22:36 GMT-0400 (Eastern Daylight Time)","male","Black or African American","moderate/middle of the road","",NA,"","offCivRatings","the officer kicked the civilian in the stomach","the civilian struck the officer in the stomach with a metal flashlight","kickStom","flashlight","officerCivilian","acceptableCiv","58","","","",""
"71",1797,"{""Q0"":52}","[object Object]","survey-likert",70,216589,"0.0-70.0","omke8adb9hlosrucpzxjrvs8ppvxt691","Wed Apr 26 2017 20:22:36 GMT-0400 (Eastern Daylight Time)","male","Black or African American","moderate/middle of the road","",NA,"","offCivRatings","the officer kicked the civilian in the stomach","the civilian struck the officer in the stomach with a metal flashlight","kickStom","flashlight","officerCivilian","appropriateCiv","52","","","",""
"72",1667,"{""Q0"":57}","[object Object]","survey-likert",71,218287,"0.0-71.0","omke8adb9hlosrucpzxjrvs8ppvxt691","Wed Apr 26 2017 20:22:36 GMT-0400 (Eastern Daylight Time)","male","Black or African American","moderate/middle of the road","",NA,"","offCivRatings","the officer kicked the civilian in the stomach","the civilian struck the officer in the stomach with a metal flashlight","kickStom","flashlight","officerCivilian","forceCiv","57","","","",""
"73",1636,"{""Q0"":45}","[object Object]","survey-likert",72,219955,"0.0-72.0","omke8adb9hlosrucpzxjrvs8ppvxt691","Wed Apr 26 2017 20:22:36 GMT-0400 (Eastern Daylight Time)","male","Black or African American","moderate/middle of the road","",NA,"","offCivRatings","the officer kicked the civilian in the stomach","the civilian struck the officer in the stomach with a metal flashlight","kickStom","flashlight","officerCivilian","punishCiv","45","","","",""
"74",945,"","","instructions",73,220901,"0.0-73.0","omke8adb9hlosrucpzxjrvs8ppvxt691","Wed Apr 26 2017 20:22:36 GMT-0400 (Eastern Daylight Time)","male","Black or African American","moderate/middle of the road","",NA,"[{""page_index"":0,""viewing_time"":944}]","break","","","","","","","","","","",""
"75",1608,"{""Q0"":52}","[object Object]","survey-likert",74,222737,"0.0-74.0","omke8adb9hlosrucpzxjrvs8ppvxt691","Wed Apr 26 2017 20:22:36 GMT-0400 (Eastern Daylight Time)","male","Black or African American","moderate/middle of the road","",NA,"","offCivRatings","the officer twisted the arm of the civilian, forcing him to the ground","the civilian struck the officer on the leg with a metal pipe","armbar","metalPipe","officerCivilian","appropriateCiv","52","","","",""
"76",6941,"{""Q0"":57}","[object Object]","survey-likert",75,229718,"0.0-75.0","omke8adb9hlosrucpzxjrvs8ppvxt691","Wed Apr 26 2017 20:22:36 GMT-0400 (Eastern Daylight Time)","male","Black or African American","moderate/middle of the road","",NA,"","offCivRatings","the officer twisted the arm of the civilian, forcing him to the ground","the civilian struck the officer on the leg with a metal pipe","armbar","metalPipe","officerCivilian","punishCiv","57","","","",""
"77",2651,"{""Q0"":58}","[object Object]","survey-likert",76,232400,"0.0-76.0","omke8adb9hlosrucpzxjrvs8ppvxt691","Wed Apr 26 2017 20:22:36 GMT-0400 (Eastern Daylight Time)","male","Black or African American","moderate/middle of the road","",NA,"","offCivRatings","the officer twisted the arm of the civilian, forcing him to the ground","the civilian struck the officer on the leg with a metal pipe","armbar","metalPipe","officerCivilian","forceCiv","58","","","",""
"78",5298,"{""Q0"":57}","[object Object]","survey-likert",77,237732,"0.0-77.0","omke8adb9hlosrucpzxjrvs8ppvxt691","Wed Apr 26 2017 20:22:36 GMT-0400 (Eastern Daylight Time)","male","Black or African American","moderate/middle of the road","",NA,"","offCivRatings","the officer twisted the arm of the civilian, forcing him to the ground","the civilian struck the officer on the leg with a metal pipe","armbar","metalPipe","officerCivilian","manipCheckHigh","57","","","",""
"79",2369,"{""Q0"":53}","[object Object]","survey-likert",78,240147,"0.0-78.0","omke8adb9hlosrucpzxjrvs8ppvxt691","Wed Apr 26 2017 20:22:36 GMT-0400 (Eastern Daylight Time)","male","Black or African American","moderate/middle of the road","",NA,"","offCivRatings","the officer twisted the arm of the civilian, forcing him to the ground","the civilian struck the officer on the leg with a metal pipe","armbar","metalPipe","officerCivilian","acceptableCiv","53","","","",""
"80",1529,"","","instructions",79,241677,"0.0-79.0","omke8adb9hlosrucpzxjrvs8ppvxt691","Wed Apr 26 2017 20:22:36 GMT-0400 (Eastern Daylight Time)","male","Black or African American","moderate/middle of the road","",NA,"[{""page_index"":0,""viewing_time"":1528}]","break","","","","","","","","","","",""
"81",2597,"{""Q0"":55}","[object Object]","survey-likert",80,244513,"0.0-80.0","omke8adb9hlosrucpzxjrvs8ppvxt691","Wed Apr 26 2017 20:22:36 GMT-0400 (Eastern Daylight Time)","male","Black or African American","moderate/middle of the road","",NA,"","offCivRatings","the officer applied a chokehold to the civilian","the civilian shot the officer in the chest with a handgun","choke","handgunChest","officerCivilian","manipCheckLow","55","","","",""
"82",1791,"{""Q0"":50}","[object Object]","survey-likert",81,246341,"0.0-81.0","omke8adb9hlosrucpzxjrvs8ppvxt691","Wed Apr 26 2017 20:22:36 GMT-0400 (Eastern Daylight Time)","male","Black or African American","moderate/middle of the road","",NA,"","offCivRatings","the officer applied a chokehold to the civilian","the civilian shot the officer in the chest with a handgun","choke","handgunChest","officerCivilian","punishCiv","50","","","",""
"83",1778,"{""Q0"":49}","[object Object]","survey-likert",82,248162,"0.0-82.0","omke8adb9hlosrucpzxjrvs8ppvxt691","Wed Apr 26 2017 20:22:36 GMT-0400 (Eastern Daylight Time)","male","Black or African American","moderate/middle of the road","",NA,"","offCivRatings","the officer applied a chokehold to the civilian","the civilian shot the officer in the chest with a handgun","choke","handgunChest","officerCivilian","acceptableCiv","49","","","",""
"84",2549,"{""Q0"":50}","[object Object]","survey-likert",83,250743,"0.0-83.0","omke8adb9hlosrucpzxjrvs8ppvxt691","Wed Apr 26 2017 20:22:36 GMT-0400 (Eastern Daylight Time)","male","Black or African American","moderate/middle of the road","",NA,"","offCivRatings","the officer applied a chokehold to the civilian","the civilian shot the officer in the chest with a handgun","choke","handgunChest","officerCivilian","appropriateCiv","50","","","",""
"85",1800,"{""Q0"":50}","[object Object]","survey-likert",84,252578,"0.0-84.0","omke8adb9hlosrucpzxjrvs8ppvxt691","Wed Apr 26 2017 20:22:36 GMT-0400 (Eastern Daylight Time)","male","Black or African American","moderate/middle of the road","",NA,"","offCivRatings","the officer applied a chokehold to the civilian","the civilian shot the officer in the chest with a handgun","choke","handgunChest","officerCivilian","forceCiv","50","","","",""
"86",1546,"","","instructions",85,254124,"0.0-85.0","omke8adb9hlosrucpzxjrvs8ppvxt691","Wed Apr 26 2017 20:22:36 GMT-0400 (Eastern Daylight Time)","male","Black or African American","moderate/middle of the road","",NA,"[{""page_index"":0,""viewing_time"":1545}]","break","","","","","","","","","","",""
"87",2874,"{""Q0"":52}","[object Object]","survey-likert",86,257235,"0.0-86.0","omke8adb9hlosrucpzxjrvs8ppvxt691","Wed Apr 26 2017 20:22:36 GMT-0400 (Eastern Daylight Time)","male","Black or African American","moderate/middle of the road","",NA,"","offCivRatings","the officer put handcuffs on the civilian","the civilian pulled away from the officer","handcuff","pulledAway","officerCivilian","appropriateCiv","52","","","",""
"88",1756,"{""Q0"":50}","[object Object]","survey-likert",87,259025,"0.0-87.0","omke8adb9hlosrucpzxjrvs8ppvxt691","Wed Apr 26 2017 20:22:36 GMT-0400 (Eastern Daylight Time)","male","Black or African American","moderate/middle of the road","",NA,"","offCivRatings","the officer put handcuffs on the civilian","the civilian pulled away from the officer","handcuff","pulledAway","officerCivilian","acceptableCiv","50","","","",""
"89",2647,"{""Q0"":55}","[object Object]","survey-likert",88,261708,"0.0-88.0","omke8adb9hlosrucpzxjrvs8ppvxt691","Wed Apr 26 2017 20:22:36 GMT-0400 (Eastern Daylight Time)","male","Black or African American","moderate/middle of the road","",NA,"","offCivRatings","the officer put handcuffs on the civilian","the civilian pulled away from the officer","handcuff","pulledAway","officerCivilian","punishCiv","55","","","",""
"90",3866,"{""Q0"":56}","[object Object]","survey-likert",89,265607,"0.0-89.0","omke8adb9hlosrucpzxjrvs8ppvxt691","Wed Apr 26 2017 20:22:36 GMT-0400 (Eastern Daylight Time)","male","Black or African American","moderate/middle of the road","",NA,"","offCivRatings","the officer put handcuffs on the civilian","the civilian pulled away from the officer","handcuff","pulledAway","officerCivilian","forceCiv","56","","","",""
"91",1081,"","","instructions",90,266688,"0.0-90.0","omke8adb9hlosrucpzxjrvs8ppvxt691","Wed Apr 26 2017 20:22:36 GMT-0400 (Eastern Daylight Time)","male","Black or African American","moderate/middle of the road","",NA,"[{""page_index"":0,""viewing_time"":1080}]","break","","","","","","","","","","",""
"92",6047,"{""Q0"":55}","[object Object]","survey-likert",91,272971,"0.0-91.0","omke8adb9hlosrucpzxjrvs8ppvxt691","Wed Apr 26 2017 20:22:36 GMT-0400 (Eastern Daylight Time)","male","Black or African American","moderate/middle of the road","",NA,"","offCivRatings","the officer sprayed the civilian with pepper spray","the civilian shouted ""I don't have to fucking listen to you!"" at the officer","pepperSpray","dontListen","officerCivilian","appropriateCiv","55","","","",""
"93",6432,"{""Q0"":57}","[object Object]","survey-likert",92,279435,"0.0-92.0","omke8adb9hlosrucpzxjrvs8ppvxt691","Wed Apr 26 2017 20:22:36 GMT-0400 (Eastern Daylight Time)","male","Black or African American","moderate/middle of the road","",NA,"","offCivRatings","the officer sprayed the civilian with pepper spray","the civilian shouted ""I don't have to fucking listen to you!"" at the officer","pepperSpray","dontListen","officerCivilian","acceptableCiv","57","","","",""
"94",1670,"{""Q0"":50}","[object Object]","survey-likert",93,281137,"0.0-93.0","omke8adb9hlosrucpzxjrvs8ppvxt691","Wed Apr 26 2017 20:22:36 GMT-0400 (Eastern Daylight Time)","male","Black or African American","moderate/middle of the road","",NA,"","offCivRatings","the officer sprayed the civilian with pepper spray","the civilian shouted ""I don't have to fucking listen to you!"" at the officer","pepperSpray","dontListen","officerCivilian","forceCiv","50","","","",""
"95",2996,"{""Q0"":54}","[object Object]","survey-likert",94,284165,"0.0-94.0","omke8adb9hlosrucpzxjrvs8ppvxt691","Wed Apr 26 2017 20:22:36 GMT-0400 (Eastern Daylight Time)","male","Black or African American","moderate/middle of the road","",NA,"","offCivRatings","the officer sprayed the civilian with pepper spray","the civilian shouted ""I don't have to fucking listen to you!"" at the officer","pepperSpray","dontListen","officerCivilian","punishCiv","54","","","",""
"96",952,"","","instructions",95,285119,"0.0-95.0","omke8adb9hlosrucpzxjrvs8ppvxt691","Wed Apr 26 2017 20:22:36 GMT-0400 (Eastern Daylight Time)","male","Black or African American","moderate/middle of the road","",NA,"[{""page_index"":0,""viewing_time"":952}]","break","","","","","","","","","","",""
"97",1565,"{""Q0"":54}","[object Object]","survey-likert",96,286932,"0.0-96.0","omke8adb9hlosrucpzxjrvs8ppvxt691","Wed Apr 26 2017 20:22:36 GMT-0400 (Eastern Daylight Time)","male","Black or African American","moderate/middle of the road","",NA,"","offCivRatings","the officer struck the civilian on the leg with a collapsible baton","the civilian stood near the officer","batonLeg","stoodNear","officerCivilian","punishCiv","54","","","",""
"98",1501,"{""Q0"":56}","[object Object]","survey-likert",97,288466,"0.0-97.0","omke8adb9hlosrucpzxjrvs8ppvxt691","Wed Apr 26 2017 20:22:36 GMT-0400 (Eastern Daylight Time)","male","Black or African American","moderate/middle of the road","",NA,"","offCivRatings","the officer struck the civilian on the leg with a collapsible baton","the civilian stood near the officer","batonLeg","stoodNear","officerCivilian","forceCiv","56","","","",""
"99",10176,"{""Q0"":55}","[object Object]","survey-likert",98,298678,"0.0-98.0","omke8adb9hlosrucpzxjrvs8ppvxt691","Wed Apr 26 2017 20:22:36 GMT-0400 (Eastern Daylight Time)","male","Black or African American","moderate/middle of the road","",NA,"","offCivRatings","the officer struck the civilian on the leg with a collapsible baton","the civilian stood near the officer","batonLeg","stoodNear","officerCivilian","acceptableCiv","55","","","",""
"100",3319,"{""Q0"":50}","[object Object]","survey-likert",99,302028,"0.0-99.0","omke8adb9hlosrucpzxjrvs8ppvxt691","Wed Apr 26 2017 20:22:36 GMT-0400 (Eastern Daylight Time)","male","Black or African American","moderate/middle of the road","",NA,"","offCivRatings","the officer struck the civilian on the leg with a collapsible baton","the civilian stood near the officer","batonLeg","stoodNear","officerCivilian","manipCheckLow","50","","","",""
"101",1318,"{""Q0"":55}","[object Object]","survey-likert",100,303377,"0.0-100.0","omke8adb9hlosrucpzxjrvs8ppvxt691","Wed Apr 26 2017 20:22:36 GMT-0400 (Eastern Daylight Time)","male","Black or African American","moderate/middle of the road","",NA,"","offCivRatings","the officer struck the civilian on the leg with a collapsible baton","the civilian stood near the officer","batonLeg","stoodNear","officerCivilian","appropriateCiv","55","","","",""
"102",3390,"","","instructions",101,306767,"0.0-101.0","omke8adb9hlosrucpzxjrvs8ppvxt691","Wed Apr 26 2017 20:22:36 GMT-0400 (Eastern Daylight Time)","male","Black or African American","moderate/middle of the road","",NA,"[{""page_index"":0,""viewing_time"":3389}]","break","","","","","","","","","","",""
"103",1711,"{""Q0"":57}","[object Object]","survey-likert",102,308726,"0.0-102.0","omke8adb9hlosrucpzxjrvs8ppvxt691","Wed Apr 26 2017 20:22:36 GMT-0400 (Eastern Daylight Time)","male","Black or African American","moderate/middle of the road","",NA,"","offCivRatings","the officer shot the civilian in the head with a handgun","the civilian punched the officer in the face","handgunHead","punchFace","officerCivilian","acceptableCiv","57","","","",""
"104",6159,"{""Q0"":49}","[object Object]","survey-likert",103,314924,"0.0-103.0","omke8adb9hlosrucpzxjrvs8ppvxt691","Wed Apr 26 2017 20:22:36 GMT-0400 (Eastern Daylight Time)","male","Black or African American","moderate/middle of the road","",NA,"","offCivRatings","the officer shot the civilian in the head with a handgun","the civilian punched the officer in the face","handgunHead","punchFace","officerCivilian","punishCiv","49","","","",""
"105",1747,"{""Q0"":59}","[object Object]","survey-likert",104,316704,"0.0-104.0","omke8adb9hlosrucpzxjrvs8ppvxt691","Wed Apr 26 2017 20:22:36 GMT-0400 (Eastern Daylight Time)","male","Black or African American","moderate/middle of the road","",NA,"","offCivRatings","the officer shot the civilian in the head with a handgun","the civilian punched the officer in the face","handgunHead","punchFace","officerCivilian","forceCiv","59","","","",""
"106",1773,"{""Q0"":50}","[object Object]","survey-likert",105,318521,"0.0-105.0","omke8adb9hlosrucpzxjrvs8ppvxt691","Wed Apr 26 2017 20:22:36 GMT-0400 (Eastern Daylight Time)","male","Black or African American","moderate/middle of the road","",NA,"","offCivRatings","the officer shot the civilian in the head with a handgun","the civilian punched the officer in the face","handgunHead","punchFace","officerCivilian","appropriateCiv","50","","","",""
"107",936,"","","instructions",106,319457,"0.0-106.0","omke8adb9hlosrucpzxjrvs8ppvxt691","Wed Apr 26 2017 20:22:36 GMT-0400 (Eastern Daylight Time)","male","Black or African American","moderate/middle of the road","",NA,"[{""page_index"":0,""viewing_time"":935}]","break","","","","","","","","","","",""
"108",1515,"{""Q0"":56}","[object Object]","survey-likert",107,321221,"0.0-107.0","omke8adb9hlosrucpzxjrvs8ppvxt691","Wed Apr 26 2017 20:22:36 GMT-0400 (Eastern Daylight Time)","male","Black or African American","moderate/middle of the road","",NA,"","offCivRatings","the officer yelled ""get back!"" at the civilian","the civilian waved at the officer in greeting","getBack","waved","officerCivilian","acceptableCiv","56","","","",""
"109",1445,"{""Q0"":55}","[object Object]","survey-likert",108,322702,"0.0-108.0","omke8adb9hlosrucpzxjrvs8ppvxt691","Wed Apr 26 2017 20:22:36 GMT-0400 (Eastern Daylight Time)","male","Black or African American","moderate/middle of the road","",NA,"","offCivRatings","the officer yelled ""get back!"" at the civilian","the civilian waved at the officer in greeting","getBack","waved","officerCivilian","forceCiv","55","","","",""
"110",1430,"{""Q0"":54}","[object Object]","survey-likert",109,324204,"0.0-109.0","omke8adb9hlosrucpzxjrvs8ppvxt691","Wed Apr 26 2017 20:22:36 GMT-0400 (Eastern Daylight Time)","male","Black or African American","moderate/middle of the road","",NA,"","offCivRatings","the officer yelled ""get back!"" at the civilian","the civilian waved at the officer in greeting","getBack","waved","officerCivilian","manipCheckHigh","54","","","",""
"111",1463,"{""Q0"":56}","[object Object]","survey-likert",110,325702,"0.0-110.0","omke8adb9hlosrucpzxjrvs8ppvxt691","Wed Apr 26 2017 20:22:36 GMT-0400 (Eastern Daylight Time)","male","Black or African American","moderate/middle of the road","",NA,"","offCivRatings","the officer yelled ""get back!"" at the civilian","the civilian waved at the officer in greeting","getBack","waved","officerCivilian","punishCiv","56","","","",""
"112",3711,"{""Q0"":52}","[object Object]","survey-likert",111,329452,"0.0-111.0","omke8adb9hlosrucpzxjrvs8ppvxt691","Wed Apr 26 2017 20:22:36 GMT-0400 (Eastern Daylight Time)","male","Black or African American","moderate/middle of the road","",NA,"","offCivRatings","the officer yelled ""get back!"" at the civilian","the civilian waved at the officer in greeting","getBack","waved","officerCivilian","appropriateCiv","52","","","",""
"113",1095,"","","instructions",112,330548,"0.0-112.0","omke8adb9hlosrucpzxjrvs8ppvxt691","Wed Apr 26 2017 20:22:36 GMT-0400 (Eastern Daylight Time)","male","Black or African American","moderate/middle of the road","",NA,"[{""page_index"":0,""viewing_time"":1095}]","break","","","","","","","","","","",""
"114",1599,"{""Q0"":53}","[object Object]","survey-likert",113,332384,"0.0-113.0","omke8adb9hlosrucpzxjrvs8ppvxt691","Wed Apr 26 2017 20:22:36 GMT-0400 (Eastern Daylight Time)","male","Black or African American","moderate/middle of the road","",NA,"","offCivRatings","the officer waved at the civilian in greeting","the civilian hit the officer in the chest with a baseball bat","waved","ballBat","civilianOfficer","forceOff","53","","","",""
"115",1484,"{""Q0"":55}","[object Object]","survey-likert",114,333901,"0.0-114.0","omke8adb9hlosrucpzxjrvs8ppvxt691","Wed Apr 26 2017 20:22:36 GMT-0400 (Eastern Daylight Time)","male","Black or African American","moderate/middle of the road","",NA,"","offCivRatings","the officer waved at the civilian in greeting","the civilian hit the officer in the chest with a baseball bat","waved","ballBat","civilianOfficer","appropriateOff","55","","","",""
"116",1466,"{""Q0"":56}","[object Object]","survey-likert",115,335399,"0.0-115.0","omke8adb9hlosrucpzxjrvs8ppvxt691","Wed Apr 26 2017 20:22:36 GMT-0400 (Eastern Daylight Time)","male","Black or African American","moderate/middle of the road","",NA,"","offCivRatings","the officer waved at the civilian in greeting","the civilian hit the officer in the chest with a baseball bat","waved","ballBat","civilianOfficer","punishOff","56","","","",""
"117",1478,"{""Q0"":55}","[object Object]","survey-likert",116,336916,"0.0-116.0","omke8adb9hlosrucpzxjrvs8ppvxt691","Wed Apr 26 2017 20:22:36 GMT-0400 (Eastern Daylight Time)","male","Black or African American","moderate/middle of the road","",NA,"","offCivRatings","the officer waved at the civilian in greeting","the civilian hit the officer in the chest with a baseball bat","waved","ballBat","civilianOfficer","acceptableOff","55","","","",""
"118",939,"","","instructions",117,337856,"0.0-117.0","omke8adb9hlosrucpzxjrvs8ppvxt691","Wed Apr 26 2017 20:22:36 GMT-0400 (Eastern Daylight Time)","male","Black or African American","moderate/middle of the road","",NA,"[{""page_index"":0,""viewing_time"":938}]","break","","","","","","","","","","",""
"119",1514,"{""Q0"":54}","[object Object]","survey-likert",118,339614,"0.0-118.0","omke8adb9hlosrucpzxjrvs8ppvxt691","Wed Apr 26 2017 20:22:36 GMT-0400 (Eastern Daylight Time)","male","Black or African American","moderate/middle of the road","",NA,"","offCivRatings","the officer shot the civilian in the chest with a beanbag shotgun round","the civilian sprayed the officer with pepper spray","beanbag","pepperSpray","civilianOfficer","forceOff","54","","","",""
"120",2612,"{""Q0"":54}","[object Object]","survey-likert",119,342265,"0.0-119.0","omke8adb9hlosrucpzxjrvs8ppvxt691","Wed Apr 26 2017 20:22:36 GMT-0400 (Eastern Daylight Time)","male","Black or African American","moderate/middle of the road","",NA,"","offCivRatings","the officer shot the civilian in the chest with a beanbag shotgun round","the civilian sprayed the officer with pepper spray","beanbag","pepperSpray","civilianOfficer","acceptableOff","54","","","",""
"121",4291,"{""Q0"":48}","[object Object]","survey-likert",120,346595,"0.0-120.0","omke8adb9hlosrucpzxjrvs8ppvxt691","Wed Apr 26 2017 20:22:36 GMT-0400 (Eastern Daylight Time)","male","Black or African American","moderate/middle of the road","",NA,"","offCivRatings","the officer shot the civilian in the chest with a beanbag shotgun round","the civilian sprayed the officer with pepper spray","beanbag","pepperSpray","civilianOfficer","manipCheckLow","48","","","",""
"122",3616,"{""Q0"":58}","[object Object]","survey-likert",121,350244,"0.0-121.0","omke8adb9hlosrucpzxjrvs8ppvxt691","Wed Apr 26 2017 20:22:36 GMT-0400 (Eastern Daylight Time)","male","Black or African American","moderate/middle of the road","",NA,"","offCivRatings","the officer shot the civilian in the chest with a beanbag shotgun round","the civilian sprayed the officer with pepper spray","beanbag","pepperSpray","civilianOfficer","appropriateOff","58","","","",""
"123",3942,"{""Q0"":54}","[object Object]","survey-likert",122,354227,"0.0-122.0","omke8adb9hlosrucpzxjrvs8ppvxt691","Wed Apr 26 2017 20:22:36 GMT-0400 (Eastern Daylight Time)","male","Black or African American","moderate/middle of the road","",NA,"","offCivRatings","the officer shot the civilian in the chest with a beanbag shotgun round","the civilian sprayed the officer with pepper spray","beanbag","pepperSpray","civilianOfficer","punishOff","54","","","",""
"124",968,"","","instructions",123,355195,"0.0-123.0","omke8adb9hlosrucpzxjrvs8ppvxt691","Wed Apr 26 2017 20:22:36 GMT-0400 (Eastern Daylight Time)","male","Black or African American","moderate/middle of the road","",NA,"[{""page_index"":0,""viewing_time"":967}]","break","","","","","","","","","","",""
"125",1765,"{""Q0"":56}","[object Object]","survey-likert",124,357208,"0.0-124.0","omke8adb9hlosrucpzxjrvs8ppvxt691","Wed Apr 26 2017 20:22:36 GMT-0400 (Eastern Daylight Time)","male","Black or African American","moderate/middle of the road","",NA,"","policeLegitimacy","","","","","","","56","communityWants","normAlignment","",""
"126",1685,"{""Q0"":56}","[object Object]","survey-likert",125,358925,"0.0-125.0","omke8adb9hlosrucpzxjrvs8ppvxt691","Wed Apr 26 2017 20:22:36 GMT-0400 (Eastern Daylight Time)","male","Black or African American","moderate/middle of the road","",NA,"","policeLegitimacy","","","","","","","56","rightWrong","normAlignment","",""
"127",6848,"{""Q0"":46}","[object Object]","survey-likert",126,365806,"0.0-126.0","omke8adb9hlosrucpzxjrvs8ppvxt691","Wed Apr 26 2017 20:22:36 GMT-0400 (Eastern Daylight Time)","male","Black or African American","moderate/middle of the road","",NA,"","policeLegitimacy","","","","","","","46","doTreat","feltObligation","",""
"128",5212,"{""Q0"":48}","[object Object]","survey-likert",127,371070,"0.0-127.0","omke8adb9hlosrucpzxjrvs8ppvxt691","Wed Apr 26 2017 20:22:36 GMT-0400 (Eastern Daylight Time)","male","Black or African American","moderate/middle of the road","",NA,"","policeLegitimacy","","","","","","","48","importantValues","normAlignment","",""
"129",16080,"{""Q0"":55}","[object Object]","survey-likert",128,387182,"0.0-128.0","omke8adb9hlosrucpzxjrvs8ppvxt691","Wed Apr 26 2017 20:22:36 GMT-0400 (Eastern Daylight Time)","male","Black or African American","moderate/middle of the road","",NA,"","policeLegitimacy","","","","","","","55","support","feltObligation","",""
"130",4100,"{""Q0"":52}","[object Object]","survey-likert",129,391314,"0.0-129.0","omke8adb9hlosrucpzxjrvs8ppvxt691","Wed Apr 26 2017 20:22:36 GMT-0400 (Eastern Daylight Time)","male","Black or African American","moderate/middle of the road","",NA,"","policeLegitimacy","","","","","","","52","doReasons","feltObligation","",""
"131",5012,"{""Q0"":""no""}","[object Object]","survey-multi-choice2",130,396345,"0.0-130.0","omke8adb9hlosrucpzxjrvs8ppvxt691","Wed Apr 26 2017 20:22:36 GMT-0400 (Eastern Daylight Time)","male","Black or African American","moderate/middle of the road","",NA,"","policeExperience","","","","","","","no","excessForce","","personal","Have the police ever used excessive force against you?"
"132",9200,"{""Q0"":""no""}","[object Object]","survey-multi-choice2",131,405560,"0.0-131.0","omke8adb9hlosrucpzxjrvs8ppvxt691","Wed Apr 26 2017 20:22:36 GMT-0400 (Eastern Daylight Time)","male","Black or African American","moderate/middle of the road","",NA,"","policeExperience","","","","","","","no","stopped","","personal","Have you ever been stopped by the police on the street without good reason?"
"133",1870,"{""Q0"":""no""}","[object Object]","survey-multi-choice2",132,407436,"0.0-132.0","omke8adb9hlosrucpzxjrvs8ppvxt691","Wed Apr 26 2017 20:22:36 GMT-0400 (Eastern Daylight Time)","male","Black or African American","moderate/middle of the road","",NA,"","policeExperience","","","","","","","no","insultLang","","personal","Have the police ever used insulting language toward you?"
"134",2716,"{""Q0"":""no""}","[object Object]","survey-multi-choice2",133,410159,"0.0-133.0","omke8adb9hlosrucpzxjrvs8ppvxt691","Wed Apr 26 2017 20:22:36 GMT-0400 (Eastern Daylight Time)","male","Black or African American","moderate/middle of the road","",NA,"","policeExperience","","","","","","","no","corrupt","","personal","Have you ever seen a police officer engage in any corrupt activities (e.g., taking bribes or involvement in the drug trade)?"
"135",1924,"{""Q0"":""no""}","[object Object]","survey-multi-choice2",134,412088,"0.0-134.0","omke8adb9hlosrucpzxjrvs8ppvxt691","Wed Apr 26 2017 20:22:36 GMT-0400 (Eastern Daylight Time)","male","Black or African American","moderate/middle of the road","",NA,"","policeExperience","","","","","","","no","insultLang","","vicarious","Have the police ever used insulting language toward anyone in your household?"
"136",2143,"{""Q0"":""no""}","[object Object]","survey-multi-choice2",135,414236,"0.0-135.0","omke8adb9hlosrucpzxjrvs8ppvxt691","Wed Apr 26 2017 20:22:36 GMT-0400 (Eastern Daylight Time)","male","Black or African American","moderate/middle of the road","",NA,"","policeExperience","","","","","","","no","stopped","","vicarious","Has anyone in your household ever been stopped on the street by the police without good reason?"
"137",2538,"{""Q0"":""no""}","[object Object]","survey-multi-choice2",136,416779,"0.0-136.0","omke8adb9hlosrucpzxjrvs8ppvxt691","Wed Apr 26 2017 20:22:36 GMT-0400 (Eastern Daylight Time)","male","Black or African American","moderate/middle of the road","",NA,"","policeExperience","","","","","","","no","excessForce","","vicarious","Have the police ever used excessive force against anyone in your household?"
"138",24130,"{""Q0"":""male"",""Q1"":""Black or African American"",""Q2"":""moderate/middle of the road""}","[object Object]","survey-multi-choice",137,440940,"0.0-137.0","omke8adb9hlosrucpzxjrvs8ppvxt691","Wed Apr 26 2017 20:22:36 GMT-0400 (Eastern Daylight Time)","male","Black or African American","moderate/middle of the road","",NA,"","demographics","","","","","","","","","","",""
"139",8580,"","","instructions",138,450525,"0.0-138.0","omke8adb9hlosrucpzxjrvs8ppvxt691","Wed Apr 26 2017 20:22:36 GMT-0400 (Eastern Daylight Time)","male","Black or African American","moderate/middle of the road","",NA,"[{""page_index"":0,""viewing_time"":1297},{""page_index"":1,""viewing_time"":5353},{""page_index"":2,""viewing_time"":794},{""page_index"":3,""viewing_time"":1136}]","debriefing","","","","","","","","","","",""
