"","rt","responses","internalResp","trial_type","trial_index","time_elapsed","internal_node_id","randSubjectID","date","sex","race","polAff","stimulus","key_press","view_history","questionType","officerAction","civilianAction","offActName","civActName","order","questionName","response","name","dimension","person","question"
"1",4184,"","[object Object]","survey-text",0,4191,"0.0-0.0","rbxlwzsuplskx4t5u52ut77rmtdao15g","Thu Jan 19 2017 13:21:05 GMT-0500 (Eastern Standard Time)","male","White","don't know/not political","",NA,"","","","","","","","","","","","",""
"2",17127,"","","single-stim",1,22328,"0.0-1.0","rbxlwzsuplskx4t5u52ut77rmtdao15g","Thu Jan 19 2017 13:21:05 GMT-0500 (Eastern Standard Time)","male","White","don't know/not political","<img src='static/images/1602685960_ICS_Credit-0.png' alt='Consent 1' height=1100 width=850><img src='static/images/1602685960_ICS_Credit-1.png' alt='Consent 2' height=1100 width=850></p>",89,"","","","","","","","","","","","",""
"3",1159,"","","instructions",2,24507,"0.0-2.0","rbxlwzsuplskx4t5u52ut77rmtdao15g","Thu Jan 19 2017 13:21:05 GMT-0500 (Eastern Standard Time)","male","White","don't know/not political","",NA,"[{""page_index"":0,""viewing_time"":1158}]","instructions","","","","","","","","","","",""
"4",5112,"","","instructions",3,30627,"0.0-3.0","rbxlwzsuplskx4t5u52ut77rmtdao15g","Thu Jan 19 2017 13:21:05 GMT-0500 (Eastern Standard Time)","male","White","don't know/not political","",NA,"[{""page_index"":0,""viewing_time"":1216},{""page_index"":1,""viewing_time"":2155},{""page_index"":2,""viewing_time"":1068},{""page_index"":3,""viewing_time"":673}]","instructions","","","","","","","","","","",""
"5",43030,"{""Q0"":37}","[object Object]","survey-likert",4,74688,"0.0-4.0","rbxlwzsuplskx4t5u52ut77rmtdao15g","Thu Jan 19 2017 13:21:05 GMT-0500 (Eastern Standard Time)","male","White","don't know/not political","",NA,"","offCivRatings","the officer asked the civilian how he was doing","the civilian struck the officer in the stomach with a metal flashlight","asked","flashlight","civilianOfficer","acceptableOff","37","","","",""
"6",25201,"{""Q0"":1}","[object Object]","survey-likert",5,99904,"0.0-5.0","rbxlwzsuplskx4t5u52ut77rmtdao15g","Thu Jan 19 2017 13:21:05 GMT-0500 (Eastern Standard Time)","male","White","don't know/not political","",NA,"","offCivRatings","the officer asked the civilian how he was doing","the civilian struck the officer in the stomach with a metal flashlight","asked","flashlight","civilianOfficer","appropriateOff","1","","","",""
"7",4713,"{""Q0"":1}","[object Object]","survey-likert",6,104629,"0.0-6.0","rbxlwzsuplskx4t5u52ut77rmtdao15g","Thu Jan 19 2017 13:21:05 GMT-0500 (Eastern Standard Time)","male","White","don't know/not political","",NA,"","offCivRatings","the officer asked the civilian how he was doing","the civilian struck the officer in the stomach with a metal flashlight","asked","flashlight","civilianOfficer","forceOff","1","","","",""
"8",8866,"{""Q0"":25}","[object Object]","survey-likert",7,113509,"0.0-7.0","rbxlwzsuplskx4t5u52ut77rmtdao15g","Thu Jan 19 2017 13:21:05 GMT-0500 (Eastern Standard Time)","male","White","don't know/not political","",NA,"","offCivRatings","the officer asked the civilian how he was doing","the civilian struck the officer in the stomach with a metal flashlight","asked","flashlight","civilianOfficer","punishOff","25","","","",""
"9",8518,"{""Q0"":100}","[object Object]","survey-likert",8,122041,"0.0-8.0","rbxlwzsuplskx4t5u52ut77rmtdao15g","Thu Jan 19 2017 13:21:05 GMT-0500 (Eastern Standard Time)","male","White","don't know/not political","",NA,"","offCivRatings","the officer asked the civilian how he was doing","the civilian struck the officer in the stomach with a metal flashlight","asked","flashlight","civilianOfficer","manipCheckHigh","100","","","",""
"10",1166,"","","instructions",9,123207,"0.0-9.0","rbxlwzsuplskx4t5u52ut77rmtdao15g","Thu Jan 19 2017 13:21:05 GMT-0500 (Eastern Standard Time)","male","White","don't know/not political","",NA,"[{""page_index"":0,""viewing_time"":1166}]","break","","","","","","","","","","",""
"11",14618,"{""Q0"":89}","[object Object]","survey-likert",10,138069,"0.0-10.0","rbxlwzsuplskx4t5u52ut77rmtdao15g","Thu Jan 19 2017 13:21:05 GMT-0500 (Eastern Standard Time)","male","White","don't know/not political","",NA,"","offCivRatings","the officer headbutted the civilian in the face","the civilian headbutted the officer in the face","headbutt","headbutt","civilianOfficer","punishOff","89","","","",""
"12",7383,"{""Q0"":100}","[object Object]","survey-likert",11,145464,"0.0-11.0","rbxlwzsuplskx4t5u52ut77rmtdao15g","Thu Jan 19 2017 13:21:05 GMT-0500 (Eastern Standard Time)","male","White","don't know/not political","",NA,"","offCivRatings","the officer headbutted the civilian in the face","the civilian headbutted the officer in the face","headbutt","headbutt","civilianOfficer","appropriateOff","100","","","",""
"13",4657,"{""Q0"":6}","[object Object]","survey-likert",12,150134,"0.0-12.0","rbxlwzsuplskx4t5u52ut77rmtdao15g","Thu Jan 19 2017 13:21:05 GMT-0500 (Eastern Standard Time)","male","White","don't know/not political","",NA,"","offCivRatings","the officer headbutted the civilian in the face","the civilian headbutted the officer in the face","headbutt","headbutt","civilianOfficer","acceptableOff","6","","","",""
"14",5070,"{""Q0"":69}","[object Object]","survey-likert",13,155218,"0.0-13.0","rbxlwzsuplskx4t5u52ut77rmtdao15g","Thu Jan 19 2017 13:21:05 GMT-0500 (Eastern Standard Time)","male","White","don't know/not political","",NA,"","offCivRatings","the officer headbutted the civilian in the face","the civilian headbutted the officer in the face","headbutt","headbutt","civilianOfficer","forceOff","69","","","",""
"15",1371,"","","instructions",14,156589,"0.0-14.0","rbxlwzsuplskx4t5u52ut77rmtdao15g","Thu Jan 19 2017 13:21:05 GMT-0500 (Eastern Standard Time)","male","White","don't know/not political","",NA,"[{""page_index"":0,""viewing_time"":1371}]","break","","","","","","","","","","",""
"16",6862,"{""Q0"":100}","[object Object]","survey-likert",15,163681,"0.0-15.0","rbxlwzsuplskx4t5u52ut77rmtdao15g","Thu Jan 19 2017 13:21:05 GMT-0500 (Eastern Standard Time)","male","White","don't know/not political","",NA,"","offCivRatings","the officer waved at the civilian in greeting","the civilian stood near the officer","waved","stoodNear","civilianOfficer","acceptableOff","100","","","",""
"17",3042,"{""Q0"":1}","[object Object]","survey-likert",16,166736,"0.0-16.0","rbxlwzsuplskx4t5u52ut77rmtdao15g","Thu Jan 19 2017 13:21:05 GMT-0500 (Eastern Standard Time)","male","White","don't know/not political","",NA,"","offCivRatings","the officer waved at the civilian in greeting","the civilian stood near the officer","waved","stoodNear","civilianOfficer","punishOff","1","","","",""
"18",7590,"{""Q0"":50}","[object Object]","survey-likert",17,174340,"0.0-17.0","rbxlwzsuplskx4t5u52ut77rmtdao15g","Thu Jan 19 2017 13:21:05 GMT-0500 (Eastern Standard Time)","male","White","don't know/not political","",NA,"","offCivRatings","the officer waved at the civilian in greeting","the civilian stood near the officer","waved","stoodNear","civilianOfficer","appropriateOff","50","","","",""
"19",4023,"{""Q0"":1}","[object Object]","survey-likert",18,178374,"0.0-18.0","rbxlwzsuplskx4t5u52ut77rmtdao15g","Thu Jan 19 2017 13:21:05 GMT-0500 (Eastern Standard Time)","male","White","don't know/not political","",NA,"","offCivRatings","the officer waved at the civilian in greeting","the civilian stood near the officer","waved","stoodNear","civilianOfficer","forceOff","1","","","",""
"20",909,"","","instructions",19,179283,"0.0-19.0","rbxlwzsuplskx4t5u52ut77rmtdao15g","Thu Jan 19 2017 13:21:05 GMT-0500 (Eastern Standard Time)","male","White","don't know/not political","",NA,"[{""page_index"":0,""viewing_time"":909}]","break","","","","","","","","","","",""
"21",6130,"{""Q0"":100}","[object Object]","survey-likert",20,185651,"0.0-20.0","rbxlwzsuplskx4t5u52ut77rmtdao15g","Thu Jan 19 2017 13:21:05 GMT-0500 (Eastern Standard Time)","male","White","don't know/not political","",NA,"","offCivRatings","the officer yelled ""get back!"" at the civilian","the civilian yelled ""get back!"" at the officer","getBack","getBack","officerCivilian","manipCheckHigh","100","","","",""
"22",5970,"{""Q0"":50}","[object Object]","survey-likert",21,191632,"0.0-21.0","rbxlwzsuplskx4t5u52ut77rmtdao15g","Thu Jan 19 2017 13:21:05 GMT-0500 (Eastern Standard Time)","male","White","don't know/not political","",NA,"","offCivRatings","the officer yelled ""get back!"" at the civilian","the civilian yelled ""get back!"" at the officer","getBack","getBack","officerCivilian","punishCiv","50","","","",""
"23",6196,"{""Q0"":100}","[object Object]","survey-likert",22,197841,"0.0-22.0","rbxlwzsuplskx4t5u52ut77rmtdao15g","Thu Jan 19 2017 13:21:05 GMT-0500 (Eastern Standard Time)","male","White","don't know/not political","",NA,"","offCivRatings","the officer yelled ""get back!"" at the civilian","the civilian yelled ""get back!"" at the officer","getBack","getBack","officerCivilian","appropriateCiv","100","","","",""
"24",5446,"{""Q0"":30}","[object Object]","survey-likert",23,203300,"0.0-23.0","rbxlwzsuplskx4t5u52ut77rmtdao15g","Thu Jan 19 2017 13:21:05 GMT-0500 (Eastern Standard Time)","male","White","don't know/not political","",NA,"","offCivRatings","the officer yelled ""get back!"" at the civilian","the civilian yelled ""get back!"" at the officer","getBack","getBack","officerCivilian","acceptableCiv","30","","","",""
"25",7603,"{""Q0"":48}","[object Object]","survey-likert",24,210915,"0.0-24.0","rbxlwzsuplskx4t5u52ut77rmtdao15g","Thu Jan 19 2017 13:21:05 GMT-0500 (Eastern Standard Time)","male","White","don't know/not political","",NA,"","offCivRatings","the officer yelled ""get back!"" at the civilian","the civilian yelled ""get back!"" at the officer","getBack","getBack","officerCivilian","forceCiv","48","","","",""
"26",928,"","","instructions",25,211843,"0.0-25.0","rbxlwzsuplskx4t5u52ut77rmtdao15g","Thu Jan 19 2017 13:21:05 GMT-0500 (Eastern Standard Time)","male","White","don't know/not political","",NA,"[{""page_index"":0,""viewing_time"":928}]","break","","","","","","","","","","",""
"27",7580,"{""Q0"":50}","[object Object]","survey-likert",26,219667,"0.0-26.0","rbxlwzsuplskx4t5u52ut77rmtdao15g","Thu Jan 19 2017 13:21:05 GMT-0500 (Eastern Standard Time)","male","White","don't know/not political","",NA,"","offCivRatings","the officer shocked the civilian with a tazer","the civilian shocked the officer with a tazer","tazer","tazer","civilianOfficer","appropriateOff","50","","","",""
"28",3687,"{""Q0"":2}","[object Object]","survey-likert",27,223365,"0.0-27.0","rbxlwzsuplskx4t5u52ut77rmtdao15g","Thu Jan 19 2017 13:21:05 GMT-0500 (Eastern Standard Time)","male","White","don't know/not political","",NA,"","offCivRatings","the officer shocked the civilian with a tazer","the civilian shocked the officer with a tazer","tazer","tazer","civilianOfficer","punishOff","2","","","",""
"29",3536,"{""Q0"":61}","[object Object]","survey-likert",28,226916,"0.0-28.0","rbxlwzsuplskx4t5u52ut77rmtdao15g","Thu Jan 19 2017 13:21:05 GMT-0500 (Eastern Standard Time)","male","White","don't know/not political","",NA,"","offCivRatings","the officer shocked the civilian with a tazer","the civilian shocked the officer with a tazer","tazer","tazer","civilianOfficer","forceOff","61","","","",""
"30",2859,"{""Q0"":100}","[object Object]","survey-likert",29,229792,"0.0-29.0","rbxlwzsuplskx4t5u52ut77rmtdao15g","Thu Jan 19 2017 13:21:05 GMT-0500 (Eastern Standard Time)","male","White","don't know/not political","",NA,"","offCivRatings","the officer shocked the civilian with a tazer","the civilian shocked the officer with a tazer","tazer","tazer","civilianOfficer","acceptableOff","100","","","",""
"31",1087,"","","instructions",30,230879,"0.0-30.0","rbxlwzsuplskx4t5u52ut77rmtdao15g","Thu Jan 19 2017 13:21:05 GMT-0500 (Eastern Standard Time)","male","White","don't know/not political","",NA,"[{""page_index"":0,""viewing_time"":1087}]","break","","","","","","","","","","",""
"32",6906,"{""Q0"":60}","[object Object]","survey-likert",31,238020,"0.0-31.0","rbxlwzsuplskx4t5u52ut77rmtdao15g","Thu Jan 19 2017 13:21:05 GMT-0500 (Eastern Standard Time)","male","White","don't know/not political","",NA,"","offCivRatings","the officer kicked the civilian in the stomach","the civilian hit the officer in the chest with a baseball bat","kickStom","ballBat","civilianOfficer","forceOff","60","","","",""
"33",7009,"{""Q0"":51}","[object Object]","survey-likert",32,245041,"0.0-32.0","rbxlwzsuplskx4t5u52ut77rmtdao15g","Thu Jan 19 2017 13:21:05 GMT-0500 (Eastern Standard Time)","male","White","don't know/not political","",NA,"","offCivRatings","the officer kicked the civilian in the stomach","the civilian hit the officer in the chest with a baseball bat","kickStom","ballBat","civilianOfficer","appropriateOff","51","","","",""
"34",5377,"{""Q0"":8}","[object Object]","survey-likert",33,250429,"0.0-33.0","rbxlwzsuplskx4t5u52ut77rmtdao15g","Thu Jan 19 2017 13:21:05 GMT-0500 (Eastern Standard Time)","male","White","don't know/not political","",NA,"","offCivRatings","the officer kicked the civilian in the stomach","the civilian hit the officer in the chest with a baseball bat","kickStom","ballBat","civilianOfficer","punishOff","8","","","",""
"35",3618,"{""Q0"":79}","[object Object]","survey-likert",34,254059,"0.0-34.0","rbxlwzsuplskx4t5u52ut77rmtdao15g","Thu Jan 19 2017 13:21:05 GMT-0500 (Eastern Standard Time)","male","White","don't know/not political","",NA,"","offCivRatings","the officer kicked the civilian in the stomach","the civilian hit the officer in the chest with a baseball bat","kickStom","ballBat","civilianOfficer","acceptableOff","79","","","",""
"36",1650,"","","instructions",35,255710,"0.0-35.0","rbxlwzsuplskx4t5u52ut77rmtdao15g","Thu Jan 19 2017 13:21:05 GMT-0500 (Eastern Standard Time)","male","White","don't know/not political","",NA,"[{""page_index"":0,""viewing_time"":1649}]","break","","","","","","","","","","",""
"37",9785,"{""Q0"":31}","[object Object]","survey-likert",36,265728,"0.0-36.0","rbxlwzsuplskx4t5u52ut77rmtdao15g","Thu Jan 19 2017 13:21:05 GMT-0500 (Eastern Standard Time)","male","White","don't know/not political","",NA,"","offCivRatings","the officer applied a chokehold to the civilian","the civilian kicked the officer in the stomach","choke","kickStom","officerCivilian","forceCiv","31","","","",""
"38",2699,"{""Q0"":1}","[object Object]","survey-likert",37,268439,"0.0-37.0","rbxlwzsuplskx4t5u52ut77rmtdao15g","Thu Jan 19 2017 13:21:05 GMT-0500 (Eastern Standard Time)","male","White","don't know/not political","",NA,"","offCivRatings","the officer applied a chokehold to the civilian","the civilian kicked the officer in the stomach","choke","kickStom","officerCivilian","punishCiv","1","","","",""
"39",2945,"{""Q0"":100}","[object Object]","survey-likert",38,271397,"0.0-38.0","rbxlwzsuplskx4t5u52ut77rmtdao15g","Thu Jan 19 2017 13:21:05 GMT-0500 (Eastern Standard Time)","male","White","don't know/not political","",NA,"","offCivRatings","the officer applied a chokehold to the civilian","the civilian kicked the officer in the stomach","choke","kickStom","officerCivilian","acceptableCiv","100","","","",""
"40",3934,"{""Q0"":1}","[object Object]","survey-likert",39,275342,"0.0-39.0","rbxlwzsuplskx4t5u52ut77rmtdao15g","Thu Jan 19 2017 13:21:05 GMT-0500 (Eastern Standard Time)","male","White","don't know/not political","",NA,"","offCivRatings","the officer applied a chokehold to the civilian","the civilian kicked the officer in the stomach","choke","kickStom","officerCivilian","manipCheckLow","1","","","",""
"41",5853,"{""Q0"":100}","[object Object]","survey-likert",40,281206,"0.0-40.0","rbxlwzsuplskx4t5u52ut77rmtdao15g","Thu Jan 19 2017 13:21:05 GMT-0500 (Eastern Standard Time)","male","White","don't know/not political","",NA,"","offCivRatings","the officer applied a chokehold to the civilian","the civilian kicked the officer in the stomach","choke","kickStom","officerCivilian","appropriateCiv","100","","","",""
"42",898,"","","instructions",41,282105,"0.0-41.0","rbxlwzsuplskx4t5u52ut77rmtdao15g","Thu Jan 19 2017 13:21:05 GMT-0500 (Eastern Standard Time)","male","White","don't know/not political","",NA,"[{""page_index"":0,""viewing_time"":898}]","break","","","","","","","","","","",""
"43",13721,"{""Q0"":46}","[object Object]","survey-likert",42,296081,"0.0-42.0","rbxlwzsuplskx4t5u52ut77rmtdao15g","Thu Jan 19 2017 13:21:05 GMT-0500 (Eastern Standard Time)","male","White","don't know/not political","",NA,"","offCivRatings","the officer shot the civilian in the chest with a handgun","the civilian twisted the arm of the officer, forcing him to the ground","handgunChest","armbar","civilianOfficer","acceptableOff","46","","","",""
"44",4250,"{""Q0"":60}","[object Object]","survey-likert",43,300343,"0.0-43.0","rbxlwzsuplskx4t5u52ut77rmtdao15g","Thu Jan 19 2017 13:21:05 GMT-0500 (Eastern Standard Time)","male","White","don't know/not political","",NA,"","offCivRatings","the officer shot the civilian in the chest with a handgun","the civilian twisted the arm of the officer, forcing him to the ground","handgunChest","armbar","civilianOfficer","appropriateOff","60","","","",""
"45",4410,"{""Q0"":52}","[object Object]","survey-likert",44,304765,"0.0-44.0","rbxlwzsuplskx4t5u52ut77rmtdao15g","Thu Jan 19 2017 13:21:05 GMT-0500 (Eastern Standard Time)","male","White","don't know/not political","",NA,"","offCivRatings","the officer shot the civilian in the chest with a handgun","the civilian twisted the arm of the officer, forcing him to the ground","handgunChest","armbar","civilianOfficer","punishOff","52","","","",""
"46",8925,"{""Q0"":100}","[object Object]","survey-likert",45,313703,"0.0-45.0","rbxlwzsuplskx4t5u52ut77rmtdao15g","Thu Jan 19 2017 13:21:05 GMT-0500 (Eastern Standard Time)","male","White","don't know/not political","",NA,"","offCivRatings","the officer shot the civilian in the chest with a handgun","the civilian twisted the arm of the officer, forcing him to the ground","handgunChest","armbar","civilianOfficer","forceOff","100","","","",""
"47",2972,"{""Q0"":1}","[object Object]","survey-likert",46,316690,"0.0-46.0","rbxlwzsuplskx4t5u52ut77rmtdao15g","Thu Jan 19 2017 13:21:05 GMT-0500 (Eastern Standard Time)","male","White","don't know/not political","",NA,"","offCivRatings","the officer shot the civilian in the chest with a handgun","the civilian twisted the arm of the officer, forcing him to the ground","handgunChest","armbar","civilianOfficer","manipCheckLow","1","","","",""
"48",879,"","","instructions",47,317569,"0.0-47.0","rbxlwzsuplskx4t5u52ut77rmtdao15g","Thu Jan 19 2017 13:21:05 GMT-0500 (Eastern Standard Time)","male","White","don't know/not political","",NA,"[{""page_index"":0,""viewing_time"":879}]","break","","","","","","","","","","",""
"49",8929,"{""Q0"":100}","[object Object]","survey-likert",48,326737,"0.0-48.0","rbxlwzsuplskx4t5u52ut77rmtdao15g","Thu Jan 19 2017 13:21:05 GMT-0500 (Eastern Standard Time)","male","White","don't know/not political","",NA,"","offCivRatings","the officer shot the civilian in the head with a handgun","the civilian shot the officer in the head with a handgun","handgunHead","handgunHead","civilianOfficer","acceptableOff","100","","","",""
"50",2221,"{""Q0"":100}","[object Object]","survey-likert",49,328971,"0.0-49.0","rbxlwzsuplskx4t5u52ut77rmtdao15g","Thu Jan 19 2017 13:21:05 GMT-0500 (Eastern Standard Time)","male","White","don't know/not political","",NA,"","offCivRatings","the officer shot the civilian in the head with a handgun","the civilian shot the officer in the head with a handgun","handgunHead","handgunHead","civilianOfficer","manipCheckHigh","100","","","",""
"51",2341,"{""Q0"":1}","[object Object]","survey-likert",50,331324,"0.0-50.0","rbxlwzsuplskx4t5u52ut77rmtdao15g","Thu Jan 19 2017 13:21:05 GMT-0500 (Eastern Standard Time)","male","White","don't know/not political","",NA,"","offCivRatings","the officer shot the civilian in the head with a handgun","the civilian shot the officer in the head with a handgun","handgunHead","handgunHead","civilianOfficer","punishOff","1","","","",""
"52",1974,"{""Q0"":100}","[object Object]","survey-likert",51,333312,"0.0-51.0","rbxlwzsuplskx4t5u52ut77rmtdao15g","Thu Jan 19 2017 13:21:05 GMT-0500 (Eastern Standard Time)","male","White","don't know/not political","",NA,"","offCivRatings","the officer shot the civilian in the head with a handgun","the civilian shot the officer in the head with a handgun","handgunHead","handgunHead","civilianOfficer","forceOff","100","","","",""
"53",5545,"{""Q0"":52}","[object Object]","survey-likert",52,338869,"0.0-52.0","rbxlwzsuplskx4t5u52ut77rmtdao15g","Thu Jan 19 2017 13:21:05 GMT-0500 (Eastern Standard Time)","male","White","don't know/not political","",NA,"","offCivRatings","the officer shot the civilian in the head with a handgun","the civilian shot the officer in the head with a handgun","handgunHead","handgunHead","civilianOfficer","appropriateOff","52","","","",""
"54",1098,"","","instructions",53,339968,"0.0-53.0","rbxlwzsuplskx4t5u52ut77rmtdao15g","Thu Jan 19 2017 13:21:05 GMT-0500 (Eastern Standard Time)","male","White","don't know/not political","",NA,"[{""page_index"":0,""viewing_time"":1097}]","break","","","","","","","","","","",""
"55",9284,"{""Q0"":94}","[object Object]","survey-likert",54,349491,"0.0-54.0","rbxlwzsuplskx4t5u52ut77rmtdao15g","Thu Jan 19 2017 13:21:05 GMT-0500 (Eastern Standard Time)","male","White","don't know/not political","",NA,"","offCivRatings","the officer called the civilian a ""thug""","the civilian applied a chokehold to the officer","nameCall","choke","officerCivilian","appropriateCiv","94","","","",""
"56",4518,"{""Q0"":77}","[object Object]","survey-likert",55,354021,"0.0-55.0","rbxlwzsuplskx4t5u52ut77rmtdao15g","Thu Jan 19 2017 13:21:05 GMT-0500 (Eastern Standard Time)","male","White","don't know/not political","",NA,"","offCivRatings","the officer called the civilian a ""thug""","the civilian applied a chokehold to the officer","nameCall","choke","officerCivilian","punishCiv","77","","","",""
"57",3627,"{""Q0"":62}","[object Object]","survey-likert",56,357660,"0.0-56.0","rbxlwzsuplskx4t5u52ut77rmtdao15g","Thu Jan 19 2017 13:21:05 GMT-0500 (Eastern Standard Time)","male","White","don't know/not political","",NA,"","offCivRatings","the officer called the civilian a ""thug""","the civilian applied a chokehold to the officer","nameCall","choke","officerCivilian","forceCiv","62","","","",""
"58",6051,"{""Q0"":66}","[object Object]","survey-likert",57,363722,"0.0-57.0","rbxlwzsuplskx4t5u52ut77rmtdao15g","Thu Jan 19 2017 13:21:05 GMT-0500 (Eastern Standard Time)","male","White","don't know/not political","",NA,"","offCivRatings","the officer called the civilian a ""thug""","the civilian applied a chokehold to the officer","nameCall","choke","officerCivilian","acceptableCiv","66","","","",""
"59",998,"","","instructions",58,364720,"0.0-58.0","rbxlwzsuplskx4t5u52ut77rmtdao15g","Thu Jan 19 2017 13:21:05 GMT-0500 (Eastern Standard Time)","male","White","don't know/not political","",NA,"[{""page_index"":0,""viewing_time"":997}]","break","","","","","","","","","","",""
"60",6229,"{""Q0"":100}","[object Object]","survey-likert",59,371197,"0.0-59.0","rbxlwzsuplskx4t5u52ut77rmtdao15g","Thu Jan 19 2017 13:21:05 GMT-0500 (Eastern Standard Time)","male","White","don't know/not political","",NA,"","offCivRatings","the officer purposefully struck the civilian with a motor vehicle","the civilian asked the officer how he was doing","vehicle","asked","civilianOfficer","punishOff","100","","","",""
"61",2569,"{""Q0"":100}","[object Object]","survey-likert",60,373778,"0.0-60.0","rbxlwzsuplskx4t5u52ut77rmtdao15g","Thu Jan 19 2017 13:21:05 GMT-0500 (Eastern Standard Time)","male","White","don't know/not political","",NA,"","offCivRatings","the officer purposefully struck the civilian with a motor vehicle","the civilian asked the officer how he was doing","vehicle","asked","civilianOfficer","forceOff","100","","","",""
"62",4241,"{""Q0"":100}","[object Object]","survey-likert",61,378032,"0.0-61.0","rbxlwzsuplskx4t5u52ut77rmtdao15g","Thu Jan 19 2017 13:21:05 GMT-0500 (Eastern Standard Time)","male","White","don't know/not political","",NA,"","offCivRatings","the officer purposefully struck the civilian with a motor vehicle","the civilian asked the officer how he was doing","vehicle","asked","civilianOfficer","appropriateOff","100","","","",""
"63",3448,"{""Q0"":1}","[object Object]","survey-likert",62,381495,"0.0-62.0","rbxlwzsuplskx4t5u52ut77rmtdao15g","Thu Jan 19 2017 13:21:05 GMT-0500 (Eastern Standard Time)","male","White","don't know/not political","",NA,"","offCivRatings","the officer purposefully struck the civilian with a motor vehicle","the civilian asked the officer how he was doing","vehicle","asked","civilianOfficer","manipCheckLow","1","","","",""
"64",2428,"{""Q0"":1}","[object Object]","survey-likert",63,383935,"0.0-63.0","rbxlwzsuplskx4t5u52ut77rmtdao15g","Thu Jan 19 2017 13:21:05 GMT-0500 (Eastern Standard Time)","male","White","don't know/not political","",NA,"","offCivRatings","the officer purposefully struck the civilian with a motor vehicle","the civilian asked the officer how he was doing","vehicle","asked","civilianOfficer","acceptableOff","1","","","",""
"65",653,"","","instructions",64,384588,"0.0-64.0","rbxlwzsuplskx4t5u52ut77rmtdao15g","Thu Jan 19 2017 13:21:05 GMT-0500 (Eastern Standard Time)","male","White","don't know/not political","",NA,"[{""page_index"":0,""viewing_time"":652}]","break","","","","","","","","","","",""
"66",9593,"{""Q0"":31}","[object Object]","survey-likert",65,394430,"0.0-65.0","rbxlwzsuplskx4t5u52ut77rmtdao15g","Thu Jan 19 2017 13:21:05 GMT-0500 (Eastern Standard Time)","male","White","don't know/not political","",NA,"","offCivRatings","the officer said ""if you touch me, you're gonna get hurt"" to the civilian","the civilian slammed the officer's head into the concrete curb","hurtThreat","headSlam","officerCivilian","acceptableCiv","31","","","",""
"67",3241,"{""Q0"":70}","[object Object]","survey-likert",66,397684,"0.0-66.0","rbxlwzsuplskx4t5u52ut77rmtdao15g","Thu Jan 19 2017 13:21:05 GMT-0500 (Eastern Standard Time)","male","White","don't know/not political","",NA,"","offCivRatings","the officer said ""if you touch me, you're gonna get hurt"" to the civilian","the civilian slammed the officer's head into the concrete curb","hurtThreat","headSlam","officerCivilian","forceCiv","70","","","",""
"68",3795,"{""Q0"":72}","[object Object]","survey-likert",67,401490,"0.0-67.0","rbxlwzsuplskx4t5u52ut77rmtdao15g","Thu Jan 19 2017 13:21:05 GMT-0500 (Eastern Standard Time)","male","White","don't know/not political","",NA,"","offCivRatings","the officer said ""if you touch me, you're gonna get hurt"" to the civilian","the civilian slammed the officer's head into the concrete curb","hurtThreat","headSlam","officerCivilian","appropriateCiv","72","","","",""
"69",3687,"{""Q0"":92}","[object Object]","survey-likert",68,405191,"0.0-68.0","rbxlwzsuplskx4t5u52ut77rmtdao15g","Thu Jan 19 2017 13:21:05 GMT-0500 (Eastern Standard Time)","male","White","don't know/not political","",NA,"","offCivRatings","the officer said ""if you touch me, you're gonna get hurt"" to the civilian","the civilian slammed the officer's head into the concrete curb","hurtThreat","headSlam","officerCivilian","punishCiv","92","","","",""
"70",771,"","","instructions",69,405962,"0.0-69.0","rbxlwzsuplskx4t5u52ut77rmtdao15g","Thu Jan 19 2017 13:21:05 GMT-0500 (Eastern Standard Time)","male","White","don't know/not political","",NA,"[{""page_index"":0,""viewing_time"":771}]","break","","","","","","","","","","",""
"71",6088,"{""Q0"":3}","[object Object]","survey-likert",70,412283,"0.0-70.0","rbxlwzsuplskx4t5u52ut77rmtdao15g","Thu Jan 19 2017 13:21:05 GMT-0500 (Eastern Standard Time)","male","White","don't know/not political","",NA,"","offCivRatings","the officer struck the civilian on the leg with a collapsible baton","the civilian pulled away from the officer","batonLeg","pulledAway","officerCivilian","forceCiv","3","","","",""
"72",2904,"{""Q0"":1}","[object Object]","survey-likert",71,415200,"0.0-71.0","rbxlwzsuplskx4t5u52ut77rmtdao15g","Thu Jan 19 2017 13:21:05 GMT-0500 (Eastern Standard Time)","male","White","don't know/not political","",NA,"","offCivRatings","the officer struck the civilian on the leg with a collapsible baton","the civilian pulled away from the officer","batonLeg","pulledAway","officerCivilian","appropriateCiv","1","","","",""
"73",2402,"{""Q0"":1}","[object Object]","survey-likert",72,417614,"0.0-72.0","rbxlwzsuplskx4t5u52ut77rmtdao15g","Thu Jan 19 2017 13:21:05 GMT-0500 (Eastern Standard Time)","male","White","don't know/not political","",NA,"","offCivRatings","the officer struck the civilian on the leg with a collapsible baton","the civilian pulled away from the officer","batonLeg","pulledAway","officerCivilian","punishCiv","1","","","",""
"74",4459,"{""Q0"":100}","[object Object]","survey-likert",73,422085,"0.0-73.0","rbxlwzsuplskx4t5u52ut77rmtdao15g","Thu Jan 19 2017 13:21:05 GMT-0500 (Eastern Standard Time)","male","White","don't know/not political","",NA,"","offCivRatings","the officer struck the civilian on the leg with a collapsible baton","the civilian pulled away from the officer","batonLeg","pulledAway","officerCivilian","acceptableCiv","100","","","",""
"75",998,"","","instructions",74,423083,"0.0-74.0","rbxlwzsuplskx4t5u52ut77rmtdao15g","Thu Jan 19 2017 13:21:05 GMT-0500 (Eastern Standard Time)","male","White","don't know/not political","",NA,"[{""page_index"":0,""viewing_time"":998}]","break","","","","","","","","","","",""
"76",9066,"{""Q0"":100}","[object Object]","survey-likert",75,432381,"0.0-75.0","rbxlwzsuplskx4t5u52ut77rmtdao15g","Thu Jan 19 2017 13:21:05 GMT-0500 (Eastern Standard Time)","male","White","don't know/not political","",NA,"","offCivRatings","the officer twisted the arm of the civilian, forcing him to the ground","the civilian purposefully struck the officer with a motor vehicle","armbar","vehicle","officerCivilian","punishCiv","100","","","",""
"77",3419,"{""Q0"":100}","[object Object]","survey-likert",76,435813,"0.0-76.0","rbxlwzsuplskx4t5u52ut77rmtdao15g","Thu Jan 19 2017 13:21:05 GMT-0500 (Eastern Standard Time)","male","White","don't know/not political","",NA,"","offCivRatings","the officer twisted the arm of the civilian, forcing him to the ground","the civilian purposefully struck the officer with a motor vehicle","armbar","vehicle","officerCivilian","forceCiv","100","","","",""
"78",4518,"{""Q0"":96}","[object Object]","survey-likert",77,440342,"0.0-77.0","rbxlwzsuplskx4t5u52ut77rmtdao15g","Thu Jan 19 2017 13:21:05 GMT-0500 (Eastern Standard Time)","male","White","don't know/not political","",NA,"","offCivRatings","the officer twisted the arm of the civilian, forcing him to the ground","the civilian purposefully struck the officer with a motor vehicle","armbar","vehicle","officerCivilian","appropriateCiv","96","","","",""
"79",2022,"{""Q0"":1}","[object Object]","survey-likert",78,442379,"0.0-78.0","rbxlwzsuplskx4t5u52ut77rmtdao15g","Thu Jan 19 2017 13:21:05 GMT-0500 (Eastern Standard Time)","male","White","don't know/not political","",NA,"","offCivRatings","the officer twisted the arm of the civilian, forcing him to the ground","the civilian purposefully struck the officer with a motor vehicle","armbar","vehicle","officerCivilian","acceptableCiv","1","","","",""
"80",622,"","","instructions",79,443001,"0.0-79.0","rbxlwzsuplskx4t5u52ut77rmtdao15g","Thu Jan 19 2017 13:21:05 GMT-0500 (Eastern Standard Time)","male","White","don't know/not political","",NA,"[{""page_index"":0,""viewing_time"":622}]","break","","","","","","","","","","",""
"81",6428,"{""Q0"":10}","[object Object]","survey-likert",80,449666,"0.0-80.0","rbxlwzsuplskx4t5u52ut77rmtdao15g","Thu Jan 19 2017 13:21:05 GMT-0500 (Eastern Standard Time)","male","White","don't know/not political","",NA,"","offCivRatings","the officer stood near the civilian","the civilian shouted ""I don't have to fucking listen to you!"" at the officer","stoodNear","dontListen","civilianOfficer","forceOff","10","","","",""
"82",4944,"{""Q0"":24}","[object Object]","survey-likert",81,454621,"0.0-81.0","rbxlwzsuplskx4t5u52ut77rmtdao15g","Thu Jan 19 2017 13:21:05 GMT-0500 (Eastern Standard Time)","male","White","don't know/not political","",NA,"","offCivRatings","the officer stood near the civilian","the civilian shouted ""I don't have to fucking listen to you!"" at the officer","stoodNear","dontListen","civilianOfficer","appropriateOff","24","","","",""
"83",3816,"{""Q0"":96}","[object Object]","survey-likert",82,458448,"0.0-82.0","rbxlwzsuplskx4t5u52ut77rmtdao15g","Thu Jan 19 2017 13:21:05 GMT-0500 (Eastern Standard Time)","male","White","don't know/not political","",NA,"","offCivRatings","the officer stood near the civilian","the civilian shouted ""I don't have to fucking listen to you!"" at the officer","stoodNear","dontListen","civilianOfficer","acceptableOff","96","","","",""
"84",4052,"{""Q0"":1}","[object Object]","survey-likert",83,462513,"0.0-83.0","rbxlwzsuplskx4t5u52ut77rmtdao15g","Thu Jan 19 2017 13:21:05 GMT-0500 (Eastern Standard Time)","male","White","don't know/not political","",NA,"","offCivRatings","the officer stood near the civilian","the civilian shouted ""I don't have to fucking listen to you!"" at the officer","stoodNear","dontListen","civilianOfficer","punishOff","1","","","",""
"85",948,"","","instructions",84,463461,"0.0-84.0","rbxlwzsuplskx4t5u52ut77rmtdao15g","Thu Jan 19 2017 13:21:05 GMT-0500 (Eastern Standard Time)","male","White","don't know/not political","",NA,"[{""page_index"":0,""viewing_time"":948}]","break","","","","","","","","","","",""
"86",7351,"{""Q0"":84}","[object Object]","survey-likert",85,471036,"0.0-85.0","rbxlwzsuplskx4t5u52ut77rmtdao15g","Thu Jan 19 2017 13:21:05 GMT-0500 (Eastern Standard Time)","male","White","don't know/not political","",NA,"","offCivRatings","the officer slammed the civilian's head into the concrete curb","the civilian called the officer a ""pig""","headSlam","nameCall","officerCivilian","acceptableCiv","84","","","",""
"87",3299,"{""Q0"":63}","[object Object]","survey-likert",86,474349,"0.0-86.0","rbxlwzsuplskx4t5u52ut77rmtdao15g","Thu Jan 19 2017 13:21:05 GMT-0500 (Eastern Standard Time)","male","White","don't know/not political","",NA,"","offCivRatings","the officer slammed the civilian's head into the concrete curb","the civilian called the officer a ""pig""","headSlam","nameCall","officerCivilian","appropriateCiv","63","","","",""
"88",4331,"{""Q0"":59}","[object Object]","survey-likert",87,478691,"0.0-87.0","rbxlwzsuplskx4t5u52ut77rmtdao15g","Thu Jan 19 2017 13:21:05 GMT-0500 (Eastern Standard Time)","male","White","don't know/not political","",NA,"","offCivRatings","the officer slammed the civilian's head into the concrete curb","the civilian called the officer a ""pig""","headSlam","nameCall","officerCivilian","forceCiv","59","","","",""
"89",3061,"{""Q0"":10}","[object Object]","survey-likert",88,481765,"0.0-88.0","rbxlwzsuplskx4t5u52ut77rmtdao15g","Thu Jan 19 2017 13:21:05 GMT-0500 (Eastern Standard Time)","male","White","don't know/not political","",NA,"","offCivRatings","the officer slammed the civilian's head into the concrete curb","the civilian called the officer a ""pig""","headSlam","nameCall","officerCivilian","punishCiv","10","","","",""
"90",791,"","","instructions",89,482556,"0.0-89.0","rbxlwzsuplskx4t5u52ut77rmtdao15g","Thu Jan 19 2017 13:21:05 GMT-0500 (Eastern Standard Time)","male","White","don't know/not political","",NA,"[{""page_index"":0,""viewing_time"":790}]","break","","","","","","","","","","",""
"91",5778,"{""Q0"":1}","[object Object]","survey-likert",90,488568,"0.0-90.0","rbxlwzsuplskx4t5u52ut77rmtdao15g","Thu Jan 19 2017 13:21:05 GMT-0500 (Eastern Standard Time)","male","White","don't know/not political","",NA,"","offCivRatings","the officer punched the civilian in the face","the civilian waved at the officer in greeting","punchFace","waved","officerCivilian","forceCiv","1","","","",""
"92",3616,"{""Q0"":1}","[object Object]","survey-likert",91,492197,"0.0-91.0","rbxlwzsuplskx4t5u52ut77rmtdao15g","Thu Jan 19 2017 13:21:05 GMT-0500 (Eastern Standard Time)","male","White","don't know/not political","",NA,"","offCivRatings","the officer punched the civilian in the face","the civilian waved at the officer in greeting","punchFace","waved","officerCivilian","punishCiv","1","","","",""
"93",2796,"{""Q0"":1}","[object Object]","survey-likert",92,495005,"0.0-92.0","rbxlwzsuplskx4t5u52ut77rmtdao15g","Thu Jan 19 2017 13:21:05 GMT-0500 (Eastern Standard Time)","male","White","don't know/not political","",NA,"","offCivRatings","the officer punched the civilian in the face","the civilian waved at the officer in greeting","punchFace","waved","officerCivilian","appropriateCiv","1","","","",""
"94",4003,"{""Q0"":100}","[object Object]","survey-likert",93,499019,"0.0-93.0","rbxlwzsuplskx4t5u52ut77rmtdao15g","Thu Jan 19 2017 13:21:05 GMT-0500 (Eastern Standard Time)","male","White","don't know/not political","",NA,"","offCivRatings","the officer punched the civilian in the face","the civilian waved at the officer in greeting","punchFace","waved","officerCivilian","manipCheckHigh","100","","","",""
"95",5661,"{""Q0"":40}","[object Object]","survey-likert",94,504695,"0.0-94.0","rbxlwzsuplskx4t5u52ut77rmtdao15g","Thu Jan 19 2017 13:21:05 GMT-0500 (Eastern Standard Time)","male","White","don't know/not political","",NA,"","offCivRatings","the officer punched the civilian in the face","the civilian waved at the officer in greeting","punchFace","waved","officerCivilian","acceptableCiv","40","","","",""
"96",1304,"","","instructions",95,505999,"0.0-95.0","rbxlwzsuplskx4t5u52ut77rmtdao15g","Thu Jan 19 2017 13:21:05 GMT-0500 (Eastern Standard Time)","male","White","don't know/not political","",NA,"[{""page_index"":0,""viewing_time"":1304}]","break","","","","","","","","","","",""
"97",5764,"{""Q0"":1}","[object Object]","survey-likert",96,511994,"0.0-96.0","rbxlwzsuplskx4t5u52ut77rmtdao15g","Thu Jan 19 2017 13:21:05 GMT-0500 (Eastern Standard Time)","male","White","don't know/not political","",NA,"","offCivRatings","the officer put handcuffs on the civilian","the civilian punched the officer in the face","handcuff","punchFace","civilianOfficer","punishOff","1","","","",""
"98",4340,"{""Q0"":70}","[object Object]","survey-likert",97,516346,"0.0-97.0","rbxlwzsuplskx4t5u52ut77rmtdao15g","Thu Jan 19 2017 13:21:05 GMT-0500 (Eastern Standard Time)","male","White","don't know/not political","",NA,"","offCivRatings","the officer put handcuffs on the civilian","the civilian punched the officer in the face","handcuff","punchFace","civilianOfficer","forceOff","70","","","",""
"99",3289,"{""Q0"":51}","[object Object]","survey-likert",98,519648,"0.0-98.0","rbxlwzsuplskx4t5u52ut77rmtdao15g","Thu Jan 19 2017 13:21:05 GMT-0500 (Eastern Standard Time)","male","White","don't know/not political","",NA,"","offCivRatings","the officer put handcuffs on the civilian","the civilian punched the officer in the face","handcuff","punchFace","civilianOfficer","appropriateOff","51","","","",""
"100",3965,"{""Q0"":100}","[object Object]","survey-likert",99,523624,"0.0-99.0","rbxlwzsuplskx4t5u52ut77rmtdao15g","Thu Jan 19 2017 13:21:05 GMT-0500 (Eastern Standard Time)","male","White","don't know/not political","",NA,"","offCivRatings","the officer put handcuffs on the civilian","the civilian punched the officer in the face","handcuff","punchFace","civilianOfficer","acceptableOff","100","","","",""
"101",1382,"","","instructions",100,525006,"0.0-100.0","rbxlwzsuplskx4t5u52ut77rmtdao15g","Thu Jan 19 2017 13:21:05 GMT-0500 (Eastern Standard Time)","male","White","don't know/not political","",NA,"[{""page_index"":0,""viewing_time"":1382}]","break","","","","","","","","","","",""
"102",5667,"{""Q0"":1}","[object Object]","survey-likert",101,530901,"0.0-101.0","rbxlwzsuplskx4t5u52ut77rmtdao15g","Thu Jan 19 2017 13:21:05 GMT-0500 (Eastern Standard Time)","male","White","don't know/not political","",NA,"","offCivRatings","the officer shouted ""get your fucking hands up!"" at the civilian","the civilian shot the officer in the chest with a handgun","handsUp","handgunChest","officerCivilian","manipCheckLow","1","","","",""
"103",2411,"{""Q0"":1}","[object Object]","survey-likert",102,533325,"0.0-102.0","rbxlwzsuplskx4t5u52ut77rmtdao15g","Thu Jan 19 2017 13:21:05 GMT-0500 (Eastern Standard Time)","male","White","don't know/not political","",NA,"","offCivRatings","the officer shouted ""get your fucking hands up!"" at the civilian","the civilian shot the officer in the chest with a handgun","handsUp","handgunChest","officerCivilian","acceptableCiv","1","","","",""
"104",3370,"{""Q0"":98}","[object Object]","survey-likert",103,536706,"0.0-103.0","rbxlwzsuplskx4t5u52ut77rmtdao15g","Thu Jan 19 2017 13:21:05 GMT-0500 (Eastern Standard Time)","male","White","don't know/not political","",NA,"","offCivRatings","the officer shouted ""get your fucking hands up!"" at the civilian","the civilian shot the officer in the chest with a handgun","handsUp","handgunChest","officerCivilian","forceCiv","98","","","",""
"105",2311,"{""Q0"":100}","[object Object]","survey-likert",104,539030,"0.0-104.0","rbxlwzsuplskx4t5u52ut77rmtdao15g","Thu Jan 19 2017 13:21:05 GMT-0500 (Eastern Standard Time)","male","White","don't know/not political","",NA,"","offCivRatings","the officer shouted ""get your fucking hands up!"" at the civilian","the civilian shot the officer in the chest with a handgun","handsUp","handgunChest","officerCivilian","punishCiv","100","","","",""
"106",7485,"{""Q0"":24}","[object Object]","survey-likert",105,546527,"0.0-105.0","rbxlwzsuplskx4t5u52ut77rmtdao15g","Thu Jan 19 2017 13:21:05 GMT-0500 (Eastern Standard Time)","male","White","don't know/not political","",NA,"","offCivRatings","the officer shouted ""get your fucking hands up!"" at the civilian","the civilian shot the officer in the chest with a handgun","handsUp","handgunChest","officerCivilian","appropriateCiv","24","","","",""
"107",1305,"","","instructions",106,547832,"0.0-106.0","rbxlwzsuplskx4t5u52ut77rmtdao15g","Thu Jan 19 2017 13:21:05 GMT-0500 (Eastern Standard Time)","male","White","don't know/not political","",NA,"[{""page_index"":0,""viewing_time"":1305}]","break","","","","","","","","","","",""
"108",10295,"{""Q0"":60}","[object Object]","survey-likert",107,558365,"0.0-107.0","rbxlwzsuplskx4t5u52ut77rmtdao15g","Thu Jan 19 2017 13:21:05 GMT-0500 (Eastern Standard Time)","male","White","don't know/not political","",NA,"","offCivRatings","the officer struck the civilian in the stomach with a metal flashlight","the civilian said ""if you touch me, you're gonna get hurt"" to the officer","flashlight","hurtThreat","officerCivilian","appropriateCiv","60","","","",""
"109",7771,"{""Q0"":57}","[object Object]","survey-likert",108,566149,"0.0-108.0","rbxlwzsuplskx4t5u52ut77rmtdao15g","Thu Jan 19 2017 13:21:05 GMT-0500 (Eastern Standard Time)","male","White","don't know/not political","",NA,"","offCivRatings","the officer struck the civilian in the stomach with a metal flashlight","the civilian said ""if you touch me, you're gonna get hurt"" to the officer","flashlight","hurtThreat","officerCivilian","forceCiv","57","","","",""
"110",5675,"{""Q0"":60}","[object Object]","survey-likert",109,571837,"0.0-109.0","rbxlwzsuplskx4t5u52ut77rmtdao15g","Thu Jan 19 2017 13:21:05 GMT-0500 (Eastern Standard Time)","male","White","don't know/not political","",NA,"","offCivRatings","the officer struck the civilian in the stomach with a metal flashlight","the civilian said ""if you touch me, you're gonna get hurt"" to the officer","flashlight","hurtThreat","officerCivilian","acceptableCiv","60","","","",""
"111",4311,"{""Q0"":65}","[object Object]","survey-likert",110,576160,"0.0-110.0","rbxlwzsuplskx4t5u52ut77rmtdao15g","Thu Jan 19 2017 13:21:05 GMT-0500 (Eastern Standard Time)","male","White","don't know/not political","",NA,"","offCivRatings","the officer struck the civilian in the stomach with a metal flashlight","the civilian said ""if you touch me, you're gonna get hurt"" to the officer","flashlight","hurtThreat","officerCivilian","punishCiv","65","","","",""
"112",2450,"{""Q0"":1}","[object Object]","survey-likert",111,578621,"0.0-111.0","rbxlwzsuplskx4t5u52ut77rmtdao15g","Thu Jan 19 2017 13:21:05 GMT-0500 (Eastern Standard Time)","male","White","don't know/not political","",NA,"","offCivRatings","the officer struck the civilian in the stomach with a metal flashlight","the civilian said ""if you touch me, you're gonna get hurt"" to the officer","flashlight","hurtThreat","officerCivilian","manipCheckLow","1","","","",""
"113",1048,"","","instructions",112,579670,"0.0-112.0","rbxlwzsuplskx4t5u52ut77rmtdao15g","Thu Jan 19 2017 13:21:05 GMT-0500 (Eastern Standard Time)","male","White","don't know/not political","",NA,"[{""page_index"":0,""viewing_time"":1047}]","break","","","","","","","","","","",""
"114",6260,"{""Q0"":100}","[object Object]","survey-likert",113,586169,"0.0-113.0","rbxlwzsuplskx4t5u52ut77rmtdao15g","Thu Jan 19 2017 13:21:05 GMT-0500 (Eastern Standard Time)","male","White","don't know/not political","",NA,"","offCivRatings","the officer shot the civilian in the chest with a beanbag shotgun round","the civilian struck the officer on the leg with a metal pipe","beanbag","metalPipe","officerCivilian","acceptableCiv","100","","","",""
"115",5744,"{""Q0"":66}","[object Object]","survey-likert",114,591924,"0.0-114.0","rbxlwzsuplskx4t5u52ut77rmtdao15g","Thu Jan 19 2017 13:21:05 GMT-0500 (Eastern Standard Time)","male","White","don't know/not political","",NA,"","offCivRatings","the officer shot the civilian in the chest with a beanbag shotgun round","the civilian struck the officer on the leg with a metal pipe","beanbag","metalPipe","officerCivilian","appropriateCiv","66","","","",""
"116",4519,"{""Q0"":67}","[object Object]","survey-likert",115,596455,"0.0-115.0","rbxlwzsuplskx4t5u52ut77rmtdao15g","Thu Jan 19 2017 13:21:05 GMT-0500 (Eastern Standard Time)","male","White","don't know/not political","",NA,"","offCivRatings","the officer shot the civilian in the chest with a beanbag shotgun round","the civilian struck the officer on the leg with a metal pipe","beanbag","metalPipe","officerCivilian","forceCiv","67","","","",""
"117",4842,"{""Q0"":2}","[object Object]","survey-likert",116,601309,"0.0-116.0","rbxlwzsuplskx4t5u52ut77rmtdao15g","Thu Jan 19 2017 13:21:05 GMT-0500 (Eastern Standard Time)","male","White","don't know/not political","",NA,"","offCivRatings","the officer shot the civilian in the chest with a beanbag shotgun round","the civilian struck the officer on the leg with a metal pipe","beanbag","metalPipe","officerCivilian","punishCiv","2","","","",""
"118",1116,"","","instructions",117,602426,"0.0-117.0","rbxlwzsuplskx4t5u52ut77rmtdao15g","Thu Jan 19 2017 13:21:05 GMT-0500 (Eastern Standard Time)","male","White","don't know/not political","",NA,"[{""page_index"":0,""viewing_time"":1116}]","break","","","","","","","","","","",""
"119",5683,"{""Q0"":86}","[object Object]","survey-likert",118,608370,"0.0-118.0","rbxlwzsuplskx4t5u52ut77rmtdao15g","Thu Jan 19 2017 13:21:05 GMT-0500 (Eastern Standard Time)","male","White","don't know/not political","",NA,"","offCivRatings","the officer sprayed the civilian with pepper spray","the civilian sprayed the officer with pepper spray","pepperSpray","pepperSpray","civilianOfficer","forceOff","86","","","",""
"120",3260,"{""Q0"":100}","[object Object]","survey-likert",119,611644,"0.0-119.0","rbxlwzsuplskx4t5u52ut77rmtdao15g","Thu Jan 19 2017 13:21:05 GMT-0500 (Eastern Standard Time)","male","White","don't know/not political","",NA,"","offCivRatings","the officer sprayed the civilian with pepper spray","the civilian sprayed the officer with pepper spray","pepperSpray","pepperSpray","civilianOfficer","manipCheckHigh","100","","","",""
"121",3864,"{""Q0"":93}","[object Object]","survey-likert",120,615519,"0.0-120.0","rbxlwzsuplskx4t5u52ut77rmtdao15g","Thu Jan 19 2017 13:21:05 GMT-0500 (Eastern Standard Time)","male","White","don't know/not political","",NA,"","offCivRatings","the officer sprayed the civilian with pepper spray","the civilian sprayed the officer with pepper spray","pepperSpray","pepperSpray","civilianOfficer","acceptableOff","93","","","",""
"122",3920,"{""Q0"":78}","[object Object]","survey-likert",121,619456,"0.0-121.0","rbxlwzsuplskx4t5u52ut77rmtdao15g","Thu Jan 19 2017 13:21:05 GMT-0500 (Eastern Standard Time)","male","White","don't know/not political","",NA,"","offCivRatings","the officer sprayed the civilian with pepper spray","the civilian sprayed the officer with pepper spray","pepperSpray","pepperSpray","civilianOfficer","appropriateOff","78","","","",""
"123",3190,"{""Q0"":26}","[object Object]","survey-likert",122,622661,"0.0-122.0","rbxlwzsuplskx4t5u52ut77rmtdao15g","Thu Jan 19 2017 13:21:05 GMT-0500 (Eastern Standard Time)","male","White","don't know/not political","",NA,"","offCivRatings","the officer sprayed the civilian with pepper spray","the civilian sprayed the officer with pepper spray","pepperSpray","pepperSpray","civilianOfficer","punishOff","26","","","",""
"124",958,"","","instructions",123,623619,"0.0-123.0","rbxlwzsuplskx4t5u52ut77rmtdao15g","Thu Jan 19 2017 13:21:05 GMT-0500 (Eastern Standard Time)","male","White","don't know/not political","",NA,"[{""page_index"":0,""viewing_time"":958}]","break","","","","","","","","","","",""
"125",7451,"{""Q0"":6}","[object Object]","survey-likert",124,631307,"0.0-124.0","rbxlwzsuplskx4t5u52ut77rmtdao15g","Thu Jan 19 2017 13:21:05 GMT-0500 (Eastern Standard Time)","male","White","don't know/not political","",NA,"","policeLegitimacy","","","","","","","6","support","feltObligation","",""
"126",4845,"{""Q0"":91}","[object Object]","survey-likert",125,636164,"0.0-125.0","rbxlwzsuplskx4t5u52ut77rmtdao15g","Thu Jan 19 2017 13:21:05 GMT-0500 (Eastern Standard Time)","male","White","don't know/not political","",NA,"","policeLegitimacy","","","","","","","91","communityWants","normAlignment","",""
"127",5201,"{""Q0"":31}","[object Object]","survey-likert",126,641376,"0.0-126.0","rbxlwzsuplskx4t5u52ut77rmtdao15g","Thu Jan 19 2017 13:21:05 GMT-0500 (Eastern Standard Time)","male","White","don't know/not political","",NA,"","policeLegitimacy","","","","","","","31","rightWrong","normAlignment","",""
"128",4400,"{""Q0"":35}","[object Object]","survey-likert",127,645788,"0.0-127.0","rbxlwzsuplskx4t5u52ut77rmtdao15g","Thu Jan 19 2017 13:21:05 GMT-0500 (Eastern Standard Time)","male","White","don't know/not political","",NA,"","policeLegitimacy","","","","","","","35","importantValues","normAlignment","",""
"129",10618,"{""Q0"":70}","[object Object]","survey-likert",128,656418,"0.0-128.0","rbxlwzsuplskx4t5u52ut77rmtdao15g","Thu Jan 19 2017 13:21:05 GMT-0500 (Eastern Standard Time)","male","White","don't know/not political","",NA,"","policeLegitimacy","","","","","","","70","doTreat","feltObligation","",""
"130",5594,"{""Q0"":62}","[object Object]","survey-likert",129,662024,"0.0-129.0","rbxlwzsuplskx4t5u52ut77rmtdao15g","Thu Jan 19 2017 13:21:05 GMT-0500 (Eastern Standard Time)","male","White","don't know/not political","",NA,"","policeLegitimacy","","","","","","","62","doReasons","feltObligation","",""
"131",5637,"{""Q0"":""no""}","[object Object]","survey-multi-choice2",130,667671,"0.0-130.0","rbxlwzsuplskx4t5u52ut77rmtdao15g","Thu Jan 19 2017 13:21:05 GMT-0500 (Eastern Standard Time)","male","White","don't know/not political","",NA,"","policeExperience","","","","","","","no","insultLang","","vicarious","Have the police ever used insulting language toward anyone in your household?"
"132",4483,"{""Q0"":""no""}","[object Object]","survey-multi-choice2",131,672160,"0.0-131.0","rbxlwzsuplskx4t5u52ut77rmtdao15g","Thu Jan 19 2017 13:21:05 GMT-0500 (Eastern Standard Time)","male","White","don't know/not political","",NA,"","policeExperience","","","","","","","no","insultLang","","personal","Have the police ever used insulting language toward you?"
"133",5847,"{""Q0"":""yes""}","[object Object]","survey-multi-choice2",132,678012,"0.0-132.0","rbxlwzsuplskx4t5u52ut77rmtdao15g","Thu Jan 19 2017 13:21:05 GMT-0500 (Eastern Standard Time)","male","White","don't know/not political","",NA,"","policeExperience","","","","","","","yes","stopped","","personal","Have you ever been stopped by the police on the street without good reason?"
"134",4287,"{""Q0"":""no""}","[object Object]","survey-multi-choice2",133,682304,"0.0-133.0","rbxlwzsuplskx4t5u52ut77rmtdao15g","Thu Jan 19 2017 13:21:05 GMT-0500 (Eastern Standard Time)","male","White","don't know/not political","",NA,"","policeExperience","","","","","","","no","stopped","","vicarious","Has anyone in your household ever been stopped on the street by the police without good reason?"
"135",3721,"{""Q0"":""no""}","[object Object]","survey-multi-choice2",134,686032,"0.0-134.0","rbxlwzsuplskx4t5u52ut77rmtdao15g","Thu Jan 19 2017 13:21:05 GMT-0500 (Eastern Standard Time)","male","White","don't know/not political","",NA,"","policeExperience","","","","","","","no","excessForce","","vicarious","Have the police ever used excessive force against anyone in your household?"
"136",1963,"{""Q0"":""no""}","[object Object]","survey-multi-choice2",135,687999,"0.0-135.0","rbxlwzsuplskx4t5u52ut77rmtdao15g","Thu Jan 19 2017 13:21:05 GMT-0500 (Eastern Standard Time)","male","White","don't know/not political","",NA,"","policeExperience","","","","","","","no","excessForce","","personal","Have the police ever used excessive force against you?"
"137",3536,"{""Q0"":""no""}","[object Object]","survey-multi-choice2",136,691539,"0.0-136.0","rbxlwzsuplskx4t5u52ut77rmtdao15g","Thu Jan 19 2017 13:21:05 GMT-0500 (Eastern Standard Time)","male","White","don't know/not political","",NA,"","policeExperience","","","","","","","no","corrupt","","personal","Have you ever seen a police officer engage in any corrupt activities (e.g., taking bribes or involvement in the drug trade)?"
"138",11723,"{""Q0"":""male"",""Q1"":""White"",""Q2"":""don't know/not political""}","[object Object]","survey-multi-choice",137,703297,"0.0-137.0","rbxlwzsuplskx4t5u52ut77rmtdao15g","Thu Jan 19 2017 13:21:05 GMT-0500 (Eastern Standard Time)","male","White","don't know/not political","",NA,"","demographics","","","","","","","","","","",""
"139",5615,"","","instructions",138,709913,"0.0-138.0","rbxlwzsuplskx4t5u52ut77rmtdao15g","Thu Jan 19 2017 13:21:05 GMT-0500 (Eastern Standard Time)","male","White","don't know/not political","",NA,"[{""page_index"":0,""viewing_time"":2768},{""page_index"":1,""viewing_time"":1572},{""page_index"":2,""viewing_time"":413},{""page_index"":3,""viewing_time"":862}]","debriefing","","","","","","","","","","",""
