"","rt","responses","internalResp","trial_type","trial_index","time_elapsed","internal_node_id","randSubjectID","date","sex","race","polAff","stimulus","key_press","view_history","questionType","officerAction","civilianAction","offActName","civActName","order","questionName","response","name","dimension","person","question"
"1",6467,"","[object Object]","survey-text",0,6474,"0.0-0.0","rqq3x7q7pbuk2f5y42n7f1zpn4wbgkua","Mon Jan 23 2017 20:17:04 GMT-0500 (EST)","male","White","conservative","",NA,"","","","","","","","","","","","",""
"2",3485,"","","single-stim",1,10964,"0.0-1.0","rqq3x7q7pbuk2f5y42n7f1zpn4wbgkua","Mon Jan 23 2017 20:17:04 GMT-0500 (EST)","male","White","conservative","<img src='static/images/1602685960_ICS_Credit-0.png' alt='Consent 1' height=1100 width=850><img src='static/images/1602685960_ICS_Credit-1.png' alt='Consent 2' height=1100 width=850></p>",89,"","","","","","","","","","","","",""
"3",5792,"","","instructions",2,17758,"0.0-2.0","rqq3x7q7pbuk2f5y42n7f1zpn4wbgkua","Mon Jan 23 2017 20:17:04 GMT-0500 (EST)","male","White","conservative","",NA,"[{""page_index"":0,""viewing_time"":5791}]","instructions","","","","","","","","","","",""
"4",34546,"","","instructions",3,53305,"0.0-3.0","rqq3x7q7pbuk2f5y42n7f1zpn4wbgkua","Mon Jan 23 2017 20:17:04 GMT-0500 (EST)","male","White","conservative","",NA,"[{""page_index"":0,""viewing_time"":3157},{""page_index"":1,""viewing_time"":21078},{""page_index"":2,""viewing_time"":6371},{""page_index"":3,""viewing_time"":3939}]","instructions","","","","","","","","","","",""
"5",20798,"{""Q0"":79}","[object Object]","survey-likert",4,75130,"0.0-4.0","rqq3x7q7pbuk2f5y42n7f1zpn4wbgkua","Mon Jan 23 2017 20:17:04 GMT-0500 (EST)","male","White","conservative","",NA,"","offCivRatings","the officer put handcuffs on the civilian","the civilian punched the officer in the face","handcuff","punchFace","civilianOfficer","acceptableOff","79","","","",""
"6",6136,"{""Q0"":2}","[object Object]","survey-likert",5,81273,"0.0-5.0","rqq3x7q7pbuk2f5y42n7f1zpn4wbgkua","Mon Jan 23 2017 20:17:04 GMT-0500 (EST)","male","White","conservative","",NA,"","offCivRatings","the officer put handcuffs on the civilian","the civilian punched the officer in the face","handcuff","punchFace","civilianOfficer","punishOff","2","","","",""
"7",20294,"{""Q0"":50}","[object Object]","survey-likert",6,101575,"0.0-6.0","rqq3x7q7pbuk2f5y42n7f1zpn4wbgkua","Mon Jan 23 2017 20:17:04 GMT-0500 (EST)","male","White","conservative","",NA,"","offCivRatings","the officer put handcuffs on the civilian","the civilian punched the officer in the face","handcuff","punchFace","civilianOfficer","appropriateOff","50","","","",""
"8",16493,"{""Q0"":49}","[object Object]","survey-likert",7,118079,"0.0-7.0","rqq3x7q7pbuk2f5y42n7f1zpn4wbgkua","Mon Jan 23 2017 20:17:04 GMT-0500 (EST)","male","White","conservative","",NA,"","offCivRatings","the officer put handcuffs on the civilian","the civilian punched the officer in the face","handcuff","punchFace","civilianOfficer","forceOff","49","","","",""
"9",3038,"{""Q0"":51}","[object Object]","survey-likert",8,121124,"0.0-8.0","rqq3x7q7pbuk2f5y42n7f1zpn4wbgkua","Mon Jan 23 2017 20:17:04 GMT-0500 (EST)","male","White","conservative","",NA,"","offCivRatings","the officer put handcuffs on the civilian","the civilian punched the officer in the face","handcuff","punchFace","civilianOfficer","manipCheckLow","51","","","",""
"10",21375,"","","instructions",9,142499,"0.0-9.0","rqq3x7q7pbuk2f5y42n7f1zpn4wbgkua","Mon Jan 23 2017 20:17:04 GMT-0500 (EST)","male","White","conservative","",NA,"[{""page_index"":0,""viewing_time"":21374}]","break","","","","","","","","","","",""
"11",5608,"{""Q0"":1}","[object Object]","survey-likert",10,148316,"0.0-10.0","rqq3x7q7pbuk2f5y42n7f1zpn4wbgkua","Mon Jan 23 2017 20:17:04 GMT-0500 (EST)","male","White","conservative","",NA,"","offCivRatings","the officer punched the civilian in the face","the civilian slammed the officer's head into the concrete curb","punchFace","headSlam","civilianOfficer","manipCheckLow","1","","","",""
"12",9414,"{""Q0"":53}","[object Object]","survey-likert",11,157738,"0.0-11.0","rqq3x7q7pbuk2f5y42n7f1zpn4wbgkua","Mon Jan 23 2017 20:17:04 GMT-0500 (EST)","male","White","conservative","",NA,"","offCivRatings","the officer punched the civilian in the face","the civilian slammed the officer's head into the concrete curb","punchFace","headSlam","civilianOfficer","forceOff","53","","","",""
"13",12144,"{""Q0"":33}","[object Object]","survey-likert",12,169889,"0.0-12.0","rqq3x7q7pbuk2f5y42n7f1zpn4wbgkua","Mon Jan 23 2017 20:17:04 GMT-0500 (EST)","male","White","conservative","",NA,"","offCivRatings","the officer punched the civilian in the face","the civilian slammed the officer's head into the concrete curb","punchFace","headSlam","civilianOfficer","acceptableOff","33","","","",""
"14",10888,"{""Q0"":65}","[object Object]","survey-likert",13,180782,"0.0-13.0","rqq3x7q7pbuk2f5y42n7f1zpn4wbgkua","Mon Jan 23 2017 20:17:04 GMT-0500 (EST)","male","White","conservative","",NA,"","offCivRatings","the officer punched the civilian in the face","the civilian slammed the officer's head into the concrete curb","punchFace","headSlam","civilianOfficer","appropriateOff","65","","","",""
"15",8000,"{""Q0"":63}","[object Object]","survey-likert",14,188790,"0.0-14.0","rqq3x7q7pbuk2f5y42n7f1zpn4wbgkua","Mon Jan 23 2017 20:17:04 GMT-0500 (EST)","male","White","conservative","",NA,"","offCivRatings","the officer punched the civilian in the face","the civilian slammed the officer's head into the concrete curb","punchFace","headSlam","civilianOfficer","punishOff","63","","","",""
"16",3675,"","","instructions",15,192465,"0.0-15.0","rqq3x7q7pbuk2f5y42n7f1zpn4wbgkua","Mon Jan 23 2017 20:17:04 GMT-0500 (EST)","male","White","conservative","",NA,"[{""page_index"":0,""viewing_time"":3675}]","break","","","","","","","","","","",""
"17",27630,"{""Q0"":52}","[object Object]","survey-likert",16,220303,"0.0-16.0","rqq3x7q7pbuk2f5y42n7f1zpn4wbgkua","Mon Jan 23 2017 20:17:04 GMT-0500 (EST)","male","White","conservative","",NA,"","offCivRatings","the officer struck the civilian on the leg with a collapsible baton","the civilian sprayed the officer with pepper spray","batonLeg","pepperSpray","civilianOfficer","punishOff","52","","","",""
"18",13723,"{""Q0"":68}","[object Object]","survey-likert",17,234035,"0.0-17.0","rqq3x7q7pbuk2f5y42n7f1zpn4wbgkua","Mon Jan 23 2017 20:17:04 GMT-0500 (EST)","male","White","conservative","",NA,"","offCivRatings","the officer struck the civilian on the leg with a collapsible baton","the civilian sprayed the officer with pepper spray","batonLeg","pepperSpray","civilianOfficer","forceOff","68","","","",""
"19",4114,"{""Q0"":42}","[object Object]","survey-likert",18,238156,"0.0-18.0","rqq3x7q7pbuk2f5y42n7f1zpn4wbgkua","Mon Jan 23 2017 20:17:04 GMT-0500 (EST)","male","White","conservative","",NA,"","offCivRatings","the officer struck the civilian on the leg with a collapsible baton","the civilian sprayed the officer with pepper spray","batonLeg","pepperSpray","civilianOfficer","acceptableOff","42","","","",""
"20",3114,"{""Q0"":39}","[object Object]","survey-likert",19,241275,"0.0-19.0","rqq3x7q7pbuk2f5y42n7f1zpn4wbgkua","Mon Jan 23 2017 20:17:04 GMT-0500 (EST)","male","White","conservative","",NA,"","offCivRatings","the officer struck the civilian on the leg with a collapsible baton","the civilian sprayed the officer with pepper spray","batonLeg","pepperSpray","civilianOfficer","appropriateOff","39","","","",""
"21",6192,"","","instructions",20,247467,"0.0-20.0","rqq3x7q7pbuk2f5y42n7f1zpn4wbgkua","Mon Jan 23 2017 20:17:04 GMT-0500 (EST)","male","White","conservative","",NA,"[{""page_index"":0,""viewing_time"":6192}]","break","","","","","","","","","","",""
"22",17201,"{""Q0"":6}","[object Object]","survey-likert",21,264876,"0.0-21.0","rqq3x7q7pbuk2f5y42n7f1zpn4wbgkua","Mon Jan 23 2017 20:17:04 GMT-0500 (EST)","male","White","conservative","",NA,"","offCivRatings","the officer shouted ""get your fucking hands up!"" at the civilian","the civilian shocked the officer with a tazer","handsUp","tazer","civilianOfficer","punishOff","6","","","",""
"23",6215,"{""Q0"":21}","[object Object]","survey-likert",22,271097,"0.0-22.0","rqq3x7q7pbuk2f5y42n7f1zpn4wbgkua","Mon Jan 23 2017 20:17:04 GMT-0500 (EST)","male","White","conservative","",NA,"","offCivRatings","the officer shouted ""get your fucking hands up!"" at the civilian","the civilian shocked the officer with a tazer","handsUp","tazer","civilianOfficer","forceOff","21","","","",""
"24",5204,"{""Q0"":31}","[object Object]","survey-likert",23,276307,"0.0-23.0","rqq3x7q7pbuk2f5y42n7f1zpn4wbgkua","Mon Jan 23 2017 20:17:04 GMT-0500 (EST)","male","White","conservative","",NA,"","offCivRatings","the officer shouted ""get your fucking hands up!"" at the civilian","the civilian shocked the officer with a tazer","handsUp","tazer","civilianOfficer","acceptableOff","31","","","",""
"25",7054,"{""Q0"":18}","[object Object]","survey-likert",24,283367,"0.0-24.0","rqq3x7q7pbuk2f5y42n7f1zpn4wbgkua","Mon Jan 23 2017 20:17:04 GMT-0500 (EST)","male","White","conservative","",NA,"","offCivRatings","the officer shouted ""get your fucking hands up!"" at the civilian","the civilian shocked the officer with a tazer","handsUp","tazer","civilianOfficer","appropriateOff","18","","","",""
"26",1802,"","","instructions",25,285169,"0.0-25.0","rqq3x7q7pbuk2f5y42n7f1zpn4wbgkua","Mon Jan 23 2017 20:17:04 GMT-0500 (EST)","male","White","conservative","",NA,"[{""page_index"":0,""viewing_time"":1801}]","break","","","","","","","","","","",""
"27",19783,"{""Q0"":100}","[object Object]","survey-likert",26,305159,"0.0-26.0","rqq3x7q7pbuk2f5y42n7f1zpn4wbgkua","Mon Jan 23 2017 20:17:04 GMT-0500 (EST)","male","White","conservative","",NA,"","offCivRatings","the officer stood near the civilian","the civilian twisted the arm of the officer, forcing him to the ground","stoodNear","armbar","officerCivilian","manipCheckHigh","100","","","",""
"28",207215,"{""Q0"":72}","[object Object]","survey-likert",27,512381,"0.0-27.0","rqq3x7q7pbuk2f5y42n7f1zpn4wbgkua","Mon Jan 23 2017 20:17:04 GMT-0500 (EST)","male","White","conservative","",NA,"","offCivRatings","the officer stood near the civilian","the civilian twisted the arm of the officer, forcing him to the ground","stoodNear","armbar","officerCivilian","punishCiv","72","","","",""
"29",7245,"{""Q0"":61}","[object Object]","survey-likert",28,519632,"0.0-28.0","rqq3x7q7pbuk2f5y42n7f1zpn4wbgkua","Mon Jan 23 2017 20:17:04 GMT-0500 (EST)","male","White","conservative","",NA,"","offCivRatings","the officer stood near the civilian","the civilian twisted the arm of the officer, forcing him to the ground","stoodNear","armbar","officerCivilian","forceCiv","61","","","",""
"30",5362,"{""Q0"":29}","[object Object]","survey-likert",29,524999,"0.0-29.0","rqq3x7q7pbuk2f5y42n7f1zpn4wbgkua","Mon Jan 23 2017 20:17:04 GMT-0500 (EST)","male","White","conservative","",NA,"","offCivRatings","the officer stood near the civilian","the civilian twisted the arm of the officer, forcing him to the ground","stoodNear","armbar","officerCivilian","acceptableCiv","29","","","",""
"31",15016,"{""Q0"":24}","[object Object]","survey-likert",30,540019,"0.0-30.0","rqq3x7q7pbuk2f5y42n7f1zpn4wbgkua","Mon Jan 23 2017 20:17:04 GMT-0500 (EST)","male","White","conservative","",NA,"","offCivRatings","the officer stood near the civilian","the civilian twisted the arm of the officer, forcing him to the ground","stoodNear","armbar","officerCivilian","appropriateCiv","24","","","",""
"32",1546,"","","instructions",31,541565,"0.0-31.0","rqq3x7q7pbuk2f5y42n7f1zpn4wbgkua","Mon Jan 23 2017 20:17:04 GMT-0500 (EST)","male","White","conservative","",NA,"[{""page_index"":0,""viewing_time"":1545}]","break","","","","","","","","","","",""
"33",857240,"{""Q0"":28}","[object Object]","survey-likert",32,1399012,"0.0-32.0","rqq3x7q7pbuk2f5y42n7f1zpn4wbgkua","Mon Jan 23 2017 20:17:04 GMT-0500 (EST)","male","White","conservative","",NA,"","offCivRatings","the officer applied a chokehold to the civilian","the civilian waved at the officer in greeting","choke","waved","officerCivilian","appropriateCiv","28","","","",""
"34",6864,"{""Q0"":1}","[object Object]","survey-likert",33,1405883,"0.0-33.0","rqq3x7q7pbuk2f5y42n7f1zpn4wbgkua","Mon Jan 23 2017 20:17:04 GMT-0500 (EST)","male","White","conservative","",NA,"","offCivRatings","the officer applied a chokehold to the civilian","the civilian waved at the officer in greeting","choke","waved","officerCivilian","forceCiv","1","","","",""
"35",12711,"{""Q0"":1}","[object Object]","survey-likert",34,1418599,"0.0-34.0","rqq3x7q7pbuk2f5y42n7f1zpn4wbgkua","Mon Jan 23 2017 20:17:04 GMT-0500 (EST)","male","White","conservative","",NA,"","offCivRatings","the officer applied a chokehold to the civilian","the civilian waved at the officer in greeting","choke","waved","officerCivilian","acceptableCiv","1","","","",""
"36",32257,"{""Q0"":1}","[object Object]","survey-likert",35,1450861,"0.0-35.0","rqq3x7q7pbuk2f5y42n7f1zpn4wbgkua","Mon Jan 23 2017 20:17:04 GMT-0500 (EST)","male","White","conservative","",NA,"","offCivRatings","the officer applied a chokehold to the civilian","the civilian waved at the officer in greeting","choke","waved","officerCivilian","punishCiv","1","","","",""
"37",1463,"","","instructions",36,1452324,"0.0-36.0","rqq3x7q7pbuk2f5y42n7f1zpn4wbgkua","Mon Jan 23 2017 20:17:04 GMT-0500 (EST)","male","White","conservative","",NA,"[{""page_index"":0,""viewing_time"":1463}]","break","","","","","","","","","","",""
"38",36722,"{""Q0"":82}","[object Object]","survey-likert",37,1489253,"0.0-37.0","rqq3x7q7pbuk2f5y42n7f1zpn4wbgkua","Mon Jan 23 2017 20:17:04 GMT-0500 (EST)","male","White","conservative","",NA,"","offCivRatings","the officer shot the civilian in the head with a handgun","the civilian shouted ""I don't have to fucking listen to you!"" at the officer","handgunHead","dontListen","civilianOfficer","forceOff","82","","","",""
"39",3502,"{""Q0"":83}","[object Object]","survey-likert",38,1492761,"0.0-38.0","rqq3x7q7pbuk2f5y42n7f1zpn4wbgkua","Mon Jan 23 2017 20:17:04 GMT-0500 (EST)","male","White","conservative","",NA,"","offCivRatings","the officer shot the civilian in the head with a handgun","the civilian shouted ""I don't have to fucking listen to you!"" at the officer","handgunHead","dontListen","civilianOfficer","appropriateOff","83","","","",""
"40",2337,"{""Q0"":86}","[object Object]","survey-likert",39,1495105,"0.0-39.0","rqq3x7q7pbuk2f5y42n7f1zpn4wbgkua","Mon Jan 23 2017 20:17:04 GMT-0500 (EST)","male","White","conservative","",NA,"","offCivRatings","the officer shot the civilian in the head with a handgun","the civilian shouted ""I don't have to fucking listen to you!"" at the officer","handgunHead","dontListen","civilianOfficer","punishOff","86","","","",""
"41",3086,"{""Q0"":22}","[object Object]","survey-likert",40,1498195,"0.0-40.0","rqq3x7q7pbuk2f5y42n7f1zpn4wbgkua","Mon Jan 23 2017 20:17:04 GMT-0500 (EST)","male","White","conservative","",NA,"","offCivRatings","the officer shot the civilian in the head with a handgun","the civilian shouted ""I don't have to fucking listen to you!"" at the officer","handgunHead","dontListen","civilianOfficer","acceptableOff","22","","","",""
"42",991,"","","instructions",41,1499187,"0.0-41.0","rqq3x7q7pbuk2f5y42n7f1zpn4wbgkua","Mon Jan 23 2017 20:17:04 GMT-0500 (EST)","male","White","conservative","",NA,"[{""page_index"":0,""viewing_time"":991}]","break","","","","","","","","","","",""
"43",7316,"{""Q0"":28}","[object Object]","survey-likert",42,1506708,"0.0-42.0","rqq3x7q7pbuk2f5y42n7f1zpn4wbgkua","Mon Jan 23 2017 20:17:04 GMT-0500 (EST)","male","White","conservative","",NA,"","offCivRatings","the officer slammed the civilian's head into the concrete curb","the civilian pulled away from the officer","headSlam","pulledAway","officerCivilian","forceCiv","28","","","",""
"44",2700,"{""Q0"":1}","[object Object]","survey-likert",43,1509412,"0.0-43.0","rqq3x7q7pbuk2f5y42n7f1zpn4wbgkua","Mon Jan 23 2017 20:17:04 GMT-0500 (EST)","male","White","conservative","",NA,"","offCivRatings","the officer slammed the civilian's head into the concrete curb","the civilian pulled away from the officer","headSlam","pulledAway","officerCivilian","manipCheckLow","1","","","",""
"45",2996,"{""Q0"":32}","[object Object]","survey-likert",44,1512412,"0.0-44.0","rqq3x7q7pbuk2f5y42n7f1zpn4wbgkua","Mon Jan 23 2017 20:17:04 GMT-0500 (EST)","male","White","conservative","",NA,"","offCivRatings","the officer slammed the civilian's head into the concrete curb","the civilian pulled away from the officer","headSlam","pulledAway","officerCivilian","punishCiv","32","","","",""
"46",2783,"{""Q0"":84}","[object Object]","survey-likert",45,1515201,"0.0-45.0","rqq3x7q7pbuk2f5y42n7f1zpn4wbgkua","Mon Jan 23 2017 20:17:04 GMT-0500 (EST)","male","White","conservative","",NA,"","offCivRatings","the officer slammed the civilian's head into the concrete curb","the civilian pulled away from the officer","headSlam","pulledAway","officerCivilian","acceptableCiv","84","","","",""
"47",5237,"{""Q0"":46}","[object Object]","survey-likert",46,1520444,"0.0-46.0","rqq3x7q7pbuk2f5y42n7f1zpn4wbgkua","Mon Jan 23 2017 20:17:04 GMT-0500 (EST)","male","White","conservative","",NA,"","offCivRatings","the officer slammed the civilian's head into the concrete curb","the civilian pulled away from the officer","headSlam","pulledAway","officerCivilian","appropriateCiv","46","","","",""
"48",922,"","","instructions",47,1521366,"0.0-47.0","rqq3x7q7pbuk2f5y42n7f1zpn4wbgkua","Mon Jan 23 2017 20:17:04 GMT-0500 (EST)","male","White","conservative","",NA,"[{""page_index"":0,""viewing_time"":921}]","break","","","","","","","","","","",""
"49",33566,"{""Q0"":81}","[object Object]","survey-likert",48,1555139,"0.0-48.0","rqq3x7q7pbuk2f5y42n7f1zpn4wbgkua","Mon Jan 23 2017 20:17:04 GMT-0500 (EST)","male","White","conservative","",NA,"","offCivRatings","the officer sprayed the civilian with pepper spray","the civilian yelled ""get back!"" at the officer","pepperSpray","getBack","officerCivilian","acceptableCiv","81","","","",""
"50",6303,"{""Q0"":27}","[object Object]","survey-likert",49,1561447,"0.0-49.0","rqq3x7q7pbuk2f5y42n7f1zpn4wbgkua","Mon Jan 23 2017 20:17:04 GMT-0500 (EST)","male","White","conservative","",NA,"","offCivRatings","the officer sprayed the civilian with pepper spray","the civilian yelled ""get back!"" at the officer","pepperSpray","getBack","officerCivilian","punishCiv","27","","","",""
"51",2881,"{""Q0"":33}","[object Object]","survey-likert",50,1564333,"0.0-50.0","rqq3x7q7pbuk2f5y42n7f1zpn4wbgkua","Mon Jan 23 2017 20:17:04 GMT-0500 (EST)","male","White","conservative","",NA,"","offCivRatings","the officer sprayed the civilian with pepper spray","the civilian yelled ""get back!"" at the officer","pepperSpray","getBack","officerCivilian","forceCiv","33","","","",""
"52",4930,"{""Q0"":43}","[object Object]","survey-likert",51,1569267,"0.0-51.0","rqq3x7q7pbuk2f5y42n7f1zpn4wbgkua","Mon Jan 23 2017 20:17:04 GMT-0500 (EST)","male","White","conservative","",NA,"","offCivRatings","the officer sprayed the civilian with pepper spray","the civilian yelled ""get back!"" at the officer","pepperSpray","getBack","officerCivilian","appropriateCiv","43","","","",""
"53",1149,"","","instructions",52,1570416,"0.0-52.0","rqq3x7q7pbuk2f5y42n7f1zpn4wbgkua","Mon Jan 23 2017 20:17:04 GMT-0500 (EST)","male","White","conservative","",NA,"[{""page_index"":0,""viewing_time"":1149}]","break","","","","","","","","","","",""
"54",13680,"{""Q0"":44}","[object Object]","survey-likert",53,1584301,"0.0-53.0","rqq3x7q7pbuk2f5y42n7f1zpn4wbgkua","Mon Jan 23 2017 20:17:04 GMT-0500 (EST)","male","White","conservative","",NA,"","offCivRatings","the officer shot the civilian in the chest with a handgun","the civilian struck the officer in the stomach with a metal flashlight","handgunChest","flashlight","officerCivilian","appropriateCiv","44","","","",""
"55",4547,"{""Q0"":65}","[object Object]","survey-likert",54,1588854,"0.0-54.0","rqq3x7q7pbuk2f5y42n7f1zpn4wbgkua","Mon Jan 23 2017 20:17:04 GMT-0500 (EST)","male","White","conservative","",NA,"","offCivRatings","the officer shot the civilian in the chest with a handgun","the civilian struck the officer in the stomach with a metal flashlight","handgunChest","flashlight","officerCivilian","forceCiv","65","","","",""
"56",33972,"{""Q0"":67}","[object Object]","survey-likert",55,1622831,"0.0-55.0","rqq3x7q7pbuk2f5y42n7f1zpn4wbgkua","Mon Jan 23 2017 20:17:04 GMT-0500 (EST)","male","White","conservative","",NA,"","offCivRatings","the officer shot the civilian in the chest with a handgun","the civilian struck the officer in the stomach with a metal flashlight","handgunChest","flashlight","officerCivilian","acceptableCiv","67","","","",""
"57",2043,"{""Q0"":42}","[object Object]","survey-likert",56,1624879,"0.0-56.0","rqq3x7q7pbuk2f5y42n7f1zpn4wbgkua","Mon Jan 23 2017 20:17:04 GMT-0500 (EST)","male","White","conservative","",NA,"","offCivRatings","the officer shot the civilian in the chest with a handgun","the civilian struck the officer in the stomach with a metal flashlight","handgunChest","flashlight","officerCivilian","punishCiv","42","","","",""
"58",637,"","","instructions",57,1625516,"0.0-57.0","rqq3x7q7pbuk2f5y42n7f1zpn4wbgkua","Mon Jan 23 2017 20:17:04 GMT-0500 (EST)","male","White","conservative","",NA,"[{""page_index"":0,""viewing_time"":637}]","break","","","","","","","","","","",""
"59",2181,"{""Q0"":100}","[object Object]","survey-likert",58,1627903,"0.0-58.0","rqq3x7q7pbuk2f5y42n7f1zpn4wbgkua","Mon Jan 23 2017 20:17:04 GMT-0500 (EST)","male","White","conservative","",NA,"","offCivRatings","the officer shocked the civilian with a tazer","the civilian headbutted the officer in the face","tazer","headbutt","officerCivilian","manipCheckHigh","100","","","",""
"60",12442,"{""Q0"":83}","[object Object]","survey-likert",59,1640351,"0.0-59.0","rqq3x7q7pbuk2f5y42n7f1zpn4wbgkua","Mon Jan 23 2017 20:17:04 GMT-0500 (EST)","male","White","conservative","",NA,"","offCivRatings","the officer shocked the civilian with a tazer","the civilian headbutted the officer in the face","tazer","headbutt","officerCivilian","punishCiv","83","","","",""
"61",2358,"{""Q0"":79}","[object Object]","survey-likert",60,1642715,"0.0-60.0","rqq3x7q7pbuk2f5y42n7f1zpn4wbgkua","Mon Jan 23 2017 20:17:04 GMT-0500 (EST)","male","White","conservative","",NA,"","offCivRatings","the officer shocked the civilian with a tazer","the civilian headbutted the officer in the face","tazer","headbutt","officerCivilian","forceCiv","79","","","",""
"62",2078,"{""Q0"":20}","[object Object]","survey-likert",61,1644800,"0.0-61.0","rqq3x7q7pbuk2f5y42n7f1zpn4wbgkua","Mon Jan 23 2017 20:17:04 GMT-0500 (EST)","male","White","conservative","",NA,"","offCivRatings","the officer shocked the civilian with a tazer","the civilian headbutted the officer in the face","tazer","headbutt","officerCivilian","acceptableCiv","20","","","",""
"63",2280,"{""Q0"":88}","[object Object]","survey-likert",62,1647087,"0.0-62.0","rqq3x7q7pbuk2f5y42n7f1zpn4wbgkua","Mon Jan 23 2017 20:17:04 GMT-0500 (EST)","male","White","conservative","",NA,"","offCivRatings","the officer shocked the civilian with a tazer","the civilian headbutted the officer in the face","tazer","headbutt","officerCivilian","appropriateCiv","88","","","",""
"64",944,"","","instructions",63,1648031,"0.0-63.0","rqq3x7q7pbuk2f5y42n7f1zpn4wbgkua","Mon Jan 23 2017 20:17:04 GMT-0500 (EST)","male","White","conservative","",NA,"[{""page_index"":0,""viewing_time"":943}]","break","","","","","","","","","","",""
"65",11005,"{""Q0"":28}","[object Object]","survey-likert",64,1659240,"0.0-64.0","rqq3x7q7pbuk2f5y42n7f1zpn4wbgkua","Mon Jan 23 2017 20:17:04 GMT-0500 (EST)","male","White","conservative","",NA,"","offCivRatings","the officer said ""if you touch me, you're gonna get hurt"" to the civilian","the civilian hit the officer in the chest with a baseball bat","hurtThreat","ballBat","civilianOfficer","forceOff","28","","","",""
"66",2844,"{""Q0"":23}","[object Object]","survey-likert",65,1662088,"0.0-65.0","rqq3x7q7pbuk2f5y42n7f1zpn4wbgkua","Mon Jan 23 2017 20:17:04 GMT-0500 (EST)","male","White","conservative","",NA,"","offCivRatings","the officer said ""if you touch me, you're gonna get hurt"" to the civilian","the civilian hit the officer in the chest with a baseball bat","hurtThreat","ballBat","civilianOfficer","appropriateOff","23","","","",""
"67",2272,"{""Q0"":15}","[object Object]","survey-likert",66,1664365,"0.0-66.0","rqq3x7q7pbuk2f5y42n7f1zpn4wbgkua","Mon Jan 23 2017 20:17:04 GMT-0500 (EST)","male","White","conservative","",NA,"","offCivRatings","the officer said ""if you touch me, you're gonna get hurt"" to the civilian","the civilian hit the officer in the chest with a baseball bat","hurtThreat","ballBat","civilianOfficer","punishOff","15","","","",""
"68",2045,"{""Q0"":88}","[object Object]","survey-likert",67,1666418,"0.0-67.0","rqq3x7q7pbuk2f5y42n7f1zpn4wbgkua","Mon Jan 23 2017 20:17:04 GMT-0500 (EST)","male","White","conservative","",NA,"","offCivRatings","the officer said ""if you touch me, you're gonna get hurt"" to the civilian","the civilian hit the officer in the chest with a baseball bat","hurtThreat","ballBat","civilianOfficer","acceptableOff","88","","","",""
"69",1957,"{""Q0"":1}","[object Object]","survey-likert",68,1668380,"0.0-68.0","rqq3x7q7pbuk2f5y42n7f1zpn4wbgkua","Mon Jan 23 2017 20:17:04 GMT-0500 (EST)","male","White","conservative","",NA,"","offCivRatings","the officer said ""if you touch me, you're gonna get hurt"" to the civilian","the civilian hit the officer in the chest with a baseball bat","hurtThreat","ballBat","civilianOfficer","manipCheckLow","1","","","",""
"70",895,"","","instructions",69,1669275,"0.0-69.0","rqq3x7q7pbuk2f5y42n7f1zpn4wbgkua","Mon Jan 23 2017 20:17:04 GMT-0500 (EST)","male","White","conservative","",NA,"[{""page_index"":0,""viewing_time"":895}]","break","","","","","","","","","","",""
"71",22302,"{""Q0"":87}","[object Object]","survey-likert",70,1691783,"0.0-70.0","rqq3x7q7pbuk2f5y42n7f1zpn4wbgkua","Mon Jan 23 2017 20:17:04 GMT-0500 (EST)","male","White","conservative","",NA,"","offCivRatings","the officer kicked the civilian in the stomach","the civilian purposefully struck the officer with a motor vehicle","kickStom","vehicle","officerCivilian","punishCiv","87","","","",""
"72",2136,"{""Q0"":20}","[object Object]","survey-likert",71,1693925,"0.0-71.0","rqq3x7q7pbuk2f5y42n7f1zpn4wbgkua","Mon Jan 23 2017 20:17:04 GMT-0500 (EST)","male","White","conservative","",NA,"","offCivRatings","the officer kicked the civilian in the stomach","the civilian purposefully struck the officer with a motor vehicle","kickStom","vehicle","officerCivilian","acceptableCiv","20","","","",""
"73",1920,"{""Q0"":1}","[object Object]","survey-likert",72,1695850,"0.0-72.0","rqq3x7q7pbuk2f5y42n7f1zpn4wbgkua","Mon Jan 23 2017 20:17:04 GMT-0500 (EST)","male","White","conservative","",NA,"","offCivRatings","the officer kicked the civilian in the stomach","the civilian purposefully struck the officer with a motor vehicle","kickStom","vehicle","officerCivilian","manipCheckLow","1","","","",""
"74",2987,"{""Q0"":85}","[object Object]","survey-likert",73,1698842,"0.0-73.0","rqq3x7q7pbuk2f5y42n7f1zpn4wbgkua","Mon Jan 23 2017 20:17:04 GMT-0500 (EST)","male","White","conservative","",NA,"","offCivRatings","the officer kicked the civilian in the stomach","the civilian purposefully struck the officer with a motor vehicle","kickStom","vehicle","officerCivilian","forceCiv","85","","","",""
"75",2832,"{""Q0"":99}","[object Object]","survey-likert",74,1701681,"0.0-74.0","rqq3x7q7pbuk2f5y42n7f1zpn4wbgkua","Mon Jan 23 2017 20:17:04 GMT-0500 (EST)","male","White","conservative","",NA,"","offCivRatings","the officer kicked the civilian in the stomach","the civilian purposefully struck the officer with a motor vehicle","kickStom","vehicle","officerCivilian","appropriateCiv","99","","","",""
"76",664,"","","instructions",75,1702345,"0.0-75.0","rqq3x7q7pbuk2f5y42n7f1zpn4wbgkua","Mon Jan 23 2017 20:17:04 GMT-0500 (EST)","male","White","conservative","",NA,"[{""page_index"":0,""viewing_time"":664}]","break","","","","","","","","","","",""
"77",6366,"{""Q0"":40}","[object Object]","survey-likert",76,1708918,"0.0-76.0","rqq3x7q7pbuk2f5y42n7f1zpn4wbgkua","Mon Jan 23 2017 20:17:04 GMT-0500 (EST)","male","White","conservative","",NA,"","offCivRatings","the officer headbutted the civilian in the face","the civilian shot the officer in the chest with a handgun","headbutt","handgunChest","civilianOfficer","forceOff","40","","","",""
"78",2030,"{""Q0"":27}","[object Object]","survey-likert",77,1710952,"0.0-77.0","rqq3x7q7pbuk2f5y42n7f1zpn4wbgkua","Mon Jan 23 2017 20:17:04 GMT-0500 (EST)","male","White","conservative","",NA,"","offCivRatings","the officer headbutted the civilian in the face","the civilian shot the officer in the chest with a handgun","headbutt","handgunChest","civilianOfficer","punishOff","27","","","",""
"79",3462,"{""Q0"":50}","[object Object]","survey-likert",78,1714421,"0.0-78.0","rqq3x7q7pbuk2f5y42n7f1zpn4wbgkua","Mon Jan 23 2017 20:17:04 GMT-0500 (EST)","male","White","conservative","",NA,"","offCivRatings","the officer headbutted the civilian in the face","the civilian shot the officer in the chest with a handgun","headbutt","handgunChest","civilianOfficer","appropriateOff","50","","","",""
"80",97967,"{""Q0"":85}","[object Object]","survey-likert",79,1812392,"0.0-79.0","rqq3x7q7pbuk2f5y42n7f1zpn4wbgkua","Mon Jan 23 2017 20:17:04 GMT-0500 (EST)","male","White","conservative","",NA,"","offCivRatings","the officer headbutted the civilian in the face","the civilian shot the officer in the chest with a handgun","headbutt","handgunChest","civilianOfficer","acceptableOff","85","","","",""
"81",615,"","","instructions",80,1813008,"0.0-80.0","rqq3x7q7pbuk2f5y42n7f1zpn4wbgkua","Mon Jan 23 2017 20:17:04 GMT-0500 (EST)","male","White","conservative","",NA,"[{""page_index"":0,""viewing_time"":614}]","break","","","","","","","","","","",""
"82",7974,"{""Q0"":15}","[object Object]","survey-likert",81,1821189,"0.0-81.0","rqq3x7q7pbuk2f5y42n7f1zpn4wbgkua","Mon Jan 23 2017 20:17:04 GMT-0500 (EST)","male","White","conservative","",NA,"","offCivRatings","the officer shot the civilian in the chest with a beanbag shotgun round","the civilian asked the officer how he was doing","beanbag","asked","officerCivilian","appropriateCiv","15","","","",""
"83",2608,"{""Q0"":87}","[object Object]","survey-likert",82,1823804,"0.0-82.0","rqq3x7q7pbuk2f5y42n7f1zpn4wbgkua","Mon Jan 23 2017 20:17:04 GMT-0500 (EST)","male","White","conservative","",NA,"","offCivRatings","the officer shot the civilian in the chest with a beanbag shotgun round","the civilian asked the officer how he was doing","beanbag","asked","officerCivilian","acceptableCiv","87","","","",""
"84",2964,"{""Q0"":4}","[object Object]","survey-likert",83,1826776,"0.0-83.0","rqq3x7q7pbuk2f5y42n7f1zpn4wbgkua","Mon Jan 23 2017 20:17:04 GMT-0500 (EST)","male","White","conservative","",NA,"","offCivRatings","the officer shot the civilian in the chest with a beanbag shotgun round","the civilian asked the officer how he was doing","beanbag","asked","officerCivilian","forceCiv","4","","","",""
"85",2529,"{""Q0"":1}","[object Object]","survey-likert",84,1829311,"0.0-84.0","rqq3x7q7pbuk2f5y42n7f1zpn4wbgkua","Mon Jan 23 2017 20:17:04 GMT-0500 (EST)","male","White","conservative","",NA,"","offCivRatings","the officer shot the civilian in the chest with a beanbag shotgun round","the civilian asked the officer how he was doing","beanbag","asked","officerCivilian","punishCiv","1","","","",""
"86",634,"","","instructions",85,1829946,"0.0-85.0","rqq3x7q7pbuk2f5y42n7f1zpn4wbgkua","Mon Jan 23 2017 20:17:04 GMT-0500 (EST)","male","White","conservative","",NA,"[{""page_index"":0,""viewing_time"":634}]","break","","","","","","","","","","",""
"87",8952,"{""Q0"":19}","[object Object]","survey-likert",86,1839104,"0.0-86.0","rqq3x7q7pbuk2f5y42n7f1zpn4wbgkua","Mon Jan 23 2017 20:17:04 GMT-0500 (EST)","male","White","conservative","",NA,"","offCivRatings","the officer called the civilian a ""thug""","the civilian said ""if you touch me, you're gonna get hurt"" to the officer","nameCall","hurtThreat","civilianOfficer","forceOff","19","","","",""
"88",2556,"{""Q0"":53}","[object Object]","survey-likert",87,1841667,"0.0-87.0","rqq3x7q7pbuk2f5y42n7f1zpn4wbgkua","Mon Jan 23 2017 20:17:04 GMT-0500 (EST)","male","White","conservative","",NA,"","offCivRatings","the officer called the civilian a ""thug""","the civilian said ""if you touch me, you're gonna get hurt"" to the officer","nameCall","hurtThreat","civilianOfficer","appropriateOff","53","","","",""
"89",2964,"{""Q0"":18}","[object Object]","survey-likert",88,1844637,"0.0-88.0","rqq3x7q7pbuk2f5y42n7f1zpn4wbgkua","Mon Jan 23 2017 20:17:04 GMT-0500 (EST)","male","White","conservative","",NA,"","offCivRatings","the officer called the civilian a ""thug""","the civilian said ""if you touch me, you're gonna get hurt"" to the officer","nameCall","hurtThreat","civilianOfficer","punishOff","18","","","",""
"90",2420,"{""Q0"":86}","[object Object]","survey-likert",89,1847063,"0.0-89.0","rqq3x7q7pbuk2f5y42n7f1zpn4wbgkua","Mon Jan 23 2017 20:17:04 GMT-0500 (EST)","male","White","conservative","",NA,"","offCivRatings","the officer called the civilian a ""thug""","the civilian said ""if you touch me, you're gonna get hurt"" to the officer","nameCall","hurtThreat","civilianOfficer","acceptableOff","86","","","",""
"91",589,"","","instructions",90,1847652,"0.0-90.0","rqq3x7q7pbuk2f5y42n7f1zpn4wbgkua","Mon Jan 23 2017 20:17:04 GMT-0500 (EST)","male","White","conservative","",NA,"[{""page_index"":0,""viewing_time"":588}]","break","","","","","","","","","","",""
"92",23563,"{""Q0"":89}","[object Object]","survey-likert",91,1871421,"0.0-91.0","rqq3x7q7pbuk2f5y42n7f1zpn4wbgkua","Mon Jan 23 2017 20:17:04 GMT-0500 (EST)","male","White","conservative","",NA,"","offCivRatings","the officer purposefully struck the civilian with a motor vehicle","the civilian called the officer a ""pig""","vehicle","nameCall","officerCivilian","acceptableCiv","89","","","",""
"93",2381,"{""Q0"":100}","[object Object]","survey-likert",92,1873807,"0.0-92.0","rqq3x7q7pbuk2f5y42n7f1zpn4wbgkua","Mon Jan 23 2017 20:17:04 GMT-0500 (EST)","male","White","conservative","",NA,"","offCivRatings","the officer purposefully struck the civilian with a motor vehicle","the civilian called the officer a ""pig""","vehicle","nameCall","officerCivilian","manipCheckHigh","100","","","",""
"94",7476,"{""Q0"":47}","[object Object]","survey-likert",93,1881290,"0.0-93.0","rqq3x7q7pbuk2f5y42n7f1zpn4wbgkua","Mon Jan 23 2017 20:17:04 GMT-0500 (EST)","male","White","conservative","",NA,"","offCivRatings","the officer purposefully struck the civilian with a motor vehicle","the civilian called the officer a ""pig""","vehicle","nameCall","officerCivilian","appropriateCiv","47","","","",""
"95",5784,"{""Q0"":27}","[object Object]","survey-likert",94,1887081,"0.0-94.0","rqq3x7q7pbuk2f5y42n7f1zpn4wbgkua","Mon Jan 23 2017 20:17:04 GMT-0500 (EST)","male","White","conservative","",NA,"","offCivRatings","the officer purposefully struck the civilian with a motor vehicle","the civilian called the officer a ""pig""","vehicle","nameCall","officerCivilian","forceCiv","27","","","",""
"96",5036,"{""Q0"":21}","[object Object]","survey-likert",95,1892122,"0.0-95.0","rqq3x7q7pbuk2f5y42n7f1zpn4wbgkua","Mon Jan 23 2017 20:17:04 GMT-0500 (EST)","male","White","conservative","",NA,"","offCivRatings","the officer purposefully struck the civilian with a motor vehicle","the civilian called the officer a ""pig""","vehicle","nameCall","officerCivilian","punishCiv","21","","","",""
"97",1167,"","","instructions",96,1893289,"0.0-96.0","rqq3x7q7pbuk2f5y42n7f1zpn4wbgkua","Mon Jan 23 2017 20:17:04 GMT-0500 (EST)","male","White","conservative","",NA,"[{""page_index"":0,""viewing_time"":1167}]","break","","","","","","","","","","",""
"98",2604,"{""Q0"":100}","[object Object]","survey-likert",97,1896100,"0.0-97.0","rqq3x7q7pbuk2f5y42n7f1zpn4wbgkua","Mon Jan 23 2017 20:17:04 GMT-0500 (EST)","male","White","conservative","",NA,"","offCivRatings","the officer asked the civilian how he was doing","the civilian stood near the officer","asked","stoodNear","civilianOfficer","manipCheckHigh","100","","","",""
"99",7070,"{""Q0"":1}","[object Object]","survey-likert",98,1903177,"0.0-98.0","rqq3x7q7pbuk2f5y42n7f1zpn4wbgkua","Mon Jan 23 2017 20:17:04 GMT-0500 (EST)","male","White","conservative","",NA,"","offCivRatings","the officer asked the civilian how he was doing","the civilian stood near the officer","asked","stoodNear","civilianOfficer","forceOff","1","","","",""
"100",3146,"{""Q0"":50}","[object Object]","survey-likert",99,1906329,"0.0-99.0","rqq3x7q7pbuk2f5y42n7f1zpn4wbgkua","Mon Jan 23 2017 20:17:04 GMT-0500 (EST)","male","White","conservative","",NA,"","offCivRatings","the officer asked the civilian how he was doing","the civilian stood near the officer","asked","stoodNear","civilianOfficer","appropriateOff","50","","","",""
"101",2238,"{""Q0"":1}","[object Object]","survey-likert",100,1908571,"0.0-100.0","rqq3x7q7pbuk2f5y42n7f1zpn4wbgkua","Mon Jan 23 2017 20:17:04 GMT-0500 (EST)","male","White","conservative","",NA,"","offCivRatings","the officer asked the civilian how he was doing","the civilian stood near the officer","asked","stoodNear","civilianOfficer","punishOff","1","","","",""
"102",2362,"{""Q0"":100}","[object Object]","survey-likert",101,1910937,"0.0-101.0","rqq3x7q7pbuk2f5y42n7f1zpn4wbgkua","Mon Jan 23 2017 20:17:04 GMT-0500 (EST)","male","White","conservative","",NA,"","offCivRatings","the officer asked the civilian how he was doing","the civilian stood near the officer","asked","stoodNear","civilianOfficer","acceptableOff","100","","","",""
"103",667,"","","instructions",102,1911604,"0.0-102.0","rqq3x7q7pbuk2f5y42n7f1zpn4wbgkua","Mon Jan 23 2017 20:17:04 GMT-0500 (EST)","male","White","conservative","",NA,"[{""page_index"":0,""viewing_time"":667}]","break","","","","","","","","","","",""
"104",6204,"{""Q0"":75}","[object Object]","survey-likert",103,1918013,"0.0-103.0","rqq3x7q7pbuk2f5y42n7f1zpn4wbgkua","Mon Jan 23 2017 20:17:04 GMT-0500 (EST)","male","White","conservative","",NA,"","offCivRatings","the officer struck the civilian in the stomach with a metal flashlight","the civilian applied a chokehold to the officer","flashlight","choke","officerCivilian","forceCiv","75","","","",""
"105",2188,"{""Q0"":71}","[object Object]","survey-likert",104,1920207,"0.0-104.0","rqq3x7q7pbuk2f5y42n7f1zpn4wbgkua","Mon Jan 23 2017 20:17:04 GMT-0500 (EST)","male","White","conservative","",NA,"","offCivRatings","the officer struck the civilian in the stomach with a metal flashlight","the civilian applied a chokehold to the officer","flashlight","choke","officerCivilian","punishCiv","71","","","",""
"106",3144,"{""Q0"":67}","[object Object]","survey-likert",105,1923357,"0.0-105.0","rqq3x7q7pbuk2f5y42n7f1zpn4wbgkua","Mon Jan 23 2017 20:17:04 GMT-0500 (EST)","male","White","conservative","",NA,"","offCivRatings","the officer struck the civilian in the stomach with a metal flashlight","the civilian applied a chokehold to the officer","flashlight","choke","officerCivilian","appropriateCiv","67","","","",""
"107",2407,"{""Q0"":28}","[object Object]","survey-likert",106,1925770,"0.0-106.0","rqq3x7q7pbuk2f5y42n7f1zpn4wbgkua","Mon Jan 23 2017 20:17:04 GMT-0500 (EST)","male","White","conservative","",NA,"","offCivRatings","the officer struck the civilian in the stomach with a metal flashlight","the civilian applied a chokehold to the officer","flashlight","choke","officerCivilian","acceptableCiv","28","","","",""
"108",605,"","","instructions",107,1926375,"0.0-107.0","rqq3x7q7pbuk2f5y42n7f1zpn4wbgkua","Mon Jan 23 2017 20:17:04 GMT-0500 (EST)","male","White","conservative","",NA,"[{""page_index"":0,""viewing_time"":604}]","break","","","","","","","","","","",""
"109",10663,"{""Q0"":1}","[object Object]","survey-likert",108,1937244,"0.0-108.0","rqq3x7q7pbuk2f5y42n7f1zpn4wbgkua","Mon Jan 23 2017 20:17:04 GMT-0500 (EST)","male","White","conservative","",NA,"","offCivRatings","the officer yelled ""get back!"" at the civilian","the civilian shot the officer in the head with a handgun","getBack","handgunHead","civilianOfficer","punishOff","1","","","",""
"110",1845,"{""Q0"":100}","[object Object]","survey-likert",109,1939094,"0.0-109.0","rqq3x7q7pbuk2f5y42n7f1zpn4wbgkua","Mon Jan 23 2017 20:17:04 GMT-0500 (EST)","male","White","conservative","",NA,"","offCivRatings","the officer yelled ""get back!"" at the civilian","the civilian shot the officer in the head with a handgun","getBack","handgunHead","civilianOfficer","manipCheckHigh","100","","","",""
"111",2190,"{""Q0"":17}","[object Object]","survey-likert",110,1941288,"0.0-110.0","rqq3x7q7pbuk2f5y42n7f1zpn4wbgkua","Mon Jan 23 2017 20:17:04 GMT-0500 (EST)","male","White","conservative","",NA,"","offCivRatings","the officer yelled ""get back!"" at the civilian","the civilian shot the officer in the head with a handgun","getBack","handgunHead","civilianOfficer","forceOff","17","","","",""
"112",3292,"{""Q0"":23}","[object Object]","survey-likert",111,1944586,"0.0-111.0","rqq3x7q7pbuk2f5y42n7f1zpn4wbgkua","Mon Jan 23 2017 20:17:04 GMT-0500 (EST)","male","White","conservative","",NA,"","offCivRatings","the officer yelled ""get back!"" at the civilian","the civilian shot the officer in the head with a handgun","getBack","handgunHead","civilianOfficer","appropriateOff","23","","","",""
"113",2614,"{""Q0"":100}","[object Object]","survey-likert",112,1947206,"0.0-112.0","rqq3x7q7pbuk2f5y42n7f1zpn4wbgkua","Mon Jan 23 2017 20:17:04 GMT-0500 (EST)","male","White","conservative","",NA,"","offCivRatings","the officer yelled ""get back!"" at the civilian","the civilian shot the officer in the head with a handgun","getBack","handgunHead","civilianOfficer","acceptableOff","100","","","",""
"114",768,"","","instructions",113,1947974,"0.0-113.0","rqq3x7q7pbuk2f5y42n7f1zpn4wbgkua","Mon Jan 23 2017 20:17:04 GMT-0500 (EST)","male","White","conservative","",NA,"[{""page_index"":0,""viewing_time"":767}]","break","","","","","","","","","","",""
"115",6061,"{""Q0"":1}","[object Object]","survey-likert",114,1954241,"0.0-114.0","rqq3x7q7pbuk2f5y42n7f1zpn4wbgkua","Mon Jan 23 2017 20:17:04 GMT-0500 (EST)","male","White","conservative","",NA,"","offCivRatings","the officer waved at the civilian in greeting","the civilian kicked the officer in the stomach","waved","kickStom","civilianOfficer","appropriateOff","1","","","",""
"116",3039,"{""Q0"":100}","[object Object]","survey-likert",115,1957285,"0.0-115.0","rqq3x7q7pbuk2f5y42n7f1zpn4wbgkua","Mon Jan 23 2017 20:17:04 GMT-0500 (EST)","male","White","conservative","",NA,"","offCivRatings","the officer waved at the civilian in greeting","the civilian kicked the officer in the stomach","waved","kickStom","civilianOfficer","acceptableOff","100","","","",""
"117",2476,"{""Q0"":1}","[object Object]","survey-likert",116,1959765,"0.0-116.0","rqq3x7q7pbuk2f5y42n7f1zpn4wbgkua","Mon Jan 23 2017 20:17:04 GMT-0500 (EST)","male","White","conservative","",NA,"","offCivRatings","the officer waved at the civilian in greeting","the civilian kicked the officer in the stomach","waved","kickStom","civilianOfficer","forceOff","1","","","",""
"118",4532,"{""Q0"":1}","[object Object]","survey-likert",117,1964303,"0.0-117.0","rqq3x7q7pbuk2f5y42n7f1zpn4wbgkua","Mon Jan 23 2017 20:17:04 GMT-0500 (EST)","male","White","conservative","",NA,"","offCivRatings","the officer waved at the civilian in greeting","the civilian kicked the officer in the stomach","waved","kickStom","civilianOfficer","punishOff","1","","","",""
"119",591,"","","instructions",118,1964894,"0.0-118.0","rqq3x7q7pbuk2f5y42n7f1zpn4wbgkua","Mon Jan 23 2017 20:17:04 GMT-0500 (EST)","male","White","conservative","",NA,"[{""page_index"":0,""viewing_time"":591}]","break","","","","","","","","","","",""
"120",8513,"{""Q0"":78}","[object Object]","survey-likert",119,1973613,"0.0-119.0","rqq3x7q7pbuk2f5y42n7f1zpn4wbgkua","Mon Jan 23 2017 20:17:04 GMT-0500 (EST)","male","White","conservative","",NA,"","offCivRatings","the officer twisted the arm of the civilian, forcing him to the ground","the civilian struck the officer on the leg with a metal pipe","armbar","metalPipe","officerCivilian","appropriateCiv","78","","","",""
"121",3118,"{""Q0"":76}","[object Object]","survey-likert",120,1976735,"0.0-120.0","rqq3x7q7pbuk2f5y42n7f1zpn4wbgkua","Mon Jan 23 2017 20:17:04 GMT-0500 (EST)","male","White","conservative","",NA,"","offCivRatings","the officer twisted the arm of the civilian, forcing him to the ground","the civilian struck the officer on the leg with a metal pipe","armbar","metalPipe","officerCivilian","punishCiv","76","","","",""
"122",1980,"{""Q0"":69}","[object Object]","survey-likert",121,1978721,"0.0-121.0","rqq3x7q7pbuk2f5y42n7f1zpn4wbgkua","Mon Jan 23 2017 20:17:04 GMT-0500 (EST)","male","White","conservative","",NA,"","offCivRatings","the officer twisted the arm of the civilian, forcing him to the ground","the civilian struck the officer on the leg with a metal pipe","armbar","metalPipe","officerCivilian","forceCiv","69","","","",""
"123",2075,"{""Q0"":25}","[object Object]","survey-likert",122,1980801,"0.0-122.0","rqq3x7q7pbuk2f5y42n7f1zpn4wbgkua","Mon Jan 23 2017 20:17:04 GMT-0500 (EST)","male","White","conservative","",NA,"","offCivRatings","the officer twisted the arm of the civilian, forcing him to the ground","the civilian struck the officer on the leg with a metal pipe","armbar","metalPipe","officerCivilian","acceptableCiv","25","","","",""
"124",754,"","","instructions",123,1981556,"0.0-123.0","rqq3x7q7pbuk2f5y42n7f1zpn4wbgkua","Mon Jan 23 2017 20:17:04 GMT-0500 (EST)","male","White","conservative","",NA,"[{""page_index"":0,""viewing_time"":754}]","break","","","","","","","","","","",""
"125",4863,"{""Q0"":100}","[object Object]","survey-likert",124,1986626,"0.0-124.0","rqq3x7q7pbuk2f5y42n7f1zpn4wbgkua","Mon Jan 23 2017 20:17:04 GMT-0500 (EST)","male","White","conservative","",NA,"","policeLegitimacy","","","","","","","100","doTreat","feltObligation","",""
"126",7902,"{""Q0"":100}","[object Object]","survey-likert",125,1994537,"0.0-125.0","rqq3x7q7pbuk2f5y42n7f1zpn4wbgkua","Mon Jan 23 2017 20:17:04 GMT-0500 (EST)","male","White","conservative","",NA,"","policeLegitimacy","","","","","","","100","doReasons","feltObligation","",""
"127",3804,"{""Q0"":99}","[object Object]","survey-likert",126,1998346,"0.0-126.0","rqq3x7q7pbuk2f5y42n7f1zpn4wbgkua","Mon Jan 23 2017 20:17:04 GMT-0500 (EST)","male","White","conservative","",NA,"","policeLegitimacy","","","","","","","99","support","feltObligation","",""
"128",2831,"{""Q0"":100}","[object Object]","survey-likert",127,2001182,"0.0-127.0","rqq3x7q7pbuk2f5y42n7f1zpn4wbgkua","Mon Jan 23 2017 20:17:04 GMT-0500 (EST)","male","White","conservative","",NA,"","policeLegitimacy","","","","","","","100","rightWrong","normAlignment","",""
"129",1894,"{""Q0"":100}","[object Object]","survey-likert",128,2003082,"0.0-128.0","rqq3x7q7pbuk2f5y42n7f1zpn4wbgkua","Mon Jan 23 2017 20:17:04 GMT-0500 (EST)","male","White","conservative","",NA,"","policeLegitimacy","","","","","","","100","importantValues","normAlignment","",""
"130",2099,"{""Q0"":100}","[object Object]","survey-likert",129,2005186,"0.0-129.0","rqq3x7q7pbuk2f5y42n7f1zpn4wbgkua","Mon Jan 23 2017 20:17:04 GMT-0500 (EST)","male","White","conservative","",NA,"","policeLegitimacy","","","","","","","100","communityWants","normAlignment","",""
"131",2685,"{""Q0"":""no""}","[object Object]","survey-multi-choice2",130,2007877,"0.0-130.0","rqq3x7q7pbuk2f5y42n7f1zpn4wbgkua","Mon Jan 23 2017 20:17:04 GMT-0500 (EST)","male","White","conservative","",NA,"","policeExperience","","","","","","","no","excessForce","","vicarious","Have the police ever used excessive force against anyone in your household?"
"132",1597,"{""Q0"":""no""}","[object Object]","survey-multi-choice2",131,2009478,"0.0-131.0","rqq3x7q7pbuk2f5y42n7f1zpn4wbgkua","Mon Jan 23 2017 20:17:04 GMT-0500 (EST)","male","White","conservative","",NA,"","policeExperience","","","","","","","no","excessForce","","personal","Have the police ever used excessive force against you?"
"133",2662,"{""Q0"":""no""}","[object Object]","survey-multi-choice2",132,2012142,"0.0-132.0","rqq3x7q7pbuk2f5y42n7f1zpn4wbgkua","Mon Jan 23 2017 20:17:04 GMT-0500 (EST)","male","White","conservative","",NA,"","policeExperience","","","","","","","no","stopped","","vicarious","Has anyone in your household ever been stopped on the street by the police without good reason?"
"134",2695,"{""Q0"":""no""}","[object Object]","survey-multi-choice2",133,2014838,"0.0-133.0","rqq3x7q7pbuk2f5y42n7f1zpn4wbgkua","Mon Jan 23 2017 20:17:04 GMT-0500 (EST)","male","White","conservative","",NA,"","policeExperience","","","","","","","no","insultLang","","vicarious","Have the police ever used insulting language toward anyone in your household?"
"135",2274,"{""Q0"":""no""}","[object Object]","survey-multi-choice2",134,2017114,"0.0-134.0","rqq3x7q7pbuk2f5y42n7f1zpn4wbgkua","Mon Jan 23 2017 20:17:04 GMT-0500 (EST)","male","White","conservative","",NA,"","policeExperience","","","","","","","no","insultLang","","personal","Have the police ever used insulting language toward you?"
"136",3002,"{""Q0"":""no""}","[object Object]","survey-multi-choice2",135,2020119,"0.0-135.0","rqq3x7q7pbuk2f5y42n7f1zpn4wbgkua","Mon Jan 23 2017 20:17:04 GMT-0500 (EST)","male","White","conservative","",NA,"","policeExperience","","","","","","","no","corrupt","","personal","Have you ever seen a police officer engage in any corrupt activities (e.g., taking bribes or involvement in the drug trade)?"
"137",1758,"{""Q0"":""no""}","[object Object]","survey-multi-choice2",136,2021879,"0.0-136.0","rqq3x7q7pbuk2f5y42n7f1zpn4wbgkua","Mon Jan 23 2017 20:17:04 GMT-0500 (EST)","male","White","conservative","",NA,"","policeExperience","","","","","","","no","stopped","","personal","Have you ever been stopped by the police on the street without good reason?"
"138",14423,"{""Q0"":""male"",""Q1"":""White"",""Q2"":""conservative""}","[object Object]","survey-multi-choice",137,2036310,"0.0-137.0","rqq3x7q7pbuk2f5y42n7f1zpn4wbgkua","Mon Jan 23 2017 20:17:04 GMT-0500 (EST)","male","White","conservative","",NA,"","demographics","","","","","","","","","","",""
"139",4352,"","","instructions",138,2041663,"0.0-138.0","rqq3x7q7pbuk2f5y42n7f1zpn4wbgkua","Mon Jan 23 2017 20:17:04 GMT-0500 (EST)","male","White","conservative","",NA,"[{""page_index"":0,""viewing_time"":1152},{""page_index"":1,""viewing_time"":1488},{""page_index"":2,""viewing_time"":712},{""page_index"":3,""viewing_time"":1000}]","debriefing","","","","","","","","","","",""
