"","rt","responses","internalResp","trial_type","trial_index","time_elapsed","internal_node_id","randSubjectID","date","sex","race","polAff","stimulus","key_press","view_history","questionType","officerAction","civilianAction","offActName","civActName","order","questionName","response","name","dimension","person","question"
"1",9118,"","[object Object]","survey-text",0,9122,"0.0-0.0","s0pxmd55lnp49fe18439f30l49gq8yl6","Mon Feb 13 2017 21:27:32 GMT-0500 (Eastern Standard Time)","female","White","liberal","",NA,"","","","","","","","","","","","",""
"2",5591,"","","single-stim",1,15722,"0.0-1.0","s0pxmd55lnp49fe18439f30l49gq8yl6","Mon Feb 13 2017 21:27:32 GMT-0500 (Eastern Standard Time)","female","White","liberal","<img src='static/images/1602685960_ICS_Credit-0.png' alt='Consent 1' height=1100 width=850><img src='static/images/1602685960_ICS_Credit-1.png' alt='Consent 2' height=1100 width=850></p>",89,"","","","","","","","","","","","",""
"3",6464,"","","instructions",2,23197,"0.0-2.0","s0pxmd55lnp49fe18439f30l49gq8yl6","Mon Feb 13 2017 21:27:32 GMT-0500 (Eastern Standard Time)","female","White","liberal","",NA,"[{""page_index"":0,""viewing_time"":6463}]","instructions","","","","","","","","","","",""
"4",57377,"","","instructions",3,81586,"0.0-3.0","s0pxmd55lnp49fe18439f30l49gq8yl6","Mon Feb 13 2017 21:27:32 GMT-0500 (Eastern Standard Time)","female","White","liberal","",NA,"[{""page_index"":0,""viewing_time"":21939},{""page_index"":1,""viewing_time"":12253},{""page_index"":2,""viewing_time"":18638},{""page_index"":3,""viewing_time"":4547}]","instructions","","","","","","","","","","",""
"5",12490,"{""Q0"":31}","[object Object]","survey-likert",4,95101,"0.0-4.0","s0pxmd55lnp49fe18439f30l49gq8yl6","Mon Feb 13 2017 21:27:32 GMT-0500 (Eastern Standard Time)","female","White","liberal","",NA,"","offCivRatings","the officer said ""if you touch me, you're gonna get hurt"" to the civilian","the civilian slammed the officer's head into the concrete curb","hurtThreat","headSlam","officerCivilian","acceptableCiv","31","","","",""
"6",13436,"{""Q0"":10}","[object Object]","survey-likert",5,108541,"0.0-5.0","s0pxmd55lnp49fe18439f30l49gq8yl6","Mon Feb 13 2017 21:27:32 GMT-0500 (Eastern Standard Time)","female","White","liberal","",NA,"","offCivRatings","the officer said ""if you touch me, you're gonna get hurt"" to the civilian","the civilian slammed the officer's head into the concrete curb","hurtThreat","headSlam","officerCivilian","punishCiv","10","","","",""
"7",8444,"{""Q0"":67}","[object Object]","survey-likert",6,116992,"0.0-6.0","s0pxmd55lnp49fe18439f30l49gq8yl6","Mon Feb 13 2017 21:27:32 GMT-0500 (Eastern Standard Time)","female","White","liberal","",NA,"","offCivRatings","the officer said ""if you touch me, you're gonna get hurt"" to the civilian","the civilian slammed the officer's head into the concrete curb","hurtThreat","headSlam","officerCivilian","appropriateCiv","67","","","",""
"8",14522,"{""Q0"":70}","[object Object]","survey-likert",7,131520,"0.0-7.0","s0pxmd55lnp49fe18439f30l49gq8yl6","Mon Feb 13 2017 21:27:32 GMT-0500 (Eastern Standard Time)","female","White","liberal","",NA,"","offCivRatings","the officer said ""if you touch me, you're gonna get hurt"" to the civilian","the civilian slammed the officer's head into the concrete curb","hurtThreat","headSlam","officerCivilian","forceCiv","70","","","",""
"9",1630,"","","instructions",8,133151,"0.0-8.0","s0pxmd55lnp49fe18439f30l49gq8yl6","Mon Feb 13 2017 21:27:32 GMT-0500 (Eastern Standard Time)","female","White","liberal","",NA,"[{""page_index"":0,""viewing_time"":1630}]","break","","","","","","","","","","",""
"10",31851,"{""Q0"":6}","[object Object]","survey-likert",9,165211,"0.0-9.0","s0pxmd55lnp49fe18439f30l49gq8yl6","Mon Feb 13 2017 21:27:32 GMT-0500 (Eastern Standard Time)","female","White","liberal","",NA,"","offCivRatings","the officer purposefully struck the civilian with a motor vehicle","the civilian struck the officer on the leg with a metal pipe","vehicle","metalPipe","civilianOfficer","punishOff","6","","","",""
"11",26933,"{""Q0"":81}","[object Object]","survey-likert",10,192150,"0.0-10.0","s0pxmd55lnp49fe18439f30l49gq8yl6","Mon Feb 13 2017 21:27:32 GMT-0500 (Eastern Standard Time)","female","White","liberal","",NA,"","offCivRatings","the officer purposefully struck the civilian with a motor vehicle","the civilian struck the officer on the leg with a metal pipe","vehicle","metalPipe","civilianOfficer","acceptableOff","81","","","",""
"12",11865,"{""Q0"":60}","[object Object]","survey-likert",11,204022,"0.0-11.0","s0pxmd55lnp49fe18439f30l49gq8yl6","Mon Feb 13 2017 21:27:32 GMT-0500 (Eastern Standard Time)","female","White","liberal","",NA,"","offCivRatings","the officer purposefully struck the civilian with a motor vehicle","the civilian struck the officer on the leg with a metal pipe","vehicle","metalPipe","civilianOfficer","forceOff","60","","","",""
"13",7422,"{""Q0"":57}","[object Object]","survey-likert",12,211453,"0.0-12.0","s0pxmd55lnp49fe18439f30l49gq8yl6","Mon Feb 13 2017 21:27:32 GMT-0500 (Eastern Standard Time)","female","White","liberal","",NA,"","offCivRatings","the officer purposefully struck the civilian with a motor vehicle","the civilian struck the officer on the leg with a metal pipe","vehicle","metalPipe","civilianOfficer","appropriateOff","57","","","",""
"14",1499,"","","instructions",13,212952,"0.0-13.0","s0pxmd55lnp49fe18439f30l49gq8yl6","Mon Feb 13 2017 21:27:32 GMT-0500 (Eastern Standard Time)","female","White","liberal","",NA,"[{""page_index"":0,""viewing_time"":1498}]","break","","","","","","","","","","",""
"15",9793,"{""Q0"":1}","[object Object]","survey-likert",14,222958,"0.0-14.0","s0pxmd55lnp49fe18439f30l49gq8yl6","Mon Feb 13 2017 21:27:32 GMT-0500 (Eastern Standard Time)","female","White","liberal","",NA,"","offCivRatings","the officer shouted ""get your fucking hands up!"" at the civilian","the civilian stood near the officer","handsUp","stoodNear","officerCivilian","forceCiv","1","","","",""
"16",20753,"{""Q0"":96}","[object Object]","survey-likert",15,243717,"0.0-15.0","s0pxmd55lnp49fe18439f30l49gq8yl6","Mon Feb 13 2017 21:27:32 GMT-0500 (Eastern Standard Time)","female","White","liberal","",NA,"","offCivRatings","the officer shouted ""get your fucking hands up!"" at the civilian","the civilian stood near the officer","handsUp","stoodNear","officerCivilian","acceptableCiv","96","","","",""
"17",4789,"{""Q0"":3}","[object Object]","survey-likert",16,248511,"0.0-16.0","s0pxmd55lnp49fe18439f30l49gq8yl6","Mon Feb 13 2017 21:27:32 GMT-0500 (Eastern Standard Time)","female","White","liberal","",NA,"","offCivRatings","the officer shouted ""get your fucking hands up!"" at the civilian","the civilian stood near the officer","handsUp","stoodNear","officerCivilian","punishCiv","3","","","",""
"18",34552,"{""Q0"":12}","[object Object]","survey-likert",17,283069,"0.0-17.0","s0pxmd55lnp49fe18439f30l49gq8yl6","Mon Feb 13 2017 21:27:32 GMT-0500 (Eastern Standard Time)","female","White","liberal","",NA,"","offCivRatings","the officer shouted ""get your fucking hands up!"" at the civilian","the civilian stood near the officer","handsUp","stoodNear","officerCivilian","appropriateCiv","12","","","",""
"19",1336,"","","instructions",18,284406,"0.0-18.0","s0pxmd55lnp49fe18439f30l49gq8yl6","Mon Feb 13 2017 21:27:32 GMT-0500 (Eastern Standard Time)","female","White","liberal","",NA,"[{""page_index"":0,""viewing_time"":1335}]","break","","","","","","","","","","",""
"20",12223,"{""Q0"":100}","[object Object]","survey-likert",19,296836,"0.0-19.0","s0pxmd55lnp49fe18439f30l49gq8yl6","Mon Feb 13 2017 21:27:32 GMT-0500 (Eastern Standard Time)","female","White","liberal","",NA,"","offCivRatings","the officer kicked the civilian in the stomach","the civilian purposefully struck the officer with a motor vehicle","kickStom","vehicle","officerCivilian","manipCheckHigh","100","","","",""
"21",12686,"{""Q0"":70}","[object Object]","survey-likert",20,309529,"0.0-20.0","s0pxmd55lnp49fe18439f30l49gq8yl6","Mon Feb 13 2017 21:27:32 GMT-0500 (Eastern Standard Time)","female","White","liberal","",NA,"","offCivRatings","the officer kicked the civilian in the stomach","the civilian purposefully struck the officer with a motor vehicle","kickStom","vehicle","officerCivilian","forceCiv","70","","","",""
"22",7077,"{""Q0"":24}","[object Object]","survey-likert",21,316615,"0.0-21.0","s0pxmd55lnp49fe18439f30l49gq8yl6","Mon Feb 13 2017 21:27:32 GMT-0500 (Eastern Standard Time)","female","White","liberal","",NA,"","offCivRatings","the officer kicked the civilian in the stomach","the civilian purposefully struck the officer with a motor vehicle","kickStom","vehicle","officerCivilian","acceptableCiv","24","","","",""
"23",56923,"{""Q0"":66}","[object Object]","survey-likert",22,373545,"0.0-22.0","s0pxmd55lnp49fe18439f30l49gq8yl6","Mon Feb 13 2017 21:27:32 GMT-0500 (Eastern Standard Time)","female","White","liberal","",NA,"","offCivRatings","the officer kicked the civilian in the stomach","the civilian purposefully struck the officer with a motor vehicle","kickStom","vehicle","officerCivilian","punishCiv","66","","","",""
"24",5646,"{""Q0"":78}","[object Object]","survey-likert",23,379195,"0.0-23.0","s0pxmd55lnp49fe18439f30l49gq8yl6","Mon Feb 13 2017 21:27:32 GMT-0500 (Eastern Standard Time)","female","White","liberal","",NA,"","offCivRatings","the officer kicked the civilian in the stomach","the civilian purposefully struck the officer with a motor vehicle","kickStom","vehicle","officerCivilian","appropriateCiv","78","","","",""
"25",1767,"","","instructions",24,380963,"0.0-24.0","s0pxmd55lnp49fe18439f30l49gq8yl6","Mon Feb 13 2017 21:27:32 GMT-0500 (Eastern Standard Time)","female","White","liberal","",NA,"[{""page_index"":0,""viewing_time"":1767}]","break","","","","","","","","","","",""
"26",11463,"{""Q0"":39}","[object Object]","survey-likert",25,392645,"0.0-25.0","s0pxmd55lnp49fe18439f30l49gq8yl6","Mon Feb 13 2017 21:27:32 GMT-0500 (Eastern Standard Time)","female","White","liberal","",NA,"","offCivRatings","the officer shot the civilian in the chest with a beanbag shotgun round","the civilian twisted the arm of the officer, forcing him to the ground","beanbag","armbar","officerCivilian","appropriateCiv","39","","","",""
"27",5233,"{""Q0"":38}","[object Object]","survey-likert",26,397883,"0.0-26.0","s0pxmd55lnp49fe18439f30l49gq8yl6","Mon Feb 13 2017 21:27:32 GMT-0500 (Eastern Standard Time)","female","White","liberal","",NA,"","offCivRatings","the officer shot the civilian in the chest with a beanbag shotgun round","the civilian twisted the arm of the officer, forcing him to the ground","beanbag","armbar","officerCivilian","forceCiv","38","","","",""
"28",17718,"{""Q0"":35}","[object Object]","survey-likert",27,415609,"0.0-27.0","s0pxmd55lnp49fe18439f30l49gq8yl6","Mon Feb 13 2017 21:27:32 GMT-0500 (Eastern Standard Time)","female","White","liberal","",NA,"","offCivRatings","the officer shot the civilian in the chest with a beanbag shotgun round","the civilian twisted the arm of the officer, forcing him to the ground","beanbag","armbar","officerCivilian","punishCiv","35","","","",""
"29",15882,"{""Q0"":33}","[object Object]","survey-likert",28,431498,"0.0-28.0","s0pxmd55lnp49fe18439f30l49gq8yl6","Mon Feb 13 2017 21:27:32 GMT-0500 (Eastern Standard Time)","female","White","liberal","",NA,"","offCivRatings","the officer shot the civilian in the chest with a beanbag shotgun round","the civilian twisted the arm of the officer, forcing him to the ground","beanbag","armbar","officerCivilian","acceptableCiv","33","","","",""
"30",1631,"","","instructions",29,433129,"0.0-29.0","s0pxmd55lnp49fe18439f30l49gq8yl6","Mon Feb 13 2017 21:27:32 GMT-0500 (Eastern Standard Time)","female","White","liberal","",NA,"[{""page_index"":0,""viewing_time"":1631}]","break","","","","","","","","","","",""
"31",16175,"{""Q0"":100}","[object Object]","survey-likert",30,449512,"0.0-30.0","s0pxmd55lnp49fe18439f30l49gq8yl6","Mon Feb 13 2017 21:27:32 GMT-0500 (Eastern Standard Time)","female","White","liberal","",NA,"","offCivRatings","the officer struck the civilian in the stomach with a metal flashlight","the civilian asked the officer how he was doing","flashlight","asked","officerCivilian","manipCheckHigh","100","","","",""
"32",13110,"{""Q0"":100}","[object Object]","survey-likert",31,462626,"0.0-31.0","s0pxmd55lnp49fe18439f30l49gq8yl6","Mon Feb 13 2017 21:27:32 GMT-0500 (Eastern Standard Time)","female","White","liberal","",NA,"","offCivRatings","the officer struck the civilian in the stomach with a metal flashlight","the civilian asked the officer how he was doing","flashlight","asked","officerCivilian","acceptableCiv","100","","","",""
"33",37638,"{""Q0"":12}","[object Object]","survey-likert",32,500270,"0.0-32.0","s0pxmd55lnp49fe18439f30l49gq8yl6","Mon Feb 13 2017 21:27:32 GMT-0500 (Eastern Standard Time)","female","White","liberal","",NA,"","offCivRatings","the officer struck the civilian in the stomach with a metal flashlight","the civilian asked the officer how he was doing","flashlight","asked","officerCivilian","appropriateCiv","12","","","",""
"34",72130,"{""Q0"":1}","[object Object]","survey-likert",33,572407,"0.0-33.0","s0pxmd55lnp49fe18439f30l49gq8yl6","Mon Feb 13 2017 21:27:32 GMT-0500 (Eastern Standard Time)","female","White","liberal","",NA,"","offCivRatings","the officer struck the civilian in the stomach with a metal flashlight","the civilian asked the officer how he was doing","flashlight","asked","officerCivilian","punishCiv","1","","","",""
"35",7979,"{""Q0"":1}","[object Object]","survey-likert",34,580394,"0.0-34.0","s0pxmd55lnp49fe18439f30l49gq8yl6","Mon Feb 13 2017 21:27:32 GMT-0500 (Eastern Standard Time)","female","White","liberal","",NA,"","offCivRatings","the officer struck the civilian in the stomach with a metal flashlight","the civilian asked the officer how he was doing","flashlight","asked","officerCivilian","forceCiv","1","","","",""
"36",11541,"","","instructions",35,591936,"0.0-35.0","s0pxmd55lnp49fe18439f30l49gq8yl6","Mon Feb 13 2017 21:27:32 GMT-0500 (Eastern Standard Time)","female","White","liberal","",NA,"[{""page_index"":0,""viewing_time"":11541}]","break","","","","","","","","","","",""
"37",73603,"{""Q0"":81}","[object Object]","survey-likert",36,665748,"0.0-36.0","s0pxmd55lnp49fe18439f30l49gq8yl6","Mon Feb 13 2017 21:27:32 GMT-0500 (Eastern Standard Time)","female","White","liberal","",NA,"","offCivRatings","the officer shot the civilian in the chest with a handgun","the civilian kicked the officer in the stomach","handgunChest","kickStom","civilianOfficer","punishOff","81","","","",""
"38",4306,"{""Q0"":1}","[object Object]","survey-likert",37,670060,"0.0-37.0","s0pxmd55lnp49fe18439f30l49gq8yl6","Mon Feb 13 2017 21:27:32 GMT-0500 (Eastern Standard Time)","female","White","liberal","",NA,"","offCivRatings","the officer shot the civilian in the chest with a handgun","the civilian kicked the officer in the stomach","handgunChest","kickStom","civilianOfficer","manipCheckLow","1","","","",""
"39",7510,"{""Q0"":98}","[object Object]","survey-likert",38,677576,"0.0-38.0","s0pxmd55lnp49fe18439f30l49gq8yl6","Mon Feb 13 2017 21:27:32 GMT-0500 (Eastern Standard Time)","female","White","liberal","",NA,"","offCivRatings","the officer shot the civilian in the chest with a handgun","the civilian kicked the officer in the stomach","handgunChest","kickStom","civilianOfficer","forceOff","98","","","",""
"40",23674,"{""Q0"":100}","[object Object]","survey-likert",39,701256,"0.0-39.0","s0pxmd55lnp49fe18439f30l49gq8yl6","Mon Feb 13 2017 21:27:32 GMT-0500 (Eastern Standard Time)","female","White","liberal","",NA,"","offCivRatings","the officer shot the civilian in the chest with a handgun","the civilian kicked the officer in the stomach","handgunChest","kickStom","civilianOfficer","appropriateOff","100","","","",""
"41",43048,"{""Q0"":2}","[object Object]","survey-likert",40,744310,"0.0-40.0","s0pxmd55lnp49fe18439f30l49gq8yl6","Mon Feb 13 2017 21:27:32 GMT-0500 (Eastern Standard Time)","female","White","liberal","",NA,"","offCivRatings","the officer shot the civilian in the chest with a handgun","the civilian kicked the officer in the stomach","handgunChest","kickStom","civilianOfficer","acceptableOff","2","","","",""
"42",3624,"","","instructions",41,747934,"0.0-41.0","s0pxmd55lnp49fe18439f30l49gq8yl6","Mon Feb 13 2017 21:27:32 GMT-0500 (Eastern Standard Time)","female","White","liberal","",NA,"[{""page_index"":0,""viewing_time"":3624}]","break","","","","","","","","","","",""
"43",14018,"{""Q0"":58}","[object Object]","survey-likert",42,762158,"0.0-42.0","s0pxmd55lnp49fe18439f30l49gq8yl6","Mon Feb 13 2017 21:27:32 GMT-0500 (Eastern Standard Time)","female","White","liberal","",NA,"","offCivRatings","the officer called the civilian a ""thug""","the civilian shouted ""I don't have to fucking listen to you!"" at the officer","nameCall","dontListen","civilianOfficer","forceOff","58","","","",""
"44",7223,"{""Q0"":19}","[object Object]","survey-likert",43,769388,"0.0-43.0","s0pxmd55lnp49fe18439f30l49gq8yl6","Mon Feb 13 2017 21:27:32 GMT-0500 (Eastern Standard Time)","female","White","liberal","",NA,"","offCivRatings","the officer called the civilian a ""thug""","the civilian shouted ""I don't have to fucking listen to you!"" at the officer","nameCall","dontListen","civilianOfficer","punishOff","19","","","",""
"45",29723,"{""Q0"":23}","[object Object]","survey-likert",44,799116,"0.0-44.0","s0pxmd55lnp49fe18439f30l49gq8yl6","Mon Feb 13 2017 21:27:32 GMT-0500 (Eastern Standard Time)","female","White","liberal","",NA,"","offCivRatings","the officer called the civilian a ""thug""","the civilian shouted ""I don't have to fucking listen to you!"" at the officer","nameCall","dontListen","civilianOfficer","acceptableOff","23","","","",""
"46",11435,"{""Q0"":54}","[object Object]","survey-likert",45,810557,"0.0-45.0","s0pxmd55lnp49fe18439f30l49gq8yl6","Mon Feb 13 2017 21:27:32 GMT-0500 (Eastern Standard Time)","female","White","liberal","",NA,"","offCivRatings","the officer called the civilian a ""thug""","the civilian shouted ""I don't have to fucking listen to you!"" at the officer","nameCall","dontListen","civilianOfficer","appropriateOff","54","","","",""
"47",2811,"","","instructions",46,813369,"0.0-46.0","s0pxmd55lnp49fe18439f30l49gq8yl6","Mon Feb 13 2017 21:27:32 GMT-0500 (Eastern Standard Time)","female","White","liberal","",NA,"[{""page_index"":0,""viewing_time"":2811}]","break","","","","","","","","","","",""
"48",9356,"{""Q0"":18}","[object Object]","survey-likert",47,822932,"0.0-47.0","s0pxmd55lnp49fe18439f30l49gq8yl6","Mon Feb 13 2017 21:27:32 GMT-0500 (Eastern Standard Time)","female","White","liberal","",NA,"","offCivRatings","the officer headbutted the civilian in the face","the civilian shot the officer in the head with a handgun","headbutt","handgunHead","officerCivilian","acceptableCiv","18","","","",""
"49",63317,"{""Q0"":100}","[object Object]","survey-likert",48,886255,"0.0-48.0","s0pxmd55lnp49fe18439f30l49gq8yl6","Mon Feb 13 2017 21:27:32 GMT-0500 (Eastern Standard Time)","female","White","liberal","",NA,"","offCivRatings","the officer headbutted the civilian in the face","the civilian shot the officer in the head with a handgun","headbutt","handgunHead","officerCivilian","forceCiv","100","","","",""
"50",94598,"{""Q0"":75}","[object Object]","survey-likert",49,980860,"0.0-49.0","s0pxmd55lnp49fe18439f30l49gq8yl6","Mon Feb 13 2017 21:27:32 GMT-0500 (Eastern Standard Time)","female","White","liberal","",NA,"","offCivRatings","the officer headbutted the civilian in the face","the civilian shot the officer in the head with a handgun","headbutt","handgunHead","officerCivilian","punishCiv","75","","","",""
"51",6393,"{""Q0"":100}","[object Object]","survey-likert",50,987261,"0.0-50.0","s0pxmd55lnp49fe18439f30l49gq8yl6","Mon Feb 13 2017 21:27:32 GMT-0500 (Eastern Standard Time)","female","White","liberal","",NA,"","offCivRatings","the officer headbutted the civilian in the face","the civilian shot the officer in the head with a handgun","headbutt","handgunHead","officerCivilian","manipCheckHigh","100","","","",""
"52",15862,"{""Q0"":93}","[object Object]","survey-likert",51,1003130,"0.0-51.0","s0pxmd55lnp49fe18439f30l49gq8yl6","Mon Feb 13 2017 21:27:32 GMT-0500 (Eastern Standard Time)","female","White","liberal","",NA,"","offCivRatings","the officer headbutted the civilian in the face","the civilian shot the officer in the head with a handgun","headbutt","handgunHead","officerCivilian","appropriateCiv","93","","","",""
"53",1955,"","","instructions",52,1005085,"0.0-52.0","s0pxmd55lnp49fe18439f30l49gq8yl6","Mon Feb 13 2017 21:27:32 GMT-0500 (Eastern Standard Time)","female","White","liberal","",NA,"[{""page_index"":0,""viewing_time"":1955}]","break","","","","","","","","","","",""
"54",22021,"{""Q0"":69}","[object Object]","survey-likert",53,1027313,"0.0-53.0","s0pxmd55lnp49fe18439f30l49gq8yl6","Mon Feb 13 2017 21:27:32 GMT-0500 (Eastern Standard Time)","female","White","liberal","",NA,"","offCivRatings","the officer applied a chokehold to the civilian","the civilian hit the officer in the chest with a baseball bat","choke","ballBat","officerCivilian","forceCiv","69","","","",""
"55",5050,"{""Q0"":100}","[object Object]","survey-likert",54,1032369,"0.0-54.0","s0pxmd55lnp49fe18439f30l49gq8yl6","Mon Feb 13 2017 21:27:32 GMT-0500 (Eastern Standard Time)","female","White","liberal","",NA,"","offCivRatings","the officer applied a chokehold to the civilian","the civilian hit the officer in the chest with a baseball bat","choke","ballBat","officerCivilian","manipCheckHigh","100","","","",""
"56",3944,"{""Q0"":70}","[object Object]","survey-likert",55,1036321,"0.0-55.0","s0pxmd55lnp49fe18439f30l49gq8yl6","Mon Feb 13 2017 21:27:32 GMT-0500 (Eastern Standard Time)","female","White","liberal","",NA,"","offCivRatings","the officer applied a chokehold to the civilian","the civilian hit the officer in the chest with a baseball bat","choke","ballBat","officerCivilian","appropriateCiv","70","","","",""
"57",3982,"{""Q0"":78}","[object Object]","survey-likert",56,1040307,"0.0-56.0","s0pxmd55lnp49fe18439f30l49gq8yl6","Mon Feb 13 2017 21:27:32 GMT-0500 (Eastern Standard Time)","female","White","liberal","",NA,"","offCivRatings","the officer applied a chokehold to the civilian","the civilian hit the officer in the chest with a baseball bat","choke","ballBat","officerCivilian","acceptableCiv","78","","","",""
"58",98403,"{""Q0"":60}","[object Object]","survey-likert",57,1138716,"0.0-57.0","s0pxmd55lnp49fe18439f30l49gq8yl6","Mon Feb 13 2017 21:27:32 GMT-0500 (Eastern Standard Time)","female","White","liberal","",NA,"","offCivRatings","the officer applied a chokehold to the civilian","the civilian hit the officer in the chest with a baseball bat","choke","ballBat","officerCivilian","punishCiv","60","","","",""
"59",1309,"","","instructions",58,1140025,"0.0-58.0","s0pxmd55lnp49fe18439f30l49gq8yl6","Mon Feb 13 2017 21:27:32 GMT-0500 (Eastern Standard Time)","female","White","liberal","",NA,"[{""page_index"":0,""viewing_time"":1309}]","break","","","","","","","","","","",""
"60",7963,"{""Q0"":2}","[object Object]","survey-likert",59,1148200,"0.0-59.0","s0pxmd55lnp49fe18439f30l49gq8yl6","Mon Feb 13 2017 21:27:32 GMT-0500 (Eastern Standard Time)","female","White","liberal","",NA,"","offCivRatings","the officer stood near the civilian","the civilian applied a chokehold to the officer","stoodNear","choke","civilianOfficer","punishOff","2","","","",""
"61",6289,"{""Q0"":15}","[object Object]","survey-likert",60,1154494,"0.0-60.0","s0pxmd55lnp49fe18439f30l49gq8yl6","Mon Feb 13 2017 21:27:32 GMT-0500 (Eastern Standard Time)","female","White","liberal","",NA,"","offCivRatings","the officer stood near the civilian","the civilian applied a chokehold to the officer","stoodNear","choke","civilianOfficer","appropriateOff","15","","","",""
"62",5381,"{""Q0"":1}","[object Object]","survey-likert",61,1159882,"0.0-61.0","s0pxmd55lnp49fe18439f30l49gq8yl6","Mon Feb 13 2017 21:27:32 GMT-0500 (Eastern Standard Time)","female","White","liberal","",NA,"","offCivRatings","the officer stood near the civilian","the civilian applied a chokehold to the officer","stoodNear","choke","civilianOfficer","manipCheckLow","1","","","",""
"63",44796,"{""Q0"":96}","[object Object]","survey-likert",62,1204685,"0.0-62.0","s0pxmd55lnp49fe18439f30l49gq8yl6","Mon Feb 13 2017 21:27:32 GMT-0500 (Eastern Standard Time)","female","White","liberal","",NA,"","offCivRatings","the officer stood near the civilian","the civilian applied a chokehold to the officer","stoodNear","choke","civilianOfficer","acceptableOff","96","","","",""
"64",17235,"{""Q0"":2}","[object Object]","survey-likert",63,1221929,"0.0-63.0","s0pxmd55lnp49fe18439f30l49gq8yl6","Mon Feb 13 2017 21:27:32 GMT-0500 (Eastern Standard Time)","female","White","liberal","",NA,"","offCivRatings","the officer stood near the civilian","the civilian applied a chokehold to the officer","stoodNear","choke","civilianOfficer","forceOff","2","","","",""
"65",1316,"","","instructions",64,1223245,"0.0-64.0","s0pxmd55lnp49fe18439f30l49gq8yl6","Mon Feb 13 2017 21:27:32 GMT-0500 (Eastern Standard Time)","female","White","liberal","",NA,"[{""page_index"":0,""viewing_time"":1316}]","break","","","","","","","","","","",""
"66",6920,"{""Q0"":2}","[object Object]","survey-likert",65,1230384,"0.0-65.0","s0pxmd55lnp49fe18439f30l49gq8yl6","Mon Feb 13 2017 21:27:32 GMT-0500 (Eastern Standard Time)","female","White","liberal","",NA,"","offCivRatings","the officer slammed the civilian's head into the concrete curb","the civilian waved at the officer in greeting","headSlam","waved","officerCivilian","forceCiv","2","","","",""
"67",4940,"{""Q0"":1}","[object Object]","survey-likert",66,1235330,"0.0-66.0","s0pxmd55lnp49fe18439f30l49gq8yl6","Mon Feb 13 2017 21:27:32 GMT-0500 (Eastern Standard Time)","female","White","liberal","",NA,"","offCivRatings","the officer slammed the civilian's head into the concrete curb","the civilian waved at the officer in greeting","headSlam","waved","officerCivilian","punishCiv","1","","","",""
"68",6492,"{""Q0"":95}","[object Object]","survey-likert",67,1241827,"0.0-67.0","s0pxmd55lnp49fe18439f30l49gq8yl6","Mon Feb 13 2017 21:27:32 GMT-0500 (Eastern Standard Time)","female","White","liberal","",NA,"","offCivRatings","the officer slammed the civilian's head into the concrete curb","the civilian waved at the officer in greeting","headSlam","waved","officerCivilian","acceptableCiv","95","","","",""
"69",6034,"{""Q0"":1}","[object Object]","survey-likert",68,1247866,"0.0-68.0","s0pxmd55lnp49fe18439f30l49gq8yl6","Mon Feb 13 2017 21:27:32 GMT-0500 (Eastern Standard Time)","female","White","liberal","",NA,"","offCivRatings","the officer slammed the civilian's head into the concrete curb","the civilian waved at the officer in greeting","headSlam","waved","officerCivilian","appropriateCiv","1","","","",""
"70",1257,"","","instructions",69,1249123,"0.0-69.0","s0pxmd55lnp49fe18439f30l49gq8yl6","Mon Feb 13 2017 21:27:32 GMT-0500 (Eastern Standard Time)","female","White","liberal","",NA,"[{""page_index"":0,""viewing_time"":1257}]","break","","","","","","","","","","",""
"71",19780,"{""Q0"":85}","[object Object]","survey-likert",70,1269117,"0.0-70.0","s0pxmd55lnp49fe18439f30l49gq8yl6","Mon Feb 13 2017 21:27:32 GMT-0500 (Eastern Standard Time)","female","White","liberal","",NA,"","offCivRatings","the officer struck the civilian on the leg with a collapsible baton","the civilian called the officer a ""pig""","batonLeg","nameCall","civilianOfficer","forceOff","85","","","",""
"72",15906,"{""Q0"":8}","[object Object]","survey-likert",71,1285029,"0.0-71.0","s0pxmd55lnp49fe18439f30l49gq8yl6","Mon Feb 13 2017 21:27:32 GMT-0500 (Eastern Standard Time)","female","White","liberal","",NA,"","offCivRatings","the officer struck the civilian on the leg with a collapsible baton","the civilian called the officer a ""pig""","batonLeg","nameCall","civilianOfficer","acceptableOff","8","","","",""
"73",4341,"{""Q0"":69}","[object Object]","survey-likert",72,1289377,"0.0-72.0","s0pxmd55lnp49fe18439f30l49gq8yl6","Mon Feb 13 2017 21:27:32 GMT-0500 (Eastern Standard Time)","female","White","liberal","",NA,"","offCivRatings","the officer struck the civilian on the leg with a collapsible baton","the civilian called the officer a ""pig""","batonLeg","nameCall","civilianOfficer","punishOff","69","","","",""
"74",48060,"{""Q0"":80}","[object Object]","survey-likert",73,1337445,"0.0-73.0","s0pxmd55lnp49fe18439f30l49gq8yl6","Mon Feb 13 2017 21:27:32 GMT-0500 (Eastern Standard Time)","female","White","liberal","",NA,"","offCivRatings","the officer struck the civilian on the leg with a collapsible baton","the civilian called the officer a ""pig""","batonLeg","nameCall","civilianOfficer","appropriateOff","80","","","",""
"75",5863,"{""Q0"":100}","[object Object]","survey-likert",74,1343312,"0.0-74.0","s0pxmd55lnp49fe18439f30l49gq8yl6","Mon Feb 13 2017 21:27:32 GMT-0500 (Eastern Standard Time)","female","White","liberal","",NA,"","offCivRatings","the officer struck the civilian on the leg with a collapsible baton","the civilian called the officer a ""pig""","batonLeg","nameCall","civilianOfficer","manipCheckHigh","100","","","",""
"76",3394,"","","instructions",75,1346706,"0.0-75.0","s0pxmd55lnp49fe18439f30l49gq8yl6","Mon Feb 13 2017 21:27:32 GMT-0500 (Eastern Standard Time)","female","White","liberal","",NA,"[{""page_index"":0,""viewing_time"":3392}]","break","","","","","","","","","","",""
"77",80773,"{""Q0"":92}","[object Object]","survey-likert",76,1427691,"0.0-76.0","s0pxmd55lnp49fe18439f30l49gq8yl6","Mon Feb 13 2017 21:27:32 GMT-0500 (Eastern Standard Time)","female","White","liberal","",NA,"","offCivRatings","the officer sprayed the civilian with pepper spray","the civilian shot the officer in the chest with a handgun","pepperSpray","handgunChest","civilianOfficer","acceptableOff","92","","","",""
"78",3831,"{""Q0"":9}","[object Object]","survey-likert",77,1431528,"0.0-77.0","s0pxmd55lnp49fe18439f30l49gq8yl6","Mon Feb 13 2017 21:27:32 GMT-0500 (Eastern Standard Time)","female","White","liberal","",NA,"","offCivRatings","the officer sprayed the civilian with pepper spray","the civilian shot the officer in the chest with a handgun","pepperSpray","handgunChest","civilianOfficer","punishOff","9","","","",""
"79",6331,"{""Q0"":29}","[object Object]","survey-likert",78,1437863,"0.0-78.0","s0pxmd55lnp49fe18439f30l49gq8yl6","Mon Feb 13 2017 21:27:32 GMT-0500 (Eastern Standard Time)","female","White","liberal","",NA,"","offCivRatings","the officer sprayed the civilian with pepper spray","the civilian shot the officer in the chest with a handgun","pepperSpray","handgunChest","civilianOfficer","forceOff","29","","","",""
"80",7915,"{""Q0"":31}","[object Object]","survey-likert",79,1445783,"0.0-79.0","s0pxmd55lnp49fe18439f30l49gq8yl6","Mon Feb 13 2017 21:27:32 GMT-0500 (Eastern Standard Time)","female","White","liberal","",NA,"","offCivRatings","the officer sprayed the civilian with pepper spray","the civilian shot the officer in the chest with a handgun","pepperSpray","handgunChest","civilianOfficer","appropriateOff","31","","","",""
"81",3713,"{""Q0"":100}","[object Object]","survey-likert",80,1449502,"0.0-80.0","s0pxmd55lnp49fe18439f30l49gq8yl6","Mon Feb 13 2017 21:27:32 GMT-0500 (Eastern Standard Time)","female","White","liberal","",NA,"","offCivRatings","the officer sprayed the civilian with pepper spray","the civilian shot the officer in the chest with a handgun","pepperSpray","handgunChest","civilianOfficer","manipCheckHigh","100","","","",""
"82",1326,"","","instructions",81,1450829,"0.0-81.0","s0pxmd55lnp49fe18439f30l49gq8yl6","Mon Feb 13 2017 21:27:32 GMT-0500 (Eastern Standard Time)","female","White","liberal","",NA,"[{""page_index"":0,""viewing_time"":1326}]","break","","","","","","","","","","",""
"83",77265,"{""Q0"":80}","[object Object]","survey-likert",82,1528307,"0.0-82.0","s0pxmd55lnp49fe18439f30l49gq8yl6","Mon Feb 13 2017 21:27:32 GMT-0500 (Eastern Standard Time)","female","White","liberal","",NA,"","offCivRatings","the officer yelled ""get back!"" at the civilian","the civilian shocked the officer with a tazer","getBack","tazer","officerCivilian","forceCiv","80","","","",""
"84",6371,"{""Q0"":88}","[object Object]","survey-likert",83,1534684,"0.0-83.0","s0pxmd55lnp49fe18439f30l49gq8yl6","Mon Feb 13 2017 21:27:32 GMT-0500 (Eastern Standard Time)","female","White","liberal","",NA,"","offCivRatings","the officer yelled ""get back!"" at the civilian","the civilian shocked the officer with a tazer","getBack","tazer","officerCivilian","appropriateCiv","88","","","",""
"85",36499,"{""Q0"":25}","[object Object]","survey-likert",84,1571189,"0.0-84.0","s0pxmd55lnp49fe18439f30l49gq8yl6","Mon Feb 13 2017 21:27:32 GMT-0500 (Eastern Standard Time)","female","White","liberal","",NA,"","offCivRatings","the officer yelled ""get back!"" at the civilian","the civilian shocked the officer with a tazer","getBack","tazer","officerCivilian","acceptableCiv","25","","","",""
"86",32798,"{""Q0"":74}","[object Object]","survey-likert",85,1603991,"0.0-85.0","s0pxmd55lnp49fe18439f30l49gq8yl6","Mon Feb 13 2017 21:27:32 GMT-0500 (Eastern Standard Time)","female","White","liberal","",NA,"","offCivRatings","the officer yelled ""get back!"" at the civilian","the civilian shocked the officer with a tazer","getBack","tazer","officerCivilian","punishCiv","74","","","",""
"87",7547,"","","instructions",86,1611538,"0.0-86.0","s0pxmd55lnp49fe18439f30l49gq8yl6","Mon Feb 13 2017 21:27:32 GMT-0500 (Eastern Standard Time)","female","White","liberal","",NA,"[{""page_index"":0,""viewing_time"":7547}]","break","","","","","","","","","","",""
"88",27572,"{""Q0"":2}","[object Object]","survey-likert",87,1639317,"0.0-87.0","s0pxmd55lnp49fe18439f30l49gq8yl6","Mon Feb 13 2017 21:27:32 GMT-0500 (Eastern Standard Time)","female","White","liberal","",NA,"","offCivRatings","the officer put handcuffs on the civilian","the civilian pulled away from the officer","handcuff","pulledAway","civilianOfficer","punishOff","2","","","",""
"89",10699,"{""Q0"":48}","[object Object]","survey-likert",88,1650021,"0.0-88.0","s0pxmd55lnp49fe18439f30l49gq8yl6","Mon Feb 13 2017 21:27:32 GMT-0500 (Eastern Standard Time)","female","White","liberal","",NA,"","offCivRatings","the officer put handcuffs on the civilian","the civilian pulled away from the officer","handcuff","pulledAway","civilianOfficer","appropriateOff","48","","","",""
"90",8670,"{""Q0"":1}","[object Object]","survey-likert",89,1658697,"0.0-89.0","s0pxmd55lnp49fe18439f30l49gq8yl6","Mon Feb 13 2017 21:27:32 GMT-0500 (Eastern Standard Time)","female","White","liberal","",NA,"","offCivRatings","the officer put handcuffs on the civilian","the civilian pulled away from the officer","handcuff","pulledAway","civilianOfficer","manipCheckLow","1","","","",""
"91",7040,"{""Q0"":90}","[object Object]","survey-likert",90,1665741,"0.0-90.0","s0pxmd55lnp49fe18439f30l49gq8yl6","Mon Feb 13 2017 21:27:32 GMT-0500 (Eastern Standard Time)","female","White","liberal","",NA,"","offCivRatings","the officer put handcuffs on the civilian","the civilian pulled away from the officer","handcuff","pulledAway","civilianOfficer","acceptableOff","90","","","",""
"92",7264,"{""Q0"":23}","[object Object]","survey-likert",91,1673009,"0.0-91.0","s0pxmd55lnp49fe18439f30l49gq8yl6","Mon Feb 13 2017 21:27:32 GMT-0500 (Eastern Standard Time)","female","White","liberal","",NA,"","offCivRatings","the officer put handcuffs on the civilian","the civilian pulled away from the officer","handcuff","pulledAway","civilianOfficer","forceOff","23","","","",""
"93",1227,"","","instructions",92,1674237,"0.0-92.0","s0pxmd55lnp49fe18439f30l49gq8yl6","Mon Feb 13 2017 21:27:32 GMT-0500 (Eastern Standard Time)","female","White","liberal","",NA,"[{""page_index"":0,""viewing_time"":1227}]","break","","","","","","","","","","",""
"94",8720,"{""Q0"":99}","[object Object]","survey-likert",93,1683179,"0.0-93.0","s0pxmd55lnp49fe18439f30l49gq8yl6","Mon Feb 13 2017 21:27:32 GMT-0500 (Eastern Standard Time)","female","White","liberal","",NA,"","offCivRatings","the officer waved at the civilian in greeting","the civilian punched the officer in the face","waved","punchFace","civilianOfficer","acceptableOff","99","","","",""
"95",7786,"{""Q0"":1}","[object Object]","survey-likert",94,1690970,"0.0-94.0","s0pxmd55lnp49fe18439f30l49gq8yl6","Mon Feb 13 2017 21:27:32 GMT-0500 (Eastern Standard Time)","female","White","liberal","",NA,"","offCivRatings","the officer waved at the civilian in greeting","the civilian punched the officer in the face","waved","punchFace","civilianOfficer","punishOff","1","","","",""
"96",33114,"{""Q0"":1}","[object Object]","survey-likert",95,1724092,"0.0-95.0","s0pxmd55lnp49fe18439f30l49gq8yl6","Mon Feb 13 2017 21:27:32 GMT-0500 (Eastern Standard Time)","female","White","liberal","",NA,"","offCivRatings","the officer waved at the civilian in greeting","the civilian punched the officer in the face","waved","punchFace","civilianOfficer","forceOff","1","","","",""
"97",30959,"{""Q0"":10}","[object Object]","survey-likert",96,1755056,"0.0-96.0","s0pxmd55lnp49fe18439f30l49gq8yl6","Mon Feb 13 2017 21:27:32 GMT-0500 (Eastern Standard Time)","female","White","liberal","",NA,"","offCivRatings","the officer waved at the civilian in greeting","the civilian punched the officer in the face","waved","punchFace","civilianOfficer","appropriateOff","10","","","",""
"98",1239,"","","instructions",97,1756295,"0.0-97.0","s0pxmd55lnp49fe18439f30l49gq8yl6","Mon Feb 13 2017 21:27:32 GMT-0500 (Eastern Standard Time)","female","White","liberal","",NA,"[{""page_index"":0,""viewing_time"":1238}]","break","","","","","","","","","","",""
"99",44682,"{""Q0"":93}","[object Object]","survey-likert",98,1801190,"0.0-98.0","s0pxmd55lnp49fe18439f30l49gq8yl6","Mon Feb 13 2017 21:27:32 GMT-0500 (Eastern Standard Time)","female","White","liberal","",NA,"","offCivRatings","the officer twisted the arm of the civilian, forcing him to the ground","the civilian yelled ""get back!"" at the officer","armbar","getBack","officerCivilian","acceptableCiv","93","","","",""
"100",5751,"{""Q0"":19}","[object Object]","survey-likert",99,1806950,"0.0-99.0","s0pxmd55lnp49fe18439f30l49gq8yl6","Mon Feb 13 2017 21:27:32 GMT-0500 (Eastern Standard Time)","female","White","liberal","",NA,"","offCivRatings","the officer twisted the arm of the civilian, forcing him to the ground","the civilian yelled ""get back!"" at the officer","armbar","getBack","officerCivilian","forceCiv","19","","","",""
"101",7303,"{""Q0"":1}","[object Object]","survey-likert",100,1814258,"0.0-100.0","s0pxmd55lnp49fe18439f30l49gq8yl6","Mon Feb 13 2017 21:27:32 GMT-0500 (Eastern Standard Time)","female","White","liberal","",NA,"","offCivRatings","the officer twisted the arm of the civilian, forcing him to the ground","the civilian yelled ""get back!"" at the officer","armbar","getBack","officerCivilian","punishCiv","1","","","",""
"102",7340,"{""Q0"":38}","[object Object]","survey-likert",101,1821604,"0.0-101.0","s0pxmd55lnp49fe18439f30l49gq8yl6","Mon Feb 13 2017 21:27:32 GMT-0500 (Eastern Standard Time)","female","White","liberal","",NA,"","offCivRatings","the officer twisted the arm of the civilian, forcing him to the ground","the civilian yelled ""get back!"" at the officer","armbar","getBack","officerCivilian","appropriateCiv","38","","","",""
"103",1820,"","","instructions",102,1823425,"0.0-102.0","s0pxmd55lnp49fe18439f30l49gq8yl6","Mon Feb 13 2017 21:27:32 GMT-0500 (Eastern Standard Time)","female","White","liberal","",NA,"[{""page_index"":0,""viewing_time"":1819}]","break","","","","","","","","","","",""
"104",19302,"{""Q0"":45}","[object Object]","survey-likert",103,1842940,"0.0-103.0","s0pxmd55lnp49fe18439f30l49gq8yl6","Mon Feb 13 2017 21:27:32 GMT-0500 (Eastern Standard Time)","female","White","liberal","",NA,"","offCivRatings","the officer shocked the civilian with a tazer","the civilian headbutted the officer in the face","tazer","headbutt","civilianOfficer","acceptableOff","45","","","",""
"105",6226,"{""Q0"":69}","[object Object]","survey-likert",104,1849170,"0.0-104.0","s0pxmd55lnp49fe18439f30l49gq8yl6","Mon Feb 13 2017 21:27:32 GMT-0500 (Eastern Standard Time)","female","White","liberal","",NA,"","offCivRatings","the officer shocked the civilian with a tazer","the civilian headbutted the officer in the face","tazer","headbutt","civilianOfficer","appropriateOff","69","","","",""
"106",23895,"{""Q0"":74}","[object Object]","survey-likert",105,1873070,"0.0-105.0","s0pxmd55lnp49fe18439f30l49gq8yl6","Mon Feb 13 2017 21:27:32 GMT-0500 (Eastern Standard Time)","female","White","liberal","",NA,"","offCivRatings","the officer shocked the civilian with a tazer","the civilian headbutted the officer in the face","tazer","headbutt","civilianOfficer","forceOff","74","","","",""
"107",3730,"{""Q0"":58}","[object Object]","survey-likert",106,1876803,"0.0-106.0","s0pxmd55lnp49fe18439f30l49gq8yl6","Mon Feb 13 2017 21:27:32 GMT-0500 (Eastern Standard Time)","female","White","liberal","",NA,"","offCivRatings","the officer shocked the civilian with a tazer","the civilian headbutted the officer in the face","tazer","headbutt","civilianOfficer","punishOff","58","","","",""
"108",1446,"","","instructions",107,1878249,"0.0-107.0","s0pxmd55lnp49fe18439f30l49gq8yl6","Mon Feb 13 2017 21:27:32 GMT-0500 (Eastern Standard Time)","female","White","liberal","",NA,"[{""page_index"":0,""viewing_time"":1445}]","break","","","","","","","","","","",""
"109",8356,"{""Q0"":59}","[object Object]","survey-likert",108,1886816,"0.0-108.0","s0pxmd55lnp49fe18439f30l49gq8yl6","Mon Feb 13 2017 21:27:32 GMT-0500 (Eastern Standard Time)","female","White","liberal","",NA,"","offCivRatings","the officer punched the civilian in the face","the civilian struck the officer in the stomach with a metal flashlight","punchFace","flashlight","civilianOfficer","appropriateOff","59","","","",""
"110",6966,"{""Q0"":17}","[object Object]","survey-likert",109,1893786,"0.0-109.0","s0pxmd55lnp49fe18439f30l49gq8yl6","Mon Feb 13 2017 21:27:32 GMT-0500 (Eastern Standard Time)","female","White","liberal","",NA,"","offCivRatings","the officer punched the civilian in the face","the civilian struck the officer in the stomach with a metal flashlight","punchFace","flashlight","civilianOfficer","punishOff","17","","","",""
"111",26419,"{""Q0"":56}","[object Object]","survey-likert",110,1920210,"0.0-110.0","s0pxmd55lnp49fe18439f30l49gq8yl6","Mon Feb 13 2017 21:27:32 GMT-0500 (Eastern Standard Time)","female","White","liberal","",NA,"","offCivRatings","the officer punched the civilian in the face","the civilian struck the officer in the stomach with a metal flashlight","punchFace","flashlight","civilianOfficer","forceOff","56","","","",""
"112",6638,"{""Q0"":48}","[object Object]","survey-likert",111,1926852,"0.0-111.0","s0pxmd55lnp49fe18439f30l49gq8yl6","Mon Feb 13 2017 21:27:32 GMT-0500 (Eastern Standard Time)","female","White","liberal","",NA,"","offCivRatings","the officer punched the civilian in the face","the civilian struck the officer in the stomach with a metal flashlight","punchFace","flashlight","civilianOfficer","acceptableOff","48","","","",""
"113",3067,"","","instructions",112,1929919,"0.0-112.0","s0pxmd55lnp49fe18439f30l49gq8yl6","Mon Feb 13 2017 21:27:32 GMT-0500 (Eastern Standard Time)","female","White","liberal","",NA,"[{""page_index"":0,""viewing_time"":3067}]","break","","","","","","","","","","",""
"114",96691,"{""Q0"":80}","[object Object]","survey-likert",113,2026817,"0.0-113.0","s0pxmd55lnp49fe18439f30l49gq8yl6","Mon Feb 13 2017 21:27:32 GMT-0500 (Eastern Standard Time)","female","White","liberal","",NA,"","offCivRatings","the officer asked the civilian how he was doing","the civilian sprayed the officer with pepper spray","asked","pepperSpray","civilianOfficer","acceptableOff","80","","","",""
"115",7527,"{""Q0"":1}","[object Object]","survey-likert",114,2034350,"0.0-114.0","s0pxmd55lnp49fe18439f30l49gq8yl6","Mon Feb 13 2017 21:27:32 GMT-0500 (Eastern Standard Time)","female","White","liberal","",NA,"","offCivRatings","the officer asked the civilian how he was doing","the civilian sprayed the officer with pepper spray","asked","pepperSpray","civilianOfficer","forceOff","1","","","",""
"116",60766,"{""Q0"":1}","[object Object]","survey-likert",115,2095122,"0.0-115.0","s0pxmd55lnp49fe18439f30l49gq8yl6","Mon Feb 13 2017 21:27:32 GMT-0500 (Eastern Standard Time)","female","White","liberal","",NA,"","offCivRatings","the officer asked the civilian how he was doing","the civilian sprayed the officer with pepper spray","asked","pepperSpray","civilianOfficer","punishOff","1","","","",""
"117",47592,"{""Q0"":7}","[object Object]","survey-likert",116,2142720,"0.0-116.0","s0pxmd55lnp49fe18439f30l49gq8yl6","Mon Feb 13 2017 21:27:32 GMT-0500 (Eastern Standard Time)","female","White","liberal","",NA,"","offCivRatings","the officer asked the civilian how he was doing","the civilian sprayed the officer with pepper spray","asked","pepperSpray","civilianOfficer","appropriateOff","7","","","",""
"118",1524,"","","instructions",117,2144244,"0.0-117.0","s0pxmd55lnp49fe18439f30l49gq8yl6","Mon Feb 13 2017 21:27:32 GMT-0500 (Eastern Standard Time)","female","White","liberal","",NA,"[{""page_index"":0,""viewing_time"":1524}]","break","","","","","","","","","","",""
"119",7566,"{""Q0"":54}","[object Object]","survey-likert",118,2152031,"0.0-118.0","s0pxmd55lnp49fe18439f30l49gq8yl6","Mon Feb 13 2017 21:27:32 GMT-0500 (Eastern Standard Time)","female","White","liberal","",NA,"","offCivRatings","the officer shot the civilian in the head with a handgun","the civilian said ""if you touch me, you're gonna get hurt"" to the officer","handgunHead","hurtThreat","officerCivilian","punishCiv","54","","","",""
"120",8471,"{""Q0"":42}","[object Object]","survey-likert",119,2160509,"0.0-119.0","s0pxmd55lnp49fe18439f30l49gq8yl6","Mon Feb 13 2017 21:27:32 GMT-0500 (Eastern Standard Time)","female","White","liberal","",NA,"","offCivRatings","the officer shot the civilian in the head with a handgun","the civilian said ""if you touch me, you're gonna get hurt"" to the officer","handgunHead","hurtThreat","officerCivilian","acceptableCiv","42","","","",""
"121",78218,"{""Q0"":36}","[object Object]","survey-likert",120,2238732,"0.0-120.0","s0pxmd55lnp49fe18439f30l49gq8yl6","Mon Feb 13 2017 21:27:32 GMT-0500 (Eastern Standard Time)","female","White","liberal","",NA,"","offCivRatings","the officer shot the civilian in the head with a handgun","the civilian said ""if you touch me, you're gonna get hurt"" to the officer","handgunHead","hurtThreat","officerCivilian","forceCiv","36","","","",""
"122",6454,"{""Q0"":58}","[object Object]","survey-likert",121,2245191,"0.0-121.0","s0pxmd55lnp49fe18439f30l49gq8yl6","Mon Feb 13 2017 21:27:32 GMT-0500 (Eastern Standard Time)","female","White","liberal","",NA,"","offCivRatings","the officer shot the civilian in the head with a handgun","the civilian said ""if you touch me, you're gonna get hurt"" to the officer","handgunHead","hurtThreat","officerCivilian","appropriateCiv","58","","","",""
"123",6002,"{""Q0"":1}","[object Object]","survey-likert",122,2251199,"0.0-122.0","s0pxmd55lnp49fe18439f30l49gq8yl6","Mon Feb 13 2017 21:27:32 GMT-0500 (Eastern Standard Time)","female","White","liberal","",NA,"","offCivRatings","the officer shot the civilian in the head with a handgun","the civilian said ""if you touch me, you're gonna get hurt"" to the officer","handgunHead","hurtThreat","officerCivilian","manipCheckLow","1","","","",""
"124",2929,"","","instructions",123,2254128,"0.0-123.0","s0pxmd55lnp49fe18439f30l49gq8yl6","Mon Feb 13 2017 21:27:32 GMT-0500 (Eastern Standard Time)","female","White","liberal","",NA,"[{""page_index"":0,""viewing_time"":2928}]","break","","","","","","","","","","",""
"125",16507,"{""Q0"":79}","[object Object]","survey-likert",124,2270857,"0.0-124.0","s0pxmd55lnp49fe18439f30l49gq8yl6","Mon Feb 13 2017 21:27:32 GMT-0500 (Eastern Standard Time)","female","White","liberal","",NA,"","policeLegitimacy","","","","","","","79","doTreat","feltObligation","",""
"126",4983,"{""Q0"":86}","[object Object]","survey-likert",125,2275846,"0.0-125.0","s0pxmd55lnp49fe18439f30l49gq8yl6","Mon Feb 13 2017 21:27:32 GMT-0500 (Eastern Standard Time)","female","White","liberal","",NA,"","policeLegitimacy","","","","","","","86","importantValues","normAlignment","",""
"127",11328,"{""Q0"":97}","[object Object]","survey-likert",126,2287179,"0.0-126.0","s0pxmd55lnp49fe18439f30l49gq8yl6","Mon Feb 13 2017 21:27:32 GMT-0500 (Eastern Standard Time)","female","White","liberal","",NA,"","policeLegitimacy","","","","","","","97","communityWants","normAlignment","",""
"128",7101,"{""Q0"":36}","[object Object]","survey-likert",127,2294286,"0.0-127.0","s0pxmd55lnp49fe18439f30l49gq8yl6","Mon Feb 13 2017 21:27:32 GMT-0500 (Eastern Standard Time)","female","White","liberal","",NA,"","policeLegitimacy","","","","","","","36","support","feltObligation","",""
"129",4730,"{""Q0"":88}","[object Object]","survey-likert",128,2299023,"0.0-128.0","s0pxmd55lnp49fe18439f30l49gq8yl6","Mon Feb 13 2017 21:27:32 GMT-0500 (Eastern Standard Time)","female","White","liberal","",NA,"","policeLegitimacy","","","","","","","88","rightWrong","normAlignment","",""
"130",14450,"{""Q0"":79}","[object Object]","survey-likert",129,2313477,"0.0-129.0","s0pxmd55lnp49fe18439f30l49gq8yl6","Mon Feb 13 2017 21:27:32 GMT-0500 (Eastern Standard Time)","female","White","liberal","",NA,"","policeLegitimacy","","","","","","","79","doReasons","feltObligation","",""
"131",3630,"{""Q0"":""no""}","[object Object]","survey-multi-choice2",130,2317114,"0.0-130.0","s0pxmd55lnp49fe18439f30l49gq8yl6","Mon Feb 13 2017 21:27:32 GMT-0500 (Eastern Standard Time)","female","White","liberal","",NA,"","policeExperience","","","","","","","no","stopped","","personal","Have you ever been stopped by the police on the street without good reason?"
"132",4201,"{""Q0"":""no""}","[object Object]","survey-multi-choice2",131,2321317,"0.0-131.0","s0pxmd55lnp49fe18439f30l49gq8yl6","Mon Feb 13 2017 21:27:32 GMT-0500 (Eastern Standard Time)","female","White","liberal","",NA,"","policeExperience","","","","","","","no","insultLang","","vicarious","Have the police ever used insulting language toward anyone in your household?"
"133",3959,"{""Q0"":""no""}","[object Object]","survey-multi-choice2",132,2325277,"0.0-132.0","s0pxmd55lnp49fe18439f30l49gq8yl6","Mon Feb 13 2017 21:27:32 GMT-0500 (Eastern Standard Time)","female","White","liberal","",NA,"","policeExperience","","","","","","","no","insultLang","","personal","Have the police ever used insulting language toward you?"
"134",3499,"{""Q0"":""no""}","[object Object]","survey-multi-choice2",133,2328778,"0.0-133.0","s0pxmd55lnp49fe18439f30l49gq8yl6","Mon Feb 13 2017 21:27:32 GMT-0500 (Eastern Standard Time)","female","White","liberal","",NA,"","policeExperience","","","","","","","no","excessForce","","vicarious","Have the police ever used excessive force against anyone in your household?"
"135",14088,"{""Q0"":""no""}","[object Object]","survey-multi-choice2",134,2342867,"0.0-134.0","s0pxmd55lnp49fe18439f30l49gq8yl6","Mon Feb 13 2017 21:27:32 GMT-0500 (Eastern Standard Time)","female","White","liberal","",NA,"","policeExperience","","","","","","","no","stopped","","vicarious","Has anyone in your household ever been stopped on the street by the police without good reason?"
"136",3123,"{""Q0"":""no""}","[object Object]","survey-multi-choice2",135,2345994,"0.0-135.0","s0pxmd55lnp49fe18439f30l49gq8yl6","Mon Feb 13 2017 21:27:32 GMT-0500 (Eastern Standard Time)","female","White","liberal","",NA,"","policeExperience","","","","","","","no","excessForce","","personal","Have the police ever used excessive force against you?"
"137",42377,"{""Q0"":""no""}","[object Object]","survey-multi-choice2",136,2388374,"0.0-136.0","s0pxmd55lnp49fe18439f30l49gq8yl6","Mon Feb 13 2017 21:27:32 GMT-0500 (Eastern Standard Time)","female","White","liberal","",NA,"","policeExperience","","","","","","","no","corrupt","","personal","Have you ever seen a police officer engage in any corrupt activities (e.g., taking bribes or involvement in the drug trade)?"
"138",7541,"{""Q0"":""female"",""Q1"":""White"",""Q2"":""liberal""}","[object Object]","survey-multi-choice",137,2395925,"0.0-137.0","s0pxmd55lnp49fe18439f30l49gq8yl6","Mon Feb 13 2017 21:27:32 GMT-0500 (Eastern Standard Time)","female","White","liberal","",NA,"","demographics","","","","","","","","","","",""
"139",22767,"","","instructions",138,2419694,"0.0-138.0","s0pxmd55lnp49fe18439f30l49gq8yl6","Mon Feb 13 2017 21:27:32 GMT-0500 (Eastern Standard Time)","female","White","liberal","",NA,"[{""page_index"":0,""viewing_time"":2726},{""page_index"":1,""viewing_time"":11046},{""page_index"":2,""viewing_time"":6258},{""page_index"":3,""viewing_time"":2737}]","debriefing","","","","","","","","","","",""
