"","rt","responses","internalResp","trial_type","trial_index","time_elapsed","internal_node_id","randSubjectID","date","sex","race","polAff","stimulus","key_press","view_history","questionType","officerAction","civilianAction","offActName","civActName","order","questionName","response","name","dimension","person","question"
"1",7187,"","[object Object]","survey-text",0,7192,"0.0-0.0","tsffvew77u03ol0s68jy9s161zh6xysc","Tue Jan 17 2017 19:39:26 GMT-0500 (EST)","female","White","liberal","",NA,"","","","","","","","","","","","",""
"2",23905,"","","single-stim",1,32103,"0.0-1.0","tsffvew77u03ol0s68jy9s161zh6xysc","Tue Jan 17 2017 19:39:26 GMT-0500 (EST)","female","White","liberal","<img src='static/images/1602685960_ICS_Credit-0.png' alt='Consent 1' height=1100 width=850><img src='static/images/1602685960_ICS_Credit-1.png' alt='Consent 2' height=1100 width=850></p>",89,"","","","","","","","","","","","",""
"3",4375,"","","instructions",2,37479,"0.0-2.0","tsffvew77u03ol0s68jy9s161zh6xysc","Tue Jan 17 2017 19:39:26 GMT-0500 (EST)","female","White","liberal","",NA,"[{""page_index"":0,""viewing_time"":4375}]","instructions","","","","","","","","","","",""
"4",32991,"","","instructions",3,71472,"0.0-3.0","tsffvew77u03ol0s68jy9s161zh6xysc","Tue Jan 17 2017 19:39:26 GMT-0500 (EST)","female","White","liberal","",NA,"[{""page_index"":0,""viewing_time"":4972},{""page_index"":1,""viewing_time"":3063},{""page_index"":2,""viewing_time"":19893},{""page_index"":3,""viewing_time"":5063}]","instructions","","","","","","","","","","",""
"5",103138,"{""Q0"":1}","[object Object]","survey-likert",4,175626,"0.0-4.0","tsffvew77u03ol0s68jy9s161zh6xysc","Tue Jan 17 2017 19:39:26 GMT-0500 (EST)","female","White","liberal","",NA,"","offCivRatings","the officer shocked the civilian with a tazer","the civilian asked the officer how he was doing","tazer","asked","civilianOfficer","manipCheckLow","1","","","",""
"6",15725,"{""Q0"":95}","[object Object]","survey-likert",5,191360,"0.0-5.0","tsffvew77u03ol0s68jy9s161zh6xysc","Tue Jan 17 2017 19:39:26 GMT-0500 (EST)","female","White","liberal","",NA,"","offCivRatings","the officer shocked the civilian with a tazer","the civilian asked the officer how he was doing","tazer","asked","civilianOfficer","forceOff","95","","","",""
"7",5662,"{""Q0"":92}","[object Object]","survey-likert",6,197031,"0.0-6.0","tsffvew77u03ol0s68jy9s161zh6xysc","Tue Jan 17 2017 19:39:26 GMT-0500 (EST)","female","White","liberal","",NA,"","offCivRatings","the officer shocked the civilian with a tazer","the civilian asked the officer how he was doing","tazer","asked","civilianOfficer","punishOff","92","","","",""
"8",5123,"{""Q0"":90}","[object Object]","survey-likert",7,202161,"0.0-7.0","tsffvew77u03ol0s68jy9s161zh6xysc","Tue Jan 17 2017 19:39:26 GMT-0500 (EST)","female","White","liberal","",NA,"","offCivRatings","the officer shocked the civilian with a tazer","the civilian asked the officer how he was doing","tazer","asked","civilianOfficer","acceptableOff","90","","","",""
"9",20301,"{""Q0"":92}","[object Object]","survey-likert",8,222468,"0.0-8.0","tsffvew77u03ol0s68jy9s161zh6xysc","Tue Jan 17 2017 19:39:26 GMT-0500 (EST)","female","White","liberal","",NA,"","offCivRatings","the officer shocked the civilian with a tazer","the civilian asked the officer how he was doing","tazer","asked","civilianOfficer","appropriateOff","92","","","",""
"10",1463,"","","instructions",9,223931,"0.0-9.0","tsffvew77u03ol0s68jy9s161zh6xysc","Tue Jan 17 2017 19:39:26 GMT-0500 (EST)","female","White","liberal","",NA,"[{""page_index"":0,""viewing_time"":1462}]","break","","","","","","","","","","",""
"11",41004,"{""Q0"":8}","[object Object]","survey-likert",10,265145,"0.0-10.0","tsffvew77u03ol0s68jy9s161zh6xysc","Tue Jan 17 2017 19:39:26 GMT-0500 (EST)","female","White","liberal","",NA,"","offCivRatings","the officer stood near the civilian","the civilian shot the officer in the head with a handgun","stoodNear","handgunHead","officerCivilian","acceptableCiv","8","","","",""
"12",7979,"{""Q0"":95}","[object Object]","survey-likert",11,273129,"0.0-11.0","tsffvew77u03ol0s68jy9s161zh6xysc","Tue Jan 17 2017 19:39:26 GMT-0500 (EST)","female","White","liberal","",NA,"","offCivRatings","the officer stood near the civilian","the civilian shot the officer in the head with a handgun","stoodNear","handgunHead","officerCivilian","appropriateCiv","95","","","",""
"13",14581,"{""Q0"":92}","[object Object]","survey-likert",12,287716,"0.0-12.0","tsffvew77u03ol0s68jy9s161zh6xysc","Tue Jan 17 2017 19:39:26 GMT-0500 (EST)","female","White","liberal","",NA,"","offCivRatings","the officer stood near the civilian","the civilian shot the officer in the head with a handgun","stoodNear","handgunHead","officerCivilian","forceCiv","92","","","",""
"14",4611,"{""Q0"":93}","[object Object]","survey-likert",13,292331,"0.0-13.0","tsffvew77u03ol0s68jy9s161zh6xysc","Tue Jan 17 2017 19:39:26 GMT-0500 (EST)","female","White","liberal","",NA,"","offCivRatings","the officer stood near the civilian","the civilian shot the officer in the head with a handgun","stoodNear","handgunHead","officerCivilian","punishCiv","93","","","",""
"15",1398,"","","instructions",14,293730,"0.0-14.0","tsffvew77u03ol0s68jy9s161zh6xysc","Tue Jan 17 2017 19:39:26 GMT-0500 (EST)","female","White","liberal","",NA,"[{""page_index"":0,""viewing_time"":1398}]","break","","","","","","","","","","",""
"16",16633,"{""Q0"":16}","[object Object]","survey-likert",15,310570,"0.0-15.0","tsffvew77u03ol0s68jy9s161zh6xysc","Tue Jan 17 2017 19:39:26 GMT-0500 (EST)","female","White","liberal","",NA,"","offCivRatings","the officer twisted the arm of the civilian, forcing him to the ground","the civilian called the officer a ""pig""","armbar","nameCall","officerCivilian","forceCiv","16","","","",""
"17",6991,"{""Q0"":11}","[object Object]","survey-likert",16,317565,"0.0-16.0","tsffvew77u03ol0s68jy9s161zh6xysc","Tue Jan 17 2017 19:39:26 GMT-0500 (EST)","female","White","liberal","",NA,"","offCivRatings","the officer twisted the arm of the civilian, forcing him to the ground","the civilian called the officer a ""pig""","armbar","nameCall","officerCivilian","punishCiv","11","","","",""
"18",4981,"{""Q0"":21}","[object Object]","survey-likert",17,322554,"0.0-17.0","tsffvew77u03ol0s68jy9s161zh6xysc","Tue Jan 17 2017 19:39:26 GMT-0500 (EST)","female","White","liberal","",NA,"","offCivRatings","the officer twisted the arm of the civilian, forcing him to the ground","the civilian called the officer a ""pig""","armbar","nameCall","officerCivilian","appropriateCiv","21","","","",""
"19",7595,"{""Q0"":44}","[object Object]","survey-likert",18,330153,"0.0-18.0","tsffvew77u03ol0s68jy9s161zh6xysc","Tue Jan 17 2017 19:39:26 GMT-0500 (EST)","female","White","liberal","",NA,"","offCivRatings","the officer twisted the arm of the civilian, forcing him to the ground","the civilian called the officer a ""pig""","armbar","nameCall","officerCivilian","acceptableCiv","44","","","",""
"20",4290,"","","instructions",19,334443,"0.0-19.0","tsffvew77u03ol0s68jy9s161zh6xysc","Tue Jan 17 2017 19:39:26 GMT-0500 (EST)","female","White","liberal","",NA,"[{""page_index"":0,""viewing_time"":4289}]","break","","","","","","","","","","",""
"21",20138,"{""Q0"":77}","[object Object]","survey-likert",20,354786,"0.0-20.0","tsffvew77u03ol0s68jy9s161zh6xysc","Tue Jan 17 2017 19:39:26 GMT-0500 (EST)","female","White","liberal","",NA,"","offCivRatings","the officer purposefully struck the civilian with a motor vehicle","the civilian headbutted the officer in the face","vehicle","headbutt","officerCivilian","forceCiv","77","","","",""
"22",2988,"{""Q0"":83}","[object Object]","survey-likert",21,357778,"0.0-21.0","tsffvew77u03ol0s68jy9s161zh6xysc","Tue Jan 17 2017 19:39:26 GMT-0500 (EST)","female","White","liberal","",NA,"","offCivRatings","the officer purposefully struck the civilian with a motor vehicle","the civilian headbutted the officer in the face","vehicle","headbutt","officerCivilian","acceptableCiv","83","","","",""
"23",4688,"{""Q0"":68}","[object Object]","survey-likert",22,362470,"0.0-22.0","tsffvew77u03ol0s68jy9s161zh6xysc","Tue Jan 17 2017 19:39:26 GMT-0500 (EST)","female","White","liberal","",NA,"","offCivRatings","the officer purposefully struck the civilian with a motor vehicle","the civilian headbutted the officer in the face","vehicle","headbutt","officerCivilian","appropriateCiv","68","","","",""
"24",9198,"{""Q0"":1}","[object Object]","survey-likert",23,371671,"0.0-23.0","tsffvew77u03ol0s68jy9s161zh6xysc","Tue Jan 17 2017 19:39:26 GMT-0500 (EST)","female","White","liberal","",NA,"","offCivRatings","the officer purposefully struck the civilian with a motor vehicle","the civilian headbutted the officer in the face","vehicle","headbutt","officerCivilian","manipCheckLow","1","","","",""
"25",31929,"{""Q0"":57}","[object Object]","survey-likert",24,403604,"0.0-24.0","tsffvew77u03ol0s68jy9s161zh6xysc","Tue Jan 17 2017 19:39:26 GMT-0500 (EST)","female","White","liberal","",NA,"","offCivRatings","the officer purposefully struck the civilian with a motor vehicle","the civilian headbutted the officer in the face","vehicle","headbutt","officerCivilian","punishCiv","57","","","",""
"26",1119,"","","instructions",25,404723,"0.0-25.0","tsffvew77u03ol0s68jy9s161zh6xysc","Tue Jan 17 2017 19:39:26 GMT-0500 (EST)","female","White","liberal","",NA,"[{""page_index"":0,""viewing_time"":1119}]","break","","","","","","","","","","",""
"27",10189,"{""Q0"":1}","[object Object]","survey-likert",26,415119,"0.0-26.0","tsffvew77u03ol0s68jy9s161zh6xysc","Tue Jan 17 2017 19:39:26 GMT-0500 (EST)","female","White","liberal","",NA,"","offCivRatings","the officer waved at the civilian in greeting","the civilian yelled ""get back!"" at the officer","waved","getBack","civilianOfficer","manipCheckLow","1","","","",""
"28",10156,"{""Q0"":40}","[object Object]","survey-likert",27,425279,"0.0-27.0","tsffvew77u03ol0s68jy9s161zh6xysc","Tue Jan 17 2017 19:39:26 GMT-0500 (EST)","female","White","liberal","",NA,"","offCivRatings","the officer waved at the civilian in greeting","the civilian yelled ""get back!"" at the officer","waved","getBack","civilianOfficer","acceptableOff","40","","","",""
"29",4163,"{""Q0"":1}","[object Object]","survey-likert",28,429445,"0.0-28.0","tsffvew77u03ol0s68jy9s161zh6xysc","Tue Jan 17 2017 19:39:26 GMT-0500 (EST)","female","White","liberal","",NA,"","offCivRatings","the officer waved at the civilian in greeting","the civilian yelled ""get back!"" at the officer","waved","getBack","civilianOfficer","punishOff","1","","","",""
"30",6998,"{""Q0"":10}","[object Object]","survey-likert",29,436448,"0.0-29.0","tsffvew77u03ol0s68jy9s161zh6xysc","Tue Jan 17 2017 19:39:26 GMT-0500 (EST)","female","White","liberal","",NA,"","offCivRatings","the officer waved at the civilian in greeting","the civilian yelled ""get back!"" at the officer","waved","getBack","civilianOfficer","forceOff","10","","","",""
"31",10543,"{""Q0"":25}","[object Object]","survey-likert",30,446995,"0.0-30.0","tsffvew77u03ol0s68jy9s161zh6xysc","Tue Jan 17 2017 19:39:26 GMT-0500 (EST)","female","White","liberal","",NA,"","offCivRatings","the officer waved at the civilian in greeting","the civilian yelled ""get back!"" at the officer","waved","getBack","civilianOfficer","appropriateOff","25","","","",""
"32",1198,"","","instructions",31,448193,"0.0-31.0","tsffvew77u03ol0s68jy9s161zh6xysc","Tue Jan 17 2017 19:39:26 GMT-0500 (EST)","female","White","liberal","",NA,"[{""page_index"":0,""viewing_time"":1198}]","break","","","","","","","","","","",""
"33",18108,"{""Q0"":77}","[object Object]","survey-likert",32,466508,"0.0-32.0","tsffvew77u03ol0s68jy9s161zh6xysc","Tue Jan 17 2017 19:39:26 GMT-0500 (EST)","female","White","liberal","",NA,"","offCivRatings","the officer struck the civilian on the leg with a collapsible baton","the civilian twisted the arm of the officer, forcing him to the ground","batonLeg","armbar","officerCivilian","acceptableCiv","77","","","",""
"34",5535,"{""Q0"":28}","[object Object]","survey-likert",33,472050,"0.0-33.0","tsffvew77u03ol0s68jy9s161zh6xysc","Tue Jan 17 2017 19:39:26 GMT-0500 (EST)","female","White","liberal","",NA,"","offCivRatings","the officer struck the civilian on the leg with a collapsible baton","the civilian twisted the arm of the officer, forcing him to the ground","batonLeg","armbar","officerCivilian","punishCiv","28","","","",""
"35",8428,"{""Q0"":75}","[object Object]","survey-likert",34,480485,"0.0-34.0","tsffvew77u03ol0s68jy9s161zh6xysc","Tue Jan 17 2017 19:39:26 GMT-0500 (EST)","female","White","liberal","",NA,"","offCivRatings","the officer struck the civilian on the leg with a collapsible baton","the civilian twisted the arm of the officer, forcing him to the ground","batonLeg","armbar","officerCivilian","forceCiv","75","","","",""
"36",2810,"{""Q0"":1}","[object Object]","survey-likert",35,483297,"0.0-35.0","tsffvew77u03ol0s68jy9s161zh6xysc","Tue Jan 17 2017 19:39:26 GMT-0500 (EST)","female","White","liberal","",NA,"","offCivRatings","the officer struck the civilian on the leg with a collapsible baton","the civilian twisted the arm of the officer, forcing him to the ground","batonLeg","armbar","officerCivilian","manipCheckLow","1","","","",""
"37",5174,"{""Q0"":59}","[object Object]","survey-likert",36,488475,"0.0-36.0","tsffvew77u03ol0s68jy9s161zh6xysc","Tue Jan 17 2017 19:39:26 GMT-0500 (EST)","female","White","liberal","",NA,"","offCivRatings","the officer struck the civilian on the leg with a collapsible baton","the civilian twisted the arm of the officer, forcing him to the ground","batonLeg","armbar","officerCivilian","appropriateCiv","59","","","",""
"38",1315,"","","instructions",37,489790,"0.0-37.0","tsffvew77u03ol0s68jy9s161zh6xysc","Tue Jan 17 2017 19:39:26 GMT-0500 (EST)","female","White","liberal","",NA,"[{""page_index"":0,""viewing_time"":1315}]","break","","","","","","","","","","",""
"39",8482,"{""Q0"":76}","[object Object]","survey-likert",38,498478,"0.0-38.0","tsffvew77u03ol0s68jy9s161zh6xysc","Tue Jan 17 2017 19:39:26 GMT-0500 (EST)","female","White","liberal","",NA,"","offCivRatings","the officer applied a chokehold to the civilian","the civilian sprayed the officer with pepper spray","choke","pepperSpray","civilianOfficer","appropriateOff","76","","","",""
"40",3996,"{""Q0"":28}","[object Object]","survey-likert",39,502477,"0.0-39.0","tsffvew77u03ol0s68jy9s161zh6xysc","Tue Jan 17 2017 19:39:26 GMT-0500 (EST)","female","White","liberal","",NA,"","offCivRatings","the officer applied a chokehold to the civilian","the civilian sprayed the officer with pepper spray","choke","pepperSpray","civilianOfficer","punishOff","28","","","",""
"41",13784,"{""Q0"":63}","[object Object]","survey-likert",40,516266,"0.0-40.0","tsffvew77u03ol0s68jy9s161zh6xysc","Tue Jan 17 2017 19:39:26 GMT-0500 (EST)","female","White","liberal","",NA,"","offCivRatings","the officer applied a chokehold to the civilian","the civilian sprayed the officer with pepper spray","choke","pepperSpray","civilianOfficer","acceptableOff","63","","","",""
"42",10701,"{""Q0"":76}","[object Object]","survey-likert",41,526973,"0.0-41.0","tsffvew77u03ol0s68jy9s161zh6xysc","Tue Jan 17 2017 19:39:26 GMT-0500 (EST)","female","White","liberal","",NA,"","offCivRatings","the officer applied a chokehold to the civilian","the civilian sprayed the officer with pepper spray","choke","pepperSpray","civilianOfficer","forceOff","76","","","",""
"43",6244,"{""Q0"":100}","[object Object]","survey-likert",42,533222,"0.0-42.0","tsffvew77u03ol0s68jy9s161zh6xysc","Tue Jan 17 2017 19:39:26 GMT-0500 (EST)","female","White","liberal","",NA,"","offCivRatings","the officer applied a chokehold to the civilian","the civilian sprayed the officer with pepper spray","choke","pepperSpray","civilianOfficer","manipCheckHigh","100","","","",""
"44",1326,"","","instructions",43,534548,"0.0-43.0","tsffvew77u03ol0s68jy9s161zh6xysc","Tue Jan 17 2017 19:39:26 GMT-0500 (EST)","female","White","liberal","",NA,"[{""page_index"":0,""viewing_time"":1326}]","break","","","","","","","","","","",""
"45",11231,"{""Q0"":41}","[object Object]","survey-likert",44,545989,"0.0-44.0","tsffvew77u03ol0s68jy9s161zh6xysc","Tue Jan 17 2017 19:39:26 GMT-0500 (EST)","female","White","liberal","",NA,"","offCivRatings","the officer headbutted the civilian in the face","the civilian purposefully struck the officer with a motor vehicle","headbutt","vehicle","officerCivilian","acceptableCiv","41","","","",""
"46",5408,"{""Q0"":72}","[object Object]","survey-likert",45,551400,"0.0-45.0","tsffvew77u03ol0s68jy9s161zh6xysc","Tue Jan 17 2017 19:39:26 GMT-0500 (EST)","female","White","liberal","",NA,"","offCivRatings","the officer headbutted the civilian in the face","the civilian purposefully struck the officer with a motor vehicle","headbutt","vehicle","officerCivilian","appropriateCiv","72","","","",""
"47",23203,"{""Q0"":69}","[object Object]","survey-likert",46,574607,"0.0-46.0","tsffvew77u03ol0s68jy9s161zh6xysc","Tue Jan 17 2017 19:39:26 GMT-0500 (EST)","female","White","liberal","",NA,"","offCivRatings","the officer headbutted the civilian in the face","the civilian purposefully struck the officer with a motor vehicle","headbutt","vehicle","officerCivilian","punishCiv","69","","","",""
"48",2224,"{""Q0"":72}","[object Object]","survey-likert",47,576835,"0.0-47.0","tsffvew77u03ol0s68jy9s161zh6xysc","Tue Jan 17 2017 19:39:26 GMT-0500 (EST)","female","White","liberal","",NA,"","offCivRatings","the officer headbutted the civilian in the face","the civilian purposefully struck the officer with a motor vehicle","headbutt","vehicle","officerCivilian","forceCiv","72","","","",""
"49",973,"","","instructions",48,577808,"0.0-48.0","tsffvew77u03ol0s68jy9s161zh6xysc","Tue Jan 17 2017 19:39:26 GMT-0500 (EST)","female","White","liberal","",NA,"[{""page_index"":0,""viewing_time"":973}]","break","","","","","","","","","","",""
"50",6716,"{""Q0"":71}","[object Object]","survey-likert",49,584731,"0.0-49.0","tsffvew77u03ol0s68jy9s161zh6xysc","Tue Jan 17 2017 19:39:26 GMT-0500 (EST)","female","White","liberal","",NA,"","offCivRatings","the officer punched the civilian in the face","the civilian punched the officer in the face","punchFace","punchFace","officerCivilian","forceCiv","71","","","",""
"51",2648,"{""Q0"":78}","[object Object]","survey-likert",50,587382,"0.0-50.0","tsffvew77u03ol0s68jy9s161zh6xysc","Tue Jan 17 2017 19:39:26 GMT-0500 (EST)","female","White","liberal","",NA,"","offCivRatings","the officer punched the civilian in the face","the civilian punched the officer in the face","punchFace","punchFace","officerCivilian","acceptableCiv","78","","","",""
"52",3791,"{""Q0"":69}","[object Object]","survey-likert",51,591180,"0.0-51.0","tsffvew77u03ol0s68jy9s161zh6xysc","Tue Jan 17 2017 19:39:26 GMT-0500 (EST)","female","White","liberal","",NA,"","offCivRatings","the officer punched the civilian in the face","the civilian punched the officer in the face","punchFace","punchFace","officerCivilian","punishCiv","69","","","",""
"53",4306,"{""Q0"":61}","[object Object]","survey-likert",52,595490,"0.0-52.0","tsffvew77u03ol0s68jy9s161zh6xysc","Tue Jan 17 2017 19:39:26 GMT-0500 (EST)","female","White","liberal","",NA,"","offCivRatings","the officer punched the civilian in the face","the civilian punched the officer in the face","punchFace","punchFace","officerCivilian","appropriateCiv","61","","","",""
"54",2985,"{""Q0"":1}","[object Object]","survey-likert",53,598477,"0.0-53.0","tsffvew77u03ol0s68jy9s161zh6xysc","Tue Jan 17 2017 19:39:26 GMT-0500 (EST)","female","White","liberal","",NA,"","offCivRatings","the officer punched the civilian in the face","the civilian punched the officer in the face","punchFace","punchFace","officerCivilian","manipCheckLow","1","","","",""
"55",1655,"","","instructions",54,600132,"0.0-54.0","tsffvew77u03ol0s68jy9s161zh6xysc","Tue Jan 17 2017 19:39:26 GMT-0500 (EST)","female","White","liberal","",NA,"[{""page_index"":0,""viewing_time"":1655}]","break","","","","","","","","","","",""
"56",9867,"{""Q0"":41}","[object Object]","survey-likert",55,610207,"0.0-55.0","tsffvew77u03ol0s68jy9s161zh6xysc","Tue Jan 17 2017 19:39:26 GMT-0500 (EST)","female","White","liberal","",NA,"","offCivRatings","the officer sprayed the civilian with pepper spray","the civilian said ""if you touch me, you're gonna get hurt"" to the officer","pepperSpray","hurtThreat","civilianOfficer","acceptableOff","41","","","",""
"57",3587,"{""Q0"":54}","[object Object]","survey-likert",56,613798,"0.0-56.0","tsffvew77u03ol0s68jy9s161zh6xysc","Tue Jan 17 2017 19:39:26 GMT-0500 (EST)","female","White","liberal","",NA,"","offCivRatings","the officer sprayed the civilian with pepper spray","the civilian said ""if you touch me, you're gonna get hurt"" to the officer","pepperSpray","hurtThreat","civilianOfficer","punishOff","54","","","",""
"58",14052,"{""Q0"":65}","[object Object]","survey-likert",57,627853,"0.0-57.0","tsffvew77u03ol0s68jy9s161zh6xysc","Tue Jan 17 2017 19:39:26 GMT-0500 (EST)","female","White","liberal","",NA,"","offCivRatings","the officer sprayed the civilian with pepper spray","the civilian said ""if you touch me, you're gonna get hurt"" to the officer","pepperSpray","hurtThreat","civilianOfficer","appropriateOff","65","","","",""
"59",14921,"{""Q0"":69}","[object Object]","survey-likert",58,642777,"0.0-58.0","tsffvew77u03ol0s68jy9s161zh6xysc","Tue Jan 17 2017 19:39:26 GMT-0500 (EST)","female","White","liberal","",NA,"","offCivRatings","the officer sprayed the civilian with pepper spray","the civilian said ""if you touch me, you're gonna get hurt"" to the officer","pepperSpray","hurtThreat","civilianOfficer","forceOff","69","","","",""
"60",59472,"","","instructions",59,702249,"0.0-59.0","tsffvew77u03ol0s68jy9s161zh6xysc","Tue Jan 17 2017 19:39:26 GMT-0500 (EST)","female","White","liberal","",NA,"[{""page_index"":0,""viewing_time"":59472}]","break","","","","","","","","","","",""
"61",10136,"{""Q0"":82}","[object Object]","survey-likert",60,712592,"0.0-60.0","tsffvew77u03ol0s68jy9s161zh6xysc","Tue Jan 17 2017 19:39:26 GMT-0500 (EST)","female","White","liberal","",NA,"","offCivRatings","the officer shot the civilian in the chest with a handgun","the civilian hit the officer in the chest with a baseball bat","handgunChest","ballBat","civilianOfficer","forceOff","82","","","",""
"62",2709,"{""Q0"":57}","[object Object]","survey-likert",61,715305,"0.0-61.0","tsffvew77u03ol0s68jy9s161zh6xysc","Tue Jan 17 2017 19:39:26 GMT-0500 (EST)","female","White","liberal","",NA,"","offCivRatings","the officer shot the civilian in the chest with a handgun","the civilian hit the officer in the chest with a baseball bat","handgunChest","ballBat","civilianOfficer","punishOff","57","","","",""
"63",5276,"{""Q0"":61}","[object Object]","survey-likert",62,720585,"0.0-62.0","tsffvew77u03ol0s68jy9s161zh6xysc","Tue Jan 17 2017 19:39:26 GMT-0500 (EST)","female","White","liberal","",NA,"","offCivRatings","the officer shot the civilian in the chest with a handgun","the civilian hit the officer in the chest with a baseball bat","handgunChest","ballBat","civilianOfficer","appropriateOff","61","","","",""
"64",2975,"{""Q0"":100}","[object Object]","survey-likert",63,723564,"0.0-63.0","tsffvew77u03ol0s68jy9s161zh6xysc","Tue Jan 17 2017 19:39:26 GMT-0500 (EST)","female","White","liberal","",NA,"","offCivRatings","the officer shot the civilian in the chest with a handgun","the civilian hit the officer in the chest with a baseball bat","handgunChest","ballBat","civilianOfficer","manipCheckHigh","100","","","",""
"65",3922,"{""Q0"":72}","[object Object]","survey-likert",64,727490,"0.0-64.0","tsffvew77u03ol0s68jy9s161zh6xysc","Tue Jan 17 2017 19:39:26 GMT-0500 (EST)","female","White","liberal","",NA,"","offCivRatings","the officer shot the civilian in the chest with a handgun","the civilian hit the officer in the chest with a baseball bat","handgunChest","ballBat","civilianOfficer","acceptableOff","72","","","",""
"66",29054,"","","instructions",65,756544,"0.0-65.0","tsffvew77u03ol0s68jy9s161zh6xysc","Tue Jan 17 2017 19:39:26 GMT-0500 (EST)","female","White","liberal","",NA,"[{""page_index"":0,""viewing_time"":29054}]","break","","","","","","","","","","",""
"67",10299,"{""Q0"":100}","[object Object]","survey-likert",66,767051,"0.0-66.0","tsffvew77u03ol0s68jy9s161zh6xysc","Tue Jan 17 2017 19:39:26 GMT-0500 (EST)","female","White","liberal","",NA,"","offCivRatings","the officer struck the civilian in the stomach with a metal flashlight","the civilian kicked the officer in the stomach","flashlight","kickStom","officerCivilian","manipCheckHigh","100","","","",""
"68",12650,"{""Q0"":79}","[object Object]","survey-likert",67,779705,"0.0-67.0","tsffvew77u03ol0s68jy9s161zh6xysc","Tue Jan 17 2017 19:39:26 GMT-0500 (EST)","female","White","liberal","",NA,"","offCivRatings","the officer struck the civilian in the stomach with a metal flashlight","the civilian kicked the officer in the stomach","flashlight","kickStom","officerCivilian","appropriateCiv","79","","","",""
"69",9610,"{""Q0"":67}","[object Object]","survey-likert",68,789321,"0.0-68.0","tsffvew77u03ol0s68jy9s161zh6xysc","Tue Jan 17 2017 19:39:26 GMT-0500 (EST)","female","White","liberal","",NA,"","offCivRatings","the officer struck the civilian in the stomach with a metal flashlight","the civilian kicked the officer in the stomach","flashlight","kickStom","officerCivilian","forceCiv","67","","","",""
"70",4544,"{""Q0"":84}","[object Object]","survey-likert",69,793870,"0.0-69.0","tsffvew77u03ol0s68jy9s161zh6xysc","Tue Jan 17 2017 19:39:26 GMT-0500 (EST)","female","White","liberal","",NA,"","offCivRatings","the officer struck the civilian in the stomach with a metal flashlight","the civilian kicked the officer in the stomach","flashlight","kickStom","officerCivilian","acceptableCiv","84","","","",""
"71",23041,"{""Q0"":33}","[object Object]","survey-likert",70,816914,"0.0-70.0","tsffvew77u03ol0s68jy9s161zh6xysc","Tue Jan 17 2017 19:39:26 GMT-0500 (EST)","female","White","liberal","",NA,"","offCivRatings","the officer struck the civilian in the stomach with a metal flashlight","the civilian kicked the officer in the stomach","flashlight","kickStom","officerCivilian","punishCiv","33","","","",""
"72",1851,"","","instructions",71,818766,"0.0-71.0","tsffvew77u03ol0s68jy9s161zh6xysc","Tue Jan 17 2017 19:39:26 GMT-0500 (EST)","female","White","liberal","",NA,"[{""page_index"":0,""viewing_time"":1851}]","break","","","","","","","","","","",""
"73",18072,"{""Q0"":64}","[object Object]","survey-likert",72,837043,"0.0-72.0","tsffvew77u03ol0s68jy9s161zh6xysc","Tue Jan 17 2017 19:39:26 GMT-0500 (EST)","female","White","liberal","",NA,"","offCivRatings","the officer put handcuffs on the civilian","the civilian struck the officer in the stomach with a metal flashlight","handcuff","flashlight","civilianOfficer","appropriateOff","64","","","",""
"74",13476,"{""Q0"":91}","[object Object]","survey-likert",73,850525,"0.0-73.0","tsffvew77u03ol0s68jy9s161zh6xysc","Tue Jan 17 2017 19:39:26 GMT-0500 (EST)","female","White","liberal","",NA,"","offCivRatings","the officer put handcuffs on the civilian","the civilian struck the officer in the stomach with a metal flashlight","handcuff","flashlight","civilianOfficer","acceptableOff","91","","","",""
"75",3442,"{""Q0"":15}","[object Object]","survey-likert",74,853971,"0.0-74.0","tsffvew77u03ol0s68jy9s161zh6xysc","Tue Jan 17 2017 19:39:26 GMT-0500 (EST)","female","White","liberal","",NA,"","offCivRatings","the officer put handcuffs on the civilian","the civilian struck the officer in the stomach with a metal flashlight","handcuff","flashlight","civilianOfficer","forceOff","15","","","",""
"76",3514,"{""Q0"":5}","[object Object]","survey-likert",75,857490,"0.0-75.0","tsffvew77u03ol0s68jy9s161zh6xysc","Tue Jan 17 2017 19:39:26 GMT-0500 (EST)","female","White","liberal","",NA,"","offCivRatings","the officer put handcuffs on the civilian","the civilian struck the officer in the stomach with a metal flashlight","handcuff","flashlight","civilianOfficer","punishOff","5","","","",""
"77",1033,"","","instructions",76,858523,"0.0-76.0","tsffvew77u03ol0s68jy9s161zh6xysc","Tue Jan 17 2017 19:39:26 GMT-0500 (EST)","female","White","liberal","",NA,"[{""page_index"":0,""viewing_time"":1033}]","break","","","","","","","","","","",""
"78",40321,"{""Q0"":53}","[object Object]","survey-likert",77,899051,"0.0-77.0","tsffvew77u03ol0s68jy9s161zh6xysc","Tue Jan 17 2017 19:39:26 GMT-0500 (EST)","female","White","liberal","",NA,"","offCivRatings","the officer shouted ""get your fucking hands up!"" at the civilian","the civilian waved at the officer in greeting","handsUp","waved","civilianOfficer","punishOff","53","","","",""
"79",7630,"{""Q0"":24}","[object Object]","survey-likert",78,906684,"0.0-78.0","tsffvew77u03ol0s68jy9s161zh6xysc","Tue Jan 17 2017 19:39:26 GMT-0500 (EST)","female","White","liberal","",NA,"","offCivRatings","the officer shouted ""get your fucking hands up!"" at the civilian","the civilian waved at the officer in greeting","handsUp","waved","civilianOfficer","forceOff","24","","","",""
"80",4487,"{""Q0"":83}","[object Object]","survey-likert",79,911175,"0.0-79.0","tsffvew77u03ol0s68jy9s161zh6xysc","Tue Jan 17 2017 19:39:26 GMT-0500 (EST)","female","White","liberal","",NA,"","offCivRatings","the officer shouted ""get your fucking hands up!"" at the civilian","the civilian waved at the officer in greeting","handsUp","waved","civilianOfficer","acceptableOff","83","","","",""
"81",40630,"{""Q0"":74}","[object Object]","survey-likert",80,951809,"0.0-80.0","tsffvew77u03ol0s68jy9s161zh6xysc","Tue Jan 17 2017 19:39:26 GMT-0500 (EST)","female","White","liberal","",NA,"","offCivRatings","the officer shouted ""get your fucking hands up!"" at the civilian","the civilian waved at the officer in greeting","handsUp","waved","civilianOfficer","appropriateOff","74","","","",""
"82",1078,"","","instructions",81,952887,"0.0-81.0","tsffvew77u03ol0s68jy9s161zh6xysc","Tue Jan 17 2017 19:39:26 GMT-0500 (EST)","female","White","liberal","",NA,"[{""page_index"":0,""viewing_time"":1078}]","break","","","","","","","","","","",""
"83",9682,"{""Q0"":30}","[object Object]","survey-likert",82,962776,"0.0-82.0","tsffvew77u03ol0s68jy9s161zh6xysc","Tue Jan 17 2017 19:39:26 GMT-0500 (EST)","female","White","liberal","",NA,"","offCivRatings","the officer called the civilian a ""thug""","the civilian applied a chokehold to the officer","nameCall","choke","officerCivilian","appropriateCiv","30","","","",""
"84",16216,"{""Q0"":61}","[object Object]","survey-likert",83,978994,"0.0-83.0","tsffvew77u03ol0s68jy9s161zh6xysc","Tue Jan 17 2017 19:39:26 GMT-0500 (EST)","female","White","liberal","",NA,"","offCivRatings","the officer called the civilian a ""thug""","the civilian applied a chokehold to the officer","nameCall","choke","officerCivilian","punishCiv","61","","","",""
"85",10841,"{""Q0"":32}","[object Object]","survey-likert",84,989839,"0.0-84.0","tsffvew77u03ol0s68jy9s161zh6xysc","Tue Jan 17 2017 19:39:26 GMT-0500 (EST)","female","White","liberal","",NA,"","offCivRatings","the officer called the civilian a ""thug""","the civilian applied a chokehold to the officer","nameCall","choke","officerCivilian","acceptableCiv","32","","","",""
"86",11652,"{""Q0"":74}","[object Object]","survey-likert",85,1001494,"0.0-85.0","tsffvew77u03ol0s68jy9s161zh6xysc","Tue Jan 17 2017 19:39:26 GMT-0500 (EST)","female","White","liberal","",NA,"","offCivRatings","the officer called the civilian a ""thug""","the civilian applied a chokehold to the officer","nameCall","choke","officerCivilian","forceCiv","74","","","",""
"87",1793,"","","instructions",86,1003287,"0.0-86.0","tsffvew77u03ol0s68jy9s161zh6xysc","Tue Jan 17 2017 19:39:26 GMT-0500 (EST)","female","White","liberal","",NA,"[{""page_index"":0,""viewing_time"":1793}]","break","","","","","","","","","","",""
"88",38443,"{""Q0"":56}","[object Object]","survey-likert",87,1041936,"0.0-87.0","tsffvew77u03ol0s68jy9s161zh6xysc","Tue Jan 17 2017 19:39:26 GMT-0500 (EST)","female","White","liberal","",NA,"","offCivRatings","the officer kicked the civilian in the stomach","the civilian shouted ""I don't have to fucking listen to you!"" at the officer","kickStom","dontListen","civilianOfficer","acceptableOff","56","","","",""
"89",6609,"{""Q0"":69}","[object Object]","survey-likert",88,1048550,"0.0-88.0","tsffvew77u03ol0s68jy9s161zh6xysc","Tue Jan 17 2017 19:39:26 GMT-0500 (EST)","female","White","liberal","",NA,"","offCivRatings","the officer kicked the civilian in the stomach","the civilian shouted ""I don't have to fucking listen to you!"" at the officer","kickStom","dontListen","civilianOfficer","appropriateOff","69","","","",""
"90",2350,"{""Q0"":67}","[object Object]","survey-likert",89,1050904,"0.0-89.0","tsffvew77u03ol0s68jy9s161zh6xysc","Tue Jan 17 2017 19:39:26 GMT-0500 (EST)","female","White","liberal","",NA,"","offCivRatings","the officer kicked the civilian in the stomach","the civilian shouted ""I don't have to fucking listen to you!"" at the officer","kickStom","dontListen","civilianOfficer","punishOff","67","","","",""
"91",38139,"{""Q0"":67}","[object Object]","survey-likert",90,1089046,"0.0-90.0","tsffvew77u03ol0s68jy9s161zh6xysc","Tue Jan 17 2017 19:39:26 GMT-0500 (EST)","female","White","liberal","",NA,"","offCivRatings","the officer kicked the civilian in the stomach","the civilian shouted ""I don't have to fucking listen to you!"" at the officer","kickStom","dontListen","civilianOfficer","forceOff","67","","","",""
"92",1036,"","","instructions",91,1090082,"0.0-91.0","tsffvew77u03ol0s68jy9s161zh6xysc","Tue Jan 17 2017 19:39:26 GMT-0500 (EST)","female","White","liberal","",NA,"[{""page_index"":0,""viewing_time"":1036}]","break","","","","","","","","","","",""
"93",15861,"{""Q0"":58}","[object Object]","survey-likert",92,1106150,"0.0-92.0","tsffvew77u03ol0s68jy9s161zh6xysc","Tue Jan 17 2017 19:39:26 GMT-0500 (EST)","female","White","liberal","",NA,"","offCivRatings","the officer shot the civilian in the head with a handgun","the civilian slammed the officer's head into the concrete curb","handgunHead","headSlam","officerCivilian","punishCiv","58","","","",""
"94",8607,"{""Q0"":71}","[object Object]","survey-likert",93,1114761,"0.0-93.0","tsffvew77u03ol0s68jy9s161zh6xysc","Tue Jan 17 2017 19:39:26 GMT-0500 (EST)","female","White","liberal","",NA,"","offCivRatings","the officer shot the civilian in the head with a handgun","the civilian slammed the officer's head into the concrete curb","handgunHead","headSlam","officerCivilian","appropriateCiv","71","","","",""
"95",4007,"{""Q0"":41}","[object Object]","survey-likert",94,1118771,"0.0-94.0","tsffvew77u03ol0s68jy9s161zh6xysc","Tue Jan 17 2017 19:39:26 GMT-0500 (EST)","female","White","liberal","",NA,"","offCivRatings","the officer shot the civilian in the head with a handgun","the civilian slammed the officer's head into the concrete curb","handgunHead","headSlam","officerCivilian","acceptableCiv","41","","","",""
"96",5669,"{""Q0"":26}","[object Object]","survey-likert",95,1124445,"0.0-95.0","tsffvew77u03ol0s68jy9s161zh6xysc","Tue Jan 17 2017 19:39:26 GMT-0500 (EST)","female","White","liberal","",NA,"","offCivRatings","the officer shot the civilian in the head with a handgun","the civilian slammed the officer's head into the concrete curb","handgunHead","headSlam","officerCivilian","forceCiv","26","","","",""
"97",2411,"{""Q0"":1}","[object Object]","survey-likert",96,1126860,"0.0-96.0","tsffvew77u03ol0s68jy9s161zh6xysc","Tue Jan 17 2017 19:39:26 GMT-0500 (EST)","female","White","liberal","",NA,"","offCivRatings","the officer shot the civilian in the head with a handgun","the civilian slammed the officer's head into the concrete curb","handgunHead","headSlam","officerCivilian","manipCheckLow","1","","","",""
"98",996,"","","instructions",97,1127856,"0.0-97.0","tsffvew77u03ol0s68jy9s161zh6xysc","Tue Jan 17 2017 19:39:26 GMT-0500 (EST)","female","White","liberal","",NA,"[{""page_index"":0,""viewing_time"":996}]","break","","","","","","","","","","",""
"99",28222,"{""Q0"":62}","[object Object]","survey-likert",98,1156284,"0.0-98.0","tsffvew77u03ol0s68jy9s161zh6xysc","Tue Jan 17 2017 19:39:26 GMT-0500 (EST)","female","White","liberal","",NA,"","offCivRatings","the officer said ""if you touch me, you're gonna get hurt"" to the civilian","the civilian pulled away from the officer","hurtThreat","pulledAway","officerCivilian","forceCiv","62","","","",""
"100",4995,"{""Q0"":62}","[object Object]","survey-likert",99,1161283,"0.0-99.0","tsffvew77u03ol0s68jy9s161zh6xysc","Tue Jan 17 2017 19:39:26 GMT-0500 (EST)","female","White","liberal","",NA,"","offCivRatings","the officer said ""if you touch me, you're gonna get hurt"" to the civilian","the civilian pulled away from the officer","hurtThreat","pulledAway","officerCivilian","appropriateCiv","62","","","",""
"101",2828,"{""Q0"":83}","[object Object]","survey-likert",100,1164115,"0.0-100.0","tsffvew77u03ol0s68jy9s161zh6xysc","Tue Jan 17 2017 19:39:26 GMT-0500 (EST)","female","White","liberal","",NA,"","offCivRatings","the officer said ""if you touch me, you're gonna get hurt"" to the civilian","the civilian pulled away from the officer","hurtThreat","pulledAway","officerCivilian","punishCiv","83","","","",""
"102",39406,"{""Q0"":75}","[object Object]","survey-likert",101,1203526,"0.0-101.0","tsffvew77u03ol0s68jy9s161zh6xysc","Tue Jan 17 2017 19:39:26 GMT-0500 (EST)","female","White","liberal","",NA,"","offCivRatings","the officer said ""if you touch me, you're gonna get hurt"" to the civilian","the civilian pulled away from the officer","hurtThreat","pulledAway","officerCivilian","acceptableCiv","75","","","",""
"103",2721,"","","instructions",102,1206247,"0.0-102.0","tsffvew77u03ol0s68jy9s161zh6xysc","Tue Jan 17 2017 19:39:26 GMT-0500 (EST)","female","White","liberal","",NA,"[{""page_index"":0,""viewing_time"":2721}]","break","","","","","","","","","","",""
"104",14086,"{""Q0"":13}","[object Object]","survey-likert",103,1220539,"0.0-103.0","tsffvew77u03ol0s68jy9s161zh6xysc","Tue Jan 17 2017 19:39:26 GMT-0500 (EST)","female","White","liberal","",NA,"","offCivRatings","the officer asked the civilian how he was doing","the civilian shot the officer in the chest with a handgun","asked","handgunChest","civilianOfficer","appropriateOff","13","","","",""
"105",3197,"{""Q0"":13}","[object Object]","survey-likert",104,1223740,"0.0-104.0","tsffvew77u03ol0s68jy9s161zh6xysc","Tue Jan 17 2017 19:39:26 GMT-0500 (EST)","female","White","liberal","",NA,"","offCivRatings","the officer asked the civilian how he was doing","the civilian shot the officer in the chest with a handgun","asked","handgunChest","civilianOfficer","punishOff","13","","","",""
"106",22772,"{""Q0"":79}","[object Object]","survey-likert",105,1246516,"0.0-105.0","tsffvew77u03ol0s68jy9s161zh6xysc","Tue Jan 17 2017 19:39:26 GMT-0500 (EST)","female","White","liberal","",NA,"","offCivRatings","the officer asked the civilian how he was doing","the civilian shot the officer in the chest with a handgun","asked","handgunChest","civilianOfficer","acceptableOff","79","","","",""
"107",16137,"{""Q0"":21}","[object Object]","survey-likert",106,1262657,"0.0-106.0","tsffvew77u03ol0s68jy9s161zh6xysc","Tue Jan 17 2017 19:39:26 GMT-0500 (EST)","female","White","liberal","",NA,"","offCivRatings","the officer asked the civilian how he was doing","the civilian shot the officer in the chest with a handgun","asked","handgunChest","civilianOfficer","forceOff","21","","","",""
"108",37920,"","","instructions",107,1300577,"0.0-107.0","tsffvew77u03ol0s68jy9s161zh6xysc","Tue Jan 17 2017 19:39:26 GMT-0500 (EST)","female","White","liberal","",NA,"[{""page_index"":0,""viewing_time"":37920}]","break","","","","","","","","","","",""
"109",11570,"{""Q0"":95}","[object Object]","survey-likert",108,1312353,"0.0-108.0","tsffvew77u03ol0s68jy9s161zh6xysc","Tue Jan 17 2017 19:39:26 GMT-0500 (EST)","female","White","liberal","",NA,"","offCivRatings","the officer slammed the civilian's head into the concrete curb","the civilian stood near the officer","headSlam","stoodNear","civilianOfficer","punishOff","95","","","",""
"110",8169,"{""Q0"":13}","[object Object]","survey-likert",109,1320525,"0.0-109.0","tsffvew77u03ol0s68jy9s161zh6xysc","Tue Jan 17 2017 19:39:26 GMT-0500 (EST)","female","White","liberal","",NA,"","offCivRatings","the officer slammed the civilian's head into the concrete curb","the civilian stood near the officer","headSlam","stoodNear","civilianOfficer","acceptableOff","13","","","",""
"111",3085,"{""Q0"":95}","[object Object]","survey-likert",110,1323613,"0.0-110.0","tsffvew77u03ol0s68jy9s161zh6xysc","Tue Jan 17 2017 19:39:26 GMT-0500 (EST)","female","White","liberal","",NA,"","offCivRatings","the officer slammed the civilian's head into the concrete curb","the civilian stood near the officer","headSlam","stoodNear","civilianOfficer","forceOff","95","","","",""
"112",4924,"{""Q0"":100}","[object Object]","survey-likert",111,1328541,"0.0-111.0","tsffvew77u03ol0s68jy9s161zh6xysc","Tue Jan 17 2017 19:39:26 GMT-0500 (EST)","female","White","liberal","",NA,"","offCivRatings","the officer slammed the civilian's head into the concrete curb","the civilian stood near the officer","headSlam","stoodNear","civilianOfficer","appropriateOff","100","","","",""
"113",2497,"","","instructions",112,1331038,"0.0-112.0","tsffvew77u03ol0s68jy9s161zh6xysc","Tue Jan 17 2017 19:39:26 GMT-0500 (EST)","female","White","liberal","",NA,"[{""page_index"":0,""viewing_time"":2497}]","break","","","","","","","","","","",""
"114",16366,"{""Q0"":80}","[object Object]","survey-likert",113,1347611,"0.0-113.0","tsffvew77u03ol0s68jy9s161zh6xysc","Tue Jan 17 2017 19:39:26 GMT-0500 (EST)","female","White","liberal","",NA,"","offCivRatings","the officer yelled ""get back!"" at the civilian","the civilian shocked the officer with a tazer","getBack","tazer","officerCivilian","forceCiv","80","","","",""
"115",3059,"{""Q0"":71}","[object Object]","survey-likert",114,1350673,"0.0-114.0","tsffvew77u03ol0s68jy9s161zh6xysc","Tue Jan 17 2017 19:39:26 GMT-0500 (EST)","female","White","liberal","",NA,"","offCivRatings","the officer yelled ""get back!"" at the civilian","the civilian shocked the officer with a tazer","getBack","tazer","officerCivilian","punishCiv","71","","","",""
"116",3718,"{""Q0"":68}","[object Object]","survey-likert",115,1354394,"0.0-115.0","tsffvew77u03ol0s68jy9s161zh6xysc","Tue Jan 17 2017 19:39:26 GMT-0500 (EST)","female","White","liberal","",NA,"","offCivRatings","the officer yelled ""get back!"" at the civilian","the civilian shocked the officer with a tazer","getBack","tazer","officerCivilian","appropriateCiv","68","","","",""
"117",8869,"{""Q0"":72}","[object Object]","survey-likert",116,1363265,"0.0-116.0","tsffvew77u03ol0s68jy9s161zh6xysc","Tue Jan 17 2017 19:39:26 GMT-0500 (EST)","female","White","liberal","",NA,"","offCivRatings","the officer yelled ""get back!"" at the civilian","the civilian shocked the officer with a tazer","getBack","tazer","officerCivilian","acceptableCiv","72","","","",""
"118",1008,"","","instructions",117,1364273,"0.0-117.0","tsffvew77u03ol0s68jy9s161zh6xysc","Tue Jan 17 2017 19:39:26 GMT-0500 (EST)","female","White","liberal","",NA,"[{""page_index"":0,""viewing_time"":1007}]","break","","","","","","","","","","",""
"119",5925,"{""Q0"":100}","[object Object]","survey-likert",118,1370405,"0.0-118.0","tsffvew77u03ol0s68jy9s161zh6xysc","Tue Jan 17 2017 19:39:26 GMT-0500 (EST)","female","White","liberal","",NA,"","offCivRatings","the officer shot the civilian in the chest with a beanbag shotgun round","the civilian struck the officer on the leg with a metal pipe","beanbag","metalPipe","civilianOfficer","manipCheckHigh","100","","","",""
"120",20990,"{""Q0"":63}","[object Object]","survey-likert",119,1391399,"0.0-119.0","tsffvew77u03ol0s68jy9s161zh6xysc","Tue Jan 17 2017 19:39:26 GMT-0500 (EST)","female","White","liberal","",NA,"","offCivRatings","the officer shot the civilian in the chest with a beanbag shotgun round","the civilian struck the officer on the leg with a metal pipe","beanbag","metalPipe","civilianOfficer","acceptableOff","63","","","",""
"121",18485,"{""Q0"":66}","[object Object]","survey-likert",120,1409887,"0.0-120.0","tsffvew77u03ol0s68jy9s161zh6xysc","Tue Jan 17 2017 19:39:26 GMT-0500 (EST)","female","White","liberal","",NA,"","offCivRatings","the officer shot the civilian in the chest with a beanbag shotgun round","the civilian struck the officer on the leg with a metal pipe","beanbag","metalPipe","civilianOfficer","punishOff","66","","","",""
"122",6735,"{""Q0"":76}","[object Object]","survey-likert",121,1416624,"0.0-121.0","tsffvew77u03ol0s68jy9s161zh6xysc","Tue Jan 17 2017 19:39:26 GMT-0500 (EST)","female","White","liberal","",NA,"","offCivRatings","the officer shot the civilian in the chest with a beanbag shotgun round","the civilian struck the officer on the leg with a metal pipe","beanbag","metalPipe","civilianOfficer","forceOff","76","","","",""
"123",6928,"{""Q0"":74}","[object Object]","survey-likert",122,1423555,"0.0-122.0","tsffvew77u03ol0s68jy9s161zh6xysc","Tue Jan 17 2017 19:39:26 GMT-0500 (EST)","female","White","liberal","",NA,"","offCivRatings","the officer shot the civilian in the chest with a beanbag shotgun round","the civilian struck the officer on the leg with a metal pipe","beanbag","metalPipe","civilianOfficer","appropriateOff","74","","","",""
"124",1185,"","","instructions",123,1424740,"0.0-123.0","tsffvew77u03ol0s68jy9s161zh6xysc","Tue Jan 17 2017 19:39:26 GMT-0500 (EST)","female","White","liberal","",NA,"[{""page_index"":0,""viewing_time"":1185}]","break","","","","","","","","","","",""
"125",39459,"{""Q0"":46}","[object Object]","survey-likert",124,1464405,"0.0-124.0","tsffvew77u03ol0s68jy9s161zh6xysc","Tue Jan 17 2017 19:39:26 GMT-0500 (EST)","female","White","liberal","",NA,"","policeLegitimacy","","","","","","","46","importantValues","normAlignment","",""
"126",4907,"{""Q0"":26}","[object Object]","survey-likert",125,1469316,"0.0-125.0","tsffvew77u03ol0s68jy9s161zh6xysc","Tue Jan 17 2017 19:39:26 GMT-0500 (EST)","female","White","liberal","",NA,"","policeLegitimacy","","","","","","","26","support","feltObligation","",""
"127",4443,"{""Q0"":48}","[object Object]","survey-likert",126,1473762,"0.0-126.0","tsffvew77u03ol0s68jy9s161zh6xysc","Tue Jan 17 2017 19:39:26 GMT-0500 (EST)","female","White","liberal","",NA,"","policeLegitimacy","","","","","","","48","communityWants","normAlignment","",""
"128",6584,"{""Q0"":44}","[object Object]","survey-likert",127,1480350,"0.0-127.0","tsffvew77u03ol0s68jy9s161zh6xysc","Tue Jan 17 2017 19:39:26 GMT-0500 (EST)","female","White","liberal","",NA,"","policeLegitimacy","","","","","","","44","rightWrong","normAlignment","",""
"129",4721,"{""Q0"":54}","[object Object]","survey-likert",128,1485073,"0.0-128.0","tsffvew77u03ol0s68jy9s161zh6xysc","Tue Jan 17 2017 19:39:26 GMT-0500 (EST)","female","White","liberal","",NA,"","policeLegitimacy","","","","","","","54","doTreat","feltObligation","",""
"130",5578,"{""Q0"":57}","[object Object]","survey-likert",129,1490655,"0.0-129.0","tsffvew77u03ol0s68jy9s161zh6xysc","Tue Jan 17 2017 19:39:26 GMT-0500 (EST)","female","White","liberal","",NA,"","policeLegitimacy","","","","","","","57","doReasons","feltObligation","",""
"131",4172,"{""Q0"":""no""}","[object Object]","survey-multi-choice2",130,1494831,"0.0-130.0","tsffvew77u03ol0s68jy9s161zh6xysc","Tue Jan 17 2017 19:39:26 GMT-0500 (EST)","female","White","liberal","",NA,"","policeExperience","","","","","","","no","stopped","","personal","Have you ever been stopped by the police on the street without good reason?"
"132",3760,"{""Q0"":""no""}","[object Object]","survey-multi-choice2",131,1498592,"0.0-131.0","tsffvew77u03ol0s68jy9s161zh6xysc","Tue Jan 17 2017 19:39:26 GMT-0500 (EST)","female","White","liberal","",NA,"","policeExperience","","","","","","","no","insultLang","","vicarious","Have the police ever used insulting language toward anyone in your household?"
"133",2187,"{""Q0"":""no""}","[object Object]","survey-multi-choice2",132,1500780,"0.0-132.0","tsffvew77u03ol0s68jy9s161zh6xysc","Tue Jan 17 2017 19:39:26 GMT-0500 (EST)","female","White","liberal","",NA,"","policeExperience","","","","","","","no","insultLang","","personal","Have the police ever used insulting language toward you?"
"134",1795,"{""Q0"":""no""}","[object Object]","survey-multi-choice2",133,1502576,"0.0-133.0","tsffvew77u03ol0s68jy9s161zh6xysc","Tue Jan 17 2017 19:39:26 GMT-0500 (EST)","female","White","liberal","",NA,"","policeExperience","","","","","","","no","excessForce","","personal","Have the police ever used excessive force against you?"
"135",4260,"{""Q0"":""no""}","[object Object]","survey-multi-choice2",134,1506839,"0.0-134.0","tsffvew77u03ol0s68jy9s161zh6xysc","Tue Jan 17 2017 19:39:26 GMT-0500 (EST)","female","White","liberal","",NA,"","policeExperience","","","","","","","no","corrupt","","personal","Have you ever seen a police officer engage in any corrupt activities (e.g., taking bribes or involvement in the drug trade)?"
"136",2873,"{""Q0"":""no""}","[object Object]","survey-multi-choice2",135,1509713,"0.0-135.0","tsffvew77u03ol0s68jy9s161zh6xysc","Tue Jan 17 2017 19:39:26 GMT-0500 (EST)","female","White","liberal","",NA,"","policeExperience","","","","","","","no","excessForce","","vicarious","Have the police ever used excessive force against anyone in your household?"
"137",3970,"{""Q0"":""no""}","[object Object]","survey-multi-choice2",136,1513685,"0.0-136.0","tsffvew77u03ol0s68jy9s161zh6xysc","Tue Jan 17 2017 19:39:26 GMT-0500 (EST)","female","White","liberal","",NA,"","policeExperience","","","","","","","no","stopped","","vicarious","Has anyone in your household ever been stopped on the street by the police without good reason?"
"138",7613,"{""Q0"":""female"",""Q1"":""White"",""Q2"":""liberal""}","[object Object]","survey-multi-choice",137,1521306,"0.0-137.0","tsffvew77u03ol0s68jy9s161zh6xysc","Tue Jan 17 2017 19:39:26 GMT-0500 (EST)","female","White","liberal","",NA,"","demographics","","","","","","","","","","",""
"139",7969,"","","instructions",138,1530276,"0.0-138.0","tsffvew77u03ol0s68jy9s161zh6xysc","Tue Jan 17 2017 19:39:26 GMT-0500 (EST)","female","White","liberal","",NA,"[{""page_index"":0,""viewing_time"":1276},{""page_index"":1,""viewing_time"":3658},{""page_index"":2,""viewing_time"":1918},{""page_index"":3,""viewing_time"":1117}]","debriefing","","","","","","","","","","",""
