"","rt","responses","internalResp","trial_type","trial_index","time_elapsed","internal_node_id","randSubjectID","date","sex","race","polAff","stimulus","key_press","view_history","questionType","officerAction","civilianAction","offActName","civActName","order","questionName","response","name","dimension","person","question"
"1",9999,"","[object Object]","survey-text",0,10006,"0.0-0.0","ubm3ve3kufg67apkw524jjggx1uu9wcd","Mon Apr 17 2017 12:55:27 GMT-0400 (EDT)","female","White","don't know/not political","",NA,"","","","","","","","","","","","",""
"2",4698,"","","single-stim",1,15715,"0.0-1.0","ubm3ve3kufg67apkw524jjggx1uu9wcd","Mon Apr 17 2017 12:55:27 GMT-0400 (EDT)","female","White","don't know/not political","<img src='static/images/1602685960_ICS_Credit-0.png' alt='Consent 1' height=1100 width=850><img src='static/images/1602685960_ICS_Credit-1.png' alt='Consent 2' height=1100 width=850></p>",89,"","","","","","","","","","","","",""
"3",9366,"","","instructions",2,26088,"0.0-2.0","ubm3ve3kufg67apkw524jjggx1uu9wcd","Mon Apr 17 2017 12:55:27 GMT-0400 (EDT)","female","White","don't know/not political","",NA,"[{""page_index"":0,""viewing_time"":9365}]","instructions","","","","","","","","","","",""
"4",148448,"","","instructions",3,175540,"0.0-3.0","ubm3ve3kufg67apkw524jjggx1uu9wcd","Mon Apr 17 2017 12:55:27 GMT-0400 (EDT)","female","White","don't know/not political","",NA,"[{""page_index"":0,""viewing_time"":107126},{""page_index"":1,""viewing_time"":18724},{""page_index"":2,""viewing_time"":14806},{""page_index"":3,""viewing_time"":7791}]","instructions","","","","","","","","","","",""
"5",30476,"{""Q0"":70}","[object Object]","survey-likert",4,207057,"0.0-4.0","ubm3ve3kufg67apkw524jjggx1uu9wcd","Mon Apr 17 2017 12:55:27 GMT-0400 (EDT)","female","White","don't know/not political","",NA,"","offCivRatings","the officer shocked the civilian with a tazer","the civilian said ""if you touch me, you're gonna get hurt"" to the officer","tazer","hurtThreat","civilianOfficer","appropriateOff","70","","","",""
"6",6375,"{""Q0"":60}","[object Object]","survey-likert",5,213440,"0.0-5.0","ubm3ve3kufg67apkw524jjggx1uu9wcd","Mon Apr 17 2017 12:55:27 GMT-0400 (EDT)","female","White","don't know/not political","",NA,"","offCivRatings","the officer shocked the civilian with a tazer","the civilian said ""if you touch me, you're gonna get hurt"" to the officer","tazer","hurtThreat","civilianOfficer","acceptableOff","60","","","",""
"7",8344,"{""Q0"":35}","[object Object]","survey-likert",6,221794,"0.0-6.0","ubm3ve3kufg67apkw524jjggx1uu9wcd","Mon Apr 17 2017 12:55:27 GMT-0400 (EDT)","female","White","don't know/not political","",NA,"","offCivRatings","the officer shocked the civilian with a tazer","the civilian said ""if you touch me, you're gonna get hurt"" to the officer","tazer","hurtThreat","civilianOfficer","punishOff","35","","","",""
"8",5969,"{""Q0"":70}","[object Object]","survey-likert",7,227769,"0.0-7.0","ubm3ve3kufg67apkw524jjggx1uu9wcd","Mon Apr 17 2017 12:55:27 GMT-0400 (EDT)","female","White","don't know/not political","",NA,"","offCivRatings","the officer shocked the civilian with a tazer","the civilian said ""if you touch me, you're gonna get hurt"" to the officer","tazer","hurtThreat","civilianOfficer","forceOff","70","","","",""
"9",1146,"","","instructions",8,228915,"0.0-8.0","ubm3ve3kufg67apkw524jjggx1uu9wcd","Mon Apr 17 2017 12:55:27 GMT-0400 (EDT)","female","White","don't know/not political","",NA,"[{""page_index"":0,""viewing_time"":1145}]","break","","","","","","","","","","",""
"10",28208,"{""Q0"":86}","[object Object]","survey-likert",9,257334,"0.0-9.0","ubm3ve3kufg67apkw524jjggx1uu9wcd","Mon Apr 17 2017 12:55:27 GMT-0400 (EDT)","female","White","don't know/not political","",NA,"","offCivRatings","the officer shot the civilian in the chest with a handgun","the civilian sprayed the officer with pepper spray","handgunChest","pepperSpray","civilianOfficer","punishOff","86","","","",""
"11",9855,"{""Q0"":100}","[object Object]","survey-likert",10,267197,"0.0-10.0","ubm3ve3kufg67apkw524jjggx1uu9wcd","Mon Apr 17 2017 12:55:27 GMT-0400 (EDT)","female","White","don't know/not political","",NA,"","offCivRatings","the officer shot the civilian in the chest with a handgun","the civilian sprayed the officer with pepper spray","handgunChest","pepperSpray","civilianOfficer","manipCheckHigh","100","","","",""
"12",9828,"{""Q0"":89}","[object Object]","survey-likert",11,277032,"0.0-11.0","ubm3ve3kufg67apkw524jjggx1uu9wcd","Mon Apr 17 2017 12:55:27 GMT-0400 (EDT)","female","White","don't know/not political","",NA,"","offCivRatings","the officer shot the civilian in the chest with a handgun","the civilian sprayed the officer with pepper spray","handgunChest","pepperSpray","civilianOfficer","appropriateOff","89","","","",""
"13",5243,"{""Q0"":100}","[object Object]","survey-likert",12,282283,"0.0-12.0","ubm3ve3kufg67apkw524jjggx1uu9wcd","Mon Apr 17 2017 12:55:27 GMT-0400 (EDT)","female","White","don't know/not political","",NA,"","offCivRatings","the officer shot the civilian in the chest with a handgun","the civilian sprayed the officer with pepper spray","handgunChest","pepperSpray","civilianOfficer","forceOff","100","","","",""
"14",8618,"{""Q0"":10}","[object Object]","survey-likert",13,290907,"0.0-13.0","ubm3ve3kufg67apkw524jjggx1uu9wcd","Mon Apr 17 2017 12:55:27 GMT-0400 (EDT)","female","White","don't know/not political","",NA,"","offCivRatings","the officer shot the civilian in the chest with a handgun","the civilian sprayed the officer with pepper spray","handgunChest","pepperSpray","civilianOfficer","acceptableOff","10","","","",""
"15",1243,"","","instructions",14,292150,"0.0-14.0","ubm3ve3kufg67apkw524jjggx1uu9wcd","Mon Apr 17 2017 12:55:27 GMT-0400 (EDT)","female","White","don't know/not political","",NA,"[{""page_index"":0,""viewing_time"":1242}]","break","","","","","","","","","","",""
"16",18524,"{""Q0"":1}","[object Object]","survey-likert",15,310884,"0.0-15.0","ubm3ve3kufg67apkw524jjggx1uu9wcd","Mon Apr 17 2017 12:55:27 GMT-0400 (EDT)","female","White","don't know/not political","",NA,"","offCivRatings","the officer punched the civilian in the face","the civilian stood near the officer","punchFace","stoodNear","officerCivilian","forceCiv","1","","","",""
"17",5492,"{""Q0"":1}","[object Object]","survey-likert",16,316384,"0.0-16.0","ubm3ve3kufg67apkw524jjggx1uu9wcd","Mon Apr 17 2017 12:55:27 GMT-0400 (EDT)","female","White","don't know/not political","",NA,"","offCivRatings","the officer punched the civilian in the face","the civilian stood near the officer","punchFace","stoodNear","officerCivilian","punishCiv","1","","","",""
"18",9084,"{""Q0"":96}","[object Object]","survey-likert",17,325475,"0.0-17.0","ubm3ve3kufg67apkw524jjggx1uu9wcd","Mon Apr 17 2017 12:55:27 GMT-0400 (EDT)","female","White","don't know/not political","",NA,"","offCivRatings","the officer punched the civilian in the face","the civilian stood near the officer","punchFace","stoodNear","officerCivilian","acceptableCiv","96","","","",""
"19",11847,"{""Q0"":50}","[object Object]","survey-likert",18,337330,"0.0-18.0","ubm3ve3kufg67apkw524jjggx1uu9wcd","Mon Apr 17 2017 12:55:27 GMT-0400 (EDT)","female","White","don't know/not political","",NA,"","offCivRatings","the officer punched the civilian in the face","the civilian stood near the officer","punchFace","stoodNear","officerCivilian","appropriateCiv","50","","","",""
"20",1018,"","","instructions",19,338349,"0.0-19.0","ubm3ve3kufg67apkw524jjggx1uu9wcd","Mon Apr 17 2017 12:55:27 GMT-0400 (EDT)","female","White","don't know/not political","",NA,"[{""page_index"":0,""viewing_time"":1017}]","break","","","","","","","","","","",""
"21",11129,"{""Q0"":100}","[object Object]","survey-likert",20,349686,"0.0-20.0","ubm3ve3kufg67apkw524jjggx1uu9wcd","Mon Apr 17 2017 12:55:27 GMT-0400 (EDT)","female","White","don't know/not political","",NA,"","offCivRatings","the officer twisted the arm of the civilian, forcing him to the ground","the civilian twisted the arm of the officer, forcing him to the ground","armbar","armbar","civilianOfficer","manipCheckHigh","100","","","",""
"22",11662,"{""Q0"":50}","[object Object]","survey-likert",21,361359,"0.0-21.0","ubm3ve3kufg67apkw524jjggx1uu9wcd","Mon Apr 17 2017 12:55:27 GMT-0400 (EDT)","female","White","don't know/not political","",NA,"","offCivRatings","the officer twisted the arm of the civilian, forcing him to the ground","the civilian twisted the arm of the officer, forcing him to the ground","armbar","armbar","civilianOfficer","forceOff","50","","","",""
"23",7405,"{""Q0"":100}","[object Object]","survey-likert",22,368770,"0.0-22.0","ubm3ve3kufg67apkw524jjggx1uu9wcd","Mon Apr 17 2017 12:55:27 GMT-0400 (EDT)","female","White","don't know/not political","",NA,"","offCivRatings","the officer twisted the arm of the civilian, forcing him to the ground","the civilian twisted the arm of the officer, forcing him to the ground","armbar","armbar","civilianOfficer","acceptableOff","100","","","",""
"24",9270,"{""Q0"":50}","[object Object]","survey-likert",23,378047,"0.0-23.0","ubm3ve3kufg67apkw524jjggx1uu9wcd","Mon Apr 17 2017 12:55:27 GMT-0400 (EDT)","female","White","don't know/not political","",NA,"","offCivRatings","the officer twisted the arm of the civilian, forcing him to the ground","the civilian twisted the arm of the officer, forcing him to the ground","armbar","armbar","civilianOfficer","appropriateOff","50","","","",""
"25",3866,"{""Q0"":1}","[object Object]","survey-likert",24,381919,"0.0-24.0","ubm3ve3kufg67apkw524jjggx1uu9wcd","Mon Apr 17 2017 12:55:27 GMT-0400 (EDT)","female","White","don't know/not political","",NA,"","offCivRatings","the officer twisted the arm of the civilian, forcing him to the ground","the civilian twisted the arm of the officer, forcing him to the ground","armbar","armbar","civilianOfficer","punishOff","1","","","",""
"26",889,"","","instructions",25,382808,"0.0-25.0","ubm3ve3kufg67apkw524jjggx1uu9wcd","Mon Apr 17 2017 12:55:27 GMT-0400 (EDT)","female","White","don't know/not political","",NA,"[{""page_index"":0,""viewing_time"":888}]","break","","","","","","","","","","",""
"27",19742,"{""Q0"":77}","[object Object]","survey-likert",26,402758,"0.0-26.0","ubm3ve3kufg67apkw524jjggx1uu9wcd","Mon Apr 17 2017 12:55:27 GMT-0400 (EDT)","female","White","don't know/not political","",NA,"","offCivRatings","the officer purposefully struck the civilian with a motor vehicle","the civilian shocked the officer with a tazer","vehicle","tazer","civilianOfficer","acceptableOff","77","","","",""
"28",5925,"{""Q0"":53}","[object Object]","survey-likert",27,408690,"0.0-27.0","ubm3ve3kufg67apkw524jjggx1uu9wcd","Mon Apr 17 2017 12:55:27 GMT-0400 (EDT)","female","White","don't know/not political","",NA,"","offCivRatings","the officer purposefully struck the civilian with a motor vehicle","the civilian shocked the officer with a tazer","vehicle","tazer","civilianOfficer","appropriateOff","53","","","",""
"29",3809,"{""Q0"":80}","[object Object]","survey-likert",28,412506,"0.0-28.0","ubm3ve3kufg67apkw524jjggx1uu9wcd","Mon Apr 17 2017 12:55:27 GMT-0400 (EDT)","female","White","don't know/not political","",NA,"","offCivRatings","the officer purposefully struck the civilian with a motor vehicle","the civilian shocked the officer with a tazer","vehicle","tazer","civilianOfficer","forceOff","80","","","",""
"30",4197,"{""Q0"":11}","[object Object]","survey-likert",29,416709,"0.0-29.0","ubm3ve3kufg67apkw524jjggx1uu9wcd","Mon Apr 17 2017 12:55:27 GMT-0400 (EDT)","female","White","don't know/not political","",NA,"","offCivRatings","the officer purposefully struck the civilian with a motor vehicle","the civilian shocked the officer with a tazer","vehicle","tazer","civilianOfficer","punishOff","11","","","",""
"31",906,"","","instructions",30,417615,"0.0-30.0","ubm3ve3kufg67apkw524jjggx1uu9wcd","Mon Apr 17 2017 12:55:27 GMT-0400 (EDT)","female","White","don't know/not political","",NA,"[{""page_index"":0,""viewing_time"":905}]","break","","","","","","","","","","",""
"32",13651,"{""Q0"":1}","[object Object]","survey-likert",31,431477,"0.0-31.0","ubm3ve3kufg67apkw524jjggx1uu9wcd","Mon Apr 17 2017 12:55:27 GMT-0400 (EDT)","female","White","don't know/not political","",NA,"","offCivRatings","the officer sprayed the civilian with pepper spray","the civilian shot the officer in the chest with a handgun","pepperSpray","handgunChest","civilianOfficer","punishOff","1","","","",""
"33",3137,"{""Q0"":100}","[object Object]","survey-likert",32,434620,"0.0-32.0","ubm3ve3kufg67apkw524jjggx1uu9wcd","Mon Apr 17 2017 12:55:27 GMT-0400 (EDT)","female","White","don't know/not political","",NA,"","offCivRatings","the officer sprayed the civilian with pepper spray","the civilian shot the officer in the chest with a handgun","pepperSpray","handgunChest","civilianOfficer","acceptableOff","100","","","",""
"34",7166,"{""Q0"":12}","[object Object]","survey-likert",33,441792,"0.0-33.0","ubm3ve3kufg67apkw524jjggx1uu9wcd","Mon Apr 17 2017 12:55:27 GMT-0400 (EDT)","female","White","don't know/not political","",NA,"","offCivRatings","the officer sprayed the civilian with pepper spray","the civilian shot the officer in the chest with a handgun","pepperSpray","handgunChest","civilianOfficer","forceOff","12","","","",""
"35",8673,"{""Q0"":4}","[object Object]","survey-likert",34,450471,"0.0-34.0","ubm3ve3kufg67apkw524jjggx1uu9wcd","Mon Apr 17 2017 12:55:27 GMT-0400 (EDT)","female","White","don't know/not political","",NA,"","offCivRatings","the officer sprayed the civilian with pepper spray","the civilian shot the officer in the chest with a handgun","pepperSpray","handgunChest","civilianOfficer","appropriateOff","4","","","",""
"36",1125,"","","instructions",35,451596,"0.0-35.0","ubm3ve3kufg67apkw524jjggx1uu9wcd","Mon Apr 17 2017 12:55:27 GMT-0400 (EDT)","female","White","don't know/not political","",NA,"[{""page_index"":0,""viewing_time"":1124}]","break","","","","","","","","","","",""
"37",10329,"{""Q0"":100}","[object Object]","survey-likert",36,462134,"0.0-36.0","ubm3ve3kufg67apkw524jjggx1uu9wcd","Mon Apr 17 2017 12:55:27 GMT-0400 (EDT)","female","White","don't know/not political","",NA,"","offCivRatings","the officer struck the civilian in the stomach with a metal flashlight","the civilian hit the officer in the chest with a baseball bat","flashlight","ballBat","civilianOfficer","manipCheckHigh","100","","","",""
"38",6065,"{""Q0"":5}","[object Object]","survey-likert",37,468206,"0.0-37.0","ubm3ve3kufg67apkw524jjggx1uu9wcd","Mon Apr 17 2017 12:55:27 GMT-0400 (EDT)","female","White","don't know/not political","",NA,"","offCivRatings","the officer struck the civilian in the stomach with a metal flashlight","the civilian hit the officer in the chest with a baseball bat","flashlight","ballBat","civilianOfficer","punishOff","5","","","",""
"39",8812,"{""Q0"":100}","[object Object]","survey-likert",38,477025,"0.0-38.0","ubm3ve3kufg67apkw524jjggx1uu9wcd","Mon Apr 17 2017 12:55:27 GMT-0400 (EDT)","female","White","don't know/not political","",NA,"","offCivRatings","the officer struck the civilian in the stomach with a metal flashlight","the civilian hit the officer in the chest with a baseball bat","flashlight","ballBat","civilianOfficer","acceptableOff","100","","","",""
"40",7668,"{""Q0"":53}","[object Object]","survey-likert",39,484698,"0.0-39.0","ubm3ve3kufg67apkw524jjggx1uu9wcd","Mon Apr 17 2017 12:55:27 GMT-0400 (EDT)","female","White","don't know/not political","",NA,"","offCivRatings","the officer struck the civilian in the stomach with a metal flashlight","the civilian hit the officer in the chest with a baseball bat","flashlight","ballBat","civilianOfficer","appropriateOff","53","","","",""
"41",6967,"{""Q0"":46}","[object Object]","survey-likert",40,491671,"0.0-40.0","ubm3ve3kufg67apkw524jjggx1uu9wcd","Mon Apr 17 2017 12:55:27 GMT-0400 (EDT)","female","White","don't know/not political","",NA,"","offCivRatings","the officer struck the civilian in the stomach with a metal flashlight","the civilian hit the officer in the chest with a baseball bat","flashlight","ballBat","civilianOfficer","forceOff","46","","","",""
"42",938,"","","instructions",41,492609,"0.0-41.0","ubm3ve3kufg67apkw524jjggx1uu9wcd","Mon Apr 17 2017 12:55:27 GMT-0400 (EDT)","female","White","don't know/not political","",NA,"[{""page_index"":0,""viewing_time"":937}]","break","","","","","","","","","","",""
"43",23569,"{""Q0"":54}","[object Object]","survey-likert",42,516387,"0.0-42.0","ubm3ve3kufg67apkw524jjggx1uu9wcd","Mon Apr 17 2017 12:55:27 GMT-0400 (EDT)","female","White","don't know/not political","",NA,"","offCivRatings","the officer kicked the civilian in the stomach","the civilian yelled ""get back!"" at the officer","kickStom","getBack","officerCivilian","appropriateCiv","54","","","",""
"44",4828,"{""Q0"":80}","[object Object]","survey-likert",43,521221,"0.0-43.0","ubm3ve3kufg67apkw524jjggx1uu9wcd","Mon Apr 17 2017 12:55:27 GMT-0400 (EDT)","female","White","don't know/not political","",NA,"","offCivRatings","the officer kicked the civilian in the stomach","the civilian yelled ""get back!"" at the officer","kickStom","getBack","officerCivilian","acceptableCiv","80","","","",""
"45",4955,"{""Q0"":13}","[object Object]","survey-likert",44,526183,"0.0-44.0","ubm3ve3kufg67apkw524jjggx1uu9wcd","Mon Apr 17 2017 12:55:27 GMT-0400 (EDT)","female","White","don't know/not political","",NA,"","offCivRatings","the officer kicked the civilian in the stomach","the civilian yelled ""get back!"" at the officer","kickStom","getBack","officerCivilian","forceCiv","13","","","",""
"46",13083,"{""Q0"":11}","[object Object]","survey-likert",45,539273,"0.0-45.0","ubm3ve3kufg67apkw524jjggx1uu9wcd","Mon Apr 17 2017 12:55:27 GMT-0400 (EDT)","female","White","don't know/not political","",NA,"","offCivRatings","the officer kicked the civilian in the stomach","the civilian yelled ""get back!"" at the officer","kickStom","getBack","officerCivilian","punishCiv","11","","","",""
"47",1160,"","","instructions",46,540433,"0.0-46.0","ubm3ve3kufg67apkw524jjggx1uu9wcd","Mon Apr 17 2017 12:55:27 GMT-0400 (EDT)","female","White","don't know/not political","",NA,"[{""page_index"":0,""viewing_time"":1160}]","break","","","","","","","","","","",""
"48",14328,"{""Q0"":3}","[object Object]","survey-likert",47,554972,"0.0-47.0","ubm3ve3kufg67apkw524jjggx1uu9wcd","Mon Apr 17 2017 12:55:27 GMT-0400 (EDT)","female","White","don't know/not political","",NA,"","offCivRatings","the officer said ""if you touch me, you're gonna get hurt"" to the civilian","the civilian struck the officer in the stomach with a metal flashlight","hurtThreat","flashlight","civilianOfficer","forceOff","3","","","",""
"49",6232,"{""Q0"":5}","[object Object]","survey-likert",48,561211,"0.0-48.0","ubm3ve3kufg67apkw524jjggx1uu9wcd","Mon Apr 17 2017 12:55:27 GMT-0400 (EDT)","female","White","don't know/not political","",NA,"","offCivRatings","the officer said ""if you touch me, you're gonna get hurt"" to the civilian","the civilian struck the officer in the stomach with a metal flashlight","hurtThreat","flashlight","civilianOfficer","punishOff","5","","","",""
"50",3706,"{""Q0"":99}","[object Object]","survey-likert",49,564922,"0.0-49.0","ubm3ve3kufg67apkw524jjggx1uu9wcd","Mon Apr 17 2017 12:55:27 GMT-0400 (EDT)","female","White","don't know/not political","",NA,"","offCivRatings","the officer said ""if you touch me, you're gonna get hurt"" to the civilian","the civilian struck the officer in the stomach with a metal flashlight","hurtThreat","flashlight","civilianOfficer","acceptableOff","99","","","",""
"51",6009,"{""Q0"":30}","[object Object]","survey-likert",50,570937,"0.0-50.0","ubm3ve3kufg67apkw524jjggx1uu9wcd","Mon Apr 17 2017 12:55:27 GMT-0400 (EDT)","female","White","don't know/not political","",NA,"","offCivRatings","the officer said ""if you touch me, you're gonna get hurt"" to the civilian","the civilian struck the officer in the stomach with a metal flashlight","hurtThreat","flashlight","civilianOfficer","appropriateOff","30","","","",""
"52",1129,"","","instructions",51,572066,"0.0-51.0","ubm3ve3kufg67apkw524jjggx1uu9wcd","Mon Apr 17 2017 12:55:27 GMT-0400 (EDT)","female","White","don't know/not political","",NA,"[{""page_index"":0,""viewing_time"":1128}]","break","","","","","","","","","","",""
"53",198180,"{""Q0"":50}","[object Object]","survey-likert",52,770456,"0.0-52.0","ubm3ve3kufg67apkw524jjggx1uu9wcd","Mon Apr 17 2017 12:55:27 GMT-0400 (EDT)","female","White","don't know/not political","",NA,"","offCivRatings","the officer shot the civilian in the chest with a beanbag shotgun round","the civilian struck the officer on the leg with a metal pipe","beanbag","metalPipe","civilianOfficer","forceOff","50","","","",""
"54",3123,"{""Q0"":1}","[object Object]","survey-likert",53,773583,"0.0-53.0","ubm3ve3kufg67apkw524jjggx1uu9wcd","Mon Apr 17 2017 12:55:27 GMT-0400 (EDT)","female","White","don't know/not political","",NA,"","offCivRatings","the officer shot the civilian in the chest with a beanbag shotgun round","the civilian struck the officer on the leg with a metal pipe","beanbag","metalPipe","civilianOfficer","manipCheckLow","1","","","",""
"55",5373,"{""Q0"":58}","[object Object]","survey-likert",54,778962,"0.0-54.0","ubm3ve3kufg67apkw524jjggx1uu9wcd","Mon Apr 17 2017 12:55:27 GMT-0400 (EDT)","female","White","don't know/not political","",NA,"","offCivRatings","the officer shot the civilian in the chest with a beanbag shotgun round","the civilian struck the officer on the leg with a metal pipe","beanbag","metalPipe","civilianOfficer","appropriateOff","58","","","",""
"56",9256,"{""Q0"":70}","[object Object]","survey-likert",55,788225,"0.0-55.0","ubm3ve3kufg67apkw524jjggx1uu9wcd","Mon Apr 17 2017 12:55:27 GMT-0400 (EDT)","female","White","don't know/not political","",NA,"","offCivRatings","the officer shot the civilian in the chest with a beanbag shotgun round","the civilian struck the officer on the leg with a metal pipe","beanbag","metalPipe","civilianOfficer","acceptableOff","70","","","",""
"57",4845,"{""Q0"":12}","[object Object]","survey-likert",56,793077,"0.0-56.0","ubm3ve3kufg67apkw524jjggx1uu9wcd","Mon Apr 17 2017 12:55:27 GMT-0400 (EDT)","female","White","don't know/not political","",NA,"","offCivRatings","the officer shot the civilian in the chest with a beanbag shotgun round","the civilian struck the officer on the leg with a metal pipe","beanbag","metalPipe","civilianOfficer","punishOff","12","","","",""
"58",1125,"","","instructions",57,794202,"0.0-57.0","ubm3ve3kufg67apkw524jjggx1uu9wcd","Mon Apr 17 2017 12:55:27 GMT-0400 (EDT)","female","White","don't know/not political","",NA,"[{""page_index"":0,""viewing_time"":1124}]","break","","","","","","","","","","",""
"59",11391,"{""Q0"":100}","[object Object]","survey-likert",58,805801,"0.0-58.0","ubm3ve3kufg67apkw524jjggx1uu9wcd","Mon Apr 17 2017 12:55:27 GMT-0400 (EDT)","female","White","don't know/not political","",NA,"","offCivRatings","the officer shouted ""get your fucking hands up!"" at the civilian","the civilian shot the officer in the head with a handgun","handsUp","handgunHead","officerCivilian","manipCheckHigh","100","","","",""
"60",2808,"{""Q0"":100}","[object Object]","survey-likert",59,808615,"0.0-59.0","ubm3ve3kufg67apkw524jjggx1uu9wcd","Mon Apr 17 2017 12:55:27 GMT-0400 (EDT)","female","White","don't know/not political","",NA,"","offCivRatings","the officer shouted ""get your fucking hands up!"" at the civilian","the civilian shot the officer in the head with a handgun","handsUp","handgunHead","officerCivilian","forceCiv","100","","","",""
"61",5440,"{""Q0"":100}","[object Object]","survey-likert",60,814062,"0.0-60.0","ubm3ve3kufg67apkw524jjggx1uu9wcd","Mon Apr 17 2017 12:55:27 GMT-0400 (EDT)","female","White","don't know/not political","",NA,"","offCivRatings","the officer shouted ""get your fucking hands up!"" at the civilian","the civilian shot the officer in the head with a handgun","handsUp","handgunHead","officerCivilian","appropriateCiv","100","","","",""
"62",5161,"{""Q0"":1}","[object Object]","survey-likert",61,819229,"0.0-61.0","ubm3ve3kufg67apkw524jjggx1uu9wcd","Mon Apr 17 2017 12:55:27 GMT-0400 (EDT)","female","White","don't know/not political","",NA,"","offCivRatings","the officer shouted ""get your fucking hands up!"" at the civilian","the civilian shot the officer in the head with a handgun","handsUp","handgunHead","officerCivilian","acceptableCiv","1","","","",""
"63",8173,"{""Q0"":99}","[object Object]","survey-likert",62,827408,"0.0-62.0","ubm3ve3kufg67apkw524jjggx1uu9wcd","Mon Apr 17 2017 12:55:27 GMT-0400 (EDT)","female","White","don't know/not political","",NA,"","offCivRatings","the officer shouted ""get your fucking hands up!"" at the civilian","the civilian shot the officer in the head with a handgun","handsUp","handgunHead","officerCivilian","punishCiv","99","","","",""
"64",872,"","","instructions",63,828280,"0.0-63.0","ubm3ve3kufg67apkw524jjggx1uu9wcd","Mon Apr 17 2017 12:55:27 GMT-0400 (EDT)","female","White","don't know/not political","",NA,"[{""page_index"":0,""viewing_time"":872}]","break","","","","","","","","","","",""
"65",16872,"{""Q0"":1}","[object Object]","survey-likert",64,845363,"0.0-64.0","ubm3ve3kufg67apkw524jjggx1uu9wcd","Mon Apr 17 2017 12:55:27 GMT-0400 (EDT)","female","White","don't know/not political","",NA,"","offCivRatings","the officer waved at the civilian in greeting","the civilian pulled away from the officer","waved","pulledAway","officerCivilian","punishCiv","1","","","",""
"66",4757,"{""Q0"":97}","[object Object]","survey-likert",65,850126,"0.0-65.0","ubm3ve3kufg67apkw524jjggx1uu9wcd","Mon Apr 17 2017 12:55:27 GMT-0400 (EDT)","female","White","don't know/not political","",NA,"","offCivRatings","the officer waved at the civilian in greeting","the civilian pulled away from the officer","waved","pulledAway","officerCivilian","acceptableCiv","97","","","",""
"67",5618,"{""Q0"":50}","[object Object]","survey-likert",66,855750,"0.0-66.0","ubm3ve3kufg67apkw524jjggx1uu9wcd","Mon Apr 17 2017 12:55:27 GMT-0400 (EDT)","female","White","don't know/not political","",NA,"","offCivRatings","the officer waved at the civilian in greeting","the civilian pulled away from the officer","waved","pulledAway","officerCivilian","appropriateCiv","50","","","",""
"68",4439,"{""Q0"":1}","[object Object]","survey-likert",67,860195,"0.0-67.0","ubm3ve3kufg67apkw524jjggx1uu9wcd","Mon Apr 17 2017 12:55:27 GMT-0400 (EDT)","female","White","don't know/not political","",NA,"","offCivRatings","the officer waved at the civilian in greeting","the civilian pulled away from the officer","waved","pulledAway","officerCivilian","forceCiv","1","","","",""
"69",1049,"","","instructions",68,861244,"0.0-68.0","ubm3ve3kufg67apkw524jjggx1uu9wcd","Mon Apr 17 2017 12:55:27 GMT-0400 (EDT)","female","White","don't know/not political","",NA,"[{""page_index"":0,""viewing_time"":1049}]","break","","","","","","","","","","",""
"70",14303,"{""Q0"":44}","[object Object]","survey-likert",69,875756,"0.0-69.0","ubm3ve3kufg67apkw524jjggx1uu9wcd","Mon Apr 17 2017 12:55:27 GMT-0400 (EDT)","female","White","don't know/not political","",NA,"","offCivRatings","the officer put handcuffs on the civilian","the civilian shouted ""I don't have to fucking listen to you!"" at the officer","handcuff","dontListen","officerCivilian","acceptableCiv","44","","","",""
"71",2848,"{""Q0"":100}","[object Object]","survey-likert",70,878610,"0.0-70.0","ubm3ve3kufg67apkw524jjggx1uu9wcd","Mon Apr 17 2017 12:55:27 GMT-0400 (EDT)","female","White","don't know/not political","",NA,"","offCivRatings","the officer put handcuffs on the civilian","the civilian shouted ""I don't have to fucking listen to you!"" at the officer","handcuff","dontListen","officerCivilian","manipCheckHigh","100","","","",""
"72",9647,"{""Q0"":50}","[object Object]","survey-likert",71,888263,"0.0-71.0","ubm3ve3kufg67apkw524jjggx1uu9wcd","Mon Apr 17 2017 12:55:27 GMT-0400 (EDT)","female","White","don't know/not political","",NA,"","offCivRatings","the officer put handcuffs on the civilian","the civilian shouted ""I don't have to fucking listen to you!"" at the officer","handcuff","dontListen","officerCivilian","punishCiv","50","","","",""
"73",3667,"{""Q0"":10}","[object Object]","survey-likert",72,891936,"0.0-72.0","ubm3ve3kufg67apkw524jjggx1uu9wcd","Mon Apr 17 2017 12:55:27 GMT-0400 (EDT)","female","White","don't know/not political","",NA,"","offCivRatings","the officer put handcuffs on the civilian","the civilian shouted ""I don't have to fucking listen to you!"" at the officer","handcuff","dontListen","officerCivilian","forceCiv","10","","","",""
"74",4935,"{""Q0"":90}","[object Object]","survey-likert",73,896878,"0.0-73.0","ubm3ve3kufg67apkw524jjggx1uu9wcd","Mon Apr 17 2017 12:55:27 GMT-0400 (EDT)","female","White","don't know/not political","",NA,"","offCivRatings","the officer put handcuffs on the civilian","the civilian shouted ""I don't have to fucking listen to you!"" at the officer","handcuff","dontListen","officerCivilian","appropriateCiv","90","","","",""
"75",1225,"","","instructions",74,898103,"0.0-74.0","ubm3ve3kufg67apkw524jjggx1uu9wcd","Mon Apr 17 2017 12:55:27 GMT-0400 (EDT)","female","White","don't know/not political","",NA,"[{""page_index"":0,""viewing_time"":1224}]","break","","","","","","","","","","",""
"76",38307,"{""Q0"":3}","[object Object]","survey-likert",75,936618,"0.0-75.0","ubm3ve3kufg67apkw524jjggx1uu9wcd","Mon Apr 17 2017 12:55:27 GMT-0400 (EDT)","female","White","don't know/not political","",NA,"","offCivRatings","the officer struck the civilian on the leg with a collapsible baton","the civilian called the officer a ""pig""","batonLeg","nameCall","officerCivilian","forceCiv","3","","","",""
"77",3623,"{""Q0"":50}","[object Object]","survey-likert",76,940245,"0.0-76.0","ubm3ve3kufg67apkw524jjggx1uu9wcd","Mon Apr 17 2017 12:55:27 GMT-0400 (EDT)","female","White","don't know/not political","",NA,"","offCivRatings","the officer struck the civilian on the leg with a collapsible baton","the civilian called the officer a ""pig""","batonLeg","nameCall","officerCivilian","acceptableCiv","50","","","",""
"78",14999,"{""Q0"":60}","[object Object]","survey-likert",77,955251,"0.0-77.0","ubm3ve3kufg67apkw524jjggx1uu9wcd","Mon Apr 17 2017 12:55:27 GMT-0400 (EDT)","female","White","don't know/not political","",NA,"","offCivRatings","the officer struck the civilian on the leg with a collapsible baton","the civilian called the officer a ""pig""","batonLeg","nameCall","officerCivilian","appropriateCiv","60","","","",""
"79",3850,"{""Q0"":1}","[object Object]","survey-likert",78,959108,"0.0-78.0","ubm3ve3kufg67apkw524jjggx1uu9wcd","Mon Apr 17 2017 12:55:27 GMT-0400 (EDT)","female","White","don't know/not political","",NA,"","offCivRatings","the officer struck the civilian on the leg with a collapsible baton","the civilian called the officer a ""pig""","batonLeg","nameCall","officerCivilian","punishCiv","1","","","",""
"80",2776,"{""Q0"":1}","[object Object]","survey-likert",79,961890,"0.0-79.0","ubm3ve3kufg67apkw524jjggx1uu9wcd","Mon Apr 17 2017 12:55:27 GMT-0400 (EDT)","female","White","don't know/not political","",NA,"","offCivRatings","the officer struck the civilian on the leg with a collapsible baton","the civilian called the officer a ""pig""","batonLeg","nameCall","officerCivilian","manipCheckLow","1","","","",""
"81",1017,"","","instructions",80,962907,"0.0-80.0","ubm3ve3kufg67apkw524jjggx1uu9wcd","Mon Apr 17 2017 12:55:27 GMT-0400 (EDT)","female","White","don't know/not political","",NA,"[{""page_index"":0,""viewing_time"":1017}]","break","","","","","","","","","","",""
"82",8129,"{""Q0"":1}","[object Object]","survey-likert",81,971248,"0.0-81.0","ubm3ve3kufg67apkw524jjggx1uu9wcd","Mon Apr 17 2017 12:55:27 GMT-0400 (EDT)","female","White","don't know/not political","",NA,"","offCivRatings","the officer applied a chokehold to the civilian","the civilian headbutted the officer in the face","choke","headbutt","civilianOfficer","manipCheckLow","1","","","",""
"83",8815,"{""Q0"":60}","[object Object]","survey-likert",82,980070,"0.0-82.0","ubm3ve3kufg67apkw524jjggx1uu9wcd","Mon Apr 17 2017 12:55:27 GMT-0400 (EDT)","female","White","don't know/not political","",NA,"","offCivRatings","the officer applied a chokehold to the civilian","the civilian headbutted the officer in the face","choke","headbutt","civilianOfficer","forceOff","60","","","",""
"84",4668,"{""Q0"":50}","[object Object]","survey-likert",83,984744,"0.0-83.0","ubm3ve3kufg67apkw524jjggx1uu9wcd","Mon Apr 17 2017 12:55:27 GMT-0400 (EDT)","female","White","don't know/not political","",NA,"","offCivRatings","the officer applied a chokehold to the civilian","the civilian headbutted the officer in the face","choke","headbutt","civilianOfficer","appropriateOff","50","","","",""
"85",7747,"{""Q0"":2}","[object Object]","survey-likert",84,992498,"0.0-84.0","ubm3ve3kufg67apkw524jjggx1uu9wcd","Mon Apr 17 2017 12:55:27 GMT-0400 (EDT)","female","White","don't know/not political","",NA,"","offCivRatings","the officer applied a chokehold to the civilian","the civilian headbutted the officer in the face","choke","headbutt","civilianOfficer","punishOff","2","","","",""
"86",3319,"{""Q0"":88}","[object Object]","survey-likert",85,995821,"0.0-85.0","ubm3ve3kufg67apkw524jjggx1uu9wcd","Mon Apr 17 2017 12:55:27 GMT-0400 (EDT)","female","White","don't know/not political","",NA,"","offCivRatings","the officer applied a chokehold to the civilian","the civilian headbutted the officer in the face","choke","headbutt","civilianOfficer","acceptableOff","88","","","",""
"87",1064,"","","instructions",86,996886,"0.0-86.0","ubm3ve3kufg67apkw524jjggx1uu9wcd","Mon Apr 17 2017 12:55:27 GMT-0400 (EDT)","female","White","don't know/not political","",NA,"[{""page_index"":0,""viewing_time"":1064}]","break","","","","","","","","","","",""
"88",12458,"{""Q0"":82}","[object Object]","survey-likert",87,1009555,"0.0-87.0","ubm3ve3kufg67apkw524jjggx1uu9wcd","Mon Apr 17 2017 12:55:27 GMT-0400 (EDT)","female","White","don't know/not political","",NA,"","offCivRatings","the officer asked the civilian how he was doing","the civilian applied a chokehold to the officer","asked","choke","officerCivilian","punishCiv","82","","","",""
"89",3987,"{""Q0"":80}","[object Object]","survey-likert",88,1013548,"0.0-88.0","ubm3ve3kufg67apkw524jjggx1uu9wcd","Mon Apr 17 2017 12:55:27 GMT-0400 (EDT)","female","White","don't know/not political","",NA,"","offCivRatings","the officer asked the civilian how he was doing","the civilian applied a chokehold to the officer","asked","choke","officerCivilian","forceCiv","80","","","",""
"90",4046,"{""Q0"":8}","[object Object]","survey-likert",89,1017600,"0.0-89.0","ubm3ve3kufg67apkw524jjggx1uu9wcd","Mon Apr 17 2017 12:55:27 GMT-0400 (EDT)","female","White","don't know/not political","",NA,"","offCivRatings","the officer asked the civilian how he was doing","the civilian applied a chokehold to the officer","asked","choke","officerCivilian","acceptableCiv","8","","","",""
"91",8414,"{""Q0"":100}","[object Object]","survey-likert",90,1026020,"0.0-90.0","ubm3ve3kufg67apkw524jjggx1uu9wcd","Mon Apr 17 2017 12:55:27 GMT-0400 (EDT)","female","White","don't know/not political","",NA,"","offCivRatings","the officer asked the civilian how he was doing","the civilian applied a chokehold to the officer","asked","choke","officerCivilian","appropriateCiv","100","","","",""
"92",1192,"","","instructions",91,1027212,"0.0-91.0","ubm3ve3kufg67apkw524jjggx1uu9wcd","Mon Apr 17 2017 12:55:27 GMT-0400 (EDT)","female","White","don't know/not political","",NA,"[{""page_index"":0,""viewing_time"":1192}]","break","","","","","","","","","","",""
"93",120135,"{""Q0"":6}","[object Object]","survey-likert",92,1147559,"0.0-92.0","ubm3ve3kufg67apkw524jjggx1uu9wcd","Mon Apr 17 2017 12:55:27 GMT-0400 (EDT)","female","White","don't know/not political","",NA,"","offCivRatings","the officer stood near the civilian","the civilian purposefully struck the officer with a motor vehicle","stoodNear","vehicle","civilianOfficer","appropriateOff","6","","","",""
"94",3436,"{""Q0"":1}","[object Object]","survey-likert",93,1151001,"0.0-93.0","ubm3ve3kufg67apkw524jjggx1uu9wcd","Mon Apr 17 2017 12:55:27 GMT-0400 (EDT)","female","White","don't know/not political","",NA,"","offCivRatings","the officer stood near the civilian","the civilian purposefully struck the officer with a motor vehicle","stoodNear","vehicle","civilianOfficer","forceOff","1","","","",""
"95",3617,"{""Q0"":100}","[object Object]","survey-likert",94,1154625,"0.0-94.0","ubm3ve3kufg67apkw524jjggx1uu9wcd","Mon Apr 17 2017 12:55:27 GMT-0400 (EDT)","female","White","don't know/not political","",NA,"","offCivRatings","the officer stood near the civilian","the civilian purposefully struck the officer with a motor vehicle","stoodNear","vehicle","civilianOfficer","acceptableOff","100","","","",""
"96",2910,"{""Q0"":1}","[object Object]","survey-likert",95,1157540,"0.0-95.0","ubm3ve3kufg67apkw524jjggx1uu9wcd","Mon Apr 17 2017 12:55:27 GMT-0400 (EDT)","female","White","don't know/not political","",NA,"","offCivRatings","the officer stood near the civilian","the civilian purposefully struck the officer with a motor vehicle","stoodNear","vehicle","civilianOfficer","punishOff","1","","","",""
"97",897,"","","instructions",96,1158437,"0.0-96.0","ubm3ve3kufg67apkw524jjggx1uu9wcd","Mon Apr 17 2017 12:55:27 GMT-0400 (EDT)","female","White","don't know/not political","",NA,"[{""page_index"":0,""viewing_time"":897}]","break","","","","","","","","","","",""
"98",5981,"{""Q0"":1}","[object Object]","survey-likert",97,1164631,"0.0-97.0","ubm3ve3kufg67apkw524jjggx1uu9wcd","Mon Apr 17 2017 12:55:27 GMT-0400 (EDT)","female","White","don't know/not political","",NA,"","offCivRatings","the officer called the civilian a ""thug""","the civilian asked the officer how he was doing","nameCall","asked","officerCivilian","punishCiv","1","","","",""
"99",3744,"{""Q0"":100}","[object Object]","survey-likert",98,1168381,"0.0-98.0","ubm3ve3kufg67apkw524jjggx1uu9wcd","Mon Apr 17 2017 12:55:27 GMT-0400 (EDT)","female","White","don't know/not political","",NA,"","offCivRatings","the officer called the civilian a ""thug""","the civilian asked the officer how he was doing","nameCall","asked","officerCivilian","manipCheckHigh","100","","","",""
"100",4234,"{""Q0"":2}","[object Object]","survey-likert",99,1172621,"0.0-99.0","ubm3ve3kufg67apkw524jjggx1uu9wcd","Mon Apr 17 2017 12:55:27 GMT-0400 (EDT)","female","White","don't know/not political","",NA,"","offCivRatings","the officer called the civilian a ""thug""","the civilian asked the officer how he was doing","nameCall","asked","officerCivilian","forceCiv","2","","","",""
"101",4775,"{""Q0"":100}","[object Object]","survey-likert",100,1177402,"0.0-100.0","ubm3ve3kufg67apkw524jjggx1uu9wcd","Mon Apr 17 2017 12:55:27 GMT-0400 (EDT)","female","White","don't know/not political","",NA,"","offCivRatings","the officer called the civilian a ""thug""","the civilian asked the officer how he was doing","nameCall","asked","officerCivilian","acceptableCiv","100","","","",""
"102",6115,"{""Q0"":50}","[object Object]","survey-likert",101,1183524,"0.0-101.0","ubm3ve3kufg67apkw524jjggx1uu9wcd","Mon Apr 17 2017 12:55:27 GMT-0400 (EDT)","female","White","don't know/not political","",NA,"","offCivRatings","the officer called the civilian a ""thug""","the civilian asked the officer how he was doing","nameCall","asked","officerCivilian","appropriateCiv","50","","","",""
"103",1105,"","","instructions",102,1184629,"0.0-102.0","ubm3ve3kufg67apkw524jjggx1uu9wcd","Mon Apr 17 2017 12:55:27 GMT-0400 (EDT)","female","White","don't know/not political","",NA,"[{""page_index"":0,""viewing_time"":1104}]","break","","","","","","","","","","",""
"104",22552,"{""Q0"":20}","[object Object]","survey-likert",103,1207389,"0.0-103.0","ubm3ve3kufg67apkw524jjggx1uu9wcd","Mon Apr 17 2017 12:55:27 GMT-0400 (EDT)","female","White","don't know/not political","",NA,"","offCivRatings","the officer yelled ""get back!"" at the civilian","the civilian waved at the officer in greeting","getBack","waved","officerCivilian","appropriateCiv","20","","","",""
"105",3120,"{""Q0"":100}","[object Object]","survey-likert",104,1210516,"0.0-104.0","ubm3ve3kufg67apkw524jjggx1uu9wcd","Mon Apr 17 2017 12:55:27 GMT-0400 (EDT)","female","White","don't know/not political","",NA,"","offCivRatings","the officer yelled ""get back!"" at the civilian","the civilian waved at the officer in greeting","getBack","waved","officerCivilian","acceptableCiv","100","","","",""
"106",2607,"{""Q0"":1}","[object Object]","survey-likert",105,1213129,"0.0-105.0","ubm3ve3kufg67apkw524jjggx1uu9wcd","Mon Apr 17 2017 12:55:27 GMT-0400 (EDT)","female","White","don't know/not political","",NA,"","offCivRatings","the officer yelled ""get back!"" at the civilian","the civilian waved at the officer in greeting","getBack","waved","officerCivilian","manipCheckLow","1","","","",""
"107",4171,"{""Q0"":1}","[object Object]","survey-likert",106,1217306,"0.0-106.0","ubm3ve3kufg67apkw524jjggx1uu9wcd","Mon Apr 17 2017 12:55:27 GMT-0400 (EDT)","female","White","don't know/not political","",NA,"","offCivRatings","the officer yelled ""get back!"" at the civilian","the civilian waved at the officer in greeting","getBack","waved","officerCivilian","punishCiv","1","","","",""
"108",5059,"{""Q0"":1}","[object Object]","survey-likert",107,1222372,"0.0-107.0","ubm3ve3kufg67apkw524jjggx1uu9wcd","Mon Apr 17 2017 12:55:27 GMT-0400 (EDT)","female","White","don't know/not political","",NA,"","offCivRatings","the officer yelled ""get back!"" at the civilian","the civilian waved at the officer in greeting","getBack","waved","officerCivilian","forceCiv","1","","","",""
"109",1278,"","","instructions",108,1223650,"0.0-108.0","ubm3ve3kufg67apkw524jjggx1uu9wcd","Mon Apr 17 2017 12:55:27 GMT-0400 (EDT)","female","White","don't know/not political","",NA,"[{""page_index"":0,""viewing_time"":1278}]","break","","","","","","","","","","",""
"110",9227,"{""Q0"":69}","[object Object]","survey-likert",109,1233087,"0.0-109.0","ubm3ve3kufg67apkw524jjggx1uu9wcd","Mon Apr 17 2017 12:55:27 GMT-0400 (EDT)","female","White","don't know/not political","",NA,"","offCivRatings","the officer slammed the civilian's head into the concrete curb","the civilian kicked the officer in the stomach","headSlam","kickStom","civilianOfficer","forceOff","69","","","",""
"111",8166,"{""Q0"":3}","[object Object]","survey-likert",110,1241259,"0.0-110.0","ubm3ve3kufg67apkw524jjggx1uu9wcd","Mon Apr 17 2017 12:55:27 GMT-0400 (EDT)","female","White","don't know/not political","",NA,"","offCivRatings","the officer slammed the civilian's head into the concrete curb","the civilian kicked the officer in the stomach","headSlam","kickStom","civilianOfficer","punishOff","3","","","",""
"112",5389,"{""Q0"":60}","[object Object]","survey-likert",111,1246654,"0.0-111.0","ubm3ve3kufg67apkw524jjggx1uu9wcd","Mon Apr 17 2017 12:55:27 GMT-0400 (EDT)","female","White","don't know/not political","",NA,"","offCivRatings","the officer slammed the civilian's head into the concrete curb","the civilian kicked the officer in the stomach","headSlam","kickStom","civilianOfficer","appropriateOff","60","","","",""
"113",6206,"{""Q0"":70}","[object Object]","survey-likert",112,1252867,"0.0-112.0","ubm3ve3kufg67apkw524jjggx1uu9wcd","Mon Apr 17 2017 12:55:27 GMT-0400 (EDT)","female","White","don't know/not political","",NA,"","offCivRatings","the officer slammed the civilian's head into the concrete curb","the civilian kicked the officer in the stomach","headSlam","kickStom","civilianOfficer","acceptableOff","70","","","",""
"114",946,"","","instructions",113,1253813,"0.0-113.0","ubm3ve3kufg67apkw524jjggx1uu9wcd","Mon Apr 17 2017 12:55:27 GMT-0400 (EDT)","female","White","don't know/not political","",NA,"[{""page_index"":0,""viewing_time"":945}]","break","","","","","","","","","","",""
"115",20243,"{""Q0"":38}","[object Object]","survey-likert",114,1274267,"0.0-114.0","ubm3ve3kufg67apkw524jjggx1uu9wcd","Mon Apr 17 2017 12:55:27 GMT-0400 (EDT)","female","White","don't know/not political","",NA,"","offCivRatings","the officer shot the civilian in the head with a handgun","the civilian punched the officer in the face","handgunHead","punchFace","officerCivilian","appropriateCiv","38","","","",""
"116",9538,"{""Q0"":31}","[object Object]","survey-likert",115,1283811,"0.0-115.0","ubm3ve3kufg67apkw524jjggx1uu9wcd","Mon Apr 17 2017 12:55:27 GMT-0400 (EDT)","female","White","don't know/not political","",NA,"","offCivRatings","the officer shot the civilian in the head with a handgun","the civilian punched the officer in the face","handgunHead","punchFace","officerCivilian","forceCiv","31","","","",""
"117",5305,"{""Q0"":91}","[object Object]","survey-likert",116,1289121,"0.0-116.0","ubm3ve3kufg67apkw524jjggx1uu9wcd","Mon Apr 17 2017 12:55:27 GMT-0400 (EDT)","female","White","don't know/not political","",NA,"","offCivRatings","the officer shot the civilian in the head with a handgun","the civilian punched the officer in the face","handgunHead","punchFace","officerCivilian","acceptableCiv","91","","","",""
"118",4446,"{""Q0"":50}","[object Object]","survey-likert",117,1293572,"0.0-117.0","ubm3ve3kufg67apkw524jjggx1uu9wcd","Mon Apr 17 2017 12:55:27 GMT-0400 (EDT)","female","White","don't know/not political","",NA,"","offCivRatings","the officer shot the civilian in the head with a handgun","the civilian punched the officer in the face","handgunHead","punchFace","officerCivilian","punishCiv","50","","","",""
"119",841,"","","instructions",118,1294413,"0.0-118.0","ubm3ve3kufg67apkw524jjggx1uu9wcd","Mon Apr 17 2017 12:55:27 GMT-0400 (EDT)","female","White","don't know/not political","",NA,"[{""page_index"":0,""viewing_time"":841}]","break","","","","","","","","","","",""
"120",12001,"{""Q0"":76}","[object Object]","survey-likert",119,1306625,"0.0-119.0","ubm3ve3kufg67apkw524jjggx1uu9wcd","Mon Apr 17 2017 12:55:27 GMT-0400 (EDT)","female","White","don't know/not political","",NA,"","offCivRatings","the officer headbutted the civilian in the face","the civilian slammed the officer's head into the concrete curb","headbutt","headSlam","officerCivilian","punishCiv","76","","","",""
"121",3649,"{""Q0"":74}","[object Object]","survey-likert",120,1310281,"0.0-120.0","ubm3ve3kufg67apkw524jjggx1uu9wcd","Mon Apr 17 2017 12:55:27 GMT-0400 (EDT)","female","White","don't know/not political","",NA,"","offCivRatings","the officer headbutted the civilian in the face","the civilian slammed the officer's head into the concrete curb","headbutt","headSlam","officerCivilian","forceCiv","74","","","",""
"122",12752,"{""Q0"":34}","[object Object]","survey-likert",121,1323038,"0.0-121.0","ubm3ve3kufg67apkw524jjggx1uu9wcd","Mon Apr 17 2017 12:55:27 GMT-0400 (EDT)","female","White","don't know/not political","",NA,"","offCivRatings","the officer headbutted the civilian in the face","the civilian slammed the officer's head into the concrete curb","headbutt","headSlam","officerCivilian","acceptableCiv","34","","","",""
"123",11991,"{""Q0"":70}","[object Object]","survey-likert",122,1335034,"0.0-122.0","ubm3ve3kufg67apkw524jjggx1uu9wcd","Mon Apr 17 2017 12:55:27 GMT-0400 (EDT)","female","White","don't know/not political","",NA,"","offCivRatings","the officer headbutted the civilian in the face","the civilian slammed the officer's head into the concrete curb","headbutt","headSlam","officerCivilian","appropriateCiv","70","","","",""
"124",969,"","","instructions",123,1336003,"0.0-123.0","ubm3ve3kufg67apkw524jjggx1uu9wcd","Mon Apr 17 2017 12:55:27 GMT-0400 (EDT)","female","White","don't know/not political","",NA,"[{""page_index"":0,""viewing_time"":968}]","break","","","","","","","","","","",""
"125",7724,"{""Q0"":93}","[object Object]","survey-likert",124,1343936,"0.0-124.0","ubm3ve3kufg67apkw524jjggx1uu9wcd","Mon Apr 17 2017 12:55:27 GMT-0400 (EDT)","female","White","don't know/not political","",NA,"","policeLegitimacy","","","","","","","93","importantValues","normAlignment","",""
"126",8462,"{""Q0"":79}","[object Object]","survey-likert",125,1352403,"0.0-125.0","ubm3ve3kufg67apkw524jjggx1uu9wcd","Mon Apr 17 2017 12:55:27 GMT-0400 (EDT)","female","White","don't know/not political","",NA,"","policeLegitimacy","","","","","","","79","doTreat","feltObligation","",""
"127",6840,"{""Q0"":84}","[object Object]","survey-likert",126,1359249,"0.0-126.0","ubm3ve3kufg67apkw524jjggx1uu9wcd","Mon Apr 17 2017 12:55:27 GMT-0400 (EDT)","female","White","don't know/not political","",NA,"","policeLegitimacy","","","","","","","84","rightWrong","normAlignment","",""
"128",5230,"{""Q0"":50}","[object Object]","survey-likert",127,1364484,"0.0-127.0","ubm3ve3kufg67apkw524jjggx1uu9wcd","Mon Apr 17 2017 12:55:27 GMT-0400 (EDT)","female","White","don't know/not political","",NA,"","policeLegitimacy","","","","","","","50","support","feltObligation","",""
"129",3859,"{""Q0"":81}","[object Object]","survey-likert",128,1368347,"0.0-128.0","ubm3ve3kufg67apkw524jjggx1uu9wcd","Mon Apr 17 2017 12:55:27 GMT-0400 (EDT)","female","White","don't know/not political","",NA,"","policeLegitimacy","","","","","","","81","communityWants","normAlignment","",""
"130",12625,"{""Q0"":81}","[object Object]","survey-likert",129,1380981,"0.0-129.0","ubm3ve3kufg67apkw524jjggx1uu9wcd","Mon Apr 17 2017 12:55:27 GMT-0400 (EDT)","female","White","don't know/not political","",NA,"","policeLegitimacy","","","","","","","81","doReasons","feltObligation","",""
"131",3956,"{""Q0"":""no""}","[object Object]","survey-multi-choice2",130,1384944,"0.0-130.0","ubm3ve3kufg67apkw524jjggx1uu9wcd","Mon Apr 17 2017 12:55:27 GMT-0400 (EDT)","female","White","don't know/not political","",NA,"","policeExperience","","","","","","","no","excessForce","","vicarious","Have the police ever used excessive force against anyone in your household?"
"132",7618,"{""Q0"":""no""}","[object Object]","survey-multi-choice2",131,1392565,"0.0-131.0","ubm3ve3kufg67apkw524jjggx1uu9wcd","Mon Apr 17 2017 12:55:27 GMT-0400 (EDT)","female","White","don't know/not political","",NA,"","policeExperience","","","","","","","no","stopped","","vicarious","Has anyone in your household ever been stopped on the street by the police without good reason?"
"133",2322,"{""Q0"":""no""}","[object Object]","survey-multi-choice2",132,1394890,"0.0-132.0","ubm3ve3kufg67apkw524jjggx1uu9wcd","Mon Apr 17 2017 12:55:27 GMT-0400 (EDT)","female","White","don't know/not political","",NA,"","policeExperience","","","","","","","no","insultLang","","vicarious","Have the police ever used insulting language toward anyone in your household?"
"134",4567,"{""Q0"":""no""}","[object Object]","survey-multi-choice2",133,1399460,"0.0-133.0","ubm3ve3kufg67apkw524jjggx1uu9wcd","Mon Apr 17 2017 12:55:27 GMT-0400 (EDT)","female","White","don't know/not political","",NA,"","policeExperience","","","","","","","no","corrupt","","personal","Have you ever seen a police officer engage in any corrupt activities (e.g., taking bribes or involvement in the drug trade)?"
"135",2177,"{""Q0"":""no""}","[object Object]","survey-multi-choice2",134,1401640,"0.0-134.0","ubm3ve3kufg67apkw524jjggx1uu9wcd","Mon Apr 17 2017 12:55:27 GMT-0400 (EDT)","female","White","don't know/not political","",NA,"","policeExperience","","","","","","","no","excessForce","","personal","Have the police ever used excessive force against you?"
"136",2080,"{""Q0"":""no""}","[object Object]","survey-multi-choice2",135,1403723,"0.0-135.0","ubm3ve3kufg67apkw524jjggx1uu9wcd","Mon Apr 17 2017 12:55:27 GMT-0400 (EDT)","female","White","don't know/not political","",NA,"","policeExperience","","","","","","","no","stopped","","personal","Have you ever been stopped by the police on the street without good reason?"
"137",1735,"{""Q0"":""no""}","[object Object]","survey-multi-choice2",136,1405460,"0.0-136.0","ubm3ve3kufg67apkw524jjggx1uu9wcd","Mon Apr 17 2017 12:55:27 GMT-0400 (EDT)","female","White","don't know/not political","",NA,"","policeExperience","","","","","","","no","insultLang","","personal","Have the police ever used insulting language toward you?"
"138",8714,"{""Q0"":""female"",""Q1"":""White"",""Q2"":""don't know/not political""}","[object Object]","survey-multi-choice",137,1414184,"0.0-137.0","ubm3ve3kufg67apkw524jjggx1uu9wcd","Mon Apr 17 2017 12:55:27 GMT-0400 (EDT)","female","White","don't know/not political","",NA,"","demographics","","","","","","","","","","",""
"139",8755,"","","instructions",138,1423940,"0.0-138.0","ubm3ve3kufg67apkw524jjggx1uu9wcd","Mon Apr 17 2017 12:55:27 GMT-0400 (EDT)","female","White","don't know/not political","",NA,"[{""page_index"":0,""viewing_time"":2018},{""page_index"":1,""viewing_time"":4491},{""page_index"":2,""viewing_time"":882},{""page_index"":3,""viewing_time"":1363}]","debriefing","","","","","","","","","","",""
