"","rt","responses","internalResp","trial_type","trial_index","time_elapsed","internal_node_id","randSubjectID","date","sex","race","polAff","stimulus","key_press","view_history","questionType","officerAction","civilianAction","offActName","civActName","order","questionName","response","name","dimension","person","question"
"1",17582,"","[object Object]","survey-text",0,17589,"0.0-0.0","uydbsj3dhe3ojpufdxt0rd6u68998j9d","Wed Jan 18 2017 16:14:27 GMT-0500 (EST)","female","White","slightly conservative","",NA,"","","","","","","","","","","","",""
"2",6733,"","","single-stim",1,25329,"0.0-1.0","uydbsj3dhe3ojpufdxt0rd6u68998j9d","Wed Jan 18 2017 16:14:27 GMT-0500 (EST)","female","White","slightly conservative","<img src='static/images/1602685960_ICS_Credit-0.png' alt='Consent 1' height=1100 width=850><img src='static/images/1602685960_ICS_Credit-1.png' alt='Consent 2' height=1100 width=850></p>",89,"","","","","","","","","","","","",""
"3",4614,"","","instructions",2,30946,"0.0-2.0","uydbsj3dhe3ojpufdxt0rd6u68998j9d","Wed Jan 18 2017 16:14:27 GMT-0500 (EST)","female","White","slightly conservative","",NA,"[{""page_index"":0,""viewing_time"":4613}]","instructions","","","","","","","","","","",""
"4",44161,"","","instructions",3,76109,"0.0-3.0","uydbsj3dhe3ojpufdxt0rd6u68998j9d","Wed Jan 18 2017 16:14:27 GMT-0500 (EST)","female","White","slightly conservative","",NA,"[{""page_index"":0,""viewing_time"":4928},{""page_index"":1,""viewing_time"":8835},{""page_index"":2,""viewing_time"":22827},{""page_index"":3,""viewing_time"":7570}]","instructions","","","","","","","","","","",""
"5",51228,"{""Q0"":1}","[object Object]","survey-likert",4,128365,"0.0-4.0","uydbsj3dhe3ojpufdxt0rd6u68998j9d","Wed Jan 18 2017 16:14:27 GMT-0500 (EST)","female","White","slightly conservative","",NA,"","offCivRatings","the officer slammed the civilian's head into the concrete curb","the civilian said ""if you touch me, you're gonna get hurt"" to the officer","headSlam","hurtThreat","civilianOfficer","manipCheckLow","1","","","",""
"6",25234,"{""Q0"":90}","[object Object]","survey-likert",5,153635,"0.0-5.0","uydbsj3dhe3ojpufdxt0rd6u68998j9d","Wed Jan 18 2017 16:14:27 GMT-0500 (EST)","female","White","slightly conservative","",NA,"","offCivRatings","the officer slammed the civilian's head into the concrete curb","the civilian said ""if you touch me, you're gonna get hurt"" to the officer","headSlam","hurtThreat","civilianOfficer","forceOff","90","","","",""
"7",18443,"{""Q0"":4}","[object Object]","survey-likert",6,172088,"0.0-6.0","uydbsj3dhe3ojpufdxt0rd6u68998j9d","Wed Jan 18 2017 16:14:27 GMT-0500 (EST)","female","White","slightly conservative","",NA,"","offCivRatings","the officer slammed the civilian's head into the concrete curb","the civilian said ""if you touch me, you're gonna get hurt"" to the officer","headSlam","hurtThreat","civilianOfficer","appropriateOff","4","","","",""
"8",9770,"{""Q0"":1}","[object Object]","survey-likert",7,181871,"0.0-7.0","uydbsj3dhe3ojpufdxt0rd6u68998j9d","Wed Jan 18 2017 16:14:27 GMT-0500 (EST)","female","White","slightly conservative","",NA,"","offCivRatings","the officer slammed the civilian's head into the concrete curb","the civilian said ""if you touch me, you're gonna get hurt"" to the officer","headSlam","hurtThreat","civilianOfficer","acceptableOff","1","","","",""
"9",11753,"{""Q0"":76}","[object Object]","survey-likert",8,193634,"0.0-8.0","uydbsj3dhe3ojpufdxt0rd6u68998j9d","Wed Jan 18 2017 16:14:27 GMT-0500 (EST)","female","White","slightly conservative","",NA,"","offCivRatings","the officer slammed the civilian's head into the concrete curb","the civilian said ""if you touch me, you're gonna get hurt"" to the officer","headSlam","hurtThreat","civilianOfficer","punishOff","76","","","",""
"10",1499,"","","instructions",9,195134,"0.0-9.0","uydbsj3dhe3ojpufdxt0rd6u68998j9d","Wed Jan 18 2017 16:14:27 GMT-0500 (EST)","female","White","slightly conservative","",NA,"[{""page_index"":0,""viewing_time"":1499}]","break","","","","","","","","","","",""
"11",18103,"{""Q0"":51}","[object Object]","survey-likert",10,213450,"0.0-10.0","uydbsj3dhe3ojpufdxt0rd6u68998j9d","Wed Jan 18 2017 16:14:27 GMT-0500 (EST)","female","White","slightly conservative","",NA,"","offCivRatings","the officer applied a chokehold to the civilian","the civilian twisted the arm of the officer, forcing him to the ground","choke","armbar","civilianOfficer","appropriateOff","51","","","",""
"12",16554,"{""Q0"":37}","[object Object]","survey-likert",11,230013,"0.0-11.0","uydbsj3dhe3ojpufdxt0rd6u68998j9d","Wed Jan 18 2017 16:14:27 GMT-0500 (EST)","female","White","slightly conservative","",NA,"","offCivRatings","the officer applied a chokehold to the civilian","the civilian twisted the arm of the officer, forcing him to the ground","choke","armbar","civilianOfficer","punishOff","37","","","",""
"13",14524,"{""Q0"":61}","[object Object]","survey-likert",12,244543,"0.0-12.0","uydbsj3dhe3ojpufdxt0rd6u68998j9d","Wed Jan 18 2017 16:14:27 GMT-0500 (EST)","female","White","slightly conservative","",NA,"","offCivRatings","the officer applied a chokehold to the civilian","the civilian twisted the arm of the officer, forcing him to the ground","choke","armbar","civilianOfficer","forceOff","61","","","",""
"14",8892,"{""Q0"":40}","[object Object]","survey-likert",13,253444,"0.0-13.0","uydbsj3dhe3ojpufdxt0rd6u68998j9d","Wed Jan 18 2017 16:14:27 GMT-0500 (EST)","female","White","slightly conservative","",NA,"","offCivRatings","the officer applied a chokehold to the civilian","the civilian twisted the arm of the officer, forcing him to the ground","choke","armbar","civilianOfficer","acceptableOff","40","","","",""
"15",6109,"{""Q0"":100}","[object Object]","survey-likert",14,259562,"0.0-14.0","uydbsj3dhe3ojpufdxt0rd6u68998j9d","Wed Jan 18 2017 16:14:27 GMT-0500 (EST)","female","White","slightly conservative","",NA,"","offCivRatings","the officer applied a chokehold to the civilian","the civilian twisted the arm of the officer, forcing him to the ground","choke","armbar","civilianOfficer","manipCheckHigh","100","","","",""
"16",1268,"","","instructions",15,260830,"0.0-15.0","uydbsj3dhe3ojpufdxt0rd6u68998j9d","Wed Jan 18 2017 16:14:27 GMT-0500 (EST)","female","White","slightly conservative","",NA,"[{""page_index"":0,""viewing_time"":1267}]","break","","","","","","","","","","",""
"17",14766,"{""Q0"":100}","[object Object]","survey-likert",16,275807,"0.0-16.0","uydbsj3dhe3ojpufdxt0rd6u68998j9d","Wed Jan 18 2017 16:14:27 GMT-0500 (EST)","female","White","slightly conservative","",NA,"","offCivRatings","the officer shot the civilian in the chest with a handgun","the civilian waved at the officer in greeting","handgunChest","waved","civilianOfficer","appropriateOff","100","","","",""
"18",5159,"{""Q0"":100}","[object Object]","survey-likert",17,280973,"0.0-17.0","uydbsj3dhe3ojpufdxt0rd6u68998j9d","Wed Jan 18 2017 16:14:27 GMT-0500 (EST)","female","White","slightly conservative","",NA,"","offCivRatings","the officer shot the civilian in the chest with a handgun","the civilian waved at the officer in greeting","handgunChest","waved","civilianOfficer","forceOff","100","","","",""
"19",11751,"{""Q0"":100}","[object Object]","survey-likert",18,292734,"0.0-18.0","uydbsj3dhe3ojpufdxt0rd6u68998j9d","Wed Jan 18 2017 16:14:27 GMT-0500 (EST)","female","White","slightly conservative","",NA,"","offCivRatings","the officer shot the civilian in the chest with a handgun","the civilian waved at the officer in greeting","handgunChest","waved","civilianOfficer","punishOff","100","","","",""
"20",4863,"{""Q0"":1}","[object Object]","survey-likert",19,297604,"0.0-19.0","uydbsj3dhe3ojpufdxt0rd6u68998j9d","Wed Jan 18 2017 16:14:27 GMT-0500 (EST)","female","White","slightly conservative","",NA,"","offCivRatings","the officer shot the civilian in the chest with a handgun","the civilian waved at the officer in greeting","handgunChest","waved","civilianOfficer","acceptableOff","1","","","",""
"21",1463,"","","instructions",20,299067,"0.0-20.0","uydbsj3dhe3ojpufdxt0rd6u68998j9d","Wed Jan 18 2017 16:14:27 GMT-0500 (EST)","female","White","slightly conservative","",NA,"[{""page_index"":0,""viewing_time"":1463}]","break","","","","","","","","","","",""
"22",21960,"{""Q0"":52}","[object Object]","survey-likert",21,321241,"0.0-21.0","uydbsj3dhe3ojpufdxt0rd6u68998j9d","Wed Jan 18 2017 16:14:27 GMT-0500 (EST)","female","White","slightly conservative","",NA,"","offCivRatings","the officer struck the civilian on the leg with a collapsible baton","the civilian kicked the officer in the stomach","batonLeg","kickStom","civilianOfficer","forceOff","52","","","",""
"23",15500,"{""Q0"":60}","[object Object]","survey-likert",22,336748,"0.0-22.0","uydbsj3dhe3ojpufdxt0rd6u68998j9d","Wed Jan 18 2017 16:14:27 GMT-0500 (EST)","female","White","slightly conservative","",NA,"","offCivRatings","the officer struck the civilian on the leg with a collapsible baton","the civilian kicked the officer in the stomach","batonLeg","kickStom","civilianOfficer","acceptableOff","60","","","",""
"24",14529,"{""Q0"":49}","[object Object]","survey-likert",23,351285,"0.0-23.0","uydbsj3dhe3ojpufdxt0rd6u68998j9d","Wed Jan 18 2017 16:14:27 GMT-0500 (EST)","female","White","slightly conservative","",NA,"","offCivRatings","the officer struck the civilian on the leg with a collapsible baton","the civilian kicked the officer in the stomach","batonLeg","kickStom","civilianOfficer","appropriateOff","49","","","",""
"25",6634,"{""Q0"":26}","[object Object]","survey-likert",24,357927,"0.0-24.0","uydbsj3dhe3ojpufdxt0rd6u68998j9d","Wed Jan 18 2017 16:14:27 GMT-0500 (EST)","female","White","slightly conservative","",NA,"","offCivRatings","the officer struck the civilian on the leg with a collapsible baton","the civilian kicked the officer in the stomach","batonLeg","kickStom","civilianOfficer","punishOff","26","","","",""
"26",1495,"","","instructions",25,359422,"0.0-25.0","uydbsj3dhe3ojpufdxt0rd6u68998j9d","Wed Jan 18 2017 16:14:27 GMT-0500 (EST)","female","White","slightly conservative","",NA,"[{""page_index"":0,""viewing_time"":1495}]","break","","","","","","","","","","",""
"27",11191,"{""Q0"":100}","[object Object]","survey-likert",26,370826,"0.0-26.0","uydbsj3dhe3ojpufdxt0rd6u68998j9d","Wed Jan 18 2017 16:14:27 GMT-0500 (EST)","female","White","slightly conservative","",NA,"","offCivRatings","the officer purposefully struck the civilian with a motor vehicle","the civilian shot the officer in the chest with a handgun","vehicle","handgunChest","officerCivilian","manipCheckHigh","100","","","",""
"28",17775,"{""Q0"":60}","[object Object]","survey-likert",27,388610,"0.0-27.0","uydbsj3dhe3ojpufdxt0rd6u68998j9d","Wed Jan 18 2017 16:14:27 GMT-0500 (EST)","female","White","slightly conservative","",NA,"","offCivRatings","the officer purposefully struck the civilian with a motor vehicle","the civilian shot the officer in the chest with a handgun","vehicle","handgunChest","officerCivilian","appropriateCiv","60","","","",""
"29",7895,"{""Q0"":40}","[object Object]","survey-likert",28,396516,"0.0-28.0","uydbsj3dhe3ojpufdxt0rd6u68998j9d","Wed Jan 18 2017 16:14:27 GMT-0500 (EST)","female","White","slightly conservative","",NA,"","offCivRatings","the officer purposefully struck the civilian with a motor vehicle","the civilian shot the officer in the chest with a handgun","vehicle","handgunChest","officerCivilian","acceptableCiv","40","","","",""
"30",7260,"{""Q0"":100}","[object Object]","survey-likert",29,403784,"0.0-29.0","uydbsj3dhe3ojpufdxt0rd6u68998j9d","Wed Jan 18 2017 16:14:27 GMT-0500 (EST)","female","White","slightly conservative","",NA,"","offCivRatings","the officer purposefully struck the civilian with a motor vehicle","the civilian shot the officer in the chest with a handgun","vehicle","handgunChest","officerCivilian","forceCiv","100","","","",""
"31",5450,"{""Q0"":73}","[object Object]","survey-likert",30,409240,"0.0-30.0","uydbsj3dhe3ojpufdxt0rd6u68998j9d","Wed Jan 18 2017 16:14:27 GMT-0500 (EST)","female","White","slightly conservative","",NA,"","offCivRatings","the officer purposefully struck the civilian with a motor vehicle","the civilian shot the officer in the chest with a handgun","vehicle","handgunChest","officerCivilian","punishCiv","73","","","",""
"32",1314,"","","instructions",31,410554,"0.0-31.0","uydbsj3dhe3ojpufdxt0rd6u68998j9d","Wed Jan 18 2017 16:14:27 GMT-0500 (EST)","female","White","slightly conservative","",NA,"[{""page_index"":0,""viewing_time"":1313}]","break","","","","","","","","","","",""
"33",30632,"{""Q0"":57}","[object Object]","survey-likert",32,441397,"0.0-32.0","uydbsj3dhe3ojpufdxt0rd6u68998j9d","Wed Jan 18 2017 16:14:27 GMT-0500 (EST)","female","White","slightly conservative","",NA,"","offCivRatings","the officer struck the civilian in the stomach with a metal flashlight","the civilian struck the officer on the leg with a metal pipe","flashlight","metalPipe","officerCivilian","appropriateCiv","57","","","",""
"34",11877,"{""Q0"":41}","[object Object]","survey-likert",33,453280,"0.0-33.0","uydbsj3dhe3ojpufdxt0rd6u68998j9d","Wed Jan 18 2017 16:14:27 GMT-0500 (EST)","female","White","slightly conservative","",NA,"","offCivRatings","the officer struck the civilian in the stomach with a metal flashlight","the civilian struck the officer on the leg with a metal pipe","flashlight","metalPipe","officerCivilian","acceptableCiv","41","","","",""
"35",9585,"{""Q0"":70}","[object Object]","survey-likert",34,462872,"0.0-34.0","uydbsj3dhe3ojpufdxt0rd6u68998j9d","Wed Jan 18 2017 16:14:27 GMT-0500 (EST)","female","White","slightly conservative","",NA,"","offCivRatings","the officer struck the civilian in the stomach with a metal flashlight","the civilian struck the officer on the leg with a metal pipe","flashlight","metalPipe","officerCivilian","forceCiv","70","","","",""
"36",7058,"{""Q0"":100}","[object Object]","survey-likert",35,469936,"0.0-35.0","uydbsj3dhe3ojpufdxt0rd6u68998j9d","Wed Jan 18 2017 16:14:27 GMT-0500 (EST)","female","White","slightly conservative","",NA,"","offCivRatings","the officer struck the civilian in the stomach with a metal flashlight","the civilian struck the officer on the leg with a metal pipe","flashlight","metalPipe","officerCivilian","manipCheckHigh","100","","","",""
"37",12278,"{""Q0"":44}","[object Object]","survey-likert",36,482222,"0.0-36.0","uydbsj3dhe3ojpufdxt0rd6u68998j9d","Wed Jan 18 2017 16:14:27 GMT-0500 (EST)","female","White","slightly conservative","",NA,"","offCivRatings","the officer struck the civilian in the stomach with a metal flashlight","the civilian struck the officer on the leg with a metal pipe","flashlight","metalPipe","officerCivilian","punishCiv","44","","","",""
"38",1255,"","","instructions",37,483477,"0.0-37.0","uydbsj3dhe3ojpufdxt0rd6u68998j9d","Wed Jan 18 2017 16:14:27 GMT-0500 (EST)","female","White","slightly conservative","",NA,"[{""page_index"":0,""viewing_time"":1255}]","break","","","","","","","","","","",""
"39",17660,"{""Q0"":75}","[object Object]","survey-likert",38,501349,"0.0-38.0","uydbsj3dhe3ojpufdxt0rd6u68998j9d","Wed Jan 18 2017 16:14:27 GMT-0500 (EST)","female","White","slightly conservative","",NA,"","offCivRatings","the officer sprayed the civilian with pepper spray","the civilian purposefully struck the officer with a motor vehicle","pepperSpray","vehicle","officerCivilian","punishCiv","75","","","",""
"40",32039,"{""Q0"":81}","[object Object]","survey-likert",39,533396,"0.0-39.0","uydbsj3dhe3ojpufdxt0rd6u68998j9d","Wed Jan 18 2017 16:14:27 GMT-0500 (EST)","female","White","slightly conservative","",NA,"","offCivRatings","the officer sprayed the civilian with pepper spray","the civilian purposefully struck the officer with a motor vehicle","pepperSpray","vehicle","officerCivilian","appropriateCiv","81","","","",""
"41",21995,"{""Q0"":16}","[object Object]","survey-likert",40,555402,"0.0-40.0","uydbsj3dhe3ojpufdxt0rd6u68998j9d","Wed Jan 18 2017 16:14:27 GMT-0500 (EST)","female","White","slightly conservative","",NA,"","offCivRatings","the officer sprayed the civilian with pepper spray","the civilian purposefully struck the officer with a motor vehicle","pepperSpray","vehicle","officerCivilian","acceptableCiv","16","","","",""
"42",5764,"{""Q0"":90}","[object Object]","survey-likert",41,561174,"0.0-41.0","uydbsj3dhe3ojpufdxt0rd6u68998j9d","Wed Jan 18 2017 16:14:27 GMT-0500 (EST)","female","White","slightly conservative","",NA,"","offCivRatings","the officer sprayed the civilian with pepper spray","the civilian purposefully struck the officer with a motor vehicle","pepperSpray","vehicle","officerCivilian","forceCiv","90","","","",""
"43",1353,"","","instructions",42,562527,"0.0-42.0","uydbsj3dhe3ojpufdxt0rd6u68998j9d","Wed Jan 18 2017 16:14:27 GMT-0500 (EST)","female","White","slightly conservative","",NA,"[{""page_index"":0,""viewing_time"":1353}]","break","","","","","","","","","","",""
"44",48475,"{""Q0"":76}","[object Object]","survey-likert",43,611214,"0.0-43.0","uydbsj3dhe3ojpufdxt0rd6u68998j9d","Wed Jan 18 2017 16:14:27 GMT-0500 (EST)","female","White","slightly conservative","",NA,"","offCivRatings","the officer shot the civilian in the chest with a beanbag shotgun round","the civilian applied a chokehold to the officer","beanbag","choke","civilianOfficer","forceOff","76","","","",""
"45",20018,"{""Q0"":52}","[object Object]","survey-likert",44,631237,"0.0-44.0","uydbsj3dhe3ojpufdxt0rd6u68998j9d","Wed Jan 18 2017 16:14:27 GMT-0500 (EST)","female","White","slightly conservative","",NA,"","offCivRatings","the officer shot the civilian in the chest with a beanbag shotgun round","the civilian applied a chokehold to the officer","beanbag","choke","civilianOfficer","appropriateOff","52","","","",""
"46",20427,"{""Q0"":36}","[object Object]","survey-likert",45,651673,"0.0-45.0","uydbsj3dhe3ojpufdxt0rd6u68998j9d","Wed Jan 18 2017 16:14:27 GMT-0500 (EST)","female","White","slightly conservative","",NA,"","offCivRatings","the officer shot the civilian in the chest with a beanbag shotgun round","the civilian applied a chokehold to the officer","beanbag","choke","civilianOfficer","punishOff","36","","","",""
"47",8644,"{""Q0"":57}","[object Object]","survey-likert",46,660325,"0.0-46.0","uydbsj3dhe3ojpufdxt0rd6u68998j9d","Wed Jan 18 2017 16:14:27 GMT-0500 (EST)","female","White","slightly conservative","",NA,"","offCivRatings","the officer shot the civilian in the chest with a beanbag shotgun round","the civilian applied a chokehold to the officer","beanbag","choke","civilianOfficer","acceptableOff","57","","","",""
"48",1265,"","","instructions",47,661590,"0.0-47.0","uydbsj3dhe3ojpufdxt0rd6u68998j9d","Wed Jan 18 2017 16:14:27 GMT-0500 (EST)","female","White","slightly conservative","",NA,"[{""page_index"":0,""viewing_time"":1264}]","break","","","","","","","","","","",""
"49",17206,"{""Q0"":81}","[object Object]","survey-likert",48,679007,"0.0-48.0","uydbsj3dhe3ojpufdxt0rd6u68998j9d","Wed Jan 18 2017 16:14:27 GMT-0500 (EST)","female","White","slightly conservative","",NA,"","offCivRatings","the officer put handcuffs on the civilian","the civilian headbutted the officer in the face","handcuff","headbutt","officerCivilian","punishCiv","81","","","",""
"50",8795,"{""Q0"":1}","[object Object]","survey-likert",49,687808,"0.0-49.0","uydbsj3dhe3ojpufdxt0rd6u68998j9d","Wed Jan 18 2017 16:14:27 GMT-0500 (EST)","female","White","slightly conservative","",NA,"","offCivRatings","the officer put handcuffs on the civilian","the civilian headbutted the officer in the face","handcuff","headbutt","officerCivilian","acceptableCiv","1","","","",""
"51",6446,"{""Q0"":90}","[object Object]","survey-likert",50,694261,"0.0-50.0","uydbsj3dhe3ojpufdxt0rd6u68998j9d","Wed Jan 18 2017 16:14:27 GMT-0500 (EST)","female","White","slightly conservative","",NA,"","offCivRatings","the officer put handcuffs on the civilian","the civilian headbutted the officer in the face","handcuff","headbutt","officerCivilian","forceCiv","90","","","",""
"52",7975,"{""Q0"":95}","[object Object]","survey-likert",51,702243,"0.0-51.0","uydbsj3dhe3ojpufdxt0rd6u68998j9d","Wed Jan 18 2017 16:14:27 GMT-0500 (EST)","female","White","slightly conservative","",NA,"","offCivRatings","the officer put handcuffs on the civilian","the civilian headbutted the officer in the face","handcuff","headbutt","officerCivilian","appropriateCiv","95","","","",""
"53",1171,"","","instructions",52,703414,"0.0-52.0","uydbsj3dhe3ojpufdxt0rd6u68998j9d","Wed Jan 18 2017 16:14:27 GMT-0500 (EST)","female","White","slightly conservative","",NA,"[{""page_index"":0,""viewing_time"":1170}]","break","","","","","","","","","","",""
"54",16831,"{""Q0"":60}","[object Object]","survey-likert",53,720455,"0.0-53.0","uydbsj3dhe3ojpufdxt0rd6u68998j9d","Wed Jan 18 2017 16:14:27 GMT-0500 (EST)","female","White","slightly conservative","",NA,"","offCivRatings","the officer called the civilian a ""thug""","the civilian shouted ""I don't have to fucking listen to you!"" at the officer","nameCall","dontListen","civilianOfficer","appropriateOff","60","","","",""
"55",4268,"{""Q0"":100}","[object Object]","survey-likert",54,724730,"0.0-54.0","uydbsj3dhe3ojpufdxt0rd6u68998j9d","Wed Jan 18 2017 16:14:27 GMT-0500 (EST)","female","White","slightly conservative","",NA,"","offCivRatings","the officer called the civilian a ""thug""","the civilian shouted ""I don't have to fucking listen to you!"" at the officer","nameCall","dontListen","civilianOfficer","manipCheckHigh","100","","","",""
"56",18977,"{""Q0"":12}","[object Object]","survey-likert",55,743714,"0.0-55.0","uydbsj3dhe3ojpufdxt0rd6u68998j9d","Wed Jan 18 2017 16:14:27 GMT-0500 (EST)","female","White","slightly conservative","",NA,"","offCivRatings","the officer called the civilian a ""thug""","the civilian shouted ""I don't have to fucking listen to you!"" at the officer","nameCall","dontListen","civilianOfficer","forceOff","12","","","",""
"57",13711,"{""Q0"":7}","[object Object]","survey-likert",56,757434,"0.0-56.0","uydbsj3dhe3ojpufdxt0rd6u68998j9d","Wed Jan 18 2017 16:14:27 GMT-0500 (EST)","female","White","slightly conservative","",NA,"","offCivRatings","the officer called the civilian a ""thug""","the civilian shouted ""I don't have to fucking listen to you!"" at the officer","nameCall","dontListen","civilianOfficer","punishOff","7","","","",""
"58",9434,"{""Q0"":36}","[object Object]","survey-likert",57,766878,"0.0-57.0","uydbsj3dhe3ojpufdxt0rd6u68998j9d","Wed Jan 18 2017 16:14:27 GMT-0500 (EST)","female","White","slightly conservative","",NA,"","offCivRatings","the officer called the civilian a ""thug""","the civilian shouted ""I don't have to fucking listen to you!"" at the officer","nameCall","dontListen","civilianOfficer","acceptableOff","36","","","",""
"59",1228,"","","instructions",58,768106,"0.0-58.0","uydbsj3dhe3ojpufdxt0rd6u68998j9d","Wed Jan 18 2017 16:14:27 GMT-0500 (EST)","female","White","slightly conservative","",NA,"[{""page_index"":0,""viewing_time"":1228}]","break","","","","","","","","","","",""
"60",13383,"{""Q0"":5}","[object Object]","survey-likert",59,781697,"0.0-59.0","uydbsj3dhe3ojpufdxt0rd6u68998j9d","Wed Jan 18 2017 16:14:27 GMT-0500 (EST)","female","White","slightly conservative","",NA,"","offCivRatings","the officer said ""if you touch me, you're gonna get hurt"" to the civilian","the civilian stood near the officer","hurtThreat","stoodNear","civilianOfficer","acceptableOff","5","","","",""
"61",16887,"{""Q0"":40}","[object Object]","survey-likert",60,798591,"0.0-60.0","uydbsj3dhe3ojpufdxt0rd6u68998j9d","Wed Jan 18 2017 16:14:27 GMT-0500 (EST)","female","White","slightly conservative","",NA,"","offCivRatings","the officer said ""if you touch me, you're gonna get hurt"" to the civilian","the civilian stood near the officer","hurtThreat","stoodNear","civilianOfficer","forceOff","40","","","",""
"62",7228,"{""Q0"":63}","[object Object]","survey-likert",61,805825,"0.0-61.0","uydbsj3dhe3ojpufdxt0rd6u68998j9d","Wed Jan 18 2017 16:14:27 GMT-0500 (EST)","female","White","slightly conservative","",NA,"","offCivRatings","the officer said ""if you touch me, you're gonna get hurt"" to the civilian","the civilian stood near the officer","hurtThreat","stoodNear","civilianOfficer","punishOff","63","","","",""
"63",10572,"{""Q0"":81}","[object Object]","survey-likert",62,816403,"0.0-62.0","uydbsj3dhe3ojpufdxt0rd6u68998j9d","Wed Jan 18 2017 16:14:27 GMT-0500 (EST)","female","White","slightly conservative","",NA,"","offCivRatings","the officer said ""if you touch me, you're gonna get hurt"" to the civilian","the civilian stood near the officer","hurtThreat","stoodNear","civilianOfficer","appropriateOff","81","","","",""
"64",1435,"","","instructions",63,817838,"0.0-63.0","uydbsj3dhe3ojpufdxt0rd6u68998j9d","Wed Jan 18 2017 16:14:27 GMT-0500 (EST)","female","White","slightly conservative","",NA,"[{""page_index"":0,""viewing_time"":1435}]","break","","","","","","","","","","",""
"65",16856,"{""Q0"":86}","[object Object]","survey-likert",64,834906,"0.0-64.0","uydbsj3dhe3ojpufdxt0rd6u68998j9d","Wed Jan 18 2017 16:14:27 GMT-0500 (EST)","female","White","slightly conservative","",NA,"","offCivRatings","the officer shot the civilian in the head with a handgun","the civilian sprayed the officer with pepper spray","handgunHead","pepperSpray","civilianOfficer","punishOff","86","","","",""
"66",16256,"{""Q0"":90}","[object Object]","survey-likert",65,851170,"0.0-65.0","uydbsj3dhe3ojpufdxt0rd6u68998j9d","Wed Jan 18 2017 16:14:27 GMT-0500 (EST)","female","White","slightly conservative","",NA,"","offCivRatings","the officer shot the civilian in the head with a handgun","the civilian sprayed the officer with pepper spray","handgunHead","pepperSpray","civilianOfficer","appropriateOff","90","","","",""
"67",7053,"{""Q0"":100}","[object Object]","survey-likert",66,858229,"0.0-66.0","uydbsj3dhe3ojpufdxt0rd6u68998j9d","Wed Jan 18 2017 16:14:27 GMT-0500 (EST)","female","White","slightly conservative","",NA,"","offCivRatings","the officer shot the civilian in the head with a handgun","the civilian sprayed the officer with pepper spray","handgunHead","pepperSpray","civilianOfficer","forceOff","100","","","",""
"68",9633,"{""Q0"":1}","[object Object]","survey-likert",67,867869,"0.0-67.0","uydbsj3dhe3ojpufdxt0rd6u68998j9d","Wed Jan 18 2017 16:14:27 GMT-0500 (EST)","female","White","slightly conservative","",NA,"","offCivRatings","the officer shot the civilian in the head with a handgun","the civilian sprayed the officer with pepper spray","handgunHead","pepperSpray","civilianOfficer","acceptableOff","1","","","",""
"69",4769,"{""Q0"":100}","[object Object]","survey-likert",68,872646,"0.0-68.0","uydbsj3dhe3ojpufdxt0rd6u68998j9d","Wed Jan 18 2017 16:14:27 GMT-0500 (EST)","female","White","slightly conservative","",NA,"","offCivRatings","the officer shot the civilian in the head with a handgun","the civilian sprayed the officer with pepper spray","handgunHead","pepperSpray","civilianOfficer","manipCheckHigh","100","","","",""
"70",1370,"","","instructions",69,874016,"0.0-69.0","uydbsj3dhe3ojpufdxt0rd6u68998j9d","Wed Jan 18 2017 16:14:27 GMT-0500 (EST)","female","White","slightly conservative","",NA,"[{""page_index"":0,""viewing_time"":1369}]","break","","","","","","","","","","",""
"71",16238,"{""Q0"":100}","[object Object]","survey-likert",70,890465,"0.0-70.0","uydbsj3dhe3ojpufdxt0rd6u68998j9d","Wed Jan 18 2017 16:14:27 GMT-0500 (EST)","female","White","slightly conservative","",NA,"","offCivRatings","the officer twisted the arm of the civilian, forcing him to the ground","the civilian shocked the officer with a tazer","armbar","tazer","officerCivilian","appropriateCiv","100","","","",""
"72",6759,"{""Q0"":90}","[object Object]","survey-likert",71,897230,"0.0-71.0","uydbsj3dhe3ojpufdxt0rd6u68998j9d","Wed Jan 18 2017 16:14:27 GMT-0500 (EST)","female","White","slightly conservative","",NA,"","offCivRatings","the officer twisted the arm of the civilian, forcing him to the ground","the civilian shocked the officer with a tazer","armbar","tazer","officerCivilian","punishCiv","90","","","",""
"73",6774,"{""Q0"":85}","[object Object]","survey-likert",72,904013,"0.0-72.0","uydbsj3dhe3ojpufdxt0rd6u68998j9d","Wed Jan 18 2017 16:14:27 GMT-0500 (EST)","female","White","slightly conservative","",NA,"","offCivRatings","the officer twisted the arm of the civilian, forcing him to the ground","the civilian shocked the officer with a tazer","armbar","tazer","officerCivilian","forceCiv","85","","","",""
"74",8240,"{""Q0"":7}","[object Object]","survey-likert",73,912258,"0.0-73.0","uydbsj3dhe3ojpufdxt0rd6u68998j9d","Wed Jan 18 2017 16:14:27 GMT-0500 (EST)","female","White","slightly conservative","",NA,"","offCivRatings","the officer twisted the arm of the civilian, forcing him to the ground","the civilian shocked the officer with a tazer","armbar","tazer","officerCivilian","acceptableCiv","7","","","",""
"75",1160,"","","instructions",74,913418,"0.0-74.0","uydbsj3dhe3ojpufdxt0rd6u68998j9d","Wed Jan 18 2017 16:14:27 GMT-0500 (EST)","female","White","slightly conservative","",NA,"[{""page_index"":0,""viewing_time"":1160}]","break","","","","","","","","","","",""
"76",16935,"{""Q0"":1}","[object Object]","survey-likert",75,930570,"0.0-75.0","uydbsj3dhe3ojpufdxt0rd6u68998j9d","Wed Jan 18 2017 16:14:27 GMT-0500 (EST)","female","White","slightly conservative","",NA,"","offCivRatings","the officer waved at the civilian in greeting","the civilian asked the officer how he was doing","waved","asked","officerCivilian","punishCiv","1","","","",""
"77",22606,"{""Q0"":1}","[object Object]","survey-likert",76,953183,"0.0-76.0","uydbsj3dhe3ojpufdxt0rd6u68998j9d","Wed Jan 18 2017 16:14:27 GMT-0500 (EST)","female","White","slightly conservative","",NA,"","offCivRatings","the officer waved at the civilian in greeting","the civilian asked the officer how he was doing","waved","asked","officerCivilian","forceCiv","1","","","",""
"78",13970,"{""Q0"":51}","[object Object]","survey-likert",77,967159,"0.0-77.0","uydbsj3dhe3ojpufdxt0rd6u68998j9d","Wed Jan 18 2017 16:14:27 GMT-0500 (EST)","female","White","slightly conservative","",NA,"","offCivRatings","the officer waved at the civilian in greeting","the civilian asked the officer how he was doing","waved","asked","officerCivilian","appropriateCiv","51","","","",""
"79",13320,"{""Q0"":100}","[object Object]","survey-likert",78,980487,"0.0-78.0","uydbsj3dhe3ojpufdxt0rd6u68998j9d","Wed Jan 18 2017 16:14:27 GMT-0500 (EST)","female","White","slightly conservative","",NA,"","offCivRatings","the officer waved at the civilian in greeting","the civilian asked the officer how he was doing","waved","asked","officerCivilian","acceptableCiv","100","","","",""
"80",1444,"","","instructions",79,981932,"0.0-79.0","uydbsj3dhe3ojpufdxt0rd6u68998j9d","Wed Jan 18 2017 16:14:27 GMT-0500 (EST)","female","White","slightly conservative","",NA,"[{""page_index"":0,""viewing_time"":1443}]","break","","","","","","","","","","",""
"81",18544,"{""Q0"":80}","[object Object]","survey-likert",80,1000687,"0.0-80.0","uydbsj3dhe3ojpufdxt0rd6u68998j9d","Wed Jan 18 2017 16:14:27 GMT-0500 (EST)","female","White","slightly conservative","",NA,"","offCivRatings","the officer stood near the civilian","the civilian struck the officer in the stomach with a metal flashlight","stoodNear","flashlight","officerCivilian","forceCiv","80","","","",""
"82",8226,"{""Q0"":1}","[object Object]","survey-likert",81,1008920,"0.0-81.0","uydbsj3dhe3ojpufdxt0rd6u68998j9d","Wed Jan 18 2017 16:14:27 GMT-0500 (EST)","female","White","slightly conservative","",NA,"","offCivRatings","the officer stood near the civilian","the civilian struck the officer in the stomach with a metal flashlight","stoodNear","flashlight","officerCivilian","manipCheckLow","1","","","",""
"83",6083,"{""Q0"":90}","[object Object]","survey-likert",82,1015010,"0.0-82.0","uydbsj3dhe3ojpufdxt0rd6u68998j9d","Wed Jan 18 2017 16:14:27 GMT-0500 (EST)","female","White","slightly conservative","",NA,"","offCivRatings","the officer stood near the civilian","the civilian struck the officer in the stomach with a metal flashlight","stoodNear","flashlight","officerCivilian","punishCiv","90","","","",""
"84",5998,"{""Q0"":92}","[object Object]","survey-likert",83,1021017,"0.0-83.0","uydbsj3dhe3ojpufdxt0rd6u68998j9d","Wed Jan 18 2017 16:14:27 GMT-0500 (EST)","female","White","slightly conservative","",NA,"","offCivRatings","the officer stood near the civilian","the civilian struck the officer in the stomach with a metal flashlight","stoodNear","flashlight","officerCivilian","appropriateCiv","92","","","",""
"85",5728,"{""Q0"":1}","[object Object]","survey-likert",84,1026752,"0.0-84.0","uydbsj3dhe3ojpufdxt0rd6u68998j9d","Wed Jan 18 2017 16:14:27 GMT-0500 (EST)","female","White","slightly conservative","",NA,"","offCivRatings","the officer stood near the civilian","the civilian struck the officer in the stomach with a metal flashlight","stoodNear","flashlight","officerCivilian","acceptableCiv","1","","","",""
"86",1192,"","","instructions",85,1027944,"0.0-85.0","uydbsj3dhe3ojpufdxt0rd6u68998j9d","Wed Jan 18 2017 16:14:27 GMT-0500 (EST)","female","White","slightly conservative","",NA,"[{""page_index"":0,""viewing_time"":1191}]","break","","","","","","","","","","",""
"87",11546,"{""Q0"":1}","[object Object]","survey-likert",86,1039700,"0.0-86.0","uydbsj3dhe3ojpufdxt0rd6u68998j9d","Wed Jan 18 2017 16:14:27 GMT-0500 (EST)","female","White","slightly conservative","",NA,"","offCivRatings","the officer yelled ""get back!"" at the civilian","the civilian slammed the officer's head into the concrete curb","getBack","headSlam","civilianOfficer","manipCheckLow","1","","","",""
"88",9921,"{""Q0"":1}","[object Object]","survey-likert",87,1049628,"0.0-87.0","uydbsj3dhe3ojpufdxt0rd6u68998j9d","Wed Jan 18 2017 16:14:27 GMT-0500 (EST)","female","White","slightly conservative","",NA,"","offCivRatings","the officer yelled ""get back!"" at the civilian","the civilian slammed the officer's head into the concrete curb","getBack","headSlam","civilianOfficer","punishOff","1","","","",""
"89",8263,"{""Q0"":50}","[object Object]","survey-likert",88,1057897,"0.0-88.0","uydbsj3dhe3ojpufdxt0rd6u68998j9d","Wed Jan 18 2017 16:14:27 GMT-0500 (EST)","female","White","slightly conservative","",NA,"","offCivRatings","the officer yelled ""get back!"" at the civilian","the civilian slammed the officer's head into the concrete curb","getBack","headSlam","civilianOfficer","appropriateOff","50","","","",""
"90",7955,"{""Q0"":1}","[object Object]","survey-likert",89,1065860,"0.0-89.0","uydbsj3dhe3ojpufdxt0rd6u68998j9d","Wed Jan 18 2017 16:14:27 GMT-0500 (EST)","female","White","slightly conservative","",NA,"","offCivRatings","the officer yelled ""get back!"" at the civilian","the civilian slammed the officer's head into the concrete curb","getBack","headSlam","civilianOfficer","forceOff","1","","","",""
"91",4908,"{""Q0"":100}","[object Object]","survey-likert",90,1070776,"0.0-90.0","uydbsj3dhe3ojpufdxt0rd6u68998j9d","Wed Jan 18 2017 16:14:27 GMT-0500 (EST)","female","White","slightly conservative","",NA,"","offCivRatings","the officer yelled ""get back!"" at the civilian","the civilian slammed the officer's head into the concrete curb","getBack","headSlam","civilianOfficer","acceptableOff","100","","","",""
"92",1204,"","","instructions",91,1071980,"0.0-91.0","uydbsj3dhe3ojpufdxt0rd6u68998j9d","Wed Jan 18 2017 16:14:27 GMT-0500 (EST)","female","White","slightly conservative","",NA,"[{""page_index"":0,""viewing_time"":1204}]","break","","","","","","","","","","",""
"93",8369,"{""Q0"":1}","[object Object]","survey-likert",92,1080558,"0.0-92.0","uydbsj3dhe3ojpufdxt0rd6u68998j9d","Wed Jan 18 2017 16:14:27 GMT-0500 (EST)","female","White","slightly conservative","",NA,"","offCivRatings","the officer headbutted the civilian in the face","the civilian yelled ""get back!"" at the officer","headbutt","getBack","officerCivilian","forceCiv","1","","","",""
"94",16891,"{""Q0"":100}","[object Object]","survey-likert",93,1097457,"0.0-93.0","uydbsj3dhe3ojpufdxt0rd6u68998j9d","Wed Jan 18 2017 16:14:27 GMT-0500 (EST)","female","White","slightly conservative","",NA,"","offCivRatings","the officer headbutted the civilian in the face","the civilian yelled ""get back!"" at the officer","headbutt","getBack","officerCivilian","acceptableCiv","100","","","",""
"95",8781,"{""Q0"":1}","[object Object]","survey-likert",94,1106247,"0.0-94.0","uydbsj3dhe3ojpufdxt0rd6u68998j9d","Wed Jan 18 2017 16:14:27 GMT-0500 (EST)","female","White","slightly conservative","",NA,"","offCivRatings","the officer headbutted the civilian in the face","the civilian yelled ""get back!"" at the officer","headbutt","getBack","officerCivilian","punishCiv","1","","","",""
"96",5583,"{""Q0"":51}","[object Object]","survey-likert",95,1111839,"0.0-95.0","uydbsj3dhe3ojpufdxt0rd6u68998j9d","Wed Jan 18 2017 16:14:27 GMT-0500 (EST)","female","White","slightly conservative","",NA,"","offCivRatings","the officer headbutted the civilian in the face","the civilian yelled ""get back!"" at the officer","headbutt","getBack","officerCivilian","appropriateCiv","51","","","",""
"97",1544,"","","instructions",96,1113383,"0.0-96.0","uydbsj3dhe3ojpufdxt0rd6u68998j9d","Wed Jan 18 2017 16:14:27 GMT-0500 (EST)","female","White","slightly conservative","",NA,"[{""page_index"":0,""viewing_time"":1544}]","break","","","","","","","","","","",""
"98",10870,"{""Q0"":100}","[object Object]","survey-likert",97,1124462,"0.0-97.0","uydbsj3dhe3ojpufdxt0rd6u68998j9d","Wed Jan 18 2017 16:14:27 GMT-0500 (EST)","female","White","slightly conservative","",NA,"","offCivRatings","the officer punched the civilian in the face","the civilian shot the officer in the head with a handgun","punchFace","handgunHead","officerCivilian","forceCiv","100","","","",""
"99",5347,"{""Q0"":1}","[object Object]","survey-likert",98,1129816,"0.0-98.0","uydbsj3dhe3ojpufdxt0rd6u68998j9d","Wed Jan 18 2017 16:14:27 GMT-0500 (EST)","female","White","slightly conservative","",NA,"","offCivRatings","the officer punched the civilian in the face","the civilian shot the officer in the head with a handgun","punchFace","handgunHead","officerCivilian","acceptableCiv","1","","","",""
"100",14245,"{""Q0"":100}","[object Object]","survey-likert",99,1144069,"0.0-99.0","uydbsj3dhe3ojpufdxt0rd6u68998j9d","Wed Jan 18 2017 16:14:27 GMT-0500 (EST)","female","White","slightly conservative","",NA,"","offCivRatings","the officer punched the civilian in the face","the civilian shot the officer in the head with a handgun","punchFace","handgunHead","officerCivilian","appropriateCiv","100","","","",""
"101",18812,"{""Q0"":97}","[object Object]","survey-likert",100,1162886,"0.0-100.0","uydbsj3dhe3ojpufdxt0rd6u68998j9d","Wed Jan 18 2017 16:14:27 GMT-0500 (EST)","female","White","slightly conservative","",NA,"","offCivRatings","the officer punched the civilian in the face","the civilian shot the officer in the head with a handgun","punchFace","handgunHead","officerCivilian","punishCiv","97","","","",""
"102",1301,"","","instructions",101,1164187,"0.0-101.0","uydbsj3dhe3ojpufdxt0rd6u68998j9d","Wed Jan 18 2017 16:14:27 GMT-0500 (EST)","female","White","slightly conservative","",NA,"[{""page_index"":0,""viewing_time"":1301}]","break","","","","","","","","","","",""
"103",9011,"{""Q0"":100}","[object Object]","survey-likert",102,1173409,"0.0-102.0","uydbsj3dhe3ojpufdxt0rd6u68998j9d","Wed Jan 18 2017 16:14:27 GMT-0500 (EST)","female","White","slightly conservative","",NA,"","offCivRatings","the officer shocked the civilian with a tazer","the civilian punched the officer in the face","tazer","punchFace","officerCivilian","manipCheckHigh","100","","","",""
"104",6865,"{""Q0"":70}","[object Object]","survey-likert",103,1180284,"0.0-103.0","uydbsj3dhe3ojpufdxt0rd6u68998j9d","Wed Jan 18 2017 16:14:27 GMT-0500 (EST)","female","White","slightly conservative","",NA,"","offCivRatings","the officer shocked the civilian with a tazer","the civilian punched the officer in the face","tazer","punchFace","officerCivilian","punishCiv","70","","","",""
"105",9553,"{""Q0"":31}","[object Object]","survey-likert",104,1189845,"0.0-104.0","uydbsj3dhe3ojpufdxt0rd6u68998j9d","Wed Jan 18 2017 16:14:27 GMT-0500 (EST)","female","White","slightly conservative","",NA,"","offCivRatings","the officer shocked the civilian with a tazer","the civilian punched the officer in the face","tazer","punchFace","officerCivilian","acceptableCiv","31","","","",""
"106",7751,"{""Q0"":69}","[object Object]","survey-likert",105,1197604,"0.0-105.0","uydbsj3dhe3ojpufdxt0rd6u68998j9d","Wed Jan 18 2017 16:14:27 GMT-0500 (EST)","female","White","slightly conservative","",NA,"","offCivRatings","the officer shocked the civilian with a tazer","the civilian punched the officer in the face","tazer","punchFace","officerCivilian","appropriateCiv","69","","","",""
"107",28379,"{""Q0"":72}","[object Object]","survey-likert",106,1225991,"0.0-106.0","uydbsj3dhe3ojpufdxt0rd6u68998j9d","Wed Jan 18 2017 16:14:27 GMT-0500 (EST)","female","White","slightly conservative","",NA,"","offCivRatings","the officer shocked the civilian with a tazer","the civilian punched the officer in the face","tazer","punchFace","officerCivilian","forceCiv","72","","","",""
"108",1316,"","","instructions",107,1227307,"0.0-107.0","uydbsj3dhe3ojpufdxt0rd6u68998j9d","Wed Jan 18 2017 16:14:27 GMT-0500 (EST)","female","White","slightly conservative","",NA,"[{""page_index"":0,""viewing_time"":1315}]","break","","","","","","","","","","",""
"109",27685,"{""Q0"":79}","[object Object]","survey-likert",108,1255203,"0.0-108.0","uydbsj3dhe3ojpufdxt0rd6u68998j9d","Wed Jan 18 2017 16:14:27 GMT-0500 (EST)","female","White","slightly conservative","",NA,"","offCivRatings","the officer shouted ""get your fucking hands up!"" at the civilian","the civilian hit the officer in the chest with a baseball bat","handsUp","ballBat","civilianOfficer","acceptableOff","79","","","",""
"110",10045,"{""Q0"":50}","[object Object]","survey-likert",109,1265255,"0.0-109.0","uydbsj3dhe3ojpufdxt0rd6u68998j9d","Wed Jan 18 2017 16:14:27 GMT-0500 (EST)","female","White","slightly conservative","",NA,"","offCivRatings","the officer shouted ""get your fucking hands up!"" at the civilian","the civilian hit the officer in the chest with a baseball bat","handsUp","ballBat","civilianOfficer","appropriateOff","50","","","",""
"111",6816,"{""Q0"":1}","[object Object]","survey-likert",110,1272078,"0.0-110.0","uydbsj3dhe3ojpufdxt0rd6u68998j9d","Wed Jan 18 2017 16:14:27 GMT-0500 (EST)","female","White","slightly conservative","",NA,"","offCivRatings","the officer shouted ""get your fucking hands up!"" at the civilian","the civilian hit the officer in the chest with a baseball bat","handsUp","ballBat","civilianOfficer","punishOff","1","","","",""
"112",10761,"{""Q0"":1}","[object Object]","survey-likert",111,1282846,"0.0-111.0","uydbsj3dhe3ojpufdxt0rd6u68998j9d","Wed Jan 18 2017 16:14:27 GMT-0500 (EST)","female","White","slightly conservative","",NA,"","offCivRatings","the officer shouted ""get your fucking hands up!"" at the civilian","the civilian hit the officer in the chest with a baseball bat","handsUp","ballBat","civilianOfficer","forceOff","1","","","",""
"113",1300,"","","instructions",112,1284146,"0.0-112.0","uydbsj3dhe3ojpufdxt0rd6u68998j9d","Wed Jan 18 2017 16:14:27 GMT-0500 (EST)","female","White","slightly conservative","",NA,"[{""page_index"":0,""viewing_time"":1300}]","break","","","","","","","","","","",""
"114",12051,"{""Q0"":89}","[object Object]","survey-likert",113,1296409,"0.0-113.0","uydbsj3dhe3ojpufdxt0rd6u68998j9d","Wed Jan 18 2017 16:14:27 GMT-0500 (EST)","female","White","slightly conservative","",NA,"","offCivRatings","the officer kicked the civilian in the stomach","the civilian pulled away from the officer","kickStom","pulledAway","civilianOfficer","appropriateOff","89","","","",""
"115",7642,"{""Q0"":86}","[object Object]","survey-likert",114,1304058,"0.0-114.0","uydbsj3dhe3ojpufdxt0rd6u68998j9d","Wed Jan 18 2017 16:14:27 GMT-0500 (EST)","female","White","slightly conservative","",NA,"","offCivRatings","the officer kicked the civilian in the stomach","the civilian pulled away from the officer","kickStom","pulledAway","civilianOfficer","punishOff","86","","","",""
"116",9854,"{""Q0"":83}","[object Object]","survey-likert",115,1313919,"0.0-115.0","uydbsj3dhe3ojpufdxt0rd6u68998j9d","Wed Jan 18 2017 16:14:27 GMT-0500 (EST)","female","White","slightly conservative","",NA,"","offCivRatings","the officer kicked the civilian in the stomach","the civilian pulled away from the officer","kickStom","pulledAway","civilianOfficer","forceOff","83","","","",""
"117",4163,"{""Q0"":1}","[object Object]","survey-likert",116,1318090,"0.0-116.0","uydbsj3dhe3ojpufdxt0rd6u68998j9d","Wed Jan 18 2017 16:14:27 GMT-0500 (EST)","female","White","slightly conservative","",NA,"","offCivRatings","the officer kicked the civilian in the stomach","the civilian pulled away from the officer","kickStom","pulledAway","civilianOfficer","acceptableOff","1","","","",""
"118",1325,"","","instructions",117,1319415,"0.0-117.0","uydbsj3dhe3ojpufdxt0rd6u68998j9d","Wed Jan 18 2017 16:14:27 GMT-0500 (EST)","female","White","slightly conservative","",NA,"[{""page_index"":0,""viewing_time"":1324}]","break","","","","","","","","","","",""
"119",23652,"{""Q0"":73}","[object Object]","survey-likert",118,1343276,"0.0-118.0","uydbsj3dhe3ojpufdxt0rd6u68998j9d","Wed Jan 18 2017 16:14:27 GMT-0500 (EST)","female","White","slightly conservative","",NA,"","offCivRatings","the officer asked the civilian how he was doing","the civilian called the officer a ""pig""","asked","nameCall","officerCivilian","appropriateCiv","73","","","",""
"120",9432,"{""Q0"":20}","[object Object]","survey-likert",119,1352716,"0.0-119.0","uydbsj3dhe3ojpufdxt0rd6u68998j9d","Wed Jan 18 2017 16:14:27 GMT-0500 (EST)","female","White","slightly conservative","",NA,"","offCivRatings","the officer asked the civilian how he was doing","the civilian called the officer a ""pig""","asked","nameCall","officerCivilian","punishCiv","20","","","",""
"121",4577,"{""Q0"":1}","[object Object]","survey-likert",120,1357300,"0.0-120.0","uydbsj3dhe3ojpufdxt0rd6u68998j9d","Wed Jan 18 2017 16:14:27 GMT-0500 (EST)","female","White","slightly conservative","",NA,"","offCivRatings","the officer asked the civilian how he was doing","the civilian called the officer a ""pig""","asked","nameCall","officerCivilian","manipCheckLow","1","","","",""
"122",25327,"{""Q0"":10}","[object Object]","survey-likert",121,1382636,"0.0-121.0","uydbsj3dhe3ojpufdxt0rd6u68998j9d","Wed Jan 18 2017 16:14:27 GMT-0500 (EST)","female","White","slightly conservative","",NA,"","offCivRatings","the officer asked the civilian how he was doing","the civilian called the officer a ""pig""","asked","nameCall","officerCivilian","forceCiv","10","","","",""
"123",8258,"{""Q0"":8}","[object Object]","survey-likert",122,1390901,"0.0-122.0","uydbsj3dhe3ojpufdxt0rd6u68998j9d","Wed Jan 18 2017 16:14:27 GMT-0500 (EST)","female","White","slightly conservative","",NA,"","offCivRatings","the officer asked the civilian how he was doing","the civilian called the officer a ""pig""","asked","nameCall","officerCivilian","acceptableCiv","8","","","",""
"124",1430,"","","instructions",123,1392331,"0.0-123.0","uydbsj3dhe3ojpufdxt0rd6u68998j9d","Wed Jan 18 2017 16:14:27 GMT-0500 (EST)","female","White","slightly conservative","",NA,"[{""page_index"":0,""viewing_time"":1430}]","break","","","","","","","","","","",""
"125",10956,"{""Q0"":90}","[object Object]","survey-likert",124,1403496,"0.0-124.0","uydbsj3dhe3ojpufdxt0rd6u68998j9d","Wed Jan 18 2017 16:14:27 GMT-0500 (EST)","female","White","slightly conservative","",NA,"","policeLegitimacy","","","","","","","90","communityWants","normAlignment","",""
"126",4419,"{""Q0"":90}","[object Object]","survey-likert",125,1407923,"0.0-125.0","uydbsj3dhe3ojpufdxt0rd6u68998j9d","Wed Jan 18 2017 16:14:27 GMT-0500 (EST)","female","White","slightly conservative","",NA,"","policeLegitimacy","","","","","","","90","importantValues","normAlignment","",""
"127",16357,"{""Q0"":25}","[object Object]","survey-likert",126,1424287,"0.0-126.0","uydbsj3dhe3ojpufdxt0rd6u68998j9d","Wed Jan 18 2017 16:14:27 GMT-0500 (EST)","female","White","slightly conservative","",NA,"","policeLegitimacy","","","","","","","25","support","feltObligation","",""
"128",10870,"{""Q0"":41}","[object Object]","survey-likert",127,1435163,"0.0-127.0","uydbsj3dhe3ojpufdxt0rd6u68998j9d","Wed Jan 18 2017 16:14:27 GMT-0500 (EST)","female","White","slightly conservative","",NA,"","policeLegitimacy","","","","","","","41","doReasons","feltObligation","",""
"129",8732,"{""Q0"":70}","[object Object]","survey-likert",128,1443900,"0.0-128.0","uydbsj3dhe3ojpufdxt0rd6u68998j9d","Wed Jan 18 2017 16:14:27 GMT-0500 (EST)","female","White","slightly conservative","",NA,"","policeLegitimacy","","","","","","","70","rightWrong","normAlignment","",""
"130",6030,"{""Q0"":78}","[object Object]","survey-likert",129,1449936,"0.0-129.0","uydbsj3dhe3ojpufdxt0rd6u68998j9d","Wed Jan 18 2017 16:14:27 GMT-0500 (EST)","female","White","slightly conservative","",NA,"","policeLegitimacy","","","","","","","78","doTreat","feltObligation","",""
"131",6470,"{""Q0"":""no""}","[object Object]","survey-multi-choice2",130,1456413,"0.0-130.0","uydbsj3dhe3ojpufdxt0rd6u68998j9d","Wed Jan 18 2017 16:14:27 GMT-0500 (EST)","female","White","slightly conservative","",NA,"","policeExperience","","","","","","","no","excessForce","","personal","Have the police ever used excessive force against you?"
"132",4121,"{""Q0"":""no""}","[object Object]","survey-multi-choice2",131,1460537,"0.0-131.0","uydbsj3dhe3ojpufdxt0rd6u68998j9d","Wed Jan 18 2017 16:14:27 GMT-0500 (EST)","female","White","slightly conservative","",NA,"","policeExperience","","","","","","","no","stopped","","personal","Have you ever been stopped by the police on the street without good reason?"
"133",3583,"{""Q0"":""no""}","[object Object]","survey-multi-choice2",132,1464123,"0.0-132.0","uydbsj3dhe3ojpufdxt0rd6u68998j9d","Wed Jan 18 2017 16:14:27 GMT-0500 (EST)","female","White","slightly conservative","",NA,"","policeExperience","","","","","","","no","excessForce","","vicarious","Have the police ever used excessive force against anyone in your household?"
"134",4278,"{""Q0"":""no""}","[object Object]","survey-multi-choice2",133,1468403,"0.0-133.0","uydbsj3dhe3ojpufdxt0rd6u68998j9d","Wed Jan 18 2017 16:14:27 GMT-0500 (EST)","female","White","slightly conservative","",NA,"","policeExperience","","","","","","","no","stopped","","vicarious","Has anyone in your household ever been stopped on the street by the police without good reason?"
"135",3189,"{""Q0"":""no""}","[object Object]","survey-multi-choice2",134,1471594,"0.0-134.0","uydbsj3dhe3ojpufdxt0rd6u68998j9d","Wed Jan 18 2017 16:14:27 GMT-0500 (EST)","female","White","slightly conservative","",NA,"","policeExperience","","","","","","","no","insultLang","","personal","Have the police ever used insulting language toward you?"
"136",5203,"{""Q0"":""no""}","[object Object]","survey-multi-choice2",135,1476802,"0.0-135.0","uydbsj3dhe3ojpufdxt0rd6u68998j9d","Wed Jan 18 2017 16:14:27 GMT-0500 (EST)","female","White","slightly conservative","",NA,"","policeExperience","","","","","","","no","corrupt","","personal","Have you ever seen a police officer engage in any corrupt activities (e.g., taking bribes or involvement in the drug trade)?"
"137",4643,"{""Q0"":""no""}","[object Object]","survey-multi-choice2",136,1481448,"0.0-136.0","uydbsj3dhe3ojpufdxt0rd6u68998j9d","Wed Jan 18 2017 16:14:27 GMT-0500 (EST)","female","White","slightly conservative","",NA,"","policeExperience","","","","","","","no","insultLang","","vicarious","Have the police ever used insulting language toward anyone in your household?"
"138",13325,"{""Q0"":""female"",""Q1"":""White"",""Q2"":""slightly conservative""}","[object Object]","survey-multi-choice",137,1494783,"0.0-137.0","uydbsj3dhe3ojpufdxt0rd6u68998j9d","Wed Jan 18 2017 16:14:27 GMT-0500 (EST)","female","White","slightly conservative","",NA,"","demographics","","","","","","","","","","",""
"139",22742,"","","instructions",138,1518528,"0.0-138.0","uydbsj3dhe3ojpufdxt0rd6u68998j9d","Wed Jan 18 2017 16:14:27 GMT-0500 (EST)","female","White","slightly conservative","",NA,"[{""page_index"":0,""viewing_time"":2313},{""page_index"":1,""viewing_time"":11117},{""page_index"":2,""viewing_time"":6595},{""page_index"":3,""viewing_time"":2716}]","debriefing","","","","","","","","","","",""
