"","rt","responses","internalResp","trial_type","trial_index","time_elapsed","internal_node_id","randSubjectID","date","sex","race","polAff","stimulus","key_press","view_history","questionType","officerAction","civilianAction","offActName","civActName","order","questionName","response","name","dimension","person","question"
"1",3865,"","[object Object]","survey-text",0,3869,"0.0-0.0","v3jgyhs578wk8s5bmw7bfad46x8xc0et","Thu Feb 09 2017 13:18:29 GMT-0500 (EST)","female","White","moderate/middle of the road","",NA,"","","","","","","","","","","","",""
"2",5353,"","","single-stim",1,10227,"0.0-1.0","v3jgyhs578wk8s5bmw7bfad46x8xc0et","Thu Feb 09 2017 13:18:29 GMT-0500 (EST)","female","White","moderate/middle of the road","<img src='static/images/1602685960_ICS_Credit-0.png' alt='Consent 1' height=1100 width=850><img src='static/images/1602685960_ICS_Credit-1.png' alt='Consent 2' height=1100 width=850></p>",89,"","","","","","","","","","","","",""
"3",7238,"","","instructions",2,18467,"0.0-2.0","v3jgyhs578wk8s5bmw7bfad46x8xc0et","Thu Feb 09 2017 13:18:29 GMT-0500 (EST)","female","White","moderate/middle of the road","",NA,"[{""page_index"":0,""viewing_time"":7238}]","instructions","","","","","","","","","","",""
"4",31102,"","","instructions",3,50572,"0.0-3.0","v3jgyhs578wk8s5bmw7bfad46x8xc0et","Thu Feb 09 2017 13:18:29 GMT-0500 (EST)","female","White","moderate/middle of the road","",NA,"[{""page_index"":0,""viewing_time"":9547},{""page_index"":1,""viewing_time"":4096},{""page_index"":2,""viewing_time"":9864},{""page_index"":3,""viewing_time"":7594}]","instructions","","","","","","","","","","",""
"5",760645,"{""Q0"":83}","[object Object]","survey-likert",4,812242,"0.0-4.0","v3jgyhs578wk8s5bmw7bfad46x8xc0et","Thu Feb 09 2017 13:18:29 GMT-0500 (EST)","female","White","moderate/middle of the road","",NA,"","offCivRatings","the officer put handcuffs on the civilian","the civilian called the officer a ""pig""","handcuff","nameCall","civilianOfficer","acceptableOff","83","","","",""
"6",15315,"{""Q0"":50}","[object Object]","survey-likert",5,827564,"0.0-5.0","v3jgyhs578wk8s5bmw7bfad46x8xc0et","Thu Feb 09 2017 13:18:29 GMT-0500 (EST)","female","White","moderate/middle of the road","",NA,"","offCivRatings","the officer put handcuffs on the civilian","the civilian called the officer a ""pig""","handcuff","nameCall","civilianOfficer","appropriateOff","50","","","",""
"7",4530,"{""Q0"":1}","[object Object]","survey-likert",6,832100,"0.0-6.0","v3jgyhs578wk8s5bmw7bfad46x8xc0et","Thu Feb 09 2017 13:18:29 GMT-0500 (EST)","female","White","moderate/middle of the road","",NA,"","offCivRatings","the officer put handcuffs on the civilian","the civilian called the officer a ""pig""","handcuff","nameCall","civilianOfficer","punishOff","1","","","",""
"8",6806,"{""Q0"":32}","[object Object]","survey-likert",7,838912,"0.0-7.0","v3jgyhs578wk8s5bmw7bfad46x8xc0et","Thu Feb 09 2017 13:18:29 GMT-0500 (EST)","female","White","moderate/middle of the road","",NA,"","offCivRatings","the officer put handcuffs on the civilian","the civilian called the officer a ""pig""","handcuff","nameCall","civilianOfficer","forceOff","32","","","",""
"9",945,"","","instructions",8,839857,"0.0-8.0","v3jgyhs578wk8s5bmw7bfad46x8xc0et","Thu Feb 09 2017 13:18:29 GMT-0500 (EST)","female","White","moderate/middle of the road","",NA,"[{""page_index"":0,""viewing_time"":945}]","break","","","","","","","","","","",""
"10",16436,"{""Q0"":72}","[object Object]","survey-likert",9,856503,"0.0-9.0","v3jgyhs578wk8s5bmw7bfad46x8xc0et","Thu Feb 09 2017 13:18:29 GMT-0500 (EST)","female","White","moderate/middle of the road","",NA,"","offCivRatings","the officer yelled ""get back!"" at the civilian","the civilian said ""if you touch me, you're gonna get hurt"" to the officer","getBack","hurtThreat","civilianOfficer","acceptableOff","72","","","",""
"11",3282,"{""Q0"":1}","[object Object]","survey-likert",10,859791,"0.0-10.0","v3jgyhs578wk8s5bmw7bfad46x8xc0et","Thu Feb 09 2017 13:18:29 GMT-0500 (EST)","female","White","moderate/middle of the road","",NA,"","offCivRatings","the officer yelled ""get back!"" at the civilian","the civilian said ""if you touch me, you're gonna get hurt"" to the officer","getBack","hurtThreat","civilianOfficer","forceOff","1","","","",""
"12",2855,"{""Q0"":1}","[object Object]","survey-likert",11,862651,"0.0-11.0","v3jgyhs578wk8s5bmw7bfad46x8xc0et","Thu Feb 09 2017 13:18:29 GMT-0500 (EST)","female","White","moderate/middle of the road","",NA,"","offCivRatings","the officer yelled ""get back!"" at the civilian","the civilian said ""if you touch me, you're gonna get hurt"" to the officer","getBack","hurtThreat","civilianOfficer","punishOff","1","","","",""
"13",5897,"{""Q0"":49}","[object Object]","survey-likert",12,868553,"0.0-12.0","v3jgyhs578wk8s5bmw7bfad46x8xc0et","Thu Feb 09 2017 13:18:29 GMT-0500 (EST)","female","White","moderate/middle of the road","",NA,"","offCivRatings","the officer yelled ""get back!"" at the civilian","the civilian said ""if you touch me, you're gonna get hurt"" to the officer","getBack","hurtThreat","civilianOfficer","appropriateOff","49","","","",""
"14",881,"","","instructions",13,869434,"0.0-13.0","v3jgyhs578wk8s5bmw7bfad46x8xc0et","Thu Feb 09 2017 13:18:29 GMT-0500 (EST)","female","White","moderate/middle of the road","",NA,"[{""page_index"":0,""viewing_time"":880}]","break","","","","","","","","","","",""
"15",14915,"{""Q0"":1}","[object Object]","survey-likert",14,884560,"0.0-14.0","v3jgyhs578wk8s5bmw7bfad46x8xc0et","Thu Feb 09 2017 13:18:29 GMT-0500 (EST)","female","White","moderate/middle of the road","",NA,"","offCivRatings","the officer shot the civilian in the head with a handgun","the civilian hit the officer in the chest with a baseball bat","handgunHead","ballBat","officerCivilian","punishCiv","1","","","",""
"16",5747,"{""Q0"":86}","[object Object]","survey-likert",15,890313,"0.0-15.0","v3jgyhs578wk8s5bmw7bfad46x8xc0et","Thu Feb 09 2017 13:18:29 GMT-0500 (EST)","female","White","moderate/middle of the road","",NA,"","offCivRatings","the officer shot the civilian in the head with a handgun","the civilian hit the officer in the chest with a baseball bat","handgunHead","ballBat","officerCivilian","acceptableCiv","86","","","",""
"17",6782,"{""Q0"":1}","[object Object]","survey-likert",16,897100,"0.0-16.0","v3jgyhs578wk8s5bmw7bfad46x8xc0et","Thu Feb 09 2017 13:18:29 GMT-0500 (EST)","female","White","moderate/middle of the road","",NA,"","offCivRatings","the officer shot the civilian in the head with a handgun","the civilian hit the officer in the chest with a baseball bat","handgunHead","ballBat","officerCivilian","manipCheckLow","1","","","",""
"18",12785,"{""Q0"":50}","[object Object]","survey-likert",17,909891,"0.0-17.0","v3jgyhs578wk8s5bmw7bfad46x8xc0et","Thu Feb 09 2017 13:18:29 GMT-0500 (EST)","female","White","moderate/middle of the road","",NA,"","offCivRatings","the officer shot the civilian in the head with a handgun","the civilian hit the officer in the chest with a baseball bat","handgunHead","ballBat","officerCivilian","appropriateCiv","50","","","",""
"19",6905,"{""Q0"":76}","[object Object]","survey-likert",18,916803,"0.0-18.0","v3jgyhs578wk8s5bmw7bfad46x8xc0et","Thu Feb 09 2017 13:18:29 GMT-0500 (EST)","female","White","moderate/middle of the road","",NA,"","offCivRatings","the officer shot the civilian in the head with a handgun","the civilian hit the officer in the chest with a baseball bat","handgunHead","ballBat","officerCivilian","forceCiv","76","","","",""
"20",1548,"","","instructions",19,918351,"0.0-19.0","v3jgyhs578wk8s5bmw7bfad46x8xc0et","Thu Feb 09 2017 13:18:29 GMT-0500 (EST)","female","White","moderate/middle of the road","",NA,"[{""page_index"":0,""viewing_time"":1548}]","break","","","","","","","","","","",""
"21",23837,"{""Q0"":73}","[object Object]","survey-likert",20,942396,"0.0-20.0","v3jgyhs578wk8s5bmw7bfad46x8xc0et","Thu Feb 09 2017 13:18:29 GMT-0500 (EST)","female","White","moderate/middle of the road","",NA,"","offCivRatings","the officer struck the civilian in the stomach with a metal flashlight","the civilian sprayed the officer with pepper spray","flashlight","pepperSpray","civilianOfficer","appropriateOff","73","","","",""
"22",21556,"{""Q0"":77}","[object Object]","survey-likert",21,963956,"0.0-21.0","v3jgyhs578wk8s5bmw7bfad46x8xc0et","Thu Feb 09 2017 13:18:29 GMT-0500 (EST)","female","White","moderate/middle of the road","",NA,"","offCivRatings","the officer struck the civilian in the stomach with a metal flashlight","the civilian sprayed the officer with pepper spray","flashlight","pepperSpray","civilianOfficer","forceOff","77","","","",""
"23",3692,"{""Q0"":30}","[object Object]","survey-likert",22,967652,"0.0-22.0","v3jgyhs578wk8s5bmw7bfad46x8xc0et","Thu Feb 09 2017 13:18:29 GMT-0500 (EST)","female","White","moderate/middle of the road","",NA,"","offCivRatings","the officer struck the civilian in the stomach with a metal flashlight","the civilian sprayed the officer with pepper spray","flashlight","pepperSpray","civilianOfficer","acceptableOff","30","","","",""
"24",3668,"{""Q0"":1}","[object Object]","survey-likert",23,971325,"0.0-23.0","v3jgyhs578wk8s5bmw7bfad46x8xc0et","Thu Feb 09 2017 13:18:29 GMT-0500 (EST)","female","White","moderate/middle of the road","",NA,"","offCivRatings","the officer struck the civilian in the stomach with a metal flashlight","the civilian sprayed the officer with pepper spray","flashlight","pepperSpray","civilianOfficer","manipCheckLow","1","","","",""
"25",5876,"{""Q0"":14}","[object Object]","survey-likert",24,977206,"0.0-24.0","v3jgyhs578wk8s5bmw7bfad46x8xc0et","Thu Feb 09 2017 13:18:29 GMT-0500 (EST)","female","White","moderate/middle of the road","",NA,"","offCivRatings","the officer struck the civilian in the stomach with a metal flashlight","the civilian sprayed the officer with pepper spray","flashlight","pepperSpray","civilianOfficer","punishOff","14","","","",""
"26",990,"","","instructions",25,978196,"0.0-25.0","v3jgyhs578wk8s5bmw7bfad46x8xc0et","Thu Feb 09 2017 13:18:29 GMT-0500 (EST)","female","White","moderate/middle of the road","",NA,"[{""page_index"":0,""viewing_time"":990}]","break","","","","","","","","","","",""
"27",6613,"{""Q0"":50}","[object Object]","survey-likert",26,985017,"0.0-26.0","v3jgyhs578wk8s5bmw7bfad46x8xc0et","Thu Feb 09 2017 13:18:29 GMT-0500 (EST)","female","White","moderate/middle of the road","",NA,"","offCivRatings","the officer sprayed the civilian with pepper spray","the civilian applied a chokehold to the officer","pepperSpray","choke","civilianOfficer","appropriateOff","50","","","",""
"28",2536,"{""Q0"":96}","[object Object]","survey-likert",27,987558,"0.0-27.0","v3jgyhs578wk8s5bmw7bfad46x8xc0et","Thu Feb 09 2017 13:18:29 GMT-0500 (EST)","female","White","moderate/middle of the road","",NA,"","offCivRatings","the officer sprayed the civilian with pepper spray","the civilian applied a chokehold to the officer","pepperSpray","choke","civilianOfficer","acceptableOff","96","","","",""
"29",2418,"{""Q0"":1}","[object Object]","survey-likert",28,989980,"0.0-28.0","v3jgyhs578wk8s5bmw7bfad46x8xc0et","Thu Feb 09 2017 13:18:29 GMT-0500 (EST)","female","White","moderate/middle of the road","",NA,"","offCivRatings","the officer sprayed the civilian with pepper spray","the civilian applied a chokehold to the officer","pepperSpray","choke","civilianOfficer","manipCheckLow","1","","","",""
"30",6871,"{""Q0"":63}","[object Object]","survey-likert",29,996856,"0.0-29.0","v3jgyhs578wk8s5bmw7bfad46x8xc0et","Thu Feb 09 2017 13:18:29 GMT-0500 (EST)","female","White","moderate/middle of the road","",NA,"","offCivRatings","the officer sprayed the civilian with pepper spray","the civilian applied a chokehold to the officer","pepperSpray","choke","civilianOfficer","forceOff","63","","","",""
"31",2447,"{""Q0"":1}","[object Object]","survey-likert",30,999308,"0.0-30.0","v3jgyhs578wk8s5bmw7bfad46x8xc0et","Thu Feb 09 2017 13:18:29 GMT-0500 (EST)","female","White","moderate/middle of the road","",NA,"","offCivRatings","the officer sprayed the civilian with pepper spray","the civilian applied a chokehold to the officer","pepperSpray","choke","civilianOfficer","punishOff","1","","","",""
"32",949,"","","instructions",31,1000257,"0.0-31.0","v3jgyhs578wk8s5bmw7bfad46x8xc0et","Thu Feb 09 2017 13:18:29 GMT-0500 (EST)","female","White","moderate/middle of the road","",NA,"[{""page_index"":0,""viewing_time"":949}]","break","","","","","","","","","","",""
"33",9027,"{""Q0"":68}","[object Object]","survey-likert",32,1009496,"0.0-32.0","v3jgyhs578wk8s5bmw7bfad46x8xc0et","Thu Feb 09 2017 13:18:29 GMT-0500 (EST)","female","White","moderate/middle of the road","",NA,"","offCivRatings","the officer kicked the civilian in the stomach","the civilian headbutted the officer in the face","kickStom","headbutt","officerCivilian","appropriateCiv","68","","","",""
"34",4272,"{""Q0"":79}","[object Object]","survey-likert",33,1013773,"0.0-33.0","v3jgyhs578wk8s5bmw7bfad46x8xc0et","Thu Feb 09 2017 13:18:29 GMT-0500 (EST)","female","White","moderate/middle of the road","",NA,"","offCivRatings","the officer kicked the civilian in the stomach","the civilian headbutted the officer in the face","kickStom","headbutt","officerCivilian","forceCiv","79","","","",""
"35",3729,"{""Q0"":17}","[object Object]","survey-likert",34,1017506,"0.0-34.0","v3jgyhs578wk8s5bmw7bfad46x8xc0et","Thu Feb 09 2017 13:18:29 GMT-0500 (EST)","female","White","moderate/middle of the road","",NA,"","offCivRatings","the officer kicked the civilian in the stomach","the civilian headbutted the officer in the face","kickStom","headbutt","officerCivilian","punishCiv","17","","","",""
"36",8806,"{""Q0"":35}","[object Object]","survey-likert",35,1026316,"0.0-35.0","v3jgyhs578wk8s5bmw7bfad46x8xc0et","Thu Feb 09 2017 13:18:29 GMT-0500 (EST)","female","White","moderate/middle of the road","",NA,"","offCivRatings","the officer kicked the civilian in the stomach","the civilian headbutted the officer in the face","kickStom","headbutt","officerCivilian","acceptableCiv","35","","","",""
"37",67584,"","","instructions",36,1093900,"0.0-36.0","v3jgyhs578wk8s5bmw7bfad46x8xc0et","Thu Feb 09 2017 13:18:29 GMT-0500 (EST)","female","White","moderate/middle of the road","",NA,"[{""page_index"":0,""viewing_time"":67584}]","break","","","","","","","","","","",""
"38",7072,"{""Q0"":14}","[object Object]","survey-likert",37,1101180,"0.0-37.0","v3jgyhs578wk8s5bmw7bfad46x8xc0et","Thu Feb 09 2017 13:18:29 GMT-0500 (EST)","female","White","moderate/middle of the road","",NA,"","offCivRatings","the officer shocked the civilian with a tazer","the civilian shot the officer in the head with a handgun","tazer","handgunHead","officerCivilian","acceptableCiv","14","","","",""
"39",3969,"{""Q0"":87}","[object Object]","survey-likert",38,1105153,"0.0-38.0","v3jgyhs578wk8s5bmw7bfad46x8xc0et","Thu Feb 09 2017 13:18:29 GMT-0500 (EST)","female","White","moderate/middle of the road","",NA,"","offCivRatings","the officer shocked the civilian with a tazer","the civilian shot the officer in the head with a handgun","tazer","handgunHead","officerCivilian","appropriateCiv","87","","","",""
"40",3367,"{""Q0"":100}","[object Object]","survey-likert",39,1108525,"0.0-39.0","v3jgyhs578wk8s5bmw7bfad46x8xc0et","Thu Feb 09 2017 13:18:29 GMT-0500 (EST)","female","White","moderate/middle of the road","",NA,"","offCivRatings","the officer shocked the civilian with a tazer","the civilian shot the officer in the head with a handgun","tazer","handgunHead","officerCivilian","forceCiv","100","","","",""
"41",6529,"{""Q0"":51}","[object Object]","survey-likert",40,1115059,"0.0-40.0","v3jgyhs578wk8s5bmw7bfad46x8xc0et","Thu Feb 09 2017 13:18:29 GMT-0500 (EST)","female","White","moderate/middle of the road","",NA,"","offCivRatings","the officer shocked the civilian with a tazer","the civilian shot the officer in the head with a handgun","tazer","handgunHead","officerCivilian","punishCiv","51","","","",""
"42",900,"","","instructions",41,1115959,"0.0-41.0","v3jgyhs578wk8s5bmw7bfad46x8xc0et","Thu Feb 09 2017 13:18:29 GMT-0500 (EST)","female","White","moderate/middle of the road","",NA,"[{""page_index"":0,""viewing_time"":900}]","break","","","","","","","","","","",""
"43",7740,"{""Q0"":2}","[object Object]","survey-likert",42,1123909,"0.0-42.0","v3jgyhs578wk8s5bmw7bfad46x8xc0et","Thu Feb 09 2017 13:18:29 GMT-0500 (EST)","female","White","moderate/middle of the road","",NA,"","offCivRatings","the officer headbutted the civilian in the face","the civilian waved at the officer in greeting","headbutt","waved","officerCivilian","forceCiv","2","","","",""
"44",2835,"{""Q0"":1}","[object Object]","survey-likert",43,1126748,"0.0-43.0","v3jgyhs578wk8s5bmw7bfad46x8xc0et","Thu Feb 09 2017 13:18:29 GMT-0500 (EST)","female","White","moderate/middle of the road","",NA,"","offCivRatings","the officer headbutted the civilian in the face","the civilian waved at the officer in greeting","headbutt","waved","officerCivilian","punishCiv","1","","","",""
"45",4979,"{""Q0"":1}","[object Object]","survey-likert",44,1131733,"0.0-44.0","v3jgyhs578wk8s5bmw7bfad46x8xc0et","Thu Feb 09 2017 13:18:29 GMT-0500 (EST)","female","White","moderate/middle of the road","",NA,"","offCivRatings","the officer headbutted the civilian in the face","the civilian waved at the officer in greeting","headbutt","waved","officerCivilian","appropriateCiv","1","","","",""
"46",2914,"{""Q0"":100}","[object Object]","survey-likert",45,1134653,"0.0-45.0","v3jgyhs578wk8s5bmw7bfad46x8xc0et","Thu Feb 09 2017 13:18:29 GMT-0500 (EST)","female","White","moderate/middle of the road","",NA,"","offCivRatings","the officer headbutted the civilian in the face","the civilian waved at the officer in greeting","headbutt","waved","officerCivilian","manipCheckHigh","100","","","",""
"47",5582,"{""Q0"":91}","[object Object]","survey-likert",46,1140239,"0.0-46.0","v3jgyhs578wk8s5bmw7bfad46x8xc0et","Thu Feb 09 2017 13:18:29 GMT-0500 (EST)","female","White","moderate/middle of the road","",NA,"","offCivRatings","the officer headbutted the civilian in the face","the civilian waved at the officer in greeting","headbutt","waved","officerCivilian","acceptableCiv","91","","","",""
"48",1429,"","","instructions",47,1141668,"0.0-47.0","v3jgyhs578wk8s5bmw7bfad46x8xc0et","Thu Feb 09 2017 13:18:29 GMT-0500 (EST)","female","White","moderate/middle of the road","",NA,"[{""page_index"":0,""viewing_time"":1429}]","break","","","","","","","","","","",""
"49",9141,"{""Q0"":89}","[object Object]","survey-likert",48,1151018,"0.0-48.0","v3jgyhs578wk8s5bmw7bfad46x8xc0et","Thu Feb 09 2017 13:18:29 GMT-0500 (EST)","female","White","moderate/middle of the road","",NA,"","offCivRatings","the officer shot the civilian in the chest with a handgun","the civilian shocked the officer with a tazer","handgunChest","tazer","civilianOfficer","appropriateOff","89","","","",""
"50",4717,"{""Q0"":31}","[object Object]","survey-likert",49,1155740,"0.0-49.0","v3jgyhs578wk8s5bmw7bfad46x8xc0et","Thu Feb 09 2017 13:18:29 GMT-0500 (EST)","female","White","moderate/middle of the road","",NA,"","offCivRatings","the officer shot the civilian in the chest with a handgun","the civilian shocked the officer with a tazer","handgunChest","tazer","civilianOfficer","acceptableOff","31","","","",""
"51",2430,"{""Q0"":100}","[object Object]","survey-likert",50,1158174,"0.0-50.0","v3jgyhs578wk8s5bmw7bfad46x8xc0et","Thu Feb 09 2017 13:18:29 GMT-0500 (EST)","female","White","moderate/middle of the road","",NA,"","offCivRatings","the officer shot the civilian in the chest with a handgun","the civilian shocked the officer with a tazer","handgunChest","tazer","civilianOfficer","forceOff","100","","","",""
"52",3637,"{""Q0"":21}","[object Object]","survey-likert",51,1161815,"0.0-51.0","v3jgyhs578wk8s5bmw7bfad46x8xc0et","Thu Feb 09 2017 13:18:29 GMT-0500 (EST)","female","White","moderate/middle of the road","",NA,"","offCivRatings","the officer shot the civilian in the chest with a handgun","the civilian shocked the officer with a tazer","handgunChest","tazer","civilianOfficer","punishOff","21","","","",""
"53",1130,"","","instructions",52,1162945,"0.0-52.0","v3jgyhs578wk8s5bmw7bfad46x8xc0et","Thu Feb 09 2017 13:18:29 GMT-0500 (EST)","female","White","moderate/middle of the road","",NA,"[{""page_index"":0,""viewing_time"":1130}]","break","","","","","","","","","","",""
"54",34527,"{""Q0"":100}","[object Object]","survey-likert",53,1197682,"0.0-53.0","v3jgyhs578wk8s5bmw7bfad46x8xc0et","Thu Feb 09 2017 13:18:29 GMT-0500 (EST)","female","White","moderate/middle of the road","",NA,"","offCivRatings","the officer punched the civilian in the face","the civilian slammed the officer's head into the concrete curb","punchFace","headSlam","civilianOfficer","acceptableOff","100","","","",""
"55",2764,"{""Q0"":77}","[object Object]","survey-likert",54,1200455,"0.0-54.0","v3jgyhs578wk8s5bmw7bfad46x8xc0et","Thu Feb 09 2017 13:18:29 GMT-0500 (EST)","female","White","moderate/middle of the road","",NA,"","offCivRatings","the officer punched the civilian in the face","the civilian slammed the officer's head into the concrete curb","punchFace","headSlam","civilianOfficer","forceOff","77","","","",""
"56",5246,"{""Q0"":1}","[object Object]","survey-likert",55,1205708,"0.0-55.0","v3jgyhs578wk8s5bmw7bfad46x8xc0et","Thu Feb 09 2017 13:18:29 GMT-0500 (EST)","female","White","moderate/middle of the road","",NA,"","offCivRatings","the officer punched the civilian in the face","the civilian slammed the officer's head into the concrete curb","punchFace","headSlam","civilianOfficer","punishOff","1","","","",""
"57",3276,"{""Q0"":100}","[object Object]","survey-likert",56,1208990,"0.0-56.0","v3jgyhs578wk8s5bmw7bfad46x8xc0et","Thu Feb 09 2017 13:18:29 GMT-0500 (EST)","female","White","moderate/middle of the road","",NA,"","offCivRatings","the officer punched the civilian in the face","the civilian slammed the officer's head into the concrete curb","punchFace","headSlam","civilianOfficer","manipCheckHigh","100","","","",""
"58",5141,"{""Q0"":49}","[object Object]","survey-likert",57,1214137,"0.0-57.0","v3jgyhs578wk8s5bmw7bfad46x8xc0et","Thu Feb 09 2017 13:18:29 GMT-0500 (EST)","female","White","moderate/middle of the road","",NA,"","offCivRatings","the officer punched the civilian in the face","the civilian slammed the officer's head into the concrete curb","punchFace","headSlam","civilianOfficer","appropriateOff","49","","","",""
"59",1017,"","","instructions",58,1215154,"0.0-58.0","v3jgyhs578wk8s5bmw7bfad46x8xc0et","Thu Feb 09 2017 13:18:29 GMT-0500 (EST)","female","White","moderate/middle of the road","",NA,"[{""page_index"":0,""viewing_time"":1017}]","break","","","","","","","","","","",""
"60",25614,"{""Q0"":29}","[object Object]","survey-likert",59,1240976,"0.0-59.0","v3jgyhs578wk8s5bmw7bfad46x8xc0et","Thu Feb 09 2017 13:18:29 GMT-0500 (EST)","female","White","moderate/middle of the road","",NA,"","offCivRatings","the officer shot the civilian in the chest with a beanbag shotgun round","the civilian shouted ""I don't have to fucking listen to you!"" at the officer","beanbag","dontListen","civilianOfficer","acceptableOff","29","","","",""
"61",2853,"{""Q0"":72}","[object Object]","survey-likert",60,1243835,"0.0-60.0","v3jgyhs578wk8s5bmw7bfad46x8xc0et","Thu Feb 09 2017 13:18:29 GMT-0500 (EST)","female","White","moderate/middle of the road","",NA,"","offCivRatings","the officer shot the civilian in the chest with a beanbag shotgun round","the civilian shouted ""I don't have to fucking listen to you!"" at the officer","beanbag","dontListen","civilianOfficer","appropriateOff","72","","","",""
"62",4764,"{""Q0"":60}","[object Object]","survey-likert",61,1248605,"0.0-61.0","v3jgyhs578wk8s5bmw7bfad46x8xc0et","Thu Feb 09 2017 13:18:29 GMT-0500 (EST)","female","White","moderate/middle of the road","",NA,"","offCivRatings","the officer shot the civilian in the chest with a beanbag shotgun round","the civilian shouted ""I don't have to fucking listen to you!"" at the officer","beanbag","dontListen","civilianOfficer","forceOff","60","","","",""
"63",3674,"{""Q0"":31}","[object Object]","survey-likert",62,1252284,"0.0-62.0","v3jgyhs578wk8s5bmw7bfad46x8xc0et","Thu Feb 09 2017 13:18:29 GMT-0500 (EST)","female","White","moderate/middle of the road","",NA,"","offCivRatings","the officer shot the civilian in the chest with a beanbag shotgun round","the civilian shouted ""I don't have to fucking listen to you!"" at the officer","beanbag","dontListen","civilianOfficer","punishOff","31","","","",""
"64",52612,"","","instructions",63,1304896,"0.0-63.0","v3jgyhs578wk8s5bmw7bfad46x8xc0et","Thu Feb 09 2017 13:18:29 GMT-0500 (EST)","female","White","moderate/middle of the road","",NA,"[{""page_index"":0,""viewing_time"":52612}]","break","","","","","","","","","","",""
"65",8575,"{""Q0"":71}","[object Object]","survey-likert",64,1313683,"0.0-64.0","v3jgyhs578wk8s5bmw7bfad46x8xc0et","Thu Feb 09 2017 13:18:29 GMT-0500 (EST)","female","White","moderate/middle of the road","",NA,"","offCivRatings","the officer struck the civilian on the leg with a collapsible baton","the civilian shot the officer in the chest with a handgun","batonLeg","handgunChest","civilianOfficer","forceOff","71","","","",""
"66",9469,"{""Q0"":27}","[object Object]","survey-likert",65,1323157,"0.0-65.0","v3jgyhs578wk8s5bmw7bfad46x8xc0et","Thu Feb 09 2017 13:18:29 GMT-0500 (EST)","female","White","moderate/middle of the road","",NA,"","offCivRatings","the officer struck the civilian on the leg with a collapsible baton","the civilian shot the officer in the chest with a handgun","batonLeg","handgunChest","civilianOfficer","appropriateOff","27","","","",""
"67",3889,"{""Q0"":89}","[object Object]","survey-likert",66,1327051,"0.0-66.0","v3jgyhs578wk8s5bmw7bfad46x8xc0et","Thu Feb 09 2017 13:18:29 GMT-0500 (EST)","female","White","moderate/middle of the road","",NA,"","offCivRatings","the officer struck the civilian on the leg with a collapsible baton","the civilian shot the officer in the chest with a handgun","batonLeg","handgunChest","civilianOfficer","acceptableOff","89","","","",""
"68",2541,"{""Q0"":6}","[object Object]","survey-likert",67,1329597,"0.0-67.0","v3jgyhs578wk8s5bmw7bfad46x8xc0et","Thu Feb 09 2017 13:18:29 GMT-0500 (EST)","female","White","moderate/middle of the road","",NA,"","offCivRatings","the officer struck the civilian on the leg with a collapsible baton","the civilian shot the officer in the chest with a handgun","batonLeg","handgunChest","civilianOfficer","punishOff","6","","","",""
"69",924,"","","instructions",68,1330521,"0.0-68.0","v3jgyhs578wk8s5bmw7bfad46x8xc0et","Thu Feb 09 2017 13:18:29 GMT-0500 (EST)","female","White","moderate/middle of the road","",NA,"[{""page_index"":0,""viewing_time"":924}]","break","","","","","","","","","","",""
"70",16742,"{""Q0"":1}","[object Object]","survey-likert",69,1347473,"0.0-69.0","v3jgyhs578wk8s5bmw7bfad46x8xc0et","Thu Feb 09 2017 13:18:29 GMT-0500 (EST)","female","White","moderate/middle of the road","",NA,"","offCivRatings","the officer slammed the civilian's head into the concrete curb","the civilian yelled ""get back!"" at the officer","headSlam","getBack","officerCivilian","punishCiv","1","","","",""
"71",2442,"{""Q0"":100}","[object Object]","survey-likert",70,1349921,"0.0-70.0","v3jgyhs578wk8s5bmw7bfad46x8xc0et","Thu Feb 09 2017 13:18:29 GMT-0500 (EST)","female","White","moderate/middle of the road","",NA,"","offCivRatings","the officer slammed the civilian's head into the concrete curb","the civilian yelled ""get back!"" at the officer","headSlam","getBack","officerCivilian","acceptableCiv","100","","","",""
"72",2523,"{""Q0"":1}","[object Object]","survey-likert",71,1352449,"0.0-71.0","v3jgyhs578wk8s5bmw7bfad46x8xc0et","Thu Feb 09 2017 13:18:29 GMT-0500 (EST)","female","White","moderate/middle of the road","",NA,"","offCivRatings","the officer slammed the civilian's head into the concrete curb","the civilian yelled ""get back!"" at the officer","headSlam","getBack","officerCivilian","manipCheckLow","1","","","",""
"73",3703,"{""Q0"":1}","[object Object]","survey-likert",72,1356158,"0.0-72.0","v3jgyhs578wk8s5bmw7bfad46x8xc0et","Thu Feb 09 2017 13:18:29 GMT-0500 (EST)","female","White","moderate/middle of the road","",NA,"","offCivRatings","the officer slammed the civilian's head into the concrete curb","the civilian yelled ""get back!"" at the officer","headSlam","getBack","officerCivilian","forceCiv","1","","","",""
"74",3305,"{""Q0"":1}","[object Object]","survey-likert",73,1359468,"0.0-73.0","v3jgyhs578wk8s5bmw7bfad46x8xc0et","Thu Feb 09 2017 13:18:29 GMT-0500 (EST)","female","White","moderate/middle of the road","",NA,"","offCivRatings","the officer slammed the civilian's head into the concrete curb","the civilian yelled ""get back!"" at the officer","headSlam","getBack","officerCivilian","appropriateCiv","1","","","",""
"75",889,"","","instructions",74,1360357,"0.0-74.0","v3jgyhs578wk8s5bmw7bfad46x8xc0et","Thu Feb 09 2017 13:18:29 GMT-0500 (EST)","female","White","moderate/middle of the road","",NA,"[{""page_index"":0,""viewing_time"":888}]","break","","","","","","","","","","",""
"76",8877,"{""Q0"":50}","[object Object]","survey-likert",75,1369443,"0.0-75.0","v3jgyhs578wk8s5bmw7bfad46x8xc0et","Thu Feb 09 2017 13:18:29 GMT-0500 (EST)","female","White","moderate/middle of the road","",NA,"","offCivRatings","the officer asked the civilian how he was doing","the civilian asked the officer how he was doing","asked","asked","officerCivilian","appropriateCiv","50","","","",""
"77",3069,"{""Q0"":100}","[object Object]","survey-likert",76,1372517,"0.0-76.0","v3jgyhs578wk8s5bmw7bfad46x8xc0et","Thu Feb 09 2017 13:18:29 GMT-0500 (EST)","female","White","moderate/middle of the road","",NA,"","offCivRatings","the officer asked the civilian how he was doing","the civilian asked the officer how he was doing","asked","asked","officerCivilian","acceptableCiv","100","","","",""
"78",2497,"{""Q0"":100}","[object Object]","survey-likert",77,1375019,"0.0-77.0","v3jgyhs578wk8s5bmw7bfad46x8xc0et","Thu Feb 09 2017 13:18:29 GMT-0500 (EST)","female","White","moderate/middle of the road","",NA,"","offCivRatings","the officer asked the civilian how he was doing","the civilian asked the officer how he was doing","asked","asked","officerCivilian","manipCheckHigh","100","","","",""
"79",3607,"{""Q0"":1}","[object Object]","survey-likert",78,1378631,"0.0-78.0","v3jgyhs578wk8s5bmw7bfad46x8xc0et","Thu Feb 09 2017 13:18:29 GMT-0500 (EST)","female","White","moderate/middle of the road","",NA,"","offCivRatings","the officer asked the civilian how he was doing","the civilian asked the officer how he was doing","asked","asked","officerCivilian","forceCiv","1","","","",""
"80",2350,"{""Q0"":1}","[object Object]","survey-likert",79,1380985,"0.0-79.0","v3jgyhs578wk8s5bmw7bfad46x8xc0et","Thu Feb 09 2017 13:18:29 GMT-0500 (EST)","female","White","moderate/middle of the road","",NA,"","offCivRatings","the officer asked the civilian how he was doing","the civilian asked the officer how he was doing","asked","asked","officerCivilian","punishCiv","1","","","",""
"81",789,"","","instructions",80,1381775,"0.0-80.0","v3jgyhs578wk8s5bmw7bfad46x8xc0et","Thu Feb 09 2017 13:18:29 GMT-0500 (EST)","female","White","moderate/middle of the road","",NA,"[{""page_index"":0,""viewing_time"":789}]","break","","","","","","","","","","",""
"82",7649,"{""Q0"":1}","[object Object]","survey-likert",81,1389632,"0.0-81.0","v3jgyhs578wk8s5bmw7bfad46x8xc0et","Thu Feb 09 2017 13:18:29 GMT-0500 (EST)","female","White","moderate/middle of the road","",NA,"","offCivRatings","the officer purposefully struck the civilian with a motor vehicle","the civilian twisted the arm of the officer, forcing him to the ground","vehicle","armbar","officerCivilian","punishCiv","1","","","",""
"83",2888,"{""Q0"":100}","[object Object]","survey-likert",82,1392524,"0.0-82.0","v3jgyhs578wk8s5bmw7bfad46x8xc0et","Thu Feb 09 2017 13:18:29 GMT-0500 (EST)","female","White","moderate/middle of the road","",NA,"","offCivRatings","the officer purposefully struck the civilian with a motor vehicle","the civilian twisted the arm of the officer, forcing him to the ground","vehicle","armbar","officerCivilian","acceptableCiv","100","","","",""
"84",3515,"{""Q0"":11}","[object Object]","survey-likert",83,1396043,"0.0-83.0","v3jgyhs578wk8s5bmw7bfad46x8xc0et","Thu Feb 09 2017 13:18:29 GMT-0500 (EST)","female","White","moderate/middle of the road","",NA,"","offCivRatings","the officer purposefully struck the civilian with a motor vehicle","the civilian twisted the arm of the officer, forcing him to the ground","vehicle","armbar","officerCivilian","appropriateCiv","11","","","",""
"85",4250,"{""Q0"":78}","[object Object]","survey-likert",84,1400298,"0.0-84.0","v3jgyhs578wk8s5bmw7bfad46x8xc0et","Thu Feb 09 2017 13:18:29 GMT-0500 (EST)","female","White","moderate/middle of the road","",NA,"","offCivRatings","the officer purposefully struck the civilian with a motor vehicle","the civilian twisted the arm of the officer, forcing him to the ground","vehicle","armbar","officerCivilian","forceCiv","78","","","",""
"86",846,"","","instructions",85,1401144,"0.0-85.0","v3jgyhs578wk8s5bmw7bfad46x8xc0et","Thu Feb 09 2017 13:18:29 GMT-0500 (EST)","female","White","moderate/middle of the road","",NA,"[{""page_index"":0,""viewing_time"":846}]","break","","","","","","","","","","",""
"87",8015,"{""Q0"":20}","[object Object]","survey-likert",86,1409366,"0.0-86.0","v3jgyhs578wk8s5bmw7bfad46x8xc0et","Thu Feb 09 2017 13:18:29 GMT-0500 (EST)","female","White","moderate/middle of the road","",NA,"","offCivRatings","the officer called the civilian a ""thug""","the civilian pulled away from the officer","nameCall","pulledAway","officerCivilian","forceCiv","20","","","",""
"88",2910,"{""Q0"":50}","[object Object]","survey-likert",87,1412280,"0.0-87.0","v3jgyhs578wk8s5bmw7bfad46x8xc0et","Thu Feb 09 2017 13:18:29 GMT-0500 (EST)","female","White","moderate/middle of the road","",NA,"","offCivRatings","the officer called the civilian a ""thug""","the civilian pulled away from the officer","nameCall","pulledAway","officerCivilian","appropriateCiv","50","","","",""
"89",5404,"{""Q0"":1}","[object Object]","survey-likert",88,1417688,"0.0-88.0","v3jgyhs578wk8s5bmw7bfad46x8xc0et","Thu Feb 09 2017 13:18:29 GMT-0500 (EST)","female","White","moderate/middle of the road","",NA,"","offCivRatings","the officer called the civilian a ""thug""","the civilian pulled away from the officer","nameCall","pulledAway","officerCivilian","punishCiv","1","","","",""
"90",4346,"{""Q0"":69}","[object Object]","survey-likert",89,1422038,"0.0-89.0","v3jgyhs578wk8s5bmw7bfad46x8xc0et","Thu Feb 09 2017 13:18:29 GMT-0500 (EST)","female","White","moderate/middle of the road","",NA,"","offCivRatings","the officer called the civilian a ""thug""","the civilian pulled away from the officer","nameCall","pulledAway","officerCivilian","acceptableCiv","69","","","",""
"91",951,"","","instructions",90,1422989,"0.0-90.0","v3jgyhs578wk8s5bmw7bfad46x8xc0et","Thu Feb 09 2017 13:18:29 GMT-0500 (EST)","female","White","moderate/middle of the road","",NA,"[{""page_index"":0,""viewing_time"":950}]","break","","","","","","","","","","",""
"92",179065,"{""Q0"":1}","[object Object]","survey-likert",91,1602266,"0.0-91.0","v3jgyhs578wk8s5bmw7bfad46x8xc0et","Thu Feb 09 2017 13:18:29 GMT-0500 (EST)","female","White","moderate/middle of the road","",NA,"","offCivRatings","the officer twisted the arm of the civilian, forcing him to the ground","the civilian punched the officer in the face","armbar","punchFace","civilianOfficer","manipCheckLow","1","","","",""
"93",2655,"{""Q0"":100}","[object Object]","survey-likert",92,1604925,"0.0-92.0","v3jgyhs578wk8s5bmw7bfad46x8xc0et","Thu Feb 09 2017 13:18:29 GMT-0500 (EST)","female","White","moderate/middle of the road","",NA,"","offCivRatings","the officer twisted the arm of the civilian, forcing him to the ground","the civilian punched the officer in the face","armbar","punchFace","civilianOfficer","acceptableOff","100","","","",""
"94",8558,"{""Q0"":50}","[object Object]","survey-likert",93,1613489,"0.0-93.0","v3jgyhs578wk8s5bmw7bfad46x8xc0et","Thu Feb 09 2017 13:18:29 GMT-0500 (EST)","female","White","moderate/middle of the road","",NA,"","offCivRatings","the officer twisted the arm of the civilian, forcing him to the ground","the civilian punched the officer in the face","armbar","punchFace","civilianOfficer","appropriateOff","50","","","",""
"95",5704,"{""Q0"":68}","[object Object]","survey-likert",94,1619198,"0.0-94.0","v3jgyhs578wk8s5bmw7bfad46x8xc0et","Thu Feb 09 2017 13:18:29 GMT-0500 (EST)","female","White","moderate/middle of the road","",NA,"","offCivRatings","the officer twisted the arm of the civilian, forcing him to the ground","the civilian punched the officer in the face","armbar","punchFace","civilianOfficer","forceOff","68","","","",""
"96",3404,"{""Q0"":1}","[object Object]","survey-likert",95,1622607,"0.0-95.0","v3jgyhs578wk8s5bmw7bfad46x8xc0et","Thu Feb 09 2017 13:18:29 GMT-0500 (EST)","female","White","moderate/middle of the road","",NA,"","offCivRatings","the officer twisted the arm of the civilian, forcing him to the ground","the civilian punched the officer in the face","armbar","punchFace","civilianOfficer","punishOff","1","","","",""
"97",763,"","","instructions",96,1623370,"0.0-96.0","v3jgyhs578wk8s5bmw7bfad46x8xc0et","Thu Feb 09 2017 13:18:29 GMT-0500 (EST)","female","White","moderate/middle of the road","",NA,"[{""page_index"":0,""viewing_time"":762}]","break","","","","","","","","","","",""
"98",168585,"{""Q0"":13}","[object Object]","survey-likert",97,1792160,"0.0-97.0","v3jgyhs578wk8s5bmw7bfad46x8xc0et","Thu Feb 09 2017 13:18:29 GMT-0500 (EST)","female","White","moderate/middle of the road","",NA,"","offCivRatings","the officer shouted ""get your fucking hands up!"" at the civilian","the civilian kicked the officer in the stomach","handsUp","kickStom","officerCivilian","acceptableCiv","13","","","",""
"99",3490,"{""Q0"":73}","[object Object]","survey-likert",98,1795655,"0.0-98.0","v3jgyhs578wk8s5bmw7bfad46x8xc0et","Thu Feb 09 2017 13:18:29 GMT-0500 (EST)","female","White","moderate/middle of the road","",NA,"","offCivRatings","the officer shouted ""get your fucking hands up!"" at the civilian","the civilian kicked the officer in the stomach","handsUp","kickStom","officerCivilian","punishCiv","73","","","",""
"100",14136,"{""Q0"":61}","[object Object]","survey-likert",99,1809795,"0.0-99.0","v3jgyhs578wk8s5bmw7bfad46x8xc0et","Thu Feb 09 2017 13:18:29 GMT-0500 (EST)","female","White","moderate/middle of the road","",NA,"","offCivRatings","the officer shouted ""get your fucking hands up!"" at the civilian","the civilian kicked the officer in the stomach","handsUp","kickStom","officerCivilian","forceCiv","61","","","",""
"101",2718,"{""Q0"":1}","[object Object]","survey-likert",100,1812519,"0.0-100.0","v3jgyhs578wk8s5bmw7bfad46x8xc0et","Thu Feb 09 2017 13:18:29 GMT-0500 (EST)","female","White","moderate/middle of the road","",NA,"","offCivRatings","the officer shouted ""get your fucking hands up!"" at the civilian","the civilian kicked the officer in the stomach","handsUp","kickStom","officerCivilian","manipCheckLow","1","","","",""
"102",8128,"{""Q0"":9}","[object Object]","survey-likert",101,1820650,"0.0-101.0","v3jgyhs578wk8s5bmw7bfad46x8xc0et","Thu Feb 09 2017 13:18:29 GMT-0500 (EST)","female","White","moderate/middle of the road","",NA,"","offCivRatings","the officer shouted ""get your fucking hands up!"" at the civilian","the civilian kicked the officer in the stomach","handsUp","kickStom","officerCivilian","appropriateCiv","9","","","",""
"103",1628,"","","instructions",102,1822279,"0.0-102.0","v3jgyhs578wk8s5bmw7bfad46x8xc0et","Thu Feb 09 2017 13:18:29 GMT-0500 (EST)","female","White","moderate/middle of the road","",NA,"[{""page_index"":0,""viewing_time"":1628}]","break","","","","","","","","","","",""
"104",6971,"{""Q0"":1}","[object Object]","survey-likert",103,1829459,"0.0-103.0","v3jgyhs578wk8s5bmw7bfad46x8xc0et","Thu Feb 09 2017 13:18:29 GMT-0500 (EST)","female","White","moderate/middle of the road","",NA,"","offCivRatings","the officer said ""if you touch me, you're gonna get hurt"" to the civilian","the civilian struck the officer in the stomach with a metal flashlight","hurtThreat","flashlight","civilianOfficer","forceOff","1","","","",""
"105",25220,"{""Q0"":100}","[object Object]","survey-likert",104,1854683,"0.0-104.0","v3jgyhs578wk8s5bmw7bfad46x8xc0et","Thu Feb 09 2017 13:18:29 GMT-0500 (EST)","female","White","moderate/middle of the road","",NA,"","offCivRatings","the officer said ""if you touch me, you're gonna get hurt"" to the civilian","the civilian struck the officer in the stomach with a metal flashlight","hurtThreat","flashlight","civilianOfficer","acceptableOff","100","","","",""
"106",13630,"{""Q0"":16}","[object Object]","survey-likert",105,1868317,"0.0-105.0","v3jgyhs578wk8s5bmw7bfad46x8xc0et","Thu Feb 09 2017 13:18:29 GMT-0500 (EST)","female","White","moderate/middle of the road","",NA,"","offCivRatings","the officer said ""if you touch me, you're gonna get hurt"" to the civilian","the civilian struck the officer in the stomach with a metal flashlight","hurtThreat","flashlight","civilianOfficer","appropriateOff","16","","","",""
"107",5520,"{""Q0"":1}","[object Object]","survey-likert",106,1873841,"0.0-106.0","v3jgyhs578wk8s5bmw7bfad46x8xc0et","Thu Feb 09 2017 13:18:29 GMT-0500 (EST)","female","White","moderate/middle of the road","",NA,"","offCivRatings","the officer said ""if you touch me, you're gonna get hurt"" to the civilian","the civilian struck the officer in the stomach with a metal flashlight","hurtThreat","flashlight","civilianOfficer","punishOff","1","","","",""
"108",1129,"","","instructions",107,1874970,"0.0-107.0","v3jgyhs578wk8s5bmw7bfad46x8xc0et","Thu Feb 09 2017 13:18:29 GMT-0500 (EST)","female","White","moderate/middle of the road","",NA,"[{""page_index"":0,""viewing_time"":1129}]","break","","","","","","","","","","",""
"109",7322,"{""Q0"":1}","[object Object]","survey-likert",108,1882503,"0.0-108.0","v3jgyhs578wk8s5bmw7bfad46x8xc0et","Thu Feb 09 2017 13:18:29 GMT-0500 (EST)","female","White","moderate/middle of the road","",NA,"","offCivRatings","the officer waved at the civilian in greeting","the civilian struck the officer on the leg with a metal pipe","waved","metalPipe","civilianOfficer","forceOff","1","","","",""
"110",2382,"{""Q0"":1}","[object Object]","survey-likert",109,1884889,"0.0-109.0","v3jgyhs578wk8s5bmw7bfad46x8xc0et","Thu Feb 09 2017 13:18:29 GMT-0500 (EST)","female","White","moderate/middle of the road","",NA,"","offCivRatings","the officer waved at the civilian in greeting","the civilian struck the officer on the leg with a metal pipe","waved","metalPipe","civilianOfficer","punishOff","1","","","",""
"111",3001,"{""Q0"":1}","[object Object]","survey-likert",110,1887894,"0.0-110.0","v3jgyhs578wk8s5bmw7bfad46x8xc0et","Thu Feb 09 2017 13:18:29 GMT-0500 (EST)","female","White","moderate/middle of the road","",NA,"","offCivRatings","the officer waved at the civilian in greeting","the civilian struck the officer on the leg with a metal pipe","waved","metalPipe","civilianOfficer","appropriateOff","1","","","",""
"112",2438,"{""Q0"":100}","[object Object]","survey-likert",111,1890338,"0.0-111.0","v3jgyhs578wk8s5bmw7bfad46x8xc0et","Thu Feb 09 2017 13:18:29 GMT-0500 (EST)","female","White","moderate/middle of the road","",NA,"","offCivRatings","the officer waved at the civilian in greeting","the civilian struck the officer on the leg with a metal pipe","waved","metalPipe","civilianOfficer","manipCheckHigh","100","","","",""
"113",5671,"{""Q0"":100}","[object Object]","survey-likert",112,1896013,"0.0-112.0","v3jgyhs578wk8s5bmw7bfad46x8xc0et","Thu Feb 09 2017 13:18:29 GMT-0500 (EST)","female","White","moderate/middle of the road","",NA,"","offCivRatings","the officer waved at the civilian in greeting","the civilian struck the officer on the leg with a metal pipe","waved","metalPipe","civilianOfficer","acceptableOff","100","","","",""
"114",856,"","","instructions",113,1896869,"0.0-113.0","v3jgyhs578wk8s5bmw7bfad46x8xc0et","Thu Feb 09 2017 13:18:29 GMT-0500 (EST)","female","White","moderate/middle of the road","",NA,"[{""page_index"":0,""viewing_time"":855}]","break","","","","","","","","","","",""
"115",96041,"{""Q0"":99}","[object Object]","survey-likert",114,1993121,"0.0-114.0","v3jgyhs578wk8s5bmw7bfad46x8xc0et","Thu Feb 09 2017 13:18:29 GMT-0500 (EST)","female","White","moderate/middle of the road","",NA,"","offCivRatings","the officer stood near the civilian","the civilian purposefully struck the officer with a motor vehicle","stoodNear","vehicle","officerCivilian","forceCiv","99","","","",""
"116",2349,"{""Q0"":100}","[object Object]","survey-likert",115,1995474,"0.0-115.0","v3jgyhs578wk8s5bmw7bfad46x8xc0et","Thu Feb 09 2017 13:18:29 GMT-0500 (EST)","female","White","moderate/middle of the road","",NA,"","offCivRatings","the officer stood near the civilian","the civilian purposefully struck the officer with a motor vehicle","stoodNear","vehicle","officerCivilian","punishCiv","100","","","",""
"117",2783,"{""Q0"":1}","[object Object]","survey-likert",116,1998263,"0.0-116.0","v3jgyhs578wk8s5bmw7bfad46x8xc0et","Thu Feb 09 2017 13:18:29 GMT-0500 (EST)","female","White","moderate/middle of the road","",NA,"","offCivRatings","the officer stood near the civilian","the civilian purposefully struck the officer with a motor vehicle","stoodNear","vehicle","officerCivilian","acceptableCiv","1","","","",""
"118",3088,"{""Q0"":100}","[object Object]","survey-likert",117,2001356,"0.0-117.0","v3jgyhs578wk8s5bmw7bfad46x8xc0et","Thu Feb 09 2017 13:18:29 GMT-0500 (EST)","female","White","moderate/middle of the road","",NA,"","offCivRatings","the officer stood near the civilian","the civilian purposefully struck the officer with a motor vehicle","stoodNear","vehicle","officerCivilian","appropriateCiv","100","","","",""
"119",930,"","","instructions",118,2002286,"0.0-118.0","v3jgyhs578wk8s5bmw7bfad46x8xc0et","Thu Feb 09 2017 13:18:29 GMT-0500 (EST)","female","White","moderate/middle of the road","",NA,"[{""page_index"":0,""viewing_time"":929}]","break","","","","","","","","","","",""
"120",4731,"{""Q0"":1}","[object Object]","survey-likert",119,2007227,"0.0-119.0","v3jgyhs578wk8s5bmw7bfad46x8xc0et","Thu Feb 09 2017 13:18:29 GMT-0500 (EST)","female","White","moderate/middle of the road","",NA,"","offCivRatings","the officer applied a chokehold to the civilian","the civilian stood near the officer","choke","stoodNear","officerCivilian","forceCiv","1","","","",""
"121",4596,"{""Q0"":1}","[object Object]","survey-likert",120,2011827,"0.0-120.0","v3jgyhs578wk8s5bmw7bfad46x8xc0et","Thu Feb 09 2017 13:18:29 GMT-0500 (EST)","female","White","moderate/middle of the road","",NA,"","offCivRatings","the officer applied a chokehold to the civilian","the civilian stood near the officer","choke","stoodNear","officerCivilian","appropriateCiv","1","","","",""
"122",2578,"{""Q0"":1}","[object Object]","survey-likert",121,2014408,"0.0-121.0","v3jgyhs578wk8s5bmw7bfad46x8xc0et","Thu Feb 09 2017 13:18:29 GMT-0500 (EST)","female","White","moderate/middle of the road","",NA,"","offCivRatings","the officer applied a chokehold to the civilian","the civilian stood near the officer","choke","stoodNear","officerCivilian","punishCiv","1","","","",""
"123",4807,"{""Q0"":86}","[object Object]","survey-likert",122,2019219,"0.0-122.0","v3jgyhs578wk8s5bmw7bfad46x8xc0et","Thu Feb 09 2017 13:18:29 GMT-0500 (EST)","female","White","moderate/middle of the road","",NA,"","offCivRatings","the officer applied a chokehold to the civilian","the civilian stood near the officer","choke","stoodNear","officerCivilian","acceptableCiv","86","","","",""
"124",936,"","","instructions",123,2020155,"0.0-123.0","v3jgyhs578wk8s5bmw7bfad46x8xc0et","Thu Feb 09 2017 13:18:29 GMT-0500 (EST)","female","White","moderate/middle of the road","",NA,"[{""page_index"":0,""viewing_time"":936}]","break","","","","","","","","","","",""
"125",8680,"{""Q0"":18}","[object Object]","survey-likert",124,2029043,"0.0-124.0","v3jgyhs578wk8s5bmw7bfad46x8xc0et","Thu Feb 09 2017 13:18:29 GMT-0500 (EST)","female","White","moderate/middle of the road","",NA,"","policeLegitimacy","","","","","","","18","support","feltObligation","",""
"126",4711,"{""Q0"":74}","[object Object]","survey-likert",125,2033758,"0.0-125.0","v3jgyhs578wk8s5bmw7bfad46x8xc0et","Thu Feb 09 2017 13:18:29 GMT-0500 (EST)","female","White","moderate/middle of the road","",NA,"","policeLegitimacy","","","","","","","74","rightWrong","normAlignment","",""
"127",4724,"{""Q0"":69}","[object Object]","survey-likert",126,2038486,"0.0-126.0","v3jgyhs578wk8s5bmw7bfad46x8xc0et","Thu Feb 09 2017 13:18:29 GMT-0500 (EST)","female","White","moderate/middle of the road","",NA,"","policeLegitimacy","","","","","","","69","doReasons","feltObligation","",""
"128",4532,"{""Q0"":60}","[object Object]","survey-likert",127,2043022,"0.0-127.0","v3jgyhs578wk8s5bmw7bfad46x8xc0et","Thu Feb 09 2017 13:18:29 GMT-0500 (EST)","female","White","moderate/middle of the road","",NA,"","policeLegitimacy","","","","","","","60","doTreat","feltObligation","",""
"129",6008,"{""Q0"":70}","[object Object]","survey-likert",128,2049034,"0.0-128.0","v3jgyhs578wk8s5bmw7bfad46x8xc0et","Thu Feb 09 2017 13:18:29 GMT-0500 (EST)","female","White","moderate/middle of the road","",NA,"","policeLegitimacy","","","","","","","70","communityWants","normAlignment","",""
"130",2771,"{""Q0"":70}","[object Object]","survey-likert",129,2051810,"0.0-129.0","v3jgyhs578wk8s5bmw7bfad46x8xc0et","Thu Feb 09 2017 13:18:29 GMT-0500 (EST)","female","White","moderate/middle of the road","",NA,"","policeLegitimacy","","","","","","","70","importantValues","normAlignment","",""
"131",4135,"{""Q0"":""yes""}","[object Object]","survey-multi-choice2",130,2055948,"0.0-130.0","v3jgyhs578wk8s5bmw7bfad46x8xc0et","Thu Feb 09 2017 13:18:29 GMT-0500 (EST)","female","White","moderate/middle of the road","",NA,"","policeExperience","","","","","","","yes","insultLang","","personal","Have the police ever used insulting language toward you?"
"132",3161,"{""Q0"":""no""}","[object Object]","survey-multi-choice2",131,2059112,"0.0-131.0","v3jgyhs578wk8s5bmw7bfad46x8xc0et","Thu Feb 09 2017 13:18:29 GMT-0500 (EST)","female","White","moderate/middle of the road","",NA,"","policeExperience","","","","","","","no","excessForce","","vicarious","Have the police ever used excessive force against anyone in your household?"
"133",4171,"{""Q0"":""yes""}","[object Object]","survey-multi-choice2",132,2063285,"0.0-132.0","v3jgyhs578wk8s5bmw7bfad46x8xc0et","Thu Feb 09 2017 13:18:29 GMT-0500 (EST)","female","White","moderate/middle of the road","",NA,"","policeExperience","","","","","","","yes","corrupt","","personal","Have you ever seen a police officer engage in any corrupt activities (e.g., taking bribes or involvement in the drug trade)?"
"134",5195,"{""Q0"":""no""}","[object Object]","survey-multi-choice2",133,2068482,"0.0-133.0","v3jgyhs578wk8s5bmw7bfad46x8xc0et","Thu Feb 09 2017 13:18:29 GMT-0500 (EST)","female","White","moderate/middle of the road","",NA,"","policeExperience","","","","","","","no","stopped","","vicarious","Has anyone in your household ever been stopped on the street by the police without good reason?"
"135",6206,"{""Q0"":""yes""}","[object Object]","survey-multi-choice2",134,2074690,"0.0-134.0","v3jgyhs578wk8s5bmw7bfad46x8xc0et","Thu Feb 09 2017 13:18:29 GMT-0500 (EST)","female","White","moderate/middle of the road","",NA,"","policeExperience","","","","","","","yes","insultLang","","vicarious","Have the police ever used insulting language toward anyone in your household?"
"136",2393,"{""Q0"":""no""}","[object Object]","survey-multi-choice2",135,2077085,"0.0-135.0","v3jgyhs578wk8s5bmw7bfad46x8xc0et","Thu Feb 09 2017 13:18:29 GMT-0500 (EST)","female","White","moderate/middle of the road","",NA,"","policeExperience","","","","","","","no","excessForce","","personal","Have the police ever used excessive force against you?"
"137",2559,"{""Q0"":""no""}","[object Object]","survey-multi-choice2",136,2079645,"0.0-136.0","v3jgyhs578wk8s5bmw7bfad46x8xc0et","Thu Feb 09 2017 13:18:29 GMT-0500 (EST)","female","White","moderate/middle of the road","",NA,"","policeExperience","","","","","","","no","stopped","","personal","Have you ever been stopped by the police on the street without good reason?"
"138",7603,"{""Q0"":""female"",""Q1"":""White"",""Q2"":""moderate/middle of the road""}","[object Object]","survey-multi-choice",137,2087255,"0.0-137.0","v3jgyhs578wk8s5bmw7bfad46x8xc0et","Thu Feb 09 2017 13:18:29 GMT-0500 (EST)","female","White","moderate/middle of the road","",NA,"","demographics","","","","","","","","","","",""
"139",5242,"","","instructions",138,2093498,"0.0-138.0","v3jgyhs578wk8s5bmw7bfad46x8xc0et","Thu Feb 09 2017 13:18:29 GMT-0500 (EST)","female","White","moderate/middle of the road","",NA,"[{""page_index"":0,""viewing_time"":1208},{""page_index"":1,""viewing_time"":2236},{""page_index"":2,""viewing_time"":635},{""page_index"":3,""viewing_time"":1163}]","debriefing","","","","","","","","","","",""
