"","rt","responses","internalResp","trial_type","trial_index","time_elapsed","internal_node_id","randSubjectID","date","sex","race","polAff","stimulus","key_press","view_history","questionType","officerAction","civilianAction","offActName","civActName","order","questionName","response","name","dimension","person","question"
"1",76189242,"","[object Object]","survey-text",0,76189257,"0.0-0.0","vhan6sz7xxmv3fjsvfktj6ngnpyw2kxn","Wed Feb 01 2017 16:17:43 GMT-0500 (Eastern Standard Time)","female","More than one","liberal","",NA,"","","","","","","","","","","","",""
"2",38192,"","","single-stim",1,76228457,"0.0-1.0","vhan6sz7xxmv3fjsvfktj6ngnpyw2kxn","Wed Feb 01 2017 16:17:43 GMT-0500 (Eastern Standard Time)","female","More than one","liberal","<img src='static/images/1602685960_ICS_Credit-0.png' alt='Consent 1' height=1100 width=850><img src='static/images/1602685960_ICS_Credit-1.png' alt='Consent 2' height=1100 width=850></p>",89,"","","","","","","","","","","","",""
"3",5191,"","","instructions",2,76234650,"0.0-2.0","vhan6sz7xxmv3fjsvfktj6ngnpyw2kxn","Wed Feb 01 2017 16:17:43 GMT-0500 (Eastern Standard Time)","female","More than one","liberal","",NA,"[{""page_index"":0,""viewing_time"":5189}]","instructions","","","","","","","","","","",""
"4",58930,"","","instructions",3,76294581,"0.0-3.0","vhan6sz7xxmv3fjsvfktj6ngnpyw2kxn","Wed Feb 01 2017 16:17:43 GMT-0500 (Eastern Standard Time)","female","More than one","liberal","",NA,"[{""page_index"":0,""viewing_time"":23681},{""page_index"":1,""viewing_time"":10585},{""page_index"":2,""viewing_time"":17808},{""page_index"":3,""viewing_time"":6856}]","instructions","","","","","","","","","","",""
"5",27423,"{""Q0"":100}","[object Object]","survey-likert",4,76323063,"0.0-4.0","vhan6sz7xxmv3fjsvfktj6ngnpyw2kxn","Wed Feb 01 2017 16:17:43 GMT-0500 (Eastern Standard Time)","female","More than one","liberal","",NA,"","offCivRatings","the officer twisted the arm of the civilian, forcing him to the ground","the civilian waved at the officer in greeting","armbar","waved","officerCivilian","acceptableCiv","100","","","",""
"6",5079,"{""Q0"":1}","[object Object]","survey-likert",5,76328164,"0.0-5.0","vhan6sz7xxmv3fjsvfktj6ngnpyw2kxn","Wed Feb 01 2017 16:17:43 GMT-0500 (Eastern Standard Time)","female","More than one","liberal","",NA,"","offCivRatings","the officer twisted the arm of the civilian, forcing him to the ground","the civilian waved at the officer in greeting","armbar","waved","officerCivilian","forceCiv","1","","","",""
"7",4141,"{""Q0"":1}","[object Object]","survey-likert",6,76332323,"0.0-6.0","vhan6sz7xxmv3fjsvfktj6ngnpyw2kxn","Wed Feb 01 2017 16:17:43 GMT-0500 (Eastern Standard Time)","female","More than one","liberal","",NA,"","offCivRatings","the officer twisted the arm of the civilian, forcing him to the ground","the civilian waved at the officer in greeting","armbar","waved","officerCivilian","manipCheckLow","1","","","",""
"8",11430,"{""Q0"":51}","[object Object]","survey-likert",7,76343771,"0.0-7.0","vhan6sz7xxmv3fjsvfktj6ngnpyw2kxn","Wed Feb 01 2017 16:17:43 GMT-0500 (Eastern Standard Time)","female","More than one","liberal","",NA,"","offCivRatings","the officer twisted the arm of the civilian, forcing him to the ground","the civilian waved at the officer in greeting","armbar","waved","officerCivilian","appropriateCiv","51","","","",""
"9",3918,"{""Q0"":1}","[object Object]","survey-likert",8,76347706,"0.0-8.0","vhan6sz7xxmv3fjsvfktj6ngnpyw2kxn","Wed Feb 01 2017 16:17:43 GMT-0500 (Eastern Standard Time)","female","More than one","liberal","",NA,"","offCivRatings","the officer twisted the arm of the civilian, forcing him to the ground","the civilian waved at the officer in greeting","armbar","waved","officerCivilian","punishCiv","1","","","",""
"10",1525,"","","instructions",9,76349232,"0.0-9.0","vhan6sz7xxmv3fjsvfktj6ngnpyw2kxn","Wed Feb 01 2017 16:17:43 GMT-0500 (Eastern Standard Time)","female","More than one","liberal","",NA,"[{""page_index"":0,""viewing_time"":1524}]","break","","","","","","","","","","",""
"11",28689,"{""Q0"":59}","[object Object]","survey-likert",10,76378138,"0.0-10.0","vhan6sz7xxmv3fjsvfktj6ngnpyw2kxn","Wed Feb 01 2017 16:17:43 GMT-0500 (Eastern Standard Time)","female","More than one","liberal","",NA,"","offCivRatings","the officer waved at the civilian in greeting","the civilian said ""if you touch me, you're gonna get hurt"" to the officer","waved","hurtThreat","civilianOfficer","appropriateOff","59","","","",""
"12",11829,"{""Q0"":29}","[object Object]","survey-likert",11,76389983,"0.0-11.0","vhan6sz7xxmv3fjsvfktj6ngnpyw2kxn","Wed Feb 01 2017 16:17:43 GMT-0500 (Eastern Standard Time)","female","More than one","liberal","",NA,"","offCivRatings","the officer waved at the civilian in greeting","the civilian said ""if you touch me, you're gonna get hurt"" to the officer","waved","hurtThreat","civilianOfficer","acceptableOff","29","","","",""
"13",4041,"{""Q0"":20}","[object Object]","survey-likert",12,76394039,"0.0-12.0","vhan6sz7xxmv3fjsvfktj6ngnpyw2kxn","Wed Feb 01 2017 16:17:43 GMT-0500 (Eastern Standard Time)","female","More than one","liberal","",NA,"","offCivRatings","the officer waved at the civilian in greeting","the civilian said ""if you touch me, you're gonna get hurt"" to the officer","waved","hurtThreat","civilianOfficer","forceOff","20","","","",""
"14",2728,"{""Q0"":1}","[object Object]","survey-likert",13,76396784,"0.0-13.0","vhan6sz7xxmv3fjsvfktj6ngnpyw2kxn","Wed Feb 01 2017 16:17:43 GMT-0500 (Eastern Standard Time)","female","More than one","liberal","",NA,"","offCivRatings","the officer waved at the civilian in greeting","the civilian said ""if you touch me, you're gonna get hurt"" to the officer","waved","hurtThreat","civilianOfficer","manipCheckLow","1","","","",""
"15",5864,"{""Q0"":11}","[object Object]","survey-likert",14,76402664,"0.0-14.0","vhan6sz7xxmv3fjsvfktj6ngnpyw2kxn","Wed Feb 01 2017 16:17:43 GMT-0500 (Eastern Standard Time)","female","More than one","liberal","",NA,"","offCivRatings","the officer waved at the civilian in greeting","the civilian said ""if you touch me, you're gonna get hurt"" to the officer","waved","hurtThreat","civilianOfficer","punishOff","11","","","",""
"16",2101,"","","instructions",15,76404765,"0.0-15.0","vhan6sz7xxmv3fjsvfktj6ngnpyw2kxn","Wed Feb 01 2017 16:17:43 GMT-0500 (Eastern Standard Time)","female","More than one","liberal","",NA,"[{""page_index"":0,""viewing_time"":2100}]","break","","","","","","","","","","",""
"17",9488,"{""Q0"":89}","[object Object]","survey-likert",16,76414471,"0.0-16.0","vhan6sz7xxmv3fjsvfktj6ngnpyw2kxn","Wed Feb 01 2017 16:17:43 GMT-0500 (Eastern Standard Time)","female","More than one","liberal","",NA,"","offCivRatings","the officer put handcuffs on the civilian","the civilian shot the officer in the chest with a handgun","handcuff","handgunChest","officerCivilian","punishCiv","89","","","",""
"18",5448,"{""Q0"":3}","[object Object]","survey-likert",17,76419935,"0.0-17.0","vhan6sz7xxmv3fjsvfktj6ngnpyw2kxn","Wed Feb 01 2017 16:17:43 GMT-0500 (Eastern Standard Time)","female","More than one","liberal","",NA,"","offCivRatings","the officer put handcuffs on the civilian","the civilian shot the officer in the chest with a handgun","handcuff","handgunChest","officerCivilian","acceptableCiv","3","","","",""
"19",5320,"{""Q0"":94}","[object Object]","survey-likert",18,76425271,"0.0-18.0","vhan6sz7xxmv3fjsvfktj6ngnpyw2kxn","Wed Feb 01 2017 16:17:43 GMT-0500 (Eastern Standard Time)","female","More than one","liberal","",NA,"","offCivRatings","the officer put handcuffs on the civilian","the civilian shot the officer in the chest with a handgun","handcuff","handgunChest","officerCivilian","appropriateCiv","94","","","",""
"20",3071,"{""Q0"":1}","[object Object]","survey-likert",19,76428360,"0.0-19.0","vhan6sz7xxmv3fjsvfktj6ngnpyw2kxn","Wed Feb 01 2017 16:17:43 GMT-0500 (Eastern Standard Time)","female","More than one","liberal","",NA,"","offCivRatings","the officer put handcuffs on the civilian","the civilian shot the officer in the chest with a handgun","handcuff","handgunChest","officerCivilian","manipCheckLow","1","","","",""
"21",4313,"{""Q0"":81}","[object Object]","survey-likert",20,76432688,"0.0-20.0","vhan6sz7xxmv3fjsvfktj6ngnpyw2kxn","Wed Feb 01 2017 16:17:43 GMT-0500 (Eastern Standard Time)","female","More than one","liberal","",NA,"","offCivRatings","the officer put handcuffs on the civilian","the civilian shot the officer in the chest with a handgun","handcuff","handgunChest","officerCivilian","forceCiv","81","","","",""
"22",1053,"","","instructions",21,76433741,"0.0-21.0","vhan6sz7xxmv3fjsvfktj6ngnpyw2kxn","Wed Feb 01 2017 16:17:43 GMT-0500 (Eastern Standard Time)","female","More than one","liberal","",NA,"[{""page_index"":0,""viewing_time"":1052}]","break","","","","","","","","","","",""
"23",8539,"{""Q0"":71}","[object Object]","survey-likert",22,76442495,"0.0-22.0","vhan6sz7xxmv3fjsvfktj6ngnpyw2kxn","Wed Feb 01 2017 16:17:43 GMT-0500 (Eastern Standard Time)","female","More than one","liberal","",NA,"","offCivRatings","the officer struck the civilian on the leg with a collapsible baton","the civilian shocked the officer with a tazer","batonLeg","tazer","officerCivilian","punishCiv","71","","","",""
"24",3617,"{""Q0"":67}","[object Object]","survey-likert",23,76446128,"0.0-23.0","vhan6sz7xxmv3fjsvfktj6ngnpyw2kxn","Wed Feb 01 2017 16:17:43 GMT-0500 (Eastern Standard Time)","female","More than one","liberal","",NA,"","offCivRatings","the officer struck the civilian on the leg with a collapsible baton","the civilian shocked the officer with a tazer","batonLeg","tazer","officerCivilian","appropriateCiv","67","","","",""
"25",3773,"{""Q0"":28}","[object Object]","survey-likert",24,76449917,"0.0-24.0","vhan6sz7xxmv3fjsvfktj6ngnpyw2kxn","Wed Feb 01 2017 16:17:43 GMT-0500 (Eastern Standard Time)","female","More than one","liberal","",NA,"","offCivRatings","the officer struck the civilian on the leg with a collapsible baton","the civilian shocked the officer with a tazer","batonLeg","tazer","officerCivilian","acceptableCiv","28","","","",""
"26",2352,"{""Q0"":69}","[object Object]","survey-likert",25,76452284,"0.0-25.0","vhan6sz7xxmv3fjsvfktj6ngnpyw2kxn","Wed Feb 01 2017 16:17:43 GMT-0500 (Eastern Standard Time)","female","More than one","liberal","",NA,"","offCivRatings","the officer struck the civilian on the leg with a collapsible baton","the civilian shocked the officer with a tazer","batonLeg","tazer","officerCivilian","forceCiv","69","","","",""
"27",1037,"","","instructions",26,76453321,"0.0-26.0","vhan6sz7xxmv3fjsvfktj6ngnpyw2kxn","Wed Feb 01 2017 16:17:43 GMT-0500 (Eastern Standard Time)","female","More than one","liberal","",NA,"[{""page_index"":0,""viewing_time"":1036}]","break","","","","","","","","","","",""
"28",9756,"{""Q0"":7}","[object Object]","survey-likert",27,76463291,"0.0-27.0","vhan6sz7xxmv3fjsvfktj6ngnpyw2kxn","Wed Feb 01 2017 16:17:43 GMT-0500 (Eastern Standard Time)","female","More than one","liberal","",NA,"","offCivRatings","the officer struck the civilian in the stomach with a metal flashlight","the civilian asked the officer how he was doing","flashlight","asked","civilianOfficer","acceptableOff","7","","","",""
"29",2601,"{""Q0"":100}","[object Object]","survey-likert",28,76465908,"0.0-28.0","vhan6sz7xxmv3fjsvfktj6ngnpyw2kxn","Wed Feb 01 2017 16:17:43 GMT-0500 (Eastern Standard Time)","female","More than one","liberal","",NA,"","offCivRatings","the officer struck the civilian in the stomach with a metal flashlight","the civilian asked the officer how he was doing","flashlight","asked","civilianOfficer","manipCheckHigh","100","","","",""
"30",5056,"{""Q0"":80}","[object Object]","survey-likert",29,76470979,"0.0-29.0","vhan6sz7xxmv3fjsvfktj6ngnpyw2kxn","Wed Feb 01 2017 16:17:43 GMT-0500 (Eastern Standard Time)","female","More than one","liberal","",NA,"","offCivRatings","the officer struck the civilian in the stomach with a metal flashlight","the civilian asked the officer how he was doing","flashlight","asked","civilianOfficer","forceOff","80","","","",""
"31",6994,"{""Q0"":21}","[object Object]","survey-likert",30,76477987,"0.0-30.0","vhan6sz7xxmv3fjsvfktj6ngnpyw2kxn","Wed Feb 01 2017 16:17:43 GMT-0500 (Eastern Standard Time)","female","More than one","liberal","",NA,"","offCivRatings","the officer struck the civilian in the stomach with a metal flashlight","the civilian asked the officer how he was doing","flashlight","asked","civilianOfficer","appropriateOff","21","","","",""
"32",3745,"{""Q0"":60}","[object Object]","survey-likert",31,76481748,"0.0-31.0","vhan6sz7xxmv3fjsvfktj6ngnpyw2kxn","Wed Feb 01 2017 16:17:43 GMT-0500 (Eastern Standard Time)","female","More than one","liberal","",NA,"","offCivRatings","the officer struck the civilian in the stomach with a metal flashlight","the civilian asked the officer how he was doing","flashlight","asked","civilianOfficer","punishOff","60","","","",""
"33",749,"","","instructions",32,76482497,"0.0-32.0","vhan6sz7xxmv3fjsvfktj6ngnpyw2kxn","Wed Feb 01 2017 16:17:43 GMT-0500 (Eastern Standard Time)","female","More than one","liberal","",NA,"[{""page_index"":0,""viewing_time"":748}]","break","","","","","","","","","","",""
"34",7435,"{""Q0"":23}","[object Object]","survey-likert",33,76490147,"0.0-33.0","vhan6sz7xxmv3fjsvfktj6ngnpyw2kxn","Wed Feb 01 2017 16:17:43 GMT-0500 (Eastern Standard Time)","female","More than one","liberal","",NA,"","offCivRatings","the officer applied a chokehold to the civilian","the civilian yelled ""get back!"" at the officer","choke","getBack","officerCivilian","forceCiv","23","","","",""
"35",4369,"{""Q0"":1}","[object Object]","survey-likert",34,76494531,"0.0-34.0","vhan6sz7xxmv3fjsvfktj6ngnpyw2kxn","Wed Feb 01 2017 16:17:43 GMT-0500 (Eastern Standard Time)","female","More than one","liberal","",NA,"","offCivRatings","the officer applied a chokehold to the civilian","the civilian yelled ""get back!"" at the officer","choke","getBack","officerCivilian","punishCiv","1","","","",""
"36",3434,"{""Q0"":72}","[object Object]","survey-likert",35,76497980,"0.0-35.0","vhan6sz7xxmv3fjsvfktj6ngnpyw2kxn","Wed Feb 01 2017 16:17:43 GMT-0500 (Eastern Standard Time)","female","More than one","liberal","",NA,"","offCivRatings","the officer applied a chokehold to the civilian","the civilian yelled ""get back!"" at the officer","choke","getBack","officerCivilian","acceptableCiv","72","","","",""
"37",3361,"{""Q0"":100}","[object Object]","survey-likert",36,76501355,"0.0-36.0","vhan6sz7xxmv3fjsvfktj6ngnpyw2kxn","Wed Feb 01 2017 16:17:43 GMT-0500 (Eastern Standard Time)","female","More than one","liberal","",NA,"","offCivRatings","the officer applied a chokehold to the civilian","the civilian yelled ""get back!"" at the officer","choke","getBack","officerCivilian","manipCheckHigh","100","","","",""
"38",11406,"{""Q0"":22}","[object Object]","survey-likert",37,76512776,"0.0-37.0","vhan6sz7xxmv3fjsvfktj6ngnpyw2kxn","Wed Feb 01 2017 16:17:43 GMT-0500 (Eastern Standard Time)","female","More than one","liberal","",NA,"","offCivRatings","the officer applied a chokehold to the civilian","the civilian yelled ""get back!"" at the officer","choke","getBack","officerCivilian","appropriateCiv","22","","","",""
"39",1005,"","","instructions",38,76513782,"0.0-38.0","vhan6sz7xxmv3fjsvfktj6ngnpyw2kxn","Wed Feb 01 2017 16:17:43 GMT-0500 (Eastern Standard Time)","female","More than one","liberal","",NA,"[{""page_index"":0,""viewing_time"":1005}]","break","","","","","","","","","","",""
"40",10634,"{""Q0"":30}","[object Object]","survey-likert",39,76524632,"0.0-39.0","vhan6sz7xxmv3fjsvfktj6ngnpyw2kxn","Wed Feb 01 2017 16:17:43 GMT-0500 (Eastern Standard Time)","female","More than one","liberal","",NA,"","offCivRatings","the officer slammed the civilian's head into the concrete curb","the civilian twisted the arm of the officer, forcing him to the ground","headSlam","armbar","officerCivilian","acceptableCiv","30","","","",""
"41",3346,"{""Q0"":43}","[object Object]","survey-likert",40,76527992,"0.0-40.0","vhan6sz7xxmv3fjsvfktj6ngnpyw2kxn","Wed Feb 01 2017 16:17:43 GMT-0500 (Eastern Standard Time)","female","More than one","liberal","",NA,"","offCivRatings","the officer slammed the civilian's head into the concrete curb","the civilian twisted the arm of the officer, forcing him to the ground","headSlam","armbar","officerCivilian","forceCiv","43","","","",""
"42",3146,"{""Q0"":1}","[object Object]","survey-likert",41,76531152,"0.0-41.0","vhan6sz7xxmv3fjsvfktj6ngnpyw2kxn","Wed Feb 01 2017 16:17:43 GMT-0500 (Eastern Standard Time)","female","More than one","liberal","",NA,"","offCivRatings","the officer slammed the civilian's head into the concrete curb","the civilian twisted the arm of the officer, forcing him to the ground","headSlam","armbar","officerCivilian","manipCheckLow","1","","","",""
"43",3809,"{""Q0"":40}","[object Object]","survey-likert",42,76534976,"0.0-42.0","vhan6sz7xxmv3fjsvfktj6ngnpyw2kxn","Wed Feb 01 2017 16:17:43 GMT-0500 (Eastern Standard Time)","female","More than one","liberal","",NA,"","offCivRatings","the officer slammed the civilian's head into the concrete curb","the civilian twisted the arm of the officer, forcing him to the ground","headSlam","armbar","officerCivilian","punishCiv","40","","","",""
"44",4434,"{""Q0"":36}","[object Object]","survey-likert",43,76539424,"0.0-43.0","vhan6sz7xxmv3fjsvfktj6ngnpyw2kxn","Wed Feb 01 2017 16:17:43 GMT-0500 (Eastern Standard Time)","female","More than one","liberal","",NA,"","offCivRatings","the officer slammed the civilian's head into the concrete curb","the civilian twisted the arm of the officer, forcing him to the ground","headSlam","armbar","officerCivilian","appropriateCiv","36","","","",""
"45",846,"","","instructions",44,76540270,"0.0-44.0","vhan6sz7xxmv3fjsvfktj6ngnpyw2kxn","Wed Feb 01 2017 16:17:43 GMT-0500 (Eastern Standard Time)","female","More than one","liberal","",NA,"[{""page_index"":0,""viewing_time"":845}]","break","","","","","","","","","","",""
"46",7260,"{""Q0"":98}","[object Object]","survey-likert",45,76547745,"0.0-45.0","vhan6sz7xxmv3fjsvfktj6ngnpyw2kxn","Wed Feb 01 2017 16:17:43 GMT-0500 (Eastern Standard Time)","female","More than one","liberal","",NA,"","offCivRatings","the officer shot the civilian in the chest with a handgun","the civilian struck the officer on the leg with a metal pipe","handgunChest","metalPipe","civilianOfficer","forceOff","98","","","",""
"47",4849,"{""Q0"":92}","[object Object]","survey-likert",46,76552608,"0.0-46.0","vhan6sz7xxmv3fjsvfktj6ngnpyw2kxn","Wed Feb 01 2017 16:17:43 GMT-0500 (Eastern Standard Time)","female","More than one","liberal","",NA,"","offCivRatings","the officer shot the civilian in the chest with a handgun","the civilian struck the officer on the leg with a metal pipe","handgunChest","metalPipe","civilianOfficer","appropriateOff","92","","","",""
"48",3775,"{""Q0"":79}","[object Object]","survey-likert",47,76556401,"0.0-47.0","vhan6sz7xxmv3fjsvfktj6ngnpyw2kxn","Wed Feb 01 2017 16:17:43 GMT-0500 (Eastern Standard Time)","female","More than one","liberal","",NA,"","offCivRatings","the officer shot the civilian in the chest with a handgun","the civilian struck the officer on the leg with a metal pipe","handgunChest","metalPipe","civilianOfficer","punishOff","79","","","",""
"49",3097,"{""Q0"":19}","[object Object]","survey-likert",48,76559512,"0.0-48.0","vhan6sz7xxmv3fjsvfktj6ngnpyw2kxn","Wed Feb 01 2017 16:17:43 GMT-0500 (Eastern Standard Time)","female","More than one","liberal","",NA,"","offCivRatings","the officer shot the civilian in the chest with a handgun","the civilian struck the officer on the leg with a metal pipe","handgunChest","metalPipe","civilianOfficer","acceptableOff","19","","","",""
"50",701,"","","instructions",49,76560214,"0.0-49.0","vhan6sz7xxmv3fjsvfktj6ngnpyw2kxn","Wed Feb 01 2017 16:17:43 GMT-0500 (Eastern Standard Time)","female","More than one","liberal","",NA,"[{""page_index"":0,""viewing_time"":700}]","break","","","","","","","","","","",""
"51",6452,"{""Q0"":66}","[object Object]","survey-likert",50,76566881,"0.0-50.0","vhan6sz7xxmv3fjsvfktj6ngnpyw2kxn","Wed Feb 01 2017 16:17:43 GMT-0500 (Eastern Standard Time)","female","More than one","liberal","",NA,"","offCivRatings","the officer punched the civilian in the face","the civilian called the officer a ""pig""","punchFace","nameCall","civilianOfficer","punishOff","66","","","",""
"52",2512,"{""Q0"":25}","[object Object]","survey-likert",51,76569408,"0.0-51.0","vhan6sz7xxmv3fjsvfktj6ngnpyw2kxn","Wed Feb 01 2017 16:17:43 GMT-0500 (Eastern Standard Time)","female","More than one","liberal","",NA,"","offCivRatings","the officer punched the civilian in the face","the civilian called the officer a ""pig""","punchFace","nameCall","civilianOfficer","acceptableOff","25","","","",""
"53",2445,"{""Q0"":62}","[object Object]","survey-likert",52,76571869,"0.0-52.0","vhan6sz7xxmv3fjsvfktj6ngnpyw2kxn","Wed Feb 01 2017 16:17:43 GMT-0500 (Eastern Standard Time)","female","More than one","liberal","",NA,"","offCivRatings","the officer punched the civilian in the face","the civilian called the officer a ""pig""","punchFace","nameCall","civilianOfficer","forceOff","62","","","",""
"54",4753,"{""Q0"":84}","[object Object]","survey-likert",53,76576637,"0.0-53.0","vhan6sz7xxmv3fjsvfktj6ngnpyw2kxn","Wed Feb 01 2017 16:17:43 GMT-0500 (Eastern Standard Time)","female","More than one","liberal","",NA,"","offCivRatings","the officer punched the civilian in the face","the civilian called the officer a ""pig""","punchFace","nameCall","civilianOfficer","appropriateOff","84","","","",""
"55",902,"","","instructions",54,76577539,"0.0-54.0","vhan6sz7xxmv3fjsvfktj6ngnpyw2kxn","Wed Feb 01 2017 16:17:43 GMT-0500 (Eastern Standard Time)","female","More than one","liberal","",NA,"[{""page_index"":0,""viewing_time"":901}]","break","","","","","","","","","","",""
"56",8588,"{""Q0"":1}","[object Object]","survey-likert",55,76586342,"0.0-55.0","vhan6sz7xxmv3fjsvfktj6ngnpyw2kxn","Wed Feb 01 2017 16:17:43 GMT-0500 (Eastern Standard Time)","female","More than one","liberal","",NA,"","offCivRatings","the officer shot the civilian in the head with a handgun","the civilian stood near the officer","handgunHead","stoodNear","officerCivilian","forceCiv","1","","","",""
"57",2557,"{""Q0"":100}","[object Object]","survey-likert",56,76588917,"0.0-56.0","vhan6sz7xxmv3fjsvfktj6ngnpyw2kxn","Wed Feb 01 2017 16:17:43 GMT-0500 (Eastern Standard Time)","female","More than one","liberal","",NA,"","offCivRatings","the officer shot the civilian in the head with a handgun","the civilian stood near the officer","handgunHead","stoodNear","officerCivilian","manipCheckHigh","100","","","",""
"58",3841,"{""Q0"":11}","[object Object]","survey-likert",57,76592774,"0.0-57.0","vhan6sz7xxmv3fjsvfktj6ngnpyw2kxn","Wed Feb 01 2017 16:17:43 GMT-0500 (Eastern Standard Time)","female","More than one","liberal","",NA,"","offCivRatings","the officer shot the civilian in the head with a handgun","the civilian stood near the officer","handgunHead","stoodNear","officerCivilian","appropriateCiv","11","","","",""
"59",3951,"{""Q0"":100}","[object Object]","survey-likert",58,76596740,"0.0-58.0","vhan6sz7xxmv3fjsvfktj6ngnpyw2kxn","Wed Feb 01 2017 16:17:43 GMT-0500 (Eastern Standard Time)","female","More than one","liberal","",NA,"","offCivRatings","the officer shot the civilian in the head with a handgun","the civilian stood near the officer","handgunHead","stoodNear","officerCivilian","acceptableCiv","100","","","",""
"60",2601,"{""Q0"":1}","[object Object]","survey-likert",59,76599356,"0.0-59.0","vhan6sz7xxmv3fjsvfktj6ngnpyw2kxn","Wed Feb 01 2017 16:17:43 GMT-0500 (Eastern Standard Time)","female","More than one","liberal","",NA,"","offCivRatings","the officer shot the civilian in the head with a handgun","the civilian stood near the officer","handgunHead","stoodNear","officerCivilian","punishCiv","1","","","",""
"61",718,"","","instructions",60,76600074,"0.0-60.0","vhan6sz7xxmv3fjsvfktj6ngnpyw2kxn","Wed Feb 01 2017 16:17:43 GMT-0500 (Eastern Standard Time)","female","More than one","liberal","",NA,"[{""page_index"":0,""viewing_time"":717}]","break","","","","","","","","","","",""
"62",8885,"{""Q0"":20}","[object Object]","survey-likert",61,76609173,"0.0-61.0","vhan6sz7xxmv3fjsvfktj6ngnpyw2kxn","Wed Feb 01 2017 16:17:43 GMT-0500 (Eastern Standard Time)","female","More than one","liberal","",NA,"","offCivRatings","the officer kicked the civilian in the stomach","the civilian shot the officer in the head with a handgun","kickStom","handgunHead","civilianOfficer","punishOff","20","","","",""
"63",4390,"{""Q0"":32}","[object Object]","survey-likert",62,76613581,"0.0-62.0","vhan6sz7xxmv3fjsvfktj6ngnpyw2kxn","Wed Feb 01 2017 16:17:43 GMT-0500 (Eastern Standard Time)","female","More than one","liberal","",NA,"","offCivRatings","the officer kicked the civilian in the stomach","the civilian shot the officer in the head with a handgun","kickStom","handgunHead","civilianOfficer","forceOff","32","","","",""
"64",3783,"{""Q0"":31}","[object Object]","survey-likert",63,76617380,"0.0-63.0","vhan6sz7xxmv3fjsvfktj6ngnpyw2kxn","Wed Feb 01 2017 16:17:43 GMT-0500 (Eastern Standard Time)","female","More than one","liberal","",NA,"","offCivRatings","the officer kicked the civilian in the stomach","the civilian shot the officer in the head with a handgun","kickStom","handgunHead","civilianOfficer","appropriateOff","31","","","",""
"65",4602,"{""Q0"":73}","[object Object]","survey-likert",64,76621996,"0.0-64.0","vhan6sz7xxmv3fjsvfktj6ngnpyw2kxn","Wed Feb 01 2017 16:17:43 GMT-0500 (Eastern Standard Time)","female","More than one","liberal","",NA,"","offCivRatings","the officer kicked the civilian in the stomach","the civilian shot the officer in the head with a handgun","kickStom","handgunHead","civilianOfficer","acceptableOff","73","","","",""
"66",589,"","","instructions",65,76622586,"0.0-65.0","vhan6sz7xxmv3fjsvfktj6ngnpyw2kxn","Wed Feb 01 2017 16:17:43 GMT-0500 (Eastern Standard Time)","female","More than one","liberal","",NA,"[{""page_index"":0,""viewing_time"":588}]","break","","","","","","","","","","",""
"67",9913,"{""Q0"":21}","[object Object]","survey-likert",66,76632714,"0.0-66.0","vhan6sz7xxmv3fjsvfktj6ngnpyw2kxn","Wed Feb 01 2017 16:17:43 GMT-0500 (Eastern Standard Time)","female","More than one","liberal","",NA,"","offCivRatings","the officer stood near the civilian","the civilian punched the officer in the face","stoodNear","punchFace","civilianOfficer","appropriateOff","21","","","",""
"68",5385,"{""Q0"":10}","[object Object]","survey-likert",67,76638114,"0.0-67.0","vhan6sz7xxmv3fjsvfktj6ngnpyw2kxn","Wed Feb 01 2017 16:17:43 GMT-0500 (Eastern Standard Time)","female","More than one","liberal","",NA,"","offCivRatings","the officer stood near the civilian","the civilian punched the officer in the face","stoodNear","punchFace","civilianOfficer","forceOff","10","","","",""
"69",3737,"{""Q0"":100}","[object Object]","survey-likert",68,76641865,"0.0-68.0","vhan6sz7xxmv3fjsvfktj6ngnpyw2kxn","Wed Feb 01 2017 16:17:43 GMT-0500 (Eastern Standard Time)","female","More than one","liberal","",NA,"","offCivRatings","the officer stood near the civilian","the civilian punched the officer in the face","stoodNear","punchFace","civilianOfficer","acceptableOff","100","","","",""
"70",2733,"{""Q0"":1}","[object Object]","survey-likert",69,76644613,"0.0-69.0","vhan6sz7xxmv3fjsvfktj6ngnpyw2kxn","Wed Feb 01 2017 16:17:43 GMT-0500 (Eastern Standard Time)","female","More than one","liberal","",NA,"","offCivRatings","the officer stood near the civilian","the civilian punched the officer in the face","stoodNear","punchFace","civilianOfficer","punishOff","1","","","",""
"71",779,"","","instructions",70,76645392,"0.0-70.0","vhan6sz7xxmv3fjsvfktj6ngnpyw2kxn","Wed Feb 01 2017 16:17:43 GMT-0500 (Eastern Standard Time)","female","More than one","liberal","",NA,"[{""page_index"":0,""viewing_time"":778}]","break","","","","","","","","","","",""
"72",7743,"{""Q0"":33}","[object Object]","survey-likert",71,76653353,"0.0-71.0","vhan6sz7xxmv3fjsvfktj6ngnpyw2kxn","Wed Feb 01 2017 16:17:43 GMT-0500 (Eastern Standard Time)","female","More than one","liberal","",NA,"","offCivRatings","the officer shouted ""get your fucking hands up!"" at the civilian","the civilian struck the officer in the stomach with a metal flashlight","handsUp","flashlight","civilianOfficer","forceOff","33","","","",""
"73",6023,"{""Q0"":74}","[object Object]","survey-likert",72,76659393,"0.0-72.0","vhan6sz7xxmv3fjsvfktj6ngnpyw2kxn","Wed Feb 01 2017 16:17:43 GMT-0500 (Eastern Standard Time)","female","More than one","liberal","",NA,"","offCivRatings","the officer shouted ""get your fucking hands up!"" at the civilian","the civilian struck the officer in the stomach with a metal flashlight","handsUp","flashlight","civilianOfficer","acceptableOff","74","","","",""
"74",3169,"{""Q0"":35}","[object Object]","survey-likert",73,76662577,"0.0-73.0","vhan6sz7xxmv3fjsvfktj6ngnpyw2kxn","Wed Feb 01 2017 16:17:43 GMT-0500 (Eastern Standard Time)","female","More than one","liberal","",NA,"","offCivRatings","the officer shouted ""get your fucking hands up!"" at the civilian","the civilian struck the officer in the stomach with a metal flashlight","handsUp","flashlight","civilianOfficer","appropriateOff","35","","","",""
"75",2474,"{""Q0"":1}","[object Object]","survey-likert",74,76665065,"0.0-74.0","vhan6sz7xxmv3fjsvfktj6ngnpyw2kxn","Wed Feb 01 2017 16:17:43 GMT-0500 (Eastern Standard Time)","female","More than one","liberal","",NA,"","offCivRatings","the officer shouted ""get your fucking hands up!"" at the civilian","the civilian struck the officer in the stomach with a metal flashlight","handsUp","flashlight","civilianOfficer","manipCheckLow","1","","","",""
"76",3994,"{""Q0"":22}","[object Object]","survey-likert",75,76669073,"0.0-75.0","vhan6sz7xxmv3fjsvfktj6ngnpyw2kxn","Wed Feb 01 2017 16:17:43 GMT-0500 (Eastern Standard Time)","female","More than one","liberal","",NA,"","offCivRatings","the officer shouted ""get your fucking hands up!"" at the civilian","the civilian struck the officer in the stomach with a metal flashlight","handsUp","flashlight","civilianOfficer","punishOff","22","","","",""
"77",757,"","","instructions",76,76669831,"0.0-76.0","vhan6sz7xxmv3fjsvfktj6ngnpyw2kxn","Wed Feb 01 2017 16:17:43 GMT-0500 (Eastern Standard Time)","female","More than one","liberal","",NA,"[{""page_index"":0,""viewing_time"":756}]","break","","","","","","","","","","",""
"78",7001,"{""Q0"":30}","[object Object]","survey-likert",77,76677066,"0.0-77.0","vhan6sz7xxmv3fjsvfktj6ngnpyw2kxn","Wed Feb 01 2017 16:17:43 GMT-0500 (Eastern Standard Time)","female","More than one","liberal","",NA,"","offCivRatings","the officer purposefully struck the civilian with a motor vehicle","the civilian sprayed the officer with pepper spray","vehicle","pepperSpray","officerCivilian","appropriateCiv","30","","","",""
"79",4520,"{""Q0"":52}","[object Object]","survey-likert",78,76681601,"0.0-78.0","vhan6sz7xxmv3fjsvfktj6ngnpyw2kxn","Wed Feb 01 2017 16:17:43 GMT-0500 (Eastern Standard Time)","female","More than one","liberal","",NA,"","offCivRatings","the officer purposefully struck the civilian with a motor vehicle","the civilian sprayed the officer with pepper spray","vehicle","pepperSpray","officerCivilian","acceptableCiv","52","","","",""
"80",2690,"{""Q0"":31}","[object Object]","survey-likert",79,76684306,"0.0-79.0","vhan6sz7xxmv3fjsvfktj6ngnpyw2kxn","Wed Feb 01 2017 16:17:43 GMT-0500 (Eastern Standard Time)","female","More than one","liberal","",NA,"","offCivRatings","the officer purposefully struck the civilian with a motor vehicle","the civilian sprayed the officer with pepper spray","vehicle","pepperSpray","officerCivilian","punishCiv","31","","","",""
"81",2592,"{""Q0"":36}","[object Object]","survey-likert",80,76686913,"0.0-80.0","vhan6sz7xxmv3fjsvfktj6ngnpyw2kxn","Wed Feb 01 2017 16:17:43 GMT-0500 (Eastern Standard Time)","female","More than one","liberal","",NA,"","offCivRatings","the officer purposefully struck the civilian with a motor vehicle","the civilian sprayed the officer with pepper spray","vehicle","pepperSpray","officerCivilian","forceCiv","36","","","",""
"82",638,"","","instructions",81,76687551,"0.0-81.0","vhan6sz7xxmv3fjsvfktj6ngnpyw2kxn","Wed Feb 01 2017 16:17:43 GMT-0500 (Eastern Standard Time)","female","More than one","liberal","",NA,"[{""page_index"":0,""viewing_time"":637}]","break","","","","","","","","","","",""
"83",5752,"{""Q0"":69}","[object Object]","survey-likert",82,76693518,"0.0-82.0","vhan6sz7xxmv3fjsvfktj6ngnpyw2kxn","Wed Feb 01 2017 16:17:43 GMT-0500 (Eastern Standard Time)","female","More than one","liberal","",NA,"","offCivRatings","the officer said ""if you touch me, you're gonna get hurt"" to the civilian","the civilian applied a chokehold to the officer","hurtThreat","choke","officerCivilian","forceCiv","69","","","",""
"84",3383,"{""Q0"":20}","[object Object]","survey-likert",83,76696918,"0.0-83.0","vhan6sz7xxmv3fjsvfktj6ngnpyw2kxn","Wed Feb 01 2017 16:17:43 GMT-0500 (Eastern Standard Time)","female","More than one","liberal","",NA,"","offCivRatings","the officer said ""if you touch me, you're gonna get hurt"" to the civilian","the civilian applied a chokehold to the officer","hurtThreat","choke","officerCivilian","acceptableCiv","20","","","",""
"85",3345,"{""Q0"":79}","[object Object]","survey-likert",84,76700277,"0.0-84.0","vhan6sz7xxmv3fjsvfktj6ngnpyw2kxn","Wed Feb 01 2017 16:17:43 GMT-0500 (Eastern Standard Time)","female","More than one","liberal","",NA,"","offCivRatings","the officer said ""if you touch me, you're gonna get hurt"" to the civilian","the civilian applied a chokehold to the officer","hurtThreat","choke","officerCivilian","punishCiv","79","","","",""
"86",4578,"{""Q0"":84}","[object Object]","survey-likert",85,76704869,"0.0-85.0","vhan6sz7xxmv3fjsvfktj6ngnpyw2kxn","Wed Feb 01 2017 16:17:43 GMT-0500 (Eastern Standard Time)","female","More than one","liberal","",NA,"","offCivRatings","the officer said ""if you touch me, you're gonna get hurt"" to the civilian","the civilian applied a chokehold to the officer","hurtThreat","choke","officerCivilian","appropriateCiv","84","","","",""
"87",837,"","","instructions",86,76705707,"0.0-86.0","vhan6sz7xxmv3fjsvfktj6ngnpyw2kxn","Wed Feb 01 2017 16:17:43 GMT-0500 (Eastern Standard Time)","female","More than one","liberal","",NA,"[{""page_index"":0,""viewing_time"":837}]","break","","","","","","","","","","",""
"88",6788,"{""Q0"":13}","[object Object]","survey-likert",87,76712710,"0.0-87.0","vhan6sz7xxmv3fjsvfktj6ngnpyw2kxn","Wed Feb 01 2017 16:17:43 GMT-0500 (Eastern Standard Time)","female","More than one","liberal","",NA,"","offCivRatings","the officer called the civilian a ""thug""","the civilian headbutted the officer in the face","nameCall","headbutt","officerCivilian","acceptableCiv","13","","","",""
"89",2162,"{""Q0"":62}","[object Object]","survey-likert",88,76714886,"0.0-88.0","vhan6sz7xxmv3fjsvfktj6ngnpyw2kxn","Wed Feb 01 2017 16:17:43 GMT-0500 (Eastern Standard Time)","female","More than one","liberal","",NA,"","offCivRatings","the officer called the civilian a ""thug""","the civilian headbutted the officer in the face","nameCall","headbutt","officerCivilian","punishCiv","62","","","",""
"90",4392,"{""Q0"":74}","[object Object]","survey-likert",89,76719294,"0.0-89.0","vhan6sz7xxmv3fjsvfktj6ngnpyw2kxn","Wed Feb 01 2017 16:17:43 GMT-0500 (Eastern Standard Time)","female","More than one","liberal","",NA,"","offCivRatings","the officer called the civilian a ""thug""","the civilian headbutted the officer in the face","nameCall","headbutt","officerCivilian","appropriateCiv","74","","","",""
"91",3224,"{""Q0"":67}","[object Object]","survey-likert",90,76722533,"0.0-90.0","vhan6sz7xxmv3fjsvfktj6ngnpyw2kxn","Wed Feb 01 2017 16:17:43 GMT-0500 (Eastern Standard Time)","female","More than one","liberal","",NA,"","offCivRatings","the officer called the civilian a ""thug""","the civilian headbutted the officer in the face","nameCall","headbutt","officerCivilian","forceCiv","67","","","",""
"92",621,"","","instructions",91,76723155,"0.0-91.0","vhan6sz7xxmv3fjsvfktj6ngnpyw2kxn","Wed Feb 01 2017 16:17:43 GMT-0500 (Eastern Standard Time)","female","More than one","liberal","",NA,"[{""page_index"":0,""viewing_time"":621}]","break","","","","","","","","","","",""
"93",6405,"{""Q0"":36}","[object Object]","survey-likert",92,76729774,"0.0-92.0","vhan6sz7xxmv3fjsvfktj6ngnpyw2kxn","Wed Feb 01 2017 16:17:43 GMT-0500 (Eastern Standard Time)","female","More than one","liberal","",NA,"","offCivRatings","the officer sprayed the civilian with pepper spray","the civilian slammed the officer's head into the concrete curb","pepperSpray","headSlam","civilianOfficer","forceOff","36","","","",""
"94",3144,"{""Q0"":77}","[object Object]","survey-likert",93,76732933,"0.0-93.0","vhan6sz7xxmv3fjsvfktj6ngnpyw2kxn","Wed Feb 01 2017 16:17:43 GMT-0500 (Eastern Standard Time)","female","More than one","liberal","",NA,"","offCivRatings","the officer sprayed the civilian with pepper spray","the civilian slammed the officer's head into the concrete curb","pepperSpray","headSlam","civilianOfficer","acceptableOff","77","","","",""
"95",3841,"{""Q0"":8}","[object Object]","survey-likert",94,76736789,"0.0-94.0","vhan6sz7xxmv3fjsvfktj6ngnpyw2kxn","Wed Feb 01 2017 16:17:43 GMT-0500 (Eastern Standard Time)","female","More than one","liberal","",NA,"","offCivRatings","the officer sprayed the civilian with pepper spray","the civilian slammed the officer's head into the concrete curb","pepperSpray","headSlam","civilianOfficer","punishOff","8","","","",""
"96",3314,"{""Q0"":27}","[object Object]","survey-likert",95,76740117,"0.0-95.0","vhan6sz7xxmv3fjsvfktj6ngnpyw2kxn","Wed Feb 01 2017 16:17:43 GMT-0500 (Eastern Standard Time)","female","More than one","liberal","",NA,"","offCivRatings","the officer sprayed the civilian with pepper spray","the civilian slammed the officer's head into the concrete curb","pepperSpray","headSlam","civilianOfficer","appropriateOff","27","","","",""
"97",2515,"{""Q0"":1}","[object Object]","survey-likert",96,76742646,"0.0-96.0","vhan6sz7xxmv3fjsvfktj6ngnpyw2kxn","Wed Feb 01 2017 16:17:43 GMT-0500 (Eastern Standard Time)","female","More than one","liberal","",NA,"","offCivRatings","the officer sprayed the civilian with pepper spray","the civilian slammed the officer's head into the concrete curb","pepperSpray","headSlam","civilianOfficer","manipCheckLow","1","","","",""
"98",557,"","","instructions",97,76743204,"0.0-97.0","vhan6sz7xxmv3fjsvfktj6ngnpyw2kxn","Wed Feb 01 2017 16:17:43 GMT-0500 (Eastern Standard Time)","female","More than one","liberal","",NA,"[{""page_index"":0,""viewing_time"":556}]","break","","","","","","","","","","",""
"99",7131,"{""Q0"":19}","[object Object]","survey-likert",98,76750549,"0.0-98.0","vhan6sz7xxmv3fjsvfktj6ngnpyw2kxn","Wed Feb 01 2017 16:17:43 GMT-0500 (Eastern Standard Time)","female","More than one","liberal","",NA,"","offCivRatings","the officer yelled ""get back!"" at the civilian","the civilian shouted ""I don't have to fucking listen to you!"" at the officer","getBack","dontListen","civilianOfficer","forceOff","19","","","",""
"100",3462,"{""Q0"":4}","[object Object]","survey-likert",99,76754026,"0.0-99.0","vhan6sz7xxmv3fjsvfktj6ngnpyw2kxn","Wed Feb 01 2017 16:17:43 GMT-0500 (Eastern Standard Time)","female","More than one","liberal","",NA,"","offCivRatings","the officer yelled ""get back!"" at the civilian","the civilian shouted ""I don't have to fucking listen to you!"" at the officer","getBack","dontListen","civilianOfficer","punishOff","4","","","",""
"101",2922,"{""Q0"":36}","[object Object]","survey-likert",100,76756962,"0.0-100.0","vhan6sz7xxmv3fjsvfktj6ngnpyw2kxn","Wed Feb 01 2017 16:17:43 GMT-0500 (Eastern Standard Time)","female","More than one","liberal","",NA,"","offCivRatings","the officer yelled ""get back!"" at the civilian","the civilian shouted ""I don't have to fucking listen to you!"" at the officer","getBack","dontListen","civilianOfficer","appropriateOff","36","","","",""
"102",2625,"{""Q0"":82}","[object Object]","survey-likert",101,76759603,"0.0-101.0","vhan6sz7xxmv3fjsvfktj6ngnpyw2kxn","Wed Feb 01 2017 16:17:43 GMT-0500 (Eastern Standard Time)","female","More than one","liberal","",NA,"","offCivRatings","the officer yelled ""get back!"" at the civilian","the civilian shouted ""I don't have to fucking listen to you!"" at the officer","getBack","dontListen","civilianOfficer","acceptableOff","82","","","",""
"103",653,"","","instructions",102,76760256,"0.0-102.0","vhan6sz7xxmv3fjsvfktj6ngnpyw2kxn","Wed Feb 01 2017 16:17:43 GMT-0500 (Eastern Standard Time)","female","More than one","liberal","",NA,"[{""page_index"":0,""viewing_time"":653}]","break","","","","","","","","","","",""
"104",5747,"{""Q0"":1}","[object Object]","survey-likert",103,76766218,"0.0-103.0","vhan6sz7xxmv3fjsvfktj6ngnpyw2kxn","Wed Feb 01 2017 16:17:43 GMT-0500 (Eastern Standard Time)","female","More than one","liberal","",NA,"","offCivRatings","the officer shocked the civilian with a tazer","the civilian pulled away from the officer","tazer","pulledAway","officerCivilian","forceCiv","1","","","",""
"105",5377,"{""Q0"":1}","[object Object]","survey-likert",104,76771610,"0.0-104.0","vhan6sz7xxmv3fjsvfktj6ngnpyw2kxn","Wed Feb 01 2017 16:17:43 GMT-0500 (Eastern Standard Time)","female","More than one","liberal","",NA,"","offCivRatings","the officer shocked the civilian with a tazer","the civilian pulled away from the officer","tazer","pulledAway","officerCivilian","punishCiv","1","","","",""
"106",2186,"{""Q0"":100}","[object Object]","survey-likert",105,76773810,"0.0-105.0","vhan6sz7xxmv3fjsvfktj6ngnpyw2kxn","Wed Feb 01 2017 16:17:43 GMT-0500 (Eastern Standard Time)","female","More than one","liberal","",NA,"","offCivRatings","the officer shocked the civilian with a tazer","the civilian pulled away from the officer","tazer","pulledAway","officerCivilian","acceptableCiv","100","","","",""
"107",4890,"{""Q0"":9}","[object Object]","survey-likert",106,76778715,"0.0-106.0","vhan6sz7xxmv3fjsvfktj6ngnpyw2kxn","Wed Feb 01 2017 16:17:43 GMT-0500 (Eastern Standard Time)","female","More than one","liberal","",NA,"","offCivRatings","the officer shocked the civilian with a tazer","the civilian pulled away from the officer","tazer","pulledAway","officerCivilian","appropriateCiv","9","","","",""
"108",598,"","","instructions",107,76779313,"0.0-107.0","vhan6sz7xxmv3fjsvfktj6ngnpyw2kxn","Wed Feb 01 2017 16:17:43 GMT-0500 (Eastern Standard Time)","female","More than one","liberal","",NA,"[{""page_index"":0,""viewing_time"":596}]","break","","","","","","","","","","",""
"109",7356,"{""Q0"":57}","[object Object]","survey-likert",108,76786882,"0.0-108.0","vhan6sz7xxmv3fjsvfktj6ngnpyw2kxn","Wed Feb 01 2017 16:17:43 GMT-0500 (Eastern Standard Time)","female","More than one","liberal","",NA,"","offCivRatings","the officer shot the civilian in the chest with a beanbag shotgun round","the civilian hit the officer in the chest with a baseball bat","beanbag","ballBat","civilianOfficer","forceOff","57","","","",""
"110",2730,"{""Q0"":90}","[object Object]","survey-likert",109,76789626,"0.0-109.0","vhan6sz7xxmv3fjsvfktj6ngnpyw2kxn","Wed Feb 01 2017 16:17:43 GMT-0500 (Eastern Standard Time)","female","More than one","liberal","",NA,"","offCivRatings","the officer shot the civilian in the chest with a beanbag shotgun round","the civilian hit the officer in the chest with a baseball bat","beanbag","ballBat","civilianOfficer","acceptableOff","90","","","",""
"111",3178,"{""Q0"":13}","[object Object]","survey-likert",110,76792818,"0.0-110.0","vhan6sz7xxmv3fjsvfktj6ngnpyw2kxn","Wed Feb 01 2017 16:17:43 GMT-0500 (Eastern Standard Time)","female","More than one","liberal","",NA,"","offCivRatings","the officer shot the civilian in the chest with a beanbag shotgun round","the civilian hit the officer in the chest with a baseball bat","beanbag","ballBat","civilianOfficer","punishOff","13","","","",""
"112",5434,"{""Q0"":42}","[object Object]","survey-likert",111,76798267,"0.0-111.0","vhan6sz7xxmv3fjsvfktj6ngnpyw2kxn","Wed Feb 01 2017 16:17:43 GMT-0500 (Eastern Standard Time)","female","More than one","liberal","",NA,"","offCivRatings","the officer shot the civilian in the chest with a beanbag shotgun round","the civilian hit the officer in the chest with a baseball bat","beanbag","ballBat","civilianOfficer","appropriateOff","42","","","",""
"113",693,"","","instructions",112,76798960,"0.0-112.0","vhan6sz7xxmv3fjsvfktj6ngnpyw2kxn","Wed Feb 01 2017 16:17:43 GMT-0500 (Eastern Standard Time)","female","More than one","liberal","",NA,"[{""page_index"":0,""viewing_time"":693}]","break","","","","","","","","","","",""
"114",4812,"{""Q0"":1}","[object Object]","survey-likert",113,76803986,"0.0-113.0","vhan6sz7xxmv3fjsvfktj6ngnpyw2kxn","Wed Feb 01 2017 16:17:43 GMT-0500 (Eastern Standard Time)","female","More than one","liberal","",NA,"","offCivRatings","the officer headbutted the civilian in the face","the civilian kicked the officer in the stomach","headbutt","kickStom","civilianOfficer","manipCheckLow","1","","","",""
"115",3833,"{""Q0"":59}","[object Object]","survey-likert",114,76807834,"0.0-114.0","vhan6sz7xxmv3fjsvfktj6ngnpyw2kxn","Wed Feb 01 2017 16:17:43 GMT-0500 (Eastern Standard Time)","female","More than one","liberal","",NA,"","offCivRatings","the officer headbutted the civilian in the face","the civilian kicked the officer in the stomach","headbutt","kickStom","civilianOfficer","appropriateOff","59","","","",""
"116",3283,"{""Q0"":60}","[object Object]","survey-likert",115,76811130,"0.0-115.0","vhan6sz7xxmv3fjsvfktj6ngnpyw2kxn","Wed Feb 01 2017 16:17:43 GMT-0500 (Eastern Standard Time)","female","More than one","liberal","",NA,"","offCivRatings","the officer headbutted the civilian in the face","the civilian kicked the officer in the stomach","headbutt","kickStom","civilianOfficer","acceptableOff","60","","","",""
"117",2942,"{""Q0"":76}","[object Object]","survey-likert",116,76814086,"0.0-116.0","vhan6sz7xxmv3fjsvfktj6ngnpyw2kxn","Wed Feb 01 2017 16:17:43 GMT-0500 (Eastern Standard Time)","female","More than one","liberal","",NA,"","offCivRatings","the officer headbutted the civilian in the face","the civilian kicked the officer in the stomach","headbutt","kickStom","civilianOfficer","forceOff","76","","","",""
"118",2290,"{""Q0"":44}","[object Object]","survey-likert",117,76816392,"0.0-117.0","vhan6sz7xxmv3fjsvfktj6ngnpyw2kxn","Wed Feb 01 2017 16:17:43 GMT-0500 (Eastern Standard Time)","female","More than one","liberal","",NA,"","offCivRatings","the officer headbutted the civilian in the face","the civilian kicked the officer in the stomach","headbutt","kickStom","civilianOfficer","punishOff","44","","","",""
"119",676,"","","instructions",118,76817069,"0.0-118.0","vhan6sz7xxmv3fjsvfktj6ngnpyw2kxn","Wed Feb 01 2017 16:17:43 GMT-0500 (Eastern Standard Time)","female","More than one","liberal","",NA,"[{""page_index"":0,""viewing_time"":676}]","break","","","","","","","","","","",""
"120",10947,"{""Q0"":100}","[object Object]","survey-likert",119,76828230,"0.0-119.0","vhan6sz7xxmv3fjsvfktj6ngnpyw2kxn","Wed Feb 01 2017 16:17:43 GMT-0500 (Eastern Standard Time)","female","More than one","liberal","",NA,"","offCivRatings","the officer asked the civilian how he was doing","the civilian purposefully struck the officer with a motor vehicle","asked","vehicle","officerCivilian","appropriateCiv","100","","","",""
"121",2265,"{""Q0"":1}","[object Object]","survey-likert",120,76830511,"0.0-120.0","vhan6sz7xxmv3fjsvfktj6ngnpyw2kxn","Wed Feb 01 2017 16:17:43 GMT-0500 (Eastern Standard Time)","female","More than one","liberal","",NA,"","offCivRatings","the officer asked the civilian how he was doing","the civilian purposefully struck the officer with a motor vehicle","asked","vehicle","officerCivilian","acceptableCiv","1","","","",""
"122",1969,"{""Q0"":86}","[object Object]","survey-likert",121,76832495,"0.0-121.0","vhan6sz7xxmv3fjsvfktj6ngnpyw2kxn","Wed Feb 01 2017 16:17:43 GMT-0500 (Eastern Standard Time)","female","More than one","liberal","",NA,"","offCivRatings","the officer asked the civilian how he was doing","the civilian purposefully struck the officer with a motor vehicle","asked","vehicle","officerCivilian","punishCiv","86","","","",""
"123",2825,"{""Q0"":98}","[object Object]","survey-likert",122,76835335,"0.0-122.0","vhan6sz7xxmv3fjsvfktj6ngnpyw2kxn","Wed Feb 01 2017 16:17:43 GMT-0500 (Eastern Standard Time)","female","More than one","liberal","",NA,"","offCivRatings","the officer asked the civilian how he was doing","the civilian purposefully struck the officer with a motor vehicle","asked","vehicle","officerCivilian","forceCiv","98","","","",""
"124",533,"","","instructions",123,76835868,"0.0-123.0","vhan6sz7xxmv3fjsvfktj6ngnpyw2kxn","Wed Feb 01 2017 16:17:43 GMT-0500 (Eastern Standard Time)","female","More than one","liberal","",NA,"[{""page_index"":0,""viewing_time"":532}]","break","","","","","","","","","","",""
"125",7531,"{""Q0"":71}","[object Object]","survey-likert",124,76843615,"0.0-124.0","vhan6sz7xxmv3fjsvfktj6ngnpyw2kxn","Wed Feb 01 2017 16:17:43 GMT-0500 (Eastern Standard Time)","female","More than one","liberal","",NA,"","policeLegitimacy","","","","","","","71","doReasons","feltObligation","",""
"126",5656,"{""Q0"":95}","[object Object]","survey-likert",125,76849287,"0.0-125.0","vhan6sz7xxmv3fjsvfktj6ngnpyw2kxn","Wed Feb 01 2017 16:17:43 GMT-0500 (Eastern Standard Time)","female","More than one","liberal","",NA,"","policeLegitimacy","","","","","","","95","doTreat","feltObligation","",""
"127",3937,"{""Q0"":88}","[object Object]","survey-likert",126,76853238,"0.0-126.0","vhan6sz7xxmv3fjsvfktj6ngnpyw2kxn","Wed Feb 01 2017 16:17:43 GMT-0500 (Eastern Standard Time)","female","More than one","liberal","",NA,"","policeLegitimacy","","","","","","","88","communityWants","normAlignment","",""
"128",3418,"{""Q0"":79}","[object Object]","survey-likert",127,76856670,"0.0-127.0","vhan6sz7xxmv3fjsvfktj6ngnpyw2kxn","Wed Feb 01 2017 16:17:43 GMT-0500 (Eastern Standard Time)","female","More than one","liberal","",NA,"","policeLegitimacy","","","","","","","79","rightWrong","normAlignment","",""
"129",3570,"{""Q0"":73}","[object Object]","survey-likert",128,76860254,"0.0-128.0","vhan6sz7xxmv3fjsvfktj6ngnpyw2kxn","Wed Feb 01 2017 16:17:43 GMT-0500 (Eastern Standard Time)","female","More than one","liberal","",NA,"","policeLegitimacy","","","","","","","73","support","feltObligation","",""
"130",2955,"{""Q0"":90}","[object Object]","survey-likert",129,76863222,"0.0-129.0","vhan6sz7xxmv3fjsvfktj6ngnpyw2kxn","Wed Feb 01 2017 16:17:43 GMT-0500 (Eastern Standard Time)","female","More than one","liberal","",NA,"","policeLegitimacy","","","","","","","90","importantValues","normAlignment","",""
"131",5852,"{""Q0"":""no""}","[object Object]","survey-multi-choice2",130,76869088,"0.0-130.0","vhan6sz7xxmv3fjsvfktj6ngnpyw2kxn","Wed Feb 01 2017 16:17:43 GMT-0500 (Eastern Standard Time)","female","More than one","liberal","",NA,"","policeExperience","","","","","","","no","stopped","","vicarious","Has anyone in your household ever been stopped on the street by the police without good reason?"
"132",3518,"{""Q0"":""no""}","[object Object]","survey-multi-choice2",131,76872613,"0.0-131.0","vhan6sz7xxmv3fjsvfktj6ngnpyw2kxn","Wed Feb 01 2017 16:17:43 GMT-0500 (Eastern Standard Time)","female","More than one","liberal","",NA,"","policeExperience","","","","","","","no","excessForce","","personal","Have the police ever used excessive force against you?"
"133",3653,"{""Q0"":""no""}","[object Object]","survey-multi-choice2",132,76876274,"0.0-132.0","vhan6sz7xxmv3fjsvfktj6ngnpyw2kxn","Wed Feb 01 2017 16:17:43 GMT-0500 (Eastern Standard Time)","female","More than one","liberal","",NA,"","policeExperience","","","","","","","no","excessForce","","vicarious","Have the police ever used excessive force against anyone in your household?"
"134",5507,"{""Q0"":""no""}","[object Object]","survey-multi-choice2",133,76881786,"0.0-133.0","vhan6sz7xxmv3fjsvfktj6ngnpyw2kxn","Wed Feb 01 2017 16:17:43 GMT-0500 (Eastern Standard Time)","female","More than one","liberal","",NA,"","policeExperience","","","","","","","no","corrupt","","personal","Have you ever seen a police officer engage in any corrupt activities (e.g., taking bribes or involvement in the drug trade)?"
"135",4362,"{""Q0"":""no""}","[object Object]","survey-multi-choice2",134,76886154,"0.0-134.0","vhan6sz7xxmv3fjsvfktj6ngnpyw2kxn","Wed Feb 01 2017 16:17:43 GMT-0500 (Eastern Standard Time)","female","More than one","liberal","",NA,"","policeExperience","","","","","","","no","insultLang","","vicarious","Have the police ever used insulting language toward anyone in your household?"
"136",2393,"{""Q0"":""no""}","[object Object]","survey-multi-choice2",135,76888554,"0.0-135.0","vhan6sz7xxmv3fjsvfktj6ngnpyw2kxn","Wed Feb 01 2017 16:17:43 GMT-0500 (Eastern Standard Time)","female","More than one","liberal","",NA,"","policeExperience","","","","","","","no","insultLang","","personal","Have the police ever used insulting language toward you?"
"137",3890,"{""Q0"":""no""}","[object Object]","survey-multi-choice2",136,76892449,"0.0-136.0","vhan6sz7xxmv3fjsvfktj6ngnpyw2kxn","Wed Feb 01 2017 16:17:43 GMT-0500 (Eastern Standard Time)","female","More than one","liberal","",NA,"","policeExperience","","","","","","","no","stopped","","personal","Have you ever been stopped by the police on the street without good reason?"
"138",17478,"{""Q0"":""female"",""Q1"":""More than one"",""Q2"":""liberal""}","[object Object]","survey-multi-choice",137,76909957,"0.0-137.0","vhan6sz7xxmv3fjsvfktj6ngnpyw2kxn","Wed Feb 01 2017 16:17:43 GMT-0500 (Eastern Standard Time)","female","More than one","liberal","",NA,"","demographics","","","","","","","","","","",""
"139",15339,"","","instructions",138,76926297,"0.0-138.0","vhan6sz7xxmv3fjsvfktj6ngnpyw2kxn","Wed Feb 01 2017 16:17:43 GMT-0500 (Eastern Standard Time)","female","More than one","liberal","",NA,"[{""page_index"":0,""viewing_time"":2722},{""page_index"":1,""viewing_time"":5737},{""page_index"":2,""viewing_time"":3359},{""page_index"":3,""viewing_time"":3520}]","debriefing","","","","","","","","","","",""
