"","rt","responses","internalResp","trial_type","trial_index","time_elapsed","internal_node_id","randSubjectID","date","sex","race","polAff","stimulus","key_press","view_history","questionType","officerAction","civilianAction","offActName","civActName","order","questionName","response","name","dimension","person","question"
"1",12080,"","[object Object]","survey-text",0,12085,"0.0-0.0","vmwvz6qmvuvb0onbskuahrlabe5q9gud","Sun Jan 22 2017 12:40:56 GMT-0500 (EST)","female","White","moderate/middle of the road","",NA,"","","","","","","","","","","","",""
"2",26713,"","","single-stim",1,39803,"0.0-1.0","vmwvz6qmvuvb0onbskuahrlabe5q9gud","Sun Jan 22 2017 12:40:56 GMT-0500 (EST)","female","White","moderate/middle of the road","<img src='static/images/1602685960_ICS_Credit-0.png' alt='Consent 1' height=1100 width=850><img src='static/images/1602685960_ICS_Credit-1.png' alt='Consent 2' height=1100 width=850></p>",89,"","","","","","","","","","","","",""
"3",20178,"","","instructions",2,60983,"0.0-2.0","vmwvz6qmvuvb0onbskuahrlabe5q9gud","Sun Jan 22 2017 12:40:56 GMT-0500 (EST)","female","White","moderate/middle of the road","",NA,"[{""page_index"":0,""viewing_time"":20177}]","instructions","","","","","","","","","","",""
"4",101416,"","","instructions",3,163401,"0.0-3.0","vmwvz6qmvuvb0onbskuahrlabe5q9gud","Sun Jan 22 2017 12:40:56 GMT-0500 (EST)","female","White","moderate/middle of the road","",NA,"[{""page_index"":0,""viewing_time"":46591},{""page_index"":1,""viewing_time"":16717},{""page_index"":2,""viewing_time"":24999},{""page_index"":3,""viewing_time"":13108}]","instructions","","","","","","","","","","",""
"5",47228,"{""Q0"":55}","[object Object]","survey-likert",4,211665,"0.0-4.0","vmwvz6qmvuvb0onbskuahrlabe5q9gud","Sun Jan 22 2017 12:40:56 GMT-0500 (EST)","female","White","moderate/middle of the road","",NA,"","offCivRatings","the officer shouted ""get your fucking hands up!"" at the civilian","the civilian yelled ""get back!"" at the officer","handsUp","getBack","civilianOfficer","appropriateOff","55","","","",""
"6",18381,"{""Q0"":1}","[object Object]","survey-likert",5,230053,"0.0-5.0","vmwvz6qmvuvb0onbskuahrlabe5q9gud","Sun Jan 22 2017 12:40:56 GMT-0500 (EST)","female","White","moderate/middle of the road","",NA,"","offCivRatings","the officer shouted ""get your fucking hands up!"" at the civilian","the civilian yelled ""get back!"" at the officer","handsUp","getBack","civilianOfficer","forceOff","1","","","",""
"7",7405,"{""Q0"":10}","[object Object]","survey-likert",6,237465,"0.0-6.0","vmwvz6qmvuvb0onbskuahrlabe5q9gud","Sun Jan 22 2017 12:40:56 GMT-0500 (EST)","female","White","moderate/middle of the road","",NA,"","offCivRatings","the officer shouted ""get your fucking hands up!"" at the civilian","the civilian yelled ""get back!"" at the officer","handsUp","getBack","civilianOfficer","punishOff","10","","","",""
"8",15161,"{""Q0"":31}","[object Object]","survey-likert",7,252633,"0.0-7.0","vmwvz6qmvuvb0onbskuahrlabe5q9gud","Sun Jan 22 2017 12:40:56 GMT-0500 (EST)","female","White","moderate/middle of the road","",NA,"","offCivRatings","the officer shouted ""get your fucking hands up!"" at the civilian","the civilian yelled ""get back!"" at the officer","handsUp","getBack","civilianOfficer","acceptableOff","31","","","",""
"9",1550,"","","instructions",8,254184,"0.0-8.0","vmwvz6qmvuvb0onbskuahrlabe5q9gud","Sun Jan 22 2017 12:40:56 GMT-0500 (EST)","female","White","moderate/middle of the road","",NA,"[{""page_index"":0,""viewing_time"":1550}]","break","","","","","","","","","","",""
"10",37626,"{""Q0"":1}","[object Object]","survey-likert",9,292017,"0.0-9.0","vmwvz6qmvuvb0onbskuahrlabe5q9gud","Sun Jan 22 2017 12:40:56 GMT-0500 (EST)","female","White","moderate/middle of the road","",NA,"","offCivRatings","the officer said ""if you touch me, you're gonna get hurt"" to the civilian","the civilian stood near the officer","hurtThreat","stoodNear","officerCivilian","forceCiv","1","","","",""
"11",10522,"{""Q0"":1}","[object Object]","survey-likert",10,302545,"0.0-10.0","vmwvz6qmvuvb0onbskuahrlabe5q9gud","Sun Jan 22 2017 12:40:56 GMT-0500 (EST)","female","White","moderate/middle of the road","",NA,"","offCivRatings","the officer said ""if you touch me, you're gonna get hurt"" to the civilian","the civilian stood near the officer","hurtThreat","stoodNear","officerCivilian","punishCiv","1","","","",""
"12",9606,"{""Q0"":100}","[object Object]","survey-likert",11,312159,"0.0-11.0","vmwvz6qmvuvb0onbskuahrlabe5q9gud","Sun Jan 22 2017 12:40:56 GMT-0500 (EST)","female","White","moderate/middle of the road","",NA,"","offCivRatings","the officer said ""if you touch me, you're gonna get hurt"" to the civilian","the civilian stood near the officer","hurtThreat","stoodNear","officerCivilian","manipCheckHigh","100","","","",""
"13",10634,"{""Q0"":45}","[object Object]","survey-likert",12,322799,"0.0-12.0","vmwvz6qmvuvb0onbskuahrlabe5q9gud","Sun Jan 22 2017 12:40:56 GMT-0500 (EST)","female","White","moderate/middle of the road","",NA,"","offCivRatings","the officer said ""if you touch me, you're gonna get hurt"" to the civilian","the civilian stood near the officer","hurtThreat","stoodNear","officerCivilian","acceptableCiv","45","","","",""
"14",13540,"{""Q0"":51}","[object Object]","survey-likert",13,336345,"0.0-13.0","vmwvz6qmvuvb0onbskuahrlabe5q9gud","Sun Jan 22 2017 12:40:56 GMT-0500 (EST)","female","White","moderate/middle of the road","",NA,"","offCivRatings","the officer said ""if you touch me, you're gonna get hurt"" to the civilian","the civilian stood near the officer","hurtThreat","stoodNear","officerCivilian","appropriateCiv","51","","","",""
"15",1331,"","","instructions",14,337677,"0.0-14.0","vmwvz6qmvuvb0onbskuahrlabe5q9gud","Sun Jan 22 2017 12:40:56 GMT-0500 (EST)","female","White","moderate/middle of the road","",NA,"[{""page_index"":0,""viewing_time"":1331}]","break","","","","","","","","","","",""
"16",17037,"{""Q0"":1}","[object Object]","survey-likert",15,354922,"0.0-15.0","vmwvz6qmvuvb0onbskuahrlabe5q9gud","Sun Jan 22 2017 12:40:56 GMT-0500 (EST)","female","White","moderate/middle of the road","",NA,"","offCivRatings","the officer asked the civilian how he was doing","the civilian waved at the officer in greeting","asked","waved","officerCivilian","forceCiv","1","","","",""
"17",9043,"{""Q0"":51}","[object Object]","survey-likert",16,363970,"0.0-16.0","vmwvz6qmvuvb0onbskuahrlabe5q9gud","Sun Jan 22 2017 12:40:56 GMT-0500 (EST)","female","White","moderate/middle of the road","",NA,"","offCivRatings","the officer asked the civilian how he was doing","the civilian waved at the officer in greeting","asked","waved","officerCivilian","appropriateCiv","51","","","",""
"18",4573,"{""Q0"":1}","[object Object]","survey-likert",17,368550,"0.0-17.0","vmwvz6qmvuvb0onbskuahrlabe5q9gud","Sun Jan 22 2017 12:40:56 GMT-0500 (EST)","female","White","moderate/middle of the road","",NA,"","offCivRatings","the officer asked the civilian how he was doing","the civilian waved at the officer in greeting","asked","waved","officerCivilian","punishCiv","1","","","",""
"19",9180,"{""Q0"":100}","[object Object]","survey-likert",18,377736,"0.0-18.0","vmwvz6qmvuvb0onbskuahrlabe5q9gud","Sun Jan 22 2017 12:40:56 GMT-0500 (EST)","female","White","moderate/middle of the road","",NA,"","offCivRatings","the officer asked the civilian how he was doing","the civilian waved at the officer in greeting","asked","waved","officerCivilian","acceptableCiv","100","","","",""
"20",1420,"","","instructions",19,379156,"0.0-19.0","vmwvz6qmvuvb0onbskuahrlabe5q9gud","Sun Jan 22 2017 12:40:56 GMT-0500 (EST)","female","White","moderate/middle of the road","",NA,"[{""page_index"":0,""viewing_time"":1420}]","break","","","","","","","","","","",""
"21",24501,"{""Q0"":1}","[object Object]","survey-likert",20,403864,"0.0-20.0","vmwvz6qmvuvb0onbskuahrlabe5q9gud","Sun Jan 22 2017 12:40:56 GMT-0500 (EST)","female","White","moderate/middle of the road","",NA,"","offCivRatings","the officer put handcuffs on the civilian","the civilian twisted the arm of the officer, forcing him to the ground","handcuff","armbar","civilianOfficer","manipCheckLow","1","","","",""
"22",7653,"{""Q0"":1}","[object Object]","survey-likert",21,411524,"0.0-21.0","vmwvz6qmvuvb0onbskuahrlabe5q9gud","Sun Jan 22 2017 12:40:56 GMT-0500 (EST)","female","White","moderate/middle of the road","",NA,"","offCivRatings","the officer put handcuffs on the civilian","the civilian twisted the arm of the officer, forcing him to the ground","handcuff","armbar","civilianOfficer","punishOff","1","","","",""
"23",17271,"{""Q0"":11}","[object Object]","survey-likert",22,428800,"0.0-22.0","vmwvz6qmvuvb0onbskuahrlabe5q9gud","Sun Jan 22 2017 12:40:56 GMT-0500 (EST)","female","White","moderate/middle of the road","",NA,"","offCivRatings","the officer put handcuffs on the civilian","the civilian twisted the arm of the officer, forcing him to the ground","handcuff","armbar","civilianOfficer","forceOff","11","","","",""
"24",4362,"{""Q0"":100}","[object Object]","survey-likert",23,433168,"0.0-23.0","vmwvz6qmvuvb0onbskuahrlabe5q9gud","Sun Jan 22 2017 12:40:56 GMT-0500 (EST)","female","White","moderate/middle of the road","",NA,"","offCivRatings","the officer put handcuffs on the civilian","the civilian twisted the arm of the officer, forcing him to the ground","handcuff","armbar","civilianOfficer","acceptableOff","100","","","",""
"25",12420,"{""Q0"":50}","[object Object]","survey-likert",24,445593,"0.0-24.0","vmwvz6qmvuvb0onbskuahrlabe5q9gud","Sun Jan 22 2017 12:40:56 GMT-0500 (EST)","female","White","moderate/middle of the road","",NA,"","offCivRatings","the officer put handcuffs on the civilian","the civilian twisted the arm of the officer, forcing him to the ground","handcuff","armbar","civilianOfficer","appropriateOff","50","","","",""
"26",1444,"","","instructions",25,447038,"0.0-25.0","vmwvz6qmvuvb0onbskuahrlabe5q9gud","Sun Jan 22 2017 12:40:56 GMT-0500 (EST)","female","White","moderate/middle of the road","",NA,"[{""page_index"":0,""viewing_time"":1444}]","break","","","","","","","","","","",""
"27",25949,"{""Q0"":1}","[object Object]","survey-likert",26,473195,"0.0-26.0","vmwvz6qmvuvb0onbskuahrlabe5q9gud","Sun Jan 22 2017 12:40:56 GMT-0500 (EST)","female","White","moderate/middle of the road","",NA,"","offCivRatings","the officer applied a chokehold to the civilian","the civilian shocked the officer with a tazer","choke","tazer","civilianOfficer","punishOff","1","","","",""
"28",9123,"{""Q0"":76}","[object Object]","survey-likert",27,482325,"0.0-27.0","vmwvz6qmvuvb0onbskuahrlabe5q9gud","Sun Jan 22 2017 12:40:56 GMT-0500 (EST)","female","White","moderate/middle of the road","",NA,"","offCivRatings","the officer applied a chokehold to the civilian","the civilian shocked the officer with a tazer","choke","tazer","civilianOfficer","acceptableOff","76","","","",""
"29",4040,"{""Q0"":1}","[object Object]","survey-likert",28,486372,"0.0-28.0","vmwvz6qmvuvb0onbskuahrlabe5q9gud","Sun Jan 22 2017 12:40:56 GMT-0500 (EST)","female","White","moderate/middle of the road","",NA,"","offCivRatings","the officer applied a chokehold to the civilian","the civilian shocked the officer with a tazer","choke","tazer","civilianOfficer","manipCheckLow","1","","","",""
"30",7733,"{""Q0"":58}","[object Object]","survey-likert",29,494110,"0.0-29.0","vmwvz6qmvuvb0onbskuahrlabe5q9gud","Sun Jan 22 2017 12:40:56 GMT-0500 (EST)","female","White","moderate/middle of the road","",NA,"","offCivRatings","the officer applied a chokehold to the civilian","the civilian shocked the officer with a tazer","choke","tazer","civilianOfficer","appropriateOff","58","","","",""
"31",10579,"{""Q0"":74}","[object Object]","survey-likert",30,504694,"0.0-30.0","vmwvz6qmvuvb0onbskuahrlabe5q9gud","Sun Jan 22 2017 12:40:56 GMT-0500 (EST)","female","White","moderate/middle of the road","",NA,"","offCivRatings","the officer applied a chokehold to the civilian","the civilian shocked the officer with a tazer","choke","tazer","civilianOfficer","forceOff","74","","","",""
"32",1301,"","","instructions",31,505995,"0.0-31.0","vmwvz6qmvuvb0onbskuahrlabe5q9gud","Sun Jan 22 2017 12:40:56 GMT-0500 (EST)","female","White","moderate/middle of the road","",NA,"[{""page_index"":0,""viewing_time"":1301}]","break","","","","","","","","","","",""
"33",22145,"{""Q0"":30}","[object Object]","survey-likert",32,528348,"0.0-32.0","vmwvz6qmvuvb0onbskuahrlabe5q9gud","Sun Jan 22 2017 12:40:56 GMT-0500 (EST)","female","White","moderate/middle of the road","",NA,"","offCivRatings","the officer sprayed the civilian with pepper spray","the civilian kicked the officer in the stomach","pepperSpray","kickStom","officerCivilian","punishCiv","30","","","",""
"34",10104,"{""Q0"":70}","[object Object]","survey-likert",33,538458,"0.0-33.0","vmwvz6qmvuvb0onbskuahrlabe5q9gud","Sun Jan 22 2017 12:40:56 GMT-0500 (EST)","female","White","moderate/middle of the road","",NA,"","offCivRatings","the officer sprayed the civilian with pepper spray","the civilian kicked the officer in the stomach","pepperSpray","kickStom","officerCivilian","forceCiv","70","","","",""
"35",27063,"{""Q0"":21}","[object Object]","survey-likert",34,565526,"0.0-34.0","vmwvz6qmvuvb0onbskuahrlabe5q9gud","Sun Jan 22 2017 12:40:56 GMT-0500 (EST)","female","White","moderate/middle of the road","",NA,"","offCivRatings","the officer sprayed the civilian with pepper spray","the civilian kicked the officer in the stomach","pepperSpray","kickStom","officerCivilian","acceptableCiv","21","","","",""
"36",7065,"{""Q0"":79}","[object Object]","survey-likert",35,572598,"0.0-35.0","vmwvz6qmvuvb0onbskuahrlabe5q9gud","Sun Jan 22 2017 12:40:56 GMT-0500 (EST)","female","White","moderate/middle of the road","",NA,"","offCivRatings","the officer sprayed the civilian with pepper spray","the civilian kicked the officer in the stomach","pepperSpray","kickStom","officerCivilian","appropriateCiv","79","","","",""
"37",1492,"","","instructions",36,574090,"0.0-36.0","vmwvz6qmvuvb0onbskuahrlabe5q9gud","Sun Jan 22 2017 12:40:56 GMT-0500 (EST)","female","White","moderate/middle of the road","",NA,"[{""page_index"":0,""viewing_time"":1492}]","break","","","","","","","","","","",""
"38",18036,"{""Q0"":85}","[object Object]","survey-likert",37,592333,"0.0-37.0","vmwvz6qmvuvb0onbskuahrlabe5q9gud","Sun Jan 22 2017 12:40:56 GMT-0500 (EST)","female","White","moderate/middle of the road","",NA,"","offCivRatings","the officer struck the civilian in the stomach with a metal flashlight","the civilian punched the officer in the face","flashlight","punchFace","civilianOfficer","appropriateOff","85","","","",""
"39",7787,"{""Q0"":75}","[object Object]","survey-likert",38,600125,"0.0-38.0","vmwvz6qmvuvb0onbskuahrlabe5q9gud","Sun Jan 22 2017 12:40:56 GMT-0500 (EST)","female","White","moderate/middle of the road","",NA,"","offCivRatings","the officer struck the civilian in the stomach with a metal flashlight","the civilian punched the officer in the face","flashlight","punchFace","civilianOfficer","acceptableOff","75","","","",""
"40",7436,"{""Q0"":20}","[object Object]","survey-likert",39,607567,"0.0-39.0","vmwvz6qmvuvb0onbskuahrlabe5q9gud","Sun Jan 22 2017 12:40:56 GMT-0500 (EST)","female","White","moderate/middle of the road","",NA,"","offCivRatings","the officer struck the civilian in the stomach with a metal flashlight","the civilian punched the officer in the face","flashlight","punchFace","civilianOfficer","punishOff","20","","","",""
"41",6739,"{""Q0"":72}","[object Object]","survey-likert",40,614312,"0.0-40.0","vmwvz6qmvuvb0onbskuahrlabe5q9gud","Sun Jan 22 2017 12:40:56 GMT-0500 (EST)","female","White","moderate/middle of the road","",NA,"","offCivRatings","the officer struck the civilian in the stomach with a metal flashlight","the civilian punched the officer in the face","flashlight","punchFace","civilianOfficer","forceOff","72","","","",""
"42",4499,"{""Q0"":100}","[object Object]","survey-likert",41,618817,"0.0-41.0","vmwvz6qmvuvb0onbskuahrlabe5q9gud","Sun Jan 22 2017 12:40:56 GMT-0500 (EST)","female","White","moderate/middle of the road","",NA,"","offCivRatings","the officer struck the civilian in the stomach with a metal flashlight","the civilian punched the officer in the face","flashlight","punchFace","civilianOfficer","manipCheckHigh","100","","","",""
"43",1468,"","","instructions",42,620285,"0.0-42.0","vmwvz6qmvuvb0onbskuahrlabe5q9gud","Sun Jan 22 2017 12:40:56 GMT-0500 (EST)","female","White","moderate/middle of the road","",NA,"[{""page_index"":0,""viewing_time"":1468}]","break","","","","","","","","","","",""
"44",14848,"{""Q0"":91}","[object Object]","survey-likert",43,635341,"0.0-43.0","vmwvz6qmvuvb0onbskuahrlabe5q9gud","Sun Jan 22 2017 12:40:56 GMT-0500 (EST)","female","White","moderate/middle of the road","",NA,"","offCivRatings","the officer called the civilian a ""thug""","the civilian headbutted the officer in the face","nameCall","headbutt","civilianOfficer","acceptableOff","91","","","",""
"45",5912,"{""Q0"":1}","[object Object]","survey-likert",44,641258,"0.0-44.0","vmwvz6qmvuvb0onbskuahrlabe5q9gud","Sun Jan 22 2017 12:40:56 GMT-0500 (EST)","female","White","moderate/middle of the road","",NA,"","offCivRatings","the officer called the civilian a ""thug""","the civilian headbutted the officer in the face","nameCall","headbutt","civilianOfficer","forceOff","1","","","",""
"46",9125,"{""Q0"":1}","[object Object]","survey-likert",45,650389,"0.0-45.0","vmwvz6qmvuvb0onbskuahrlabe5q9gud","Sun Jan 22 2017 12:40:56 GMT-0500 (EST)","female","White","moderate/middle of the road","",NA,"","offCivRatings","the officer called the civilian a ""thug""","the civilian headbutted the officer in the face","nameCall","headbutt","civilianOfficer","punishOff","1","","","",""
"47",5268,"{""Q0"":50}","[object Object]","survey-likert",46,655662,"0.0-46.0","vmwvz6qmvuvb0onbskuahrlabe5q9gud","Sun Jan 22 2017 12:40:56 GMT-0500 (EST)","female","White","moderate/middle of the road","",NA,"","offCivRatings","the officer called the civilian a ""thug""","the civilian headbutted the officer in the face","nameCall","headbutt","civilianOfficer","appropriateOff","50","","","",""
"48",1315,"","","instructions",47,656978,"0.0-47.0","vmwvz6qmvuvb0onbskuahrlabe5q9gud","Sun Jan 22 2017 12:40:56 GMT-0500 (EST)","female","White","moderate/middle of the road","",NA,"[{""page_index"":0,""viewing_time"":1315}]","break","","","","","","","","","","",""
"49",29893,"{""Q0"":36}","[object Object]","survey-likert",48,687078,"0.0-48.0","vmwvz6qmvuvb0onbskuahrlabe5q9gud","Sun Jan 22 2017 12:40:56 GMT-0500 (EST)","female","White","moderate/middle of the road","",NA,"","offCivRatings","the officer shocked the civilian with a tazer","the civilian said ""if you touch me, you're gonna get hurt"" to the officer","tazer","hurtThreat","officerCivilian","punishCiv","36","","","",""
"50",6594,"{""Q0"":3}","[object Object]","survey-likert",49,693680,"0.0-49.0","vmwvz6qmvuvb0onbskuahrlabe5q9gud","Sun Jan 22 2017 12:40:56 GMT-0500 (EST)","female","White","moderate/middle of the road","",NA,"","offCivRatings","the officer shocked the civilian with a tazer","the civilian said ""if you touch me, you're gonna get hurt"" to the officer","tazer","hurtThreat","officerCivilian","forceCiv","3","","","",""
"51",6729,"{""Q0"":30}","[object Object]","survey-likert",50,700414,"0.0-50.0","vmwvz6qmvuvb0onbskuahrlabe5q9gud","Sun Jan 22 2017 12:40:56 GMT-0500 (EST)","female","White","moderate/middle of the road","",NA,"","offCivRatings","the officer shocked the civilian with a tazer","the civilian said ""if you touch me, you're gonna get hurt"" to the officer","tazer","hurtThreat","officerCivilian","acceptableCiv","30","","","",""
"52",6669,"{""Q0"":70}","[object Object]","survey-likert",51,707090,"0.0-51.0","vmwvz6qmvuvb0onbskuahrlabe5q9gud","Sun Jan 22 2017 12:40:56 GMT-0500 (EST)","female","White","moderate/middle of the road","",NA,"","offCivRatings","the officer shocked the civilian with a tazer","the civilian said ""if you touch me, you're gonna get hurt"" to the officer","tazer","hurtThreat","officerCivilian","appropriateCiv","70","","","",""
"53",4641,"{""Q0"":1}","[object Object]","survey-likert",52,711736,"0.0-52.0","vmwvz6qmvuvb0onbskuahrlabe5q9gud","Sun Jan 22 2017 12:40:56 GMT-0500 (EST)","female","White","moderate/middle of the road","",NA,"","offCivRatings","the officer shocked the civilian with a tazer","the civilian said ""if you touch me, you're gonna get hurt"" to the officer","tazer","hurtThreat","officerCivilian","manipCheckLow","1","","","",""
"54",1353,"","","instructions",53,713089,"0.0-53.0","vmwvz6qmvuvb0onbskuahrlabe5q9gud","Sun Jan 22 2017 12:40:56 GMT-0500 (EST)","female","White","moderate/middle of the road","",NA,"[{""page_index"":0,""viewing_time"":1353}]","break","","","","","","","","","","",""
"55",13947,"{""Q0"":84}","[object Object]","survey-likert",54,727242,"0.0-54.0","vmwvz6qmvuvb0onbskuahrlabe5q9gud","Sun Jan 22 2017 12:40:56 GMT-0500 (EST)","female","White","moderate/middle of the road","",NA,"","offCivRatings","the officer punched the civilian in the face","the civilian asked the officer how he was doing","punchFace","asked","officerCivilian","forceCiv","84","","","",""
"56",8978,"{""Q0"":1}","[object Object]","survey-likert",55,736228,"0.0-55.0","vmwvz6qmvuvb0onbskuahrlabe5q9gud","Sun Jan 22 2017 12:40:56 GMT-0500 (EST)","female","White","moderate/middle of the road","",NA,"","offCivRatings","the officer punched the civilian in the face","the civilian asked the officer how he was doing","punchFace","asked","officerCivilian","appropriateCiv","1","","","",""
"57",3913,"{""Q0"":1}","[object Object]","survey-likert",56,740147,"0.0-56.0","vmwvz6qmvuvb0onbskuahrlabe5q9gud","Sun Jan 22 2017 12:40:56 GMT-0500 (EST)","female","White","moderate/middle of the road","",NA,"","offCivRatings","the officer punched the civilian in the face","the civilian asked the officer how he was doing","punchFace","asked","officerCivilian","punishCiv","1","","","",""
"58",5649,"{""Q0"":1}","[object Object]","survey-likert",57,745802,"0.0-57.0","vmwvz6qmvuvb0onbskuahrlabe5q9gud","Sun Jan 22 2017 12:40:56 GMT-0500 (EST)","female","White","moderate/middle of the road","",NA,"","offCivRatings","the officer punched the civilian in the face","the civilian asked the officer how he was doing","punchFace","asked","officerCivilian","manipCheckLow","1","","","",""
"59",9149,"{""Q0"":100}","[object Object]","survey-likert",58,754956,"0.0-58.0","vmwvz6qmvuvb0onbskuahrlabe5q9gud","Sun Jan 22 2017 12:40:56 GMT-0500 (EST)","female","White","moderate/middle of the road","",NA,"","offCivRatings","the officer punched the civilian in the face","the civilian asked the officer how he was doing","punchFace","asked","officerCivilian","acceptableCiv","100","","","",""
"60",1288,"","","instructions",59,756244,"0.0-59.0","vmwvz6qmvuvb0onbskuahrlabe5q9gud","Sun Jan 22 2017 12:40:56 GMT-0500 (EST)","female","White","moderate/middle of the road","",NA,"[{""page_index"":0,""viewing_time"":1287}]","break","","","","","","","","","","",""
"61",15457,"{""Q0"":100}","[object Object]","survey-likert",60,771910,"0.0-60.0","vmwvz6qmvuvb0onbskuahrlabe5q9gud","Sun Jan 22 2017 12:40:56 GMT-0500 (EST)","female","White","moderate/middle of the road","",NA,"","offCivRatings","the officer shot the civilian in the chest with a beanbag shotgun round","the civilian struck the officer in the stomach with a metal flashlight","beanbag","flashlight","civilianOfficer","punishOff","100","","","",""
"62",7053,"{""Q0"":1}","[object Object]","survey-likert",61,778968,"0.0-61.0","vmwvz6qmvuvb0onbskuahrlabe5q9gud","Sun Jan 22 2017 12:40:56 GMT-0500 (EST)","female","White","moderate/middle of the road","",NA,"","offCivRatings","the officer shot the civilian in the chest with a beanbag shotgun round","the civilian struck the officer in the stomach with a metal flashlight","beanbag","flashlight","civilianOfficer","acceptableOff","1","","","",""
"63",5261,"{""Q0"":100}","[object Object]","survey-likert",62,784238,"0.0-62.0","vmwvz6qmvuvb0onbskuahrlabe5q9gud","Sun Jan 22 2017 12:40:56 GMT-0500 (EST)","female","White","moderate/middle of the road","",NA,"","offCivRatings","the officer shot the civilian in the chest with a beanbag shotgun round","the civilian struck the officer in the stomach with a metal flashlight","beanbag","flashlight","civilianOfficer","appropriateOff","100","","","",""
"64",5371,"{""Q0"":100}","[object Object]","survey-likert",63,789614,"0.0-63.0","vmwvz6qmvuvb0onbskuahrlabe5q9gud","Sun Jan 22 2017 12:40:56 GMT-0500 (EST)","female","White","moderate/middle of the road","",NA,"","offCivRatings","the officer shot the civilian in the chest with a beanbag shotgun round","the civilian struck the officer in the stomach with a metal flashlight","beanbag","flashlight","civilianOfficer","forceOff","100","","","",""
"65",1189,"","","instructions",64,790803,"0.0-64.0","vmwvz6qmvuvb0onbskuahrlabe5q9gud","Sun Jan 22 2017 12:40:56 GMT-0500 (EST)","female","White","moderate/middle of the road","",NA,"[{""page_index"":0,""viewing_time"":1189}]","break","","","","","","","","","","",""
"66",25327,"{""Q0"":70}","[object Object]","survey-likert",65,816342,"0.0-65.0","vmwvz6qmvuvb0onbskuahrlabe5q9gud","Sun Jan 22 2017 12:40:56 GMT-0500 (EST)","female","White","moderate/middle of the road","",NA,"","offCivRatings","the officer shot the civilian in the chest with a handgun","the civilian slammed the officer's head into the concrete curb","handgunChest","headSlam","officerCivilian","appropriateCiv","70","","","",""
"67",7636,"{""Q0"":80}","[object Object]","survey-likert",66,823987,"0.0-66.0","vmwvz6qmvuvb0onbskuahrlabe5q9gud","Sun Jan 22 2017 12:40:56 GMT-0500 (EST)","female","White","moderate/middle of the road","",NA,"","offCivRatings","the officer shot the civilian in the chest with a handgun","the civilian slammed the officer's head into the concrete curb","handgunChest","headSlam","officerCivilian","forceCiv","80","","","",""
"68",9457,"{""Q0"":21}","[object Object]","survey-likert",67,833449,"0.0-67.0","vmwvz6qmvuvb0onbskuahrlabe5q9gud","Sun Jan 22 2017 12:40:56 GMT-0500 (EST)","female","White","moderate/middle of the road","",NA,"","offCivRatings","the officer shot the civilian in the chest with a handgun","the civilian slammed the officer's head into the concrete curb","handgunChest","headSlam","officerCivilian","punishCiv","21","","","",""
"69",9362,"{""Q0"":11}","[object Object]","survey-likert",68,842816,"0.0-68.0","vmwvz6qmvuvb0onbskuahrlabe5q9gud","Sun Jan 22 2017 12:40:56 GMT-0500 (EST)","female","White","moderate/middle of the road","",NA,"","offCivRatings","the officer shot the civilian in the chest with a handgun","the civilian slammed the officer's head into the concrete curb","handgunChest","headSlam","officerCivilian","acceptableCiv","11","","","",""
"70",1235,"","","instructions",69,844051,"0.0-69.0","vmwvz6qmvuvb0onbskuahrlabe5q9gud","Sun Jan 22 2017 12:40:56 GMT-0500 (EST)","female","White","moderate/middle of the road","",NA,"[{""page_index"":0,""viewing_time"":1235}]","break","","","","","","","","","","",""
"71",14943,"{""Q0"":85}","[object Object]","survey-likert",70,859201,"0.0-70.0","vmwvz6qmvuvb0onbskuahrlabe5q9gud","Sun Jan 22 2017 12:40:56 GMT-0500 (EST)","female","White","moderate/middle of the road","",NA,"","offCivRatings","the officer slammed the civilian's head into the concrete curb","the civilian hit the officer in the chest with a baseball bat","headSlam","ballBat","civilianOfficer","forceOff","85","","","",""
"72",5895,"{""Q0"":1}","[object Object]","survey-likert",71,865101,"0.0-71.0","vmwvz6qmvuvb0onbskuahrlabe5q9gud","Sun Jan 22 2017 12:40:56 GMT-0500 (EST)","female","White","moderate/middle of the road","",NA,"","offCivRatings","the officer slammed the civilian's head into the concrete curb","the civilian hit the officer in the chest with a baseball bat","headSlam","ballBat","civilianOfficer","manipCheckLow","1","","","",""
"73",11891,"{""Q0"":12}","[object Object]","survey-likert",72,876997,"0.0-72.0","vmwvz6qmvuvb0onbskuahrlabe5q9gud","Sun Jan 22 2017 12:40:56 GMT-0500 (EST)","female","White","moderate/middle of the road","",NA,"","offCivRatings","the officer slammed the civilian's head into the concrete curb","the civilian hit the officer in the chest with a baseball bat","headSlam","ballBat","civilianOfficer","acceptableOff","12","","","",""
"74",7367,"{""Q0"":78}","[object Object]","survey-likert",73,884370,"0.0-73.0","vmwvz6qmvuvb0onbskuahrlabe5q9gud","Sun Jan 22 2017 12:40:56 GMT-0500 (EST)","female","White","moderate/middle of the road","",NA,"","offCivRatings","the officer slammed the civilian's head into the concrete curb","the civilian hit the officer in the chest with a baseball bat","headSlam","ballBat","civilianOfficer","appropriateOff","78","","","",""
"75",6635,"{""Q0"":40}","[object Object]","survey-likert",74,891013,"0.0-74.0","vmwvz6qmvuvb0onbskuahrlabe5q9gud","Sun Jan 22 2017 12:40:56 GMT-0500 (EST)","female","White","moderate/middle of the road","",NA,"","offCivRatings","the officer slammed the civilian's head into the concrete curb","the civilian hit the officer in the chest with a baseball bat","headSlam","ballBat","civilianOfficer","punishOff","40","","","",""
"76",1110,"","","instructions",75,892124,"0.0-75.0","vmwvz6qmvuvb0onbskuahrlabe5q9gud","Sun Jan 22 2017 12:40:56 GMT-0500 (EST)","female","White","moderate/middle of the road","",NA,"[{""page_index"":0,""viewing_time"":1110}]","break","","","","","","","","","","",""
"77",16129,"{""Q0"":1}","[object Object]","survey-likert",76,908461,"0.0-76.0","vmwvz6qmvuvb0onbskuahrlabe5q9gud","Sun Jan 22 2017 12:40:56 GMT-0500 (EST)","female","White","moderate/middle of the road","",NA,"","offCivRatings","the officer yelled ""get back!"" at the civilian","the civilian called the officer a ""pig""","getBack","nameCall","civilianOfficer","punishOff","1","","","",""
"78",6061,"{""Q0"":51}","[object Object]","survey-likert",77,914529,"0.0-77.0","vmwvz6qmvuvb0onbskuahrlabe5q9gud","Sun Jan 22 2017 12:40:56 GMT-0500 (EST)","female","White","moderate/middle of the road","",NA,"","offCivRatings","the officer yelled ""get back!"" at the civilian","the civilian called the officer a ""pig""","getBack","nameCall","civilianOfficer","appropriateOff","51","","","",""
"79",5786,"{""Q0"":11}","[object Object]","survey-likert",78,920319,"0.0-78.0","vmwvz6qmvuvb0onbskuahrlabe5q9gud","Sun Jan 22 2017 12:40:56 GMT-0500 (EST)","female","White","moderate/middle of the road","",NA,"","offCivRatings","the officer yelled ""get back!"" at the civilian","the civilian called the officer a ""pig""","getBack","nameCall","civilianOfficer","forceOff","11","","","",""
"80",10716,"{""Q0"":95}","[object Object]","survey-likert",79,931042,"0.0-79.0","vmwvz6qmvuvb0onbskuahrlabe5q9gud","Sun Jan 22 2017 12:40:56 GMT-0500 (EST)","female","White","moderate/middle of the road","",NA,"","offCivRatings","the officer yelled ""get back!"" at the civilian","the civilian called the officer a ""pig""","getBack","nameCall","civilianOfficer","acceptableOff","95","","","",""
"81",1452,"","","instructions",80,932494,"0.0-80.0","vmwvz6qmvuvb0onbskuahrlabe5q9gud","Sun Jan 22 2017 12:40:56 GMT-0500 (EST)","female","White","moderate/middle of the road","",NA,"[{""page_index"":0,""viewing_time"":1451}]","break","","","","","","","","","","",""
"82",10484,"{""Q0"":100}","[object Object]","survey-likert",81,943185,"0.0-81.0","vmwvz6qmvuvb0onbskuahrlabe5q9gud","Sun Jan 22 2017 12:40:56 GMT-0500 (EST)","female","White","moderate/middle of the road","",NA,"","offCivRatings","the officer shot the civilian in the head with a handgun","the civilian shot the officer in the head with a handgun","handgunHead","handgunHead","civilianOfficer","forceOff","100","","","",""
"83",13169,"{""Q0"":70}","[object Object]","survey-likert",82,956360,"0.0-82.0","vmwvz6qmvuvb0onbskuahrlabe5q9gud","Sun Jan 22 2017 12:40:56 GMT-0500 (EST)","female","White","moderate/middle of the road","",NA,"","offCivRatings","the officer shot the civilian in the head with a handgun","the civilian shot the officer in the head with a handgun","handgunHead","handgunHead","civilianOfficer","punishOff","70","","","",""
"84",4416,"{""Q0"":1}","[object Object]","survey-likert",83,960783,"0.0-83.0","vmwvz6qmvuvb0onbskuahrlabe5q9gud","Sun Jan 22 2017 12:40:56 GMT-0500 (EST)","female","White","moderate/middle of the road","",NA,"","offCivRatings","the officer shot the civilian in the head with a handgun","the civilian shot the officer in the head with a handgun","handgunHead","handgunHead","civilianOfficer","acceptableOff","1","","","",""
"85",4360,"{""Q0"":99}","[object Object]","survey-likert",84,965149,"0.0-84.0","vmwvz6qmvuvb0onbskuahrlabe5q9gud","Sun Jan 22 2017 12:40:56 GMT-0500 (EST)","female","White","moderate/middle of the road","",NA,"","offCivRatings","the officer shot the civilian in the head with a handgun","the civilian shot the officer in the head with a handgun","handgunHead","handgunHead","civilianOfficer","manipCheckHigh","99","","","",""
"86",11272,"{""Q0"":59}","[object Object]","survey-likert",85,976427,"0.0-85.0","vmwvz6qmvuvb0onbskuahrlabe5q9gud","Sun Jan 22 2017 12:40:56 GMT-0500 (EST)","female","White","moderate/middle of the road","",NA,"","offCivRatings","the officer shot the civilian in the head with a handgun","the civilian shot the officer in the head with a handgun","handgunHead","handgunHead","civilianOfficer","appropriateOff","59","","","",""
"87",1176,"","","instructions",86,977603,"0.0-86.0","vmwvz6qmvuvb0onbskuahrlabe5q9gud","Sun Jan 22 2017 12:40:56 GMT-0500 (EST)","female","White","moderate/middle of the road","",NA,"[{""page_index"":0,""viewing_time"":1176}]","break","","","","","","","","","","",""
"88",11948,"{""Q0"":1}","[object Object]","survey-likert",87,989758,"0.0-87.0","vmwvz6qmvuvb0onbskuahrlabe5q9gud","Sun Jan 22 2017 12:40:56 GMT-0500 (EST)","female","White","moderate/middle of the road","",NA,"","offCivRatings","the officer twisted the arm of the civilian, forcing him to the ground","the civilian pulled away from the officer","armbar","pulledAway","civilianOfficer","punishOff","1","","","",""
"89",7126,"{""Q0"":52}","[object Object]","survey-likert",88,996890,"0.0-88.0","vmwvz6qmvuvb0onbskuahrlabe5q9gud","Sun Jan 22 2017 12:40:56 GMT-0500 (EST)","female","White","moderate/middle of the road","",NA,"","offCivRatings","the officer twisted the arm of the civilian, forcing him to the ground","the civilian pulled away from the officer","armbar","pulledAway","civilianOfficer","appropriateOff","52","","","",""
"90",8357,"{""Q0"":52}","[object Object]","survey-likert",89,1005252,"0.0-89.0","vmwvz6qmvuvb0onbskuahrlabe5q9gud","Sun Jan 22 2017 12:40:56 GMT-0500 (EST)","female","White","moderate/middle of the road","",NA,"","offCivRatings","the officer twisted the arm of the civilian, forcing him to the ground","the civilian pulled away from the officer","armbar","pulledAway","civilianOfficer","forceOff","52","","","",""
"91",8669,"{""Q0"":90}","[object Object]","survey-likert",90,1013925,"0.0-90.0","vmwvz6qmvuvb0onbskuahrlabe5q9gud","Sun Jan 22 2017 12:40:56 GMT-0500 (EST)","female","White","moderate/middle of the road","",NA,"","offCivRatings","the officer twisted the arm of the civilian, forcing him to the ground","the civilian pulled away from the officer","armbar","pulledAway","civilianOfficer","acceptableOff","90","","","",""
"92",1296,"","","instructions",91,1015221,"0.0-91.0","vmwvz6qmvuvb0onbskuahrlabe5q9gud","Sun Jan 22 2017 12:40:56 GMT-0500 (EST)","female","White","moderate/middle of the road","",NA,"[{""page_index"":0,""viewing_time"":1295}]","break","","","","","","","","","","",""
"93",15889,"{""Q0"":77}","[object Object]","survey-likert",92,1031318,"0.0-92.0","vmwvz6qmvuvb0onbskuahrlabe5q9gud","Sun Jan 22 2017 12:40:56 GMT-0500 (EST)","female","White","moderate/middle of the road","",NA,"","offCivRatings","the officer stood near the civilian","the civilian shouted ""I don't have to fucking listen to you!"" at the officer","stoodNear","dontListen","officerCivilian","appropriateCiv","77","","","",""
"94",6281,"{""Q0"":11}","[object Object]","survey-likert",93,1037605,"0.0-93.0","vmwvz6qmvuvb0onbskuahrlabe5q9gud","Sun Jan 22 2017 12:40:56 GMT-0500 (EST)","female","White","moderate/middle of the road","",NA,"","offCivRatings","the officer stood near the civilian","the civilian shouted ""I don't have to fucking listen to you!"" at the officer","stoodNear","dontListen","officerCivilian","punishCiv","11","","","",""
"95",6912,"{""Q0"":15}","[object Object]","survey-likert",94,1044523,"0.0-94.0","vmwvz6qmvuvb0onbskuahrlabe5q9gud","Sun Jan 22 2017 12:40:56 GMT-0500 (EST)","female","White","moderate/middle of the road","",NA,"","offCivRatings","the officer stood near the civilian","the civilian shouted ""I don't have to fucking listen to you!"" at the officer","stoodNear","dontListen","officerCivilian","forceCiv","15","","","",""
"96",6117,"{""Q0"":1}","[object Object]","survey-likert",95,1050646,"0.0-95.0","vmwvz6qmvuvb0onbskuahrlabe5q9gud","Sun Jan 22 2017 12:40:56 GMT-0500 (EST)","female","White","moderate/middle of the road","",NA,"","offCivRatings","the officer stood near the civilian","the civilian shouted ""I don't have to fucking listen to you!"" at the officer","stoodNear","dontListen","officerCivilian","acceptableCiv","1","","","",""
"97",1961,"","","instructions",96,1052607,"0.0-96.0","vmwvz6qmvuvb0onbskuahrlabe5q9gud","Sun Jan 22 2017 12:40:56 GMT-0500 (EST)","female","White","moderate/middle of the road","",NA,"[{""page_index"":0,""viewing_time"":1960}]","break","","","","","","","","","","",""
"98",19437,"{""Q0"":95}","[object Object]","survey-likert",97,1072253,"0.0-97.0","vmwvz6qmvuvb0onbskuahrlabe5q9gud","Sun Jan 22 2017 12:40:56 GMT-0500 (EST)","female","White","moderate/middle of the road","",NA,"","offCivRatings","the officer kicked the civilian in the stomach","the civilian applied a chokehold to the officer","kickStom","choke","civilianOfficer","acceptableOff","95","","","",""
"99",9175,"{""Q0"":71}","[object Object]","survey-likert",98,1081433,"0.0-98.0","vmwvz6qmvuvb0onbskuahrlabe5q9gud","Sun Jan 22 2017 12:40:56 GMT-0500 (EST)","female","White","moderate/middle of the road","",NA,"","offCivRatings","the officer kicked the civilian in the stomach","the civilian applied a chokehold to the officer","kickStom","choke","civilianOfficer","forceOff","71","","","",""
"100",7347,"{""Q0"":20}","[object Object]","survey-likert",99,1088787,"0.0-99.0","vmwvz6qmvuvb0onbskuahrlabe5q9gud","Sun Jan 22 2017 12:40:56 GMT-0500 (EST)","female","White","moderate/middle of the road","",NA,"","offCivRatings","the officer kicked the civilian in the stomach","the civilian applied a chokehold to the officer","kickStom","choke","civilianOfficer","punishOff","20","","","",""
"101",6683,"{""Q0"":57}","[object Object]","survey-likert",100,1095475,"0.0-100.0","vmwvz6qmvuvb0onbskuahrlabe5q9gud","Sun Jan 22 2017 12:40:56 GMT-0500 (EST)","female","White","moderate/middle of the road","",NA,"","offCivRatings","the officer kicked the civilian in the stomach","the civilian applied a chokehold to the officer","kickStom","choke","civilianOfficer","appropriateOff","57","","","",""
"102",1413,"","","instructions",101,1096888,"0.0-101.0","vmwvz6qmvuvb0onbskuahrlabe5q9gud","Sun Jan 22 2017 12:40:56 GMT-0500 (EST)","female","White","moderate/middle of the road","",NA,"[{""page_index"":0,""viewing_time"":1412}]","break","","","","","","","","","","",""
"103",15257,"{""Q0"":70}","[object Object]","survey-likert",102,1112353,"0.0-102.0","vmwvz6qmvuvb0onbskuahrlabe5q9gud","Sun Jan 22 2017 12:40:56 GMT-0500 (EST)","female","White","moderate/middle of the road","",NA,"","offCivRatings","the officer purposefully struck the civilian with a motor vehicle","the civilian purposefully struck the officer with a motor vehicle","vehicle","vehicle","officerCivilian","punishCiv","70","","","",""
"104",5312,"{""Q0"":90}","[object Object]","survey-likert",103,1117671,"0.0-103.0","vmwvz6qmvuvb0onbskuahrlabe5q9gud","Sun Jan 22 2017 12:40:56 GMT-0500 (EST)","female","White","moderate/middle of the road","",NA,"","offCivRatings","the officer purposefully struck the civilian with a motor vehicle","the civilian purposefully struck the officer with a motor vehicle","vehicle","vehicle","officerCivilian","appropriateCiv","90","","","",""
"105",6930,"{""Q0"":80}","[object Object]","survey-likert",104,1124607,"0.0-104.0","vmwvz6qmvuvb0onbskuahrlabe5q9gud","Sun Jan 22 2017 12:40:56 GMT-0500 (EST)","female","White","moderate/middle of the road","",NA,"","offCivRatings","the officer purposefully struck the civilian with a motor vehicle","the civilian purposefully struck the officer with a motor vehicle","vehicle","vehicle","officerCivilian","forceCiv","80","","","",""
"106",3615,"{""Q0"":1}","[object Object]","survey-likert",105,1128227,"0.0-105.0","vmwvz6qmvuvb0onbskuahrlabe5q9gud","Sun Jan 22 2017 12:40:56 GMT-0500 (EST)","female","White","moderate/middle of the road","",NA,"","offCivRatings","the officer purposefully struck the civilian with a motor vehicle","the civilian purposefully struck the officer with a motor vehicle","vehicle","vehicle","officerCivilian","acceptableCiv","1","","","",""
"107",1328,"","","instructions",106,1129555,"0.0-106.0","vmwvz6qmvuvb0onbskuahrlabe5q9gud","Sun Jan 22 2017 12:40:56 GMT-0500 (EST)","female","White","moderate/middle of the road","",NA,"[{""page_index"":0,""viewing_time"":1328}]","break","","","","","","","","","","",""
"108",8599,"{""Q0"":100}","[object Object]","survey-likert",107,1138363,"0.0-107.0","vmwvz6qmvuvb0onbskuahrlabe5q9gud","Sun Jan 22 2017 12:40:56 GMT-0500 (EST)","female","White","moderate/middle of the road","",NA,"","offCivRatings","the officer headbutted the civilian in the face","the civilian shot the officer in the chest with a handgun","headbutt","handgunChest","officerCivilian","punishCiv","100","","","",""
"109",8382,"{""Q0"":100}","[object Object]","survey-likert",108,1146750,"0.0-108.0","vmwvz6qmvuvb0onbskuahrlabe5q9gud","Sun Jan 22 2017 12:40:56 GMT-0500 (EST)","female","White","moderate/middle of the road","",NA,"","offCivRatings","the officer headbutted the civilian in the face","the civilian shot the officer in the chest with a handgun","headbutt","handgunChest","officerCivilian","forceCiv","100","","","",""
"110",4151,"{""Q0"":1}","[object Object]","survey-likert",109,1150908,"0.0-109.0","vmwvz6qmvuvb0onbskuahrlabe5q9gud","Sun Jan 22 2017 12:40:56 GMT-0500 (EST)","female","White","moderate/middle of the road","",NA,"","offCivRatings","the officer headbutted the civilian in the face","the civilian shot the officer in the chest with a handgun","headbutt","handgunChest","officerCivilian","acceptableCiv","1","","","",""
"111",6303,"{""Q0"":100}","[object Object]","survey-likert",110,1157216,"0.0-110.0","vmwvz6qmvuvb0onbskuahrlabe5q9gud","Sun Jan 22 2017 12:40:56 GMT-0500 (EST)","female","White","moderate/middle of the road","",NA,"","offCivRatings","the officer headbutted the civilian in the face","the civilian shot the officer in the chest with a handgun","headbutt","handgunChest","officerCivilian","appropriateCiv","100","","","",""
"112",1434,"","","instructions",111,1158650,"0.0-111.0","vmwvz6qmvuvb0onbskuahrlabe5q9gud","Sun Jan 22 2017 12:40:56 GMT-0500 (EST)","female","White","moderate/middle of the road","",NA,"[{""page_index"":0,""viewing_time"":1433}]","break","","","","","","","","","","",""
"113",12894,"{""Q0"":1}","[object Object]","survey-likert",112,1171751,"0.0-112.0","vmwvz6qmvuvb0onbskuahrlabe5q9gud","Sun Jan 22 2017 12:40:56 GMT-0500 (EST)","female","White","moderate/middle of the road","",NA,"","offCivRatings","the officer struck the civilian on the leg with a collapsible baton","the civilian struck the officer on the leg with a metal pipe","batonLeg","metalPipe","officerCivilian","manipCheckLow","1","","","",""
"114",7404,"{""Q0"":79}","[object Object]","survey-likert",113,1179160,"0.0-113.0","vmwvz6qmvuvb0onbskuahrlabe5q9gud","Sun Jan 22 2017 12:40:56 GMT-0500 (EST)","female","White","moderate/middle of the road","",NA,"","offCivRatings","the officer struck the civilian on the leg with a collapsible baton","the civilian struck the officer on the leg with a metal pipe","batonLeg","metalPipe","officerCivilian","forceCiv","79","","","",""
"115",4926,"{""Q0"":87}","[object Object]","survey-likert",114,1184091,"0.0-114.0","vmwvz6qmvuvb0onbskuahrlabe5q9gud","Sun Jan 22 2017 12:40:56 GMT-0500 (EST)","female","White","moderate/middle of the road","",NA,"","offCivRatings","the officer struck the civilian on the leg with a collapsible baton","the civilian struck the officer on the leg with a metal pipe","batonLeg","metalPipe","officerCivilian","appropriateCiv","87","","","",""
"116",5752,"{""Q0"":58}","[object Object]","survey-likert",115,1189849,"0.0-115.0","vmwvz6qmvuvb0onbskuahrlabe5q9gud","Sun Jan 22 2017 12:40:56 GMT-0500 (EST)","female","White","moderate/middle of the road","",NA,"","offCivRatings","the officer struck the civilian on the leg with a collapsible baton","the civilian struck the officer on the leg with a metal pipe","batonLeg","metalPipe","officerCivilian","punishCiv","58","","","",""
"117",6543,"{""Q0"":10}","[object Object]","survey-likert",116,1196398,"0.0-116.0","vmwvz6qmvuvb0onbskuahrlabe5q9gud","Sun Jan 22 2017 12:40:56 GMT-0500 (EST)","female","White","moderate/middle of the road","",NA,"","offCivRatings","the officer struck the civilian on the leg with a collapsible baton","the civilian struck the officer on the leg with a metal pipe","batonLeg","metalPipe","officerCivilian","acceptableCiv","10","","","",""
"118",1442,"","","instructions",117,1197840,"0.0-117.0","vmwvz6qmvuvb0onbskuahrlabe5q9gud","Sun Jan 22 2017 12:40:56 GMT-0500 (EST)","female","White","moderate/middle of the road","",NA,"[{""page_index"":0,""viewing_time"":1442}]","break","","","","","","","","","","",""
"119",9473,"{""Q0"":100}","[object Object]","survey-likert",118,1207521,"0.0-118.0","vmwvz6qmvuvb0onbskuahrlabe5q9gud","Sun Jan 22 2017 12:40:56 GMT-0500 (EST)","female","White","moderate/middle of the road","",NA,"","offCivRatings","the officer waved at the civilian in greeting","the civilian sprayed the officer with pepper spray","waved","pepperSpray","officerCivilian","appropriateCiv","100","","","",""
"120",4760,"{""Q0"":1}","[object Object]","survey-likert",119,1212290,"0.0-119.0","vmwvz6qmvuvb0onbskuahrlabe5q9gud","Sun Jan 22 2017 12:40:56 GMT-0500 (EST)","female","White","moderate/middle of the road","",NA,"","offCivRatings","the officer waved at the civilian in greeting","the civilian sprayed the officer with pepper spray","waved","pepperSpray","officerCivilian","acceptableCiv","1","","","",""
"121",4060,"{""Q0"":50}","[object Object]","survey-likert",120,1216357,"0.0-120.0","vmwvz6qmvuvb0onbskuahrlabe5q9gud","Sun Jan 22 2017 12:40:56 GMT-0500 (EST)","female","White","moderate/middle of the road","",NA,"","offCivRatings","the officer waved at the civilian in greeting","the civilian sprayed the officer with pepper spray","waved","pepperSpray","officerCivilian","forceCiv","50","","","",""
"122",5444,"{""Q0"":67}","[object Object]","survey-likert",121,1221806,"0.0-121.0","vmwvz6qmvuvb0onbskuahrlabe5q9gud","Sun Jan 22 2017 12:40:56 GMT-0500 (EST)","female","White","moderate/middle of the road","",NA,"","offCivRatings","the officer waved at the civilian in greeting","the civilian sprayed the officer with pepper spray","waved","pepperSpray","officerCivilian","punishCiv","67","","","",""
"123",7711,"{""Q0"":100}","[object Object]","survey-likert",122,1229522,"0.0-122.0","vmwvz6qmvuvb0onbskuahrlabe5q9gud","Sun Jan 22 2017 12:40:56 GMT-0500 (EST)","female","White","moderate/middle of the road","",NA,"","offCivRatings","the officer waved at the civilian in greeting","the civilian sprayed the officer with pepper spray","waved","pepperSpray","officerCivilian","manipCheckHigh","100","","","",""
"124",1883,"","","instructions",123,1231405,"0.0-123.0","vmwvz6qmvuvb0onbskuahrlabe5q9gud","Sun Jan 22 2017 12:40:56 GMT-0500 (EST)","female","White","moderate/middle of the road","",NA,"[{""page_index"":0,""viewing_time"":1883}]","break","","","","","","","","","","",""
"125",14116,"{""Q0"":80}","[object Object]","survey-likert",124,1245728,"0.0-124.0","vmwvz6qmvuvb0onbskuahrlabe5q9gud","Sun Jan 22 2017 12:40:56 GMT-0500 (EST)","female","White","moderate/middle of the road","",NA,"","policeLegitimacy","","","","","","","80","doTreat","feltObligation","",""
"126",9517,"{""Q0"":70}","[object Object]","survey-likert",125,1255251,"0.0-125.0","vmwvz6qmvuvb0onbskuahrlabe5q9gud","Sun Jan 22 2017 12:40:56 GMT-0500 (EST)","female","White","moderate/middle of the road","",NA,"","policeLegitimacy","","","","","","","70","importantValues","normAlignment","",""
"127",8408,"{""Q0"":31}","[object Object]","survey-likert",126,1263667,"0.0-126.0","vmwvz6qmvuvb0onbskuahrlabe5q9gud","Sun Jan 22 2017 12:40:56 GMT-0500 (EST)","female","White","moderate/middle of the road","",NA,"","policeLegitimacy","","","","","","","31","support","feltObligation","",""
"128",7204,"{""Q0"":70}","[object Object]","survey-likert",127,1270876,"0.0-127.0","vmwvz6qmvuvb0onbskuahrlabe5q9gud","Sun Jan 22 2017 12:40:56 GMT-0500 (EST)","female","White","moderate/middle of the road","",NA,"","policeLegitimacy","","","","","","","70","communityWants","normAlignment","",""
"129",9271,"{""Q0"":100}","[object Object]","survey-likert",128,1280154,"0.0-128.0","vmwvz6qmvuvb0onbskuahrlabe5q9gud","Sun Jan 22 2017 12:40:56 GMT-0500 (EST)","female","White","moderate/middle of the road","",NA,"","policeLegitimacy","","","","","","","100","rightWrong","normAlignment","",""
"130",8206,"{""Q0"":87}","[object Object]","survey-likert",129,1288365,"0.0-129.0","vmwvz6qmvuvb0onbskuahrlabe5q9gud","Sun Jan 22 2017 12:40:56 GMT-0500 (EST)","female","White","moderate/middle of the road","",NA,"","policeLegitimacy","","","","","","","87","doReasons","feltObligation","",""
"131",7011,"{""Q0"":""no""}","[object Object]","survey-multi-choice2",130,1295382,"0.0-130.0","vmwvz6qmvuvb0onbskuahrlabe5q9gud","Sun Jan 22 2017 12:40:56 GMT-0500 (EST)","female","White","moderate/middle of the road","",NA,"","policeExperience","","","","","","","no","corrupt","","personal","Have you ever seen a police officer engage in any corrupt activities (e.g., taking bribes or involvement in the drug trade)?"
"132",4425,"{""Q0"":""no""}","[object Object]","survey-multi-choice2",131,1299810,"0.0-131.0","vmwvz6qmvuvb0onbskuahrlabe5q9gud","Sun Jan 22 2017 12:40:56 GMT-0500 (EST)","female","White","moderate/middle of the road","",NA,"","policeExperience","","","","","","","no","excessForce","","personal","Have the police ever used excessive force against you?"
"133",4822,"{""Q0"":""no""}","[object Object]","survey-multi-choice2",132,1304635,"0.0-132.0","vmwvz6qmvuvb0onbskuahrlabe5q9gud","Sun Jan 22 2017 12:40:56 GMT-0500 (EST)","female","White","moderate/middle of the road","",NA,"","policeExperience","","","","","","","no","insultLang","","vicarious","Have the police ever used insulting language toward anyone in your household?"
"134",5171,"{""Q0"":""no""}","[object Object]","survey-multi-choice2",133,1309808,"0.0-133.0","vmwvz6qmvuvb0onbskuahrlabe5q9gud","Sun Jan 22 2017 12:40:56 GMT-0500 (EST)","female","White","moderate/middle of the road","",NA,"","policeExperience","","","","","","","no","stopped","","vicarious","Has anyone in your household ever been stopped on the street by the police without good reason?"
"135",4894,"{""Q0"":""no""}","[object Object]","survey-multi-choice2",134,1314703,"0.0-134.0","vmwvz6qmvuvb0onbskuahrlabe5q9gud","Sun Jan 22 2017 12:40:56 GMT-0500 (EST)","female","White","moderate/middle of the road","",NA,"","policeExperience","","","","","","","no","stopped","","personal","Have you ever been stopped by the police on the street without good reason?"
"136",4963,"{""Q0"":""no""}","[object Object]","survey-multi-choice2",135,1319669,"0.0-135.0","vmwvz6qmvuvb0onbskuahrlabe5q9gud","Sun Jan 22 2017 12:40:56 GMT-0500 (EST)","female","White","moderate/middle of the road","",NA,"","policeExperience","","","","","","","no","insultLang","","personal","Have the police ever used insulting language toward you?"
"137",3762,"{""Q0"":""no""}","[object Object]","survey-multi-choice2",136,1323434,"0.0-136.0","vmwvz6qmvuvb0onbskuahrlabe5q9gud","Sun Jan 22 2017 12:40:56 GMT-0500 (EST)","female","White","moderate/middle of the road","",NA,"","policeExperience","","","","","","","no","excessForce","","vicarious","Have the police ever used excessive force against anyone in your household?"
"138",26551,"{""Q0"":""female"",""Q1"":""White"",""Q2"":""moderate/middle of the road""}","[object Object]","survey-multi-choice",137,1349994,"0.0-137.0","vmwvz6qmvuvb0onbskuahrlabe5q9gud","Sun Jan 22 2017 12:40:56 GMT-0500 (EST)","female","White","moderate/middle of the road","",NA,"","demographics","","","","","","","","","","",""
"139",36479,"","","instructions",138,1387476,"0.0-138.0","vmwvz6qmvuvb0onbskuahrlabe5q9gud","Sun Jan 22 2017 12:40:56 GMT-0500 (EST)","female","White","moderate/middle of the road","",NA,"[{""page_index"":0,""viewing_time"":1826},{""page_index"":1,""viewing_time"":20011},{""page_index"":2,""viewing_time"":6662},{""page_index"":3,""viewing_time"":7980}]","debriefing","","","","","","","","","","",""
