"","rt","responses","internalResp","trial_type","trial_index","time_elapsed","internal_node_id","randSubjectID","date","sex","race","polAff","stimulus","key_press","view_history","questionType","officerAction","civilianAction","offActName","civActName","order","questionName","response","name","dimension","person","question"
"1",21707,"","[object Object]","survey-text",0,21713,"0.0-0.0","wb1klpxlvybewt1znt21bsuzckz9ltqh","Thu Jan 26 2017 12:05:04 GMT-0600 (Central Standard Time)","female","Black or African American","moderate/middle of the road","",NA,"","","","","","","","","","","","",""
"2",6481,"","","single-stim",1,29200,"0.0-1.0","wb1klpxlvybewt1znt21bsuzckz9ltqh","Thu Jan 26 2017 12:05:04 GMT-0600 (Central Standard Time)","female","Black or African American","moderate/middle of the road","<img src='static/images/1602685960_ICS_Credit-0.png' alt='Consent 1' height=1100 width=850><img src='static/images/1602685960_ICS_Credit-1.png' alt='Consent 2' height=1100 width=850></p>",89,"","","","","","","","","","","","",""
"3",11630,"","","instructions",2,41830,"0.0-2.0","wb1klpxlvybewt1znt21bsuzckz9ltqh","Thu Jan 26 2017 12:05:04 GMT-0600 (Central Standard Time)","female","Black or African American","moderate/middle of the road","",NA,"[{""page_index"":0,""viewing_time"":11630}]","instructions","","","","","","","","","","",""
"4",116537,"","","instructions",3,159369,"0.0-3.0","wb1klpxlvybewt1znt21bsuzckz9ltqh","Thu Jan 26 2017 12:05:04 GMT-0600 (Central Standard Time)","female","Black or African American","moderate/middle of the road","",NA,"[{""page_index"":0,""viewing_time"":24469},{""page_index"":1,""viewing_time"":57506},{""page_index"":2,""viewing_time"":26128},{""page_index"":3,""viewing_time"":8434}]","instructions","","","","","","","","","","",""
"5",45111,"{""Q0"":100}","[object Object]","survey-likert",4,205507,"0.0-4.0","wb1klpxlvybewt1znt21bsuzckz9ltqh","Thu Jan 26 2017 12:05:04 GMT-0600 (Central Standard Time)","female","Black or African American","moderate/middle of the road","",NA,"","offCivRatings","the officer shot the civilian in the chest with a handgun","the civilian slammed the officer's head into the concrete curb","handgunChest","headSlam","civilianOfficer","forceOff","100","","","",""
"6",18187,"{""Q0"":79}","[object Object]","survey-likert",5,223702,"0.0-5.0","wb1klpxlvybewt1znt21bsuzckz9ltqh","Thu Jan 26 2017 12:05:04 GMT-0600 (Central Standard Time)","female","Black or African American","moderate/middle of the road","",NA,"","offCivRatings","the officer shot the civilian in the chest with a handgun","the civilian slammed the officer's head into the concrete curb","handgunChest","headSlam","civilianOfficer","punishOff","79","","","",""
"7",21901,"{""Q0"":83}","[object Object]","survey-likert",6,245611,"0.0-6.0","wb1klpxlvybewt1znt21bsuzckz9ltqh","Thu Jan 26 2017 12:05:04 GMT-0600 (Central Standard Time)","female","Black or African American","moderate/middle of the road","",NA,"","offCivRatings","the officer shot the civilian in the chest with a handgun","the civilian slammed the officer's head into the concrete curb","handgunChest","headSlam","civilianOfficer","appropriateOff","83","","","",""
"8",12417,"{""Q0"":31}","[object Object]","survey-likert",7,258037,"0.0-7.0","wb1klpxlvybewt1znt21bsuzckz9ltqh","Thu Jan 26 2017 12:05:04 GMT-0600 (Central Standard Time)","female","Black or African American","moderate/middle of the road","",NA,"","offCivRatings","the officer shot the civilian in the chest with a handgun","the civilian slammed the officer's head into the concrete curb","handgunChest","headSlam","civilianOfficer","acceptableOff","31","","","",""
"9",1633,"","","instructions",8,259670,"0.0-8.0","wb1klpxlvybewt1znt21bsuzckz9ltqh","Thu Jan 26 2017 12:05:04 GMT-0600 (Central Standard Time)","female","Black or African American","moderate/middle of the road","",NA,"[{""page_index"":0,""viewing_time"":1633}]","break","","","","","","","","","","",""
"10",28762,"{""Q0"":56}","[object Object]","survey-likert",9,288639,"0.0-9.0","wb1klpxlvybewt1znt21bsuzckz9ltqh","Thu Jan 26 2017 12:05:04 GMT-0600 (Central Standard Time)","female","Black or African American","moderate/middle of the road","",NA,"","offCivRatings","the officer applied a chokehold to the civilian","the civilian headbutted the officer in the face","choke","headbutt","officerCivilian","appropriateCiv","56","","","",""
"11",14941,"{""Q0"":50}","[object Object]","survey-likert",10,303587,"0.0-10.0","wb1klpxlvybewt1znt21bsuzckz9ltqh","Thu Jan 26 2017 12:05:04 GMT-0600 (Central Standard Time)","female","Black or African American","moderate/middle of the road","",NA,"","offCivRatings","the officer applied a chokehold to the civilian","the civilian headbutted the officer in the face","choke","headbutt","officerCivilian","forceCiv","50","","","",""
"12",8668,"{""Q0"":56}","[object Object]","survey-likert",11,312261,"0.0-11.0","wb1klpxlvybewt1znt21bsuzckz9ltqh","Thu Jan 26 2017 12:05:04 GMT-0600 (Central Standard Time)","female","Black or African American","moderate/middle of the road","",NA,"","offCivRatings","the officer applied a chokehold to the civilian","the civilian headbutted the officer in the face","choke","headbutt","officerCivilian","acceptableCiv","56","","","",""
"13",8820,"{""Q0"":51}","[object Object]","survey-likert",12,321087,"0.0-12.0","wb1klpxlvybewt1znt21bsuzckz9ltqh","Thu Jan 26 2017 12:05:04 GMT-0600 (Central Standard Time)","female","Black or African American","moderate/middle of the road","",NA,"","offCivRatings","the officer applied a chokehold to the civilian","the civilian headbutted the officer in the face","choke","headbutt","officerCivilian","punishCiv","51","","","",""
"14",17141,"{""Q0"":2}","[object Object]","survey-likert",13,338233,"0.0-13.0","wb1klpxlvybewt1znt21bsuzckz9ltqh","Thu Jan 26 2017 12:05:04 GMT-0600 (Central Standard Time)","female","Black or African American","moderate/middle of the road","",NA,"","offCivRatings","the officer applied a chokehold to the civilian","the civilian headbutted the officer in the face","choke","headbutt","officerCivilian","manipCheckLow","2","","","",""
"15",1744,"","","instructions",14,339978,"0.0-14.0","wb1klpxlvybewt1znt21bsuzckz9ltqh","Thu Jan 26 2017 12:05:04 GMT-0600 (Central Standard Time)","female","Black or African American","moderate/middle of the road","",NA,"[{""page_index"":0,""viewing_time"":1743}]","break","","","","","","","","","","",""
"16",21720,"{""Q0"":89}","[object Object]","survey-likert",15,361906,"0.0-15.0","wb1klpxlvybewt1znt21bsuzckz9ltqh","Thu Jan 26 2017 12:05:04 GMT-0600 (Central Standard Time)","female","Black or African American","moderate/middle of the road","",NA,"","offCivRatings","the officer punched the civilian in the face","the civilian hit the officer in the chest with a baseball bat","punchFace","ballBat","civilianOfficer","acceptableOff","89","","","",""
"17",12854,"{""Q0"":15}","[object Object]","survey-likert",16,374765,"0.0-16.0","wb1klpxlvybewt1znt21bsuzckz9ltqh","Thu Jan 26 2017 12:05:04 GMT-0600 (Central Standard Time)","female","Black or African American","moderate/middle of the road","",NA,"","offCivRatings","the officer punched the civilian in the face","the civilian hit the officer in the chest with a baseball bat","punchFace","ballBat","civilianOfficer","punishOff","15","","","",""
"18",10090,"{""Q0"":50}","[object Object]","survey-likert",17,384861,"0.0-17.0","wb1klpxlvybewt1znt21bsuzckz9ltqh","Thu Jan 26 2017 12:05:04 GMT-0600 (Central Standard Time)","female","Black or African American","moderate/middle of the road","",NA,"","offCivRatings","the officer punched the civilian in the face","the civilian hit the officer in the chest with a baseball bat","punchFace","ballBat","civilianOfficer","appropriateOff","50","","","",""
"19",9945,"{""Q0"":51}","[object Object]","survey-likert",18,394815,"0.0-18.0","wb1klpxlvybewt1znt21bsuzckz9ltqh","Thu Jan 26 2017 12:05:04 GMT-0600 (Central Standard Time)","female","Black or African American","moderate/middle of the road","",NA,"","offCivRatings","the officer punched the civilian in the face","the civilian hit the officer in the chest with a baseball bat","punchFace","ballBat","civilianOfficer","forceOff","51","","","",""
"20",3852,"","","instructions",19,398667,"0.0-19.0","wb1klpxlvybewt1znt21bsuzckz9ltqh","Thu Jan 26 2017 12:05:04 GMT-0600 (Central Standard Time)","female","Black or African American","moderate/middle of the road","",NA,"[{""page_index"":0,""viewing_time"":3852}]","break","","","","","","","","","","",""
"21",16628,"{""Q0"":41}","[object Object]","survey-likert",20,415500,"0.0-20.0","wb1klpxlvybewt1znt21bsuzckz9ltqh","Thu Jan 26 2017 12:05:04 GMT-0600 (Central Standard Time)","female","Black or African American","moderate/middle of the road","",NA,"","offCivRatings","the officer struck the civilian on the leg with a collapsible baton","the civilian kicked the officer in the stomach","batonLeg","kickStom","officerCivilian","appropriateCiv","41","","","",""
"22",28162,"{""Q0"":19}","[object Object]","survey-likert",21,443667,"0.0-21.0","wb1klpxlvybewt1znt21bsuzckz9ltqh","Thu Jan 26 2017 12:05:04 GMT-0600 (Central Standard Time)","female","Black or African American","moderate/middle of the road","",NA,"","offCivRatings","the officer struck the civilian on the leg with a collapsible baton","the civilian kicked the officer in the stomach","batonLeg","kickStom","officerCivilian","acceptableCiv","19","","","",""
"23",14561,"{""Q0"":42}","[object Object]","survey-likert",22,458232,"0.0-22.0","wb1klpxlvybewt1znt21bsuzckz9ltqh","Thu Jan 26 2017 12:05:04 GMT-0600 (Central Standard Time)","female","Black or African American","moderate/middle of the road","",NA,"","offCivRatings","the officer struck the civilian on the leg with a collapsible baton","the civilian kicked the officer in the stomach","batonLeg","kickStom","officerCivilian","forceCiv","42","","","",""
"24",10363,"{""Q0"":51}","[object Object]","survey-likert",23,468602,"0.0-23.0","wb1klpxlvybewt1znt21bsuzckz9ltqh","Thu Jan 26 2017 12:05:04 GMT-0600 (Central Standard Time)","female","Black or African American","moderate/middle of the road","",NA,"","offCivRatings","the officer struck the civilian on the leg with a collapsible baton","the civilian kicked the officer in the stomach","batonLeg","kickStom","officerCivilian","punishCiv","51","","","",""
"25",2832,"","","instructions",24,471434,"0.0-24.0","wb1klpxlvybewt1znt21bsuzckz9ltqh","Thu Jan 26 2017 12:05:04 GMT-0600 (Central Standard Time)","female","Black or African American","moderate/middle of the road","",NA,"[{""page_index"":0,""viewing_time"":2831}]","break","","","","","","","","","","",""
"26",17931,"{""Q0"":68}","[object Object]","survey-likert",25,489570,"0.0-25.0","wb1klpxlvybewt1znt21bsuzckz9ltqh","Thu Jan 26 2017 12:05:04 GMT-0600 (Central Standard Time)","female","Black or African American","moderate/middle of the road","",NA,"","offCivRatings","the officer twisted the arm of the civilian, forcing him to the ground","the civilian applied a chokehold to the officer","armbar","choke","officerCivilian","appropriateCiv","68","","","",""
"27",8616,"{""Q0"":66}","[object Object]","survey-likert",26,498194,"0.0-26.0","wb1klpxlvybewt1znt21bsuzckz9ltqh","Thu Jan 26 2017 12:05:04 GMT-0600 (Central Standard Time)","female","Black or African American","moderate/middle of the road","",NA,"","offCivRatings","the officer twisted the arm of the civilian, forcing him to the ground","the civilian applied a chokehold to the officer","armbar","choke","officerCivilian","forceCiv","66","","","",""
"28",8155,"{""Q0"":62}","[object Object]","survey-likert",27,506355,"0.0-27.0","wb1klpxlvybewt1znt21bsuzckz9ltqh","Thu Jan 26 2017 12:05:04 GMT-0600 (Central Standard Time)","female","Black or African American","moderate/middle of the road","",NA,"","offCivRatings","the officer twisted the arm of the civilian, forcing him to the ground","the civilian applied a chokehold to the officer","armbar","choke","officerCivilian","punishCiv","62","","","",""
"29",7076,"{""Q0"":33}","[object Object]","survey-likert",28,513435,"0.0-28.0","wb1klpxlvybewt1znt21bsuzckz9ltqh","Thu Jan 26 2017 12:05:04 GMT-0600 (Central Standard Time)","female","Black or African American","moderate/middle of the road","",NA,"","offCivRatings","the officer twisted the arm of the civilian, forcing him to the ground","the civilian applied a chokehold to the officer","armbar","choke","officerCivilian","acceptableCiv","33","","","",""
"30",8368,"{""Q0"":100}","[object Object]","survey-likert",29,521807,"0.0-29.0","wb1klpxlvybewt1znt21bsuzckz9ltqh","Thu Jan 26 2017 12:05:04 GMT-0600 (Central Standard Time)","female","Black or African American","moderate/middle of the road","",NA,"","offCivRatings","the officer twisted the arm of the civilian, forcing him to the ground","the civilian applied a chokehold to the officer","armbar","choke","officerCivilian","manipCheckHigh","100","","","",""
"31",2067,"","","instructions",30,523874,"0.0-30.0","wb1klpxlvybewt1znt21bsuzckz9ltqh","Thu Jan 26 2017 12:05:04 GMT-0600 (Central Standard Time)","female","Black or African American","moderate/middle of the road","",NA,"[{""page_index"":0,""viewing_time"":2067}]","break","","","","","","","","","","",""
"32",18597,"{""Q0"":62}","[object Object]","survey-likert",31,542677,"0.0-31.0","wb1klpxlvybewt1znt21bsuzckz9ltqh","Thu Jan 26 2017 12:05:04 GMT-0600 (Central Standard Time)","female","Black or African American","moderate/middle of the road","",NA,"","offCivRatings","the officer sprayed the civilian with pepper spray","the civilian shot the officer in the chest with a handgun","pepperSpray","handgunChest","civilianOfficer","forceOff","62","","","",""
"33",5007,"{""Q0"":99}","[object Object]","survey-likert",32,547689,"0.0-32.0","wb1klpxlvybewt1znt21bsuzckz9ltqh","Thu Jan 26 2017 12:05:04 GMT-0600 (Central Standard Time)","female","Black or African American","moderate/middle of the road","",NA,"","offCivRatings","the officer sprayed the civilian with pepper spray","the civilian shot the officer in the chest with a handgun","pepperSpray","handgunChest","civilianOfficer","acceptableOff","99","","","",""
"34",5864,"{""Q0"":50}","[object Object]","survey-likert",33,553559,"0.0-33.0","wb1klpxlvybewt1znt21bsuzckz9ltqh","Thu Jan 26 2017 12:05:04 GMT-0600 (Central Standard Time)","female","Black or African American","moderate/middle of the road","",NA,"","offCivRatings","the officer sprayed the civilian with pepper spray","the civilian shot the officer in the chest with a handgun","pepperSpray","handgunChest","civilianOfficer","appropriateOff","50","","","",""
"35",5593,"{""Q0"":3}","[object Object]","survey-likert",34,559157,"0.0-34.0","wb1klpxlvybewt1znt21bsuzckz9ltqh","Thu Jan 26 2017 12:05:04 GMT-0600 (Central Standard Time)","female","Black or African American","moderate/middle of the road","",NA,"","offCivRatings","the officer sprayed the civilian with pepper spray","the civilian shot the officer in the chest with a handgun","pepperSpray","handgunChest","civilianOfficer","punishOff","3","","","",""
"36",1412,"","","instructions",35,560569,"0.0-35.0","wb1klpxlvybewt1znt21bsuzckz9ltqh","Thu Jan 26 2017 12:05:04 GMT-0600 (Central Standard Time)","female","Black or African American","moderate/middle of the road","",NA,"[{""page_index"":0,""viewing_time"":1411}]","break","","","","","","","","","","",""
"37",14975,"{""Q0"":1}","[object Object]","survey-likert",36,575750,"0.0-36.0","wb1klpxlvybewt1znt21bsuzckz9ltqh","Thu Jan 26 2017 12:05:04 GMT-0600 (Central Standard Time)","female","Black or African American","moderate/middle of the road","",NA,"","offCivRatings","the officer said ""if you touch me, you're gonna get hurt"" to the civilian","the civilian punched the officer in the face","hurtThreat","punchFace","officerCivilian","appropriateCiv","1","","","",""
"38",7550,"{""Q0"":3}","[object Object]","survey-likert",37,583305,"0.0-37.0","wb1klpxlvybewt1znt21bsuzckz9ltqh","Thu Jan 26 2017 12:05:04 GMT-0600 (Central Standard Time)","female","Black or African American","moderate/middle of the road","",NA,"","offCivRatings","the officer said ""if you touch me, you're gonna get hurt"" to the civilian","the civilian punched the officer in the face","hurtThreat","punchFace","officerCivilian","acceptableCiv","3","","","",""
"39",11646,"{""Q0"":71}","[object Object]","survey-likert",38,594958,"0.0-38.0","wb1klpxlvybewt1znt21bsuzckz9ltqh","Thu Jan 26 2017 12:05:04 GMT-0600 (Central Standard Time)","female","Black or African American","moderate/middle of the road","",NA,"","offCivRatings","the officer said ""if you touch me, you're gonna get hurt"" to the civilian","the civilian punched the officer in the face","hurtThreat","punchFace","officerCivilian","forceCiv","71","","","",""
"40",11766,"{""Q0"":82}","[object Object]","survey-likert",39,606730,"0.0-39.0","wb1klpxlvybewt1znt21bsuzckz9ltqh","Thu Jan 26 2017 12:05:04 GMT-0600 (Central Standard Time)","female","Black or African American","moderate/middle of the road","",NA,"","offCivRatings","the officer said ""if you touch me, you're gonna get hurt"" to the civilian","the civilian punched the officer in the face","hurtThreat","punchFace","officerCivilian","punishCiv","82","","","",""
"41",38382,"","","instructions",40,645112,"0.0-40.0","wb1klpxlvybewt1znt21bsuzckz9ltqh","Thu Jan 26 2017 12:05:04 GMT-0600 (Central Standard Time)","female","Black or African American","moderate/middle of the road","",NA,"[{""page_index"":0,""viewing_time"":38382}]","break","","","","","","","","","","",""
"42",22374,"{""Q0"":99}","[object Object]","survey-likert",41,667692,"0.0-41.0","wb1klpxlvybewt1znt21bsuzckz9ltqh","Thu Jan 26 2017 12:05:04 GMT-0600 (Central Standard Time)","female","Black or African American","moderate/middle of the road","",NA,"","offCivRatings","the officer stood near the civilian","the civilian shot the officer in the head with a handgun","stoodNear","handgunHead","officerCivilian","punishCiv","99","","","",""
"43",6713,"{""Q0"":2}","[object Object]","survey-likert",42,674411,"0.0-42.0","wb1klpxlvybewt1znt21bsuzckz9ltqh","Thu Jan 26 2017 12:05:04 GMT-0600 (Central Standard Time)","female","Black or African American","moderate/middle of the road","",NA,"","offCivRatings","the officer stood near the civilian","the civilian shot the officer in the head with a handgun","stoodNear","handgunHead","officerCivilian","acceptableCiv","2","","","",""
"44",8792,"{""Q0"":98}","[object Object]","survey-likert",43,683208,"0.0-43.0","wb1klpxlvybewt1znt21bsuzckz9ltqh","Thu Jan 26 2017 12:05:04 GMT-0600 (Central Standard Time)","female","Black or African American","moderate/middle of the road","",NA,"","offCivRatings","the officer stood near the civilian","the civilian shot the officer in the head with a handgun","stoodNear","handgunHead","officerCivilian","forceCiv","98","","","",""
"45",21331,"{""Q0"":99}","[object Object]","survey-likert",44,704544,"0.0-44.0","wb1klpxlvybewt1znt21bsuzckz9ltqh","Thu Jan 26 2017 12:05:04 GMT-0600 (Central Standard Time)","female","Black or African American","moderate/middle of the road","",NA,"","offCivRatings","the officer stood near the civilian","the civilian shot the officer in the head with a handgun","stoodNear","handgunHead","officerCivilian","appropriateCiv","99","","","",""
"46",1825,"","","instructions",45,706369,"0.0-45.0","wb1klpxlvybewt1znt21bsuzckz9ltqh","Thu Jan 26 2017 12:05:04 GMT-0600 (Central Standard Time)","female","Black or African American","moderate/middle of the road","",NA,"[{""page_index"":0,""viewing_time"":1825}]","break","","","","","","","","","","",""
"47",11588,"{""Q0"":92}","[object Object]","survey-likert",46,718163,"0.0-46.0","wb1klpxlvybewt1znt21bsuzckz9ltqh","Thu Jan 26 2017 12:05:04 GMT-0600 (Central Standard Time)","female","Black or African American","moderate/middle of the road","",NA,"","offCivRatings","the officer waved at the civilian in greeting","the civilian struck the officer in the stomach with a metal flashlight","waved","flashlight","officerCivilian","punishCiv","92","","","",""
"48",7671,"{""Q0"":3}","[object Object]","survey-likert",47,725840,"0.0-47.0","wb1klpxlvybewt1znt21bsuzckz9ltqh","Thu Jan 26 2017 12:05:04 GMT-0600 (Central Standard Time)","female","Black or African American","moderate/middle of the road","",NA,"","offCivRatings","the officer waved at the civilian in greeting","the civilian struck the officer in the stomach with a metal flashlight","waved","flashlight","officerCivilian","acceptableCiv","3","","","",""
"49",12061,"{""Q0"":99}","[object Object]","survey-likert",48,737906,"0.0-48.0","wb1klpxlvybewt1znt21bsuzckz9ltqh","Thu Jan 26 2017 12:05:04 GMT-0600 (Central Standard Time)","female","Black or African American","moderate/middle of the road","",NA,"","offCivRatings","the officer waved at the civilian in greeting","the civilian struck the officer in the stomach with a metal flashlight","waved","flashlight","officerCivilian","appropriateCiv","99","","","",""
"50",13193,"{""Q0"":80}","[object Object]","survey-likert",49,751104,"0.0-49.0","wb1klpxlvybewt1znt21bsuzckz9ltqh","Thu Jan 26 2017 12:05:04 GMT-0600 (Central Standard Time)","female","Black or African American","moderate/middle of the road","",NA,"","offCivRatings","the officer waved at the civilian in greeting","the civilian struck the officer in the stomach with a metal flashlight","waved","flashlight","officerCivilian","forceCiv","80","","","",""
"51",1429,"","","instructions",50,752533,"0.0-50.0","wb1klpxlvybewt1znt21bsuzckz9ltqh","Thu Jan 26 2017 12:05:04 GMT-0600 (Central Standard Time)","female","Black or African American","moderate/middle of the road","",NA,"[{""page_index"":0,""viewing_time"":1429}]","break","","","","","","","","","","",""
"52",34472,"{""Q0"":1}","[object Object]","survey-likert",51,787212,"0.0-51.0","wb1klpxlvybewt1znt21bsuzckz9ltqh","Thu Jan 26 2017 12:05:04 GMT-0600 (Central Standard Time)","female","Black or African American","moderate/middle of the road","",NA,"","offCivRatings","the officer asked the civilian how he was doing","the civilian said ""if you touch me, you're gonna get hurt"" to the officer","asked","hurtThreat","civilianOfficer","punishOff","1","","","",""
"53",6956,"{""Q0"":1}","[object Object]","survey-likert",52,794173,"0.0-52.0","wb1klpxlvybewt1znt21bsuzckz9ltqh","Thu Jan 26 2017 12:05:04 GMT-0600 (Central Standard Time)","female","Black or African American","moderate/middle of the road","",NA,"","offCivRatings","the officer asked the civilian how he was doing","the civilian said ""if you touch me, you're gonna get hurt"" to the officer","asked","hurtThreat","civilianOfficer","forceOff","1","","","",""
"54",10861,"{""Q0"":50}","[object Object]","survey-likert",53,805040,"0.0-53.0","wb1klpxlvybewt1znt21bsuzckz9ltqh","Thu Jan 26 2017 12:05:04 GMT-0600 (Central Standard Time)","female","Black or African American","moderate/middle of the road","",NA,"","offCivRatings","the officer asked the civilian how he was doing","the civilian said ""if you touch me, you're gonna get hurt"" to the officer","asked","hurtThreat","civilianOfficer","appropriateOff","50","","","",""
"55",7037,"{""Q0"":99}","[object Object]","survey-likert",54,812082,"0.0-54.0","wb1klpxlvybewt1znt21bsuzckz9ltqh","Thu Jan 26 2017 12:05:04 GMT-0600 (Central Standard Time)","female","Black or African American","moderate/middle of the road","",NA,"","offCivRatings","the officer asked the civilian how he was doing","the civilian said ""if you touch me, you're gonna get hurt"" to the officer","asked","hurtThreat","civilianOfficer","acceptableOff","99","","","",""
"56",11548,"{""Q0"":99}","[object Object]","survey-likert",55,823634,"0.0-55.0","wb1klpxlvybewt1znt21bsuzckz9ltqh","Thu Jan 26 2017 12:05:04 GMT-0600 (Central Standard Time)","female","Black or African American","moderate/middle of the road","",NA,"","offCivRatings","the officer asked the civilian how he was doing","the civilian said ""if you touch me, you're gonna get hurt"" to the officer","asked","hurtThreat","civilianOfficer","manipCheckHigh","99","","","",""
"57",61947,"","","instructions",56,885581,"0.0-56.0","wb1klpxlvybewt1znt21bsuzckz9ltqh","Thu Jan 26 2017 12:05:04 GMT-0600 (Central Standard Time)","female","Black or African American","moderate/middle of the road","",NA,"[{""page_index"":0,""viewing_time"":61947}]","break","","","","","","","","","","",""
"58",13956,"{""Q0"":92}","[object Object]","survey-likert",57,899745,"0.0-57.0","wb1klpxlvybewt1znt21bsuzckz9ltqh","Thu Jan 26 2017 12:05:04 GMT-0600 (Central Standard Time)","female","Black or African American","moderate/middle of the road","",NA,"","offCivRatings","the officer purposefully struck the civilian with a motor vehicle","the civilian sprayed the officer with pepper spray","vehicle","pepperSpray","civilianOfficer","forceOff","92","","","",""
"59",8302,"{""Q0"":87}","[object Object]","survey-likert",58,908051,"0.0-58.0","wb1klpxlvybewt1znt21bsuzckz9ltqh","Thu Jan 26 2017 12:05:04 GMT-0600 (Central Standard Time)","female","Black or African American","moderate/middle of the road","",NA,"","offCivRatings","the officer purposefully struck the civilian with a motor vehicle","the civilian sprayed the officer with pepper spray","vehicle","pepperSpray","civilianOfficer","punishOff","87","","","",""
"60",16274,"{""Q0"":10}","[object Object]","survey-likert",59,924329,"0.0-59.0","wb1klpxlvybewt1znt21bsuzckz9ltqh","Thu Jan 26 2017 12:05:04 GMT-0600 (Central Standard Time)","female","Black or African American","moderate/middle of the road","",NA,"","offCivRatings","the officer purposefully struck the civilian with a motor vehicle","the civilian sprayed the officer with pepper spray","vehicle","pepperSpray","civilianOfficer","acceptableOff","10","","","",""
"61",5102,"{""Q0"":98}","[object Object]","survey-likert",60,929435,"0.0-60.0","wb1klpxlvybewt1znt21bsuzckz9ltqh","Thu Jan 26 2017 12:05:04 GMT-0600 (Central Standard Time)","female","Black or African American","moderate/middle of the road","",NA,"","offCivRatings","the officer purposefully struck the civilian with a motor vehicle","the civilian sprayed the officer with pepper spray","vehicle","pepperSpray","civilianOfficer","manipCheckHigh","98","","","",""
"62",11881,"{""Q0"":91}","[object Object]","survey-likert",61,941323,"0.0-61.0","wb1klpxlvybewt1znt21bsuzckz9ltqh","Thu Jan 26 2017 12:05:04 GMT-0600 (Central Standard Time)","female","Black or African American","moderate/middle of the road","",NA,"","offCivRatings","the officer purposefully struck the civilian with a motor vehicle","the civilian sprayed the officer with pepper spray","vehicle","pepperSpray","civilianOfficer","appropriateOff","91","","","",""
"63",1391,"","","instructions",62,942714,"0.0-62.0","wb1klpxlvybewt1znt21bsuzckz9ltqh","Thu Jan 26 2017 12:05:04 GMT-0600 (Central Standard Time)","female","Black or African American","moderate/middle of the road","",NA,"[{""page_index"":0,""viewing_time"":1391}]","break","","","","","","","","","","",""
"64",14700,"{""Q0"":64}","[object Object]","survey-likert",63,957619,"0.0-63.0","wb1klpxlvybewt1znt21bsuzckz9ltqh","Thu Jan 26 2017 12:05:04 GMT-0600 (Central Standard Time)","female","Black or African American","moderate/middle of the road","",NA,"","offCivRatings","the officer put handcuffs on the civilian","the civilian waved at the officer in greeting","handcuff","waved","civilianOfficer","forceOff","64","","","",""
"65",5283,"{""Q0"":1}","[object Object]","survey-likert",64,962907,"0.0-64.0","wb1klpxlvybewt1znt21bsuzckz9ltqh","Thu Jan 26 2017 12:05:04 GMT-0600 (Central Standard Time)","female","Black or African American","moderate/middle of the road","",NA,"","offCivRatings","the officer put handcuffs on the civilian","the civilian waved at the officer in greeting","handcuff","waved","civilianOfficer","manipCheckLow","1","","","",""
"66",9955,"{""Q0"":66}","[object Object]","survey-likert",65,972867,"0.0-65.0","wb1klpxlvybewt1znt21bsuzckz9ltqh","Thu Jan 26 2017 12:05:04 GMT-0600 (Central Standard Time)","female","Black or African American","moderate/middle of the road","",NA,"","offCivRatings","the officer put handcuffs on the civilian","the civilian waved at the officer in greeting","handcuff","waved","civilianOfficer","appropriateOff","66","","","",""
"67",12396,"{""Q0"":21}","[object Object]","survey-likert",66,985268,"0.0-66.0","wb1klpxlvybewt1znt21bsuzckz9ltqh","Thu Jan 26 2017 12:05:04 GMT-0600 (Central Standard Time)","female","Black or African American","moderate/middle of the road","",NA,"","offCivRatings","the officer put handcuffs on the civilian","the civilian waved at the officer in greeting","handcuff","waved","civilianOfficer","acceptableOff","21","","","",""
"68",12628,"{""Q0"":49}","[object Object]","survey-likert",67,997903,"0.0-67.0","wb1klpxlvybewt1znt21bsuzckz9ltqh","Thu Jan 26 2017 12:05:04 GMT-0600 (Central Standard Time)","female","Black or African American","moderate/middle of the road","",NA,"","offCivRatings","the officer put handcuffs on the civilian","the civilian waved at the officer in greeting","handcuff","waved","civilianOfficer","punishOff","49","","","",""
"69",1290,"","","instructions",68,999193,"0.0-68.0","wb1klpxlvybewt1znt21bsuzckz9ltqh","Thu Jan 26 2017 12:05:04 GMT-0600 (Central Standard Time)","female","Black or African American","moderate/middle of the road","",NA,"[{""page_index"":0,""viewing_time"":1290}]","break","","","","","","","","","","",""
"70",11258,"{""Q0"":78}","[object Object]","survey-likert",69,1010657,"0.0-69.0","wb1klpxlvybewt1znt21bsuzckz9ltqh","Thu Jan 26 2017 12:05:04 GMT-0600 (Central Standard Time)","female","Black or African American","moderate/middle of the road","",NA,"","offCivRatings","the officer yelled ""get back!"" at the civilian","the civilian stood near the officer","getBack","stoodNear","civilianOfficer","acceptableOff","78","","","",""
"71",9512,"{""Q0"":56}","[object Object]","survey-likert",70,1020173,"0.0-70.0","wb1klpxlvybewt1znt21bsuzckz9ltqh","Thu Jan 26 2017 12:05:04 GMT-0600 (Central Standard Time)","female","Black or African American","moderate/middle of the road","",NA,"","offCivRatings","the officer yelled ""get back!"" at the civilian","the civilian stood near the officer","getBack","stoodNear","civilianOfficer","appropriateOff","56","","","",""
"72",4870,"{""Q0"":38}","[object Object]","survey-likert",71,1025048,"0.0-71.0","wb1klpxlvybewt1znt21bsuzckz9ltqh","Thu Jan 26 2017 12:05:04 GMT-0600 (Central Standard Time)","female","Black or African American","moderate/middle of the road","",NA,"","offCivRatings","the officer yelled ""get back!"" at the civilian","the civilian stood near the officer","getBack","stoodNear","civilianOfficer","punishOff","38","","","",""
"73",10296,"{""Q0"":9}","[object Object]","survey-likert",72,1035351,"0.0-72.0","wb1klpxlvybewt1znt21bsuzckz9ltqh","Thu Jan 26 2017 12:05:04 GMT-0600 (Central Standard Time)","female","Black or African American","moderate/middle of the road","",NA,"","offCivRatings","the officer yelled ""get back!"" at the civilian","the civilian stood near the officer","getBack","stoodNear","civilianOfficer","forceOff","9","","","",""
"74",1250,"","","instructions",73,1036601,"0.0-73.0","wb1klpxlvybewt1znt21bsuzckz9ltqh","Thu Jan 26 2017 12:05:04 GMT-0600 (Central Standard Time)","female","Black or African American","moderate/middle of the road","",NA,"[{""page_index"":0,""viewing_time"":1250}]","break","","","","","","","","","","",""
"75",44427,"{""Q0"":1}","[object Object]","survey-likert",74,1081234,"0.0-74.0","wb1klpxlvybewt1znt21bsuzckz9ltqh","Thu Jan 26 2017 12:05:04 GMT-0600 (Central Standard Time)","female","Black or African American","moderate/middle of the road","",NA,"","offCivRatings","the officer struck the civilian in the stomach with a metal flashlight","the civilian asked the officer how he was doing","flashlight","asked","officerCivilian","manipCheckLow","1","","","",""
"76",34322,"{""Q0"":1}","[object Object]","survey-likert",75,1115561,"0.0-75.0","wb1klpxlvybewt1znt21bsuzckz9ltqh","Thu Jan 26 2017 12:05:04 GMT-0600 (Central Standard Time)","female","Black or African American","moderate/middle of the road","",NA,"","offCivRatings","the officer struck the civilian in the stomach with a metal flashlight","the civilian asked the officer how he was doing","flashlight","asked","officerCivilian","forceCiv","1","","","",""
"77",8392,"{""Q0"":50}","[object Object]","survey-likert",76,1123958,"0.0-76.0","wb1klpxlvybewt1znt21bsuzckz9ltqh","Thu Jan 26 2017 12:05:04 GMT-0600 (Central Standard Time)","female","Black or African American","moderate/middle of the road","",NA,"","offCivRatings","the officer struck the civilian in the stomach with a metal flashlight","the civilian asked the officer how he was doing","flashlight","asked","officerCivilian","appropriateCiv","50","","","",""
"78",64855,"{""Q0"":50}","[object Object]","survey-likert",77,1188819,"0.0-77.0","wb1klpxlvybewt1znt21bsuzckz9ltqh","Thu Jan 26 2017 12:05:04 GMT-0600 (Central Standard Time)","female","Black or African American","moderate/middle of the road","",NA,"","offCivRatings","the officer struck the civilian in the stomach with a metal flashlight","the civilian asked the officer how he was doing","flashlight","asked","officerCivilian","acceptableCiv","50","","","",""
"79",6496,"{""Q0"":2}","[object Object]","survey-likert",78,1195321,"0.0-78.0","wb1klpxlvybewt1znt21bsuzckz9ltqh","Thu Jan 26 2017 12:05:04 GMT-0600 (Central Standard Time)","female","Black or African American","moderate/middle of the road","",NA,"","offCivRatings","the officer struck the civilian in the stomach with a metal flashlight","the civilian asked the officer how he was doing","flashlight","asked","officerCivilian","punishCiv","2","","","",""
"80",1433,"","","instructions",79,1196754,"0.0-79.0","wb1klpxlvybewt1znt21bsuzckz9ltqh","Thu Jan 26 2017 12:05:04 GMT-0600 (Central Standard Time)","female","Black or African American","moderate/middle of the road","",NA,"[{""page_index"":0,""viewing_time"":1432}]","break","","","","","","","","","","",""
"81",13732,"{""Q0"":50}","[object Object]","survey-likert",80,1210695,"0.0-80.0","wb1klpxlvybewt1znt21bsuzckz9ltqh","Thu Jan 26 2017 12:05:04 GMT-0600 (Central Standard Time)","female","Black or African American","moderate/middle of the road","",NA,"","offCivRatings","the officer shocked the civilian with a tazer","the civilian twisted the arm of the officer, forcing him to the ground","tazer","armbar","officerCivilian","punishCiv","50","","","",""
"82",8100,"{""Q0"":1}","[object Object]","survey-likert",81,1218800,"0.0-81.0","wb1klpxlvybewt1znt21bsuzckz9ltqh","Thu Jan 26 2017 12:05:04 GMT-0600 (Central Standard Time)","female","Black or African American","moderate/middle of the road","",NA,"","offCivRatings","the officer shocked the civilian with a tazer","the civilian twisted the arm of the officer, forcing him to the ground","tazer","armbar","officerCivilian","manipCheckLow","1","","","",""
"83",11441,"{""Q0"":65}","[object Object]","survey-likert",82,1230246,"0.0-82.0","wb1klpxlvybewt1znt21bsuzckz9ltqh","Thu Jan 26 2017 12:05:04 GMT-0600 (Central Standard Time)","female","Black or African American","moderate/middle of the road","",NA,"","offCivRatings","the officer shocked the civilian with a tazer","the civilian twisted the arm of the officer, forcing him to the ground","tazer","armbar","officerCivilian","forceCiv","65","","","",""
"84",11341,"{""Q0"":40}","[object Object]","survey-likert",83,1241591,"0.0-83.0","wb1klpxlvybewt1znt21bsuzckz9ltqh","Thu Jan 26 2017 12:05:04 GMT-0600 (Central Standard Time)","female","Black or African American","moderate/middle of the road","",NA,"","offCivRatings","the officer shocked the civilian with a tazer","the civilian twisted the arm of the officer, forcing him to the ground","tazer","armbar","officerCivilian","acceptableCiv","40","","","",""
"85",9623,"{""Q0"":53}","[object Object]","survey-likert",84,1251220,"0.0-84.0","wb1klpxlvybewt1znt21bsuzckz9ltqh","Thu Jan 26 2017 12:05:04 GMT-0600 (Central Standard Time)","female","Black or African American","moderate/middle of the road","",NA,"","offCivRatings","the officer shocked the civilian with a tazer","the civilian twisted the arm of the officer, forcing him to the ground","tazer","armbar","officerCivilian","appropriateCiv","53","","","",""
"86",1209,"","","instructions",85,1252430,"0.0-85.0","wb1klpxlvybewt1znt21bsuzckz9ltqh","Thu Jan 26 2017 12:05:04 GMT-0600 (Central Standard Time)","female","Black or African American","moderate/middle of the road","",NA,"[{""page_index"":0,""viewing_time"":1209}]","break","","","","","","","","","","",""
"87",14702,"{""Q0"":64}","[object Object]","survey-likert",86,1267339,"0.0-86.0","wb1klpxlvybewt1znt21bsuzckz9ltqh","Thu Jan 26 2017 12:05:04 GMT-0600 (Central Standard Time)","female","Black or African American","moderate/middle of the road","",NA,"","offCivRatings","the officer slammed the civilian's head into the concrete curb","the civilian struck the officer on the leg with a metal pipe","headSlam","metalPipe","civilianOfficer","appropriateOff","64","","","",""
"88",8716,"{""Q0"":58}","[object Object]","survey-likert",87,1276060,"0.0-87.0","wb1klpxlvybewt1znt21bsuzckz9ltqh","Thu Jan 26 2017 12:05:04 GMT-0600 (Central Standard Time)","female","Black or African American","moderate/middle of the road","",NA,"","offCivRatings","the officer slammed the civilian's head into the concrete curb","the civilian struck the officer on the leg with a metal pipe","headSlam","metalPipe","civilianOfficer","forceOff","58","","","",""
"89",6182,"{""Q0"":50}","[object Object]","survey-likert",88,1282247,"0.0-88.0","wb1klpxlvybewt1znt21bsuzckz9ltqh","Thu Jan 26 2017 12:05:04 GMT-0600 (Central Standard Time)","female","Black or African American","moderate/middle of the road","",NA,"","offCivRatings","the officer slammed the civilian's head into the concrete curb","the civilian struck the officer on the leg with a metal pipe","headSlam","metalPipe","civilianOfficer","punishOff","50","","","",""
"90",8241,"{""Q0"":50}","[object Object]","survey-likert",89,1290493,"0.0-89.0","wb1klpxlvybewt1znt21bsuzckz9ltqh","Thu Jan 26 2017 12:05:04 GMT-0600 (Central Standard Time)","female","Black or African American","moderate/middle of the road","",NA,"","offCivRatings","the officer slammed the civilian's head into the concrete curb","the civilian struck the officer on the leg with a metal pipe","headSlam","metalPipe","civilianOfficer","acceptableOff","50","","","",""
"91",1291,"","","instructions",90,1291784,"0.0-90.0","wb1klpxlvybewt1znt21bsuzckz9ltqh","Thu Jan 26 2017 12:05:04 GMT-0600 (Central Standard Time)","female","Black or African American","moderate/middle of the road","",NA,"[{""page_index"":0,""viewing_time"":1291}]","break","","","","","","","","","","",""
"92",16084,"{""Q0"":98}","[object Object]","survey-likert",91,1308075,"0.0-91.0","wb1klpxlvybewt1znt21bsuzckz9ltqh","Thu Jan 26 2017 12:05:04 GMT-0600 (Central Standard Time)","female","Black or African American","moderate/middle of the road","",NA,"","offCivRatings","the officer shot the civilian in the chest with a beanbag shotgun round","the civilian pulled away from the officer","beanbag","pulledAway","civilianOfficer","appropriateOff","98","","","",""
"93",6019,"{""Q0"":90}","[object Object]","survey-likert",92,1314100,"0.0-92.0","wb1klpxlvybewt1znt21bsuzckz9ltqh","Thu Jan 26 2017 12:05:04 GMT-0600 (Central Standard Time)","female","Black or African American","moderate/middle of the road","",NA,"","offCivRatings","the officer shot the civilian in the chest with a beanbag shotgun round","the civilian pulled away from the officer","beanbag","pulledAway","civilianOfficer","punishOff","90","","","",""
"94",6057,"{""Q0"":98}","[object Object]","survey-likert",93,1320165,"0.0-93.0","wb1klpxlvybewt1znt21bsuzckz9ltqh","Thu Jan 26 2017 12:05:04 GMT-0600 (Central Standard Time)","female","Black or African American","moderate/middle of the road","",NA,"","offCivRatings","the officer shot the civilian in the chest with a beanbag shotgun round","the civilian pulled away from the officer","beanbag","pulledAway","civilianOfficer","forceOff","98","","","",""
"95",7594,"{""Q0"":9}","[object Object]","survey-likert",94,1327765,"0.0-94.0","wb1klpxlvybewt1znt21bsuzckz9ltqh","Thu Jan 26 2017 12:05:04 GMT-0600 (Central Standard Time)","female","Black or African American","moderate/middle of the road","",NA,"","offCivRatings","the officer shot the civilian in the chest with a beanbag shotgun round","the civilian pulled away from the officer","beanbag","pulledAway","civilianOfficer","acceptableOff","9","","","",""
"96",4901,"{""Q0"":99}","[object Object]","survey-likert",95,1332671,"0.0-95.0","wb1klpxlvybewt1znt21bsuzckz9ltqh","Thu Jan 26 2017 12:05:04 GMT-0600 (Central Standard Time)","female","Black or African American","moderate/middle of the road","",NA,"","offCivRatings","the officer shot the civilian in the chest with a beanbag shotgun round","the civilian pulled away from the officer","beanbag","pulledAway","civilianOfficer","manipCheckHigh","99","","","",""
"97",1331,"","","instructions",96,1334002,"0.0-96.0","wb1klpxlvybewt1znt21bsuzckz9ltqh","Thu Jan 26 2017 12:05:04 GMT-0600 (Central Standard Time)","female","Black or African American","moderate/middle of the road","",NA,"[{""page_index"":0,""viewing_time"":1331}]","break","","","","","","","","","","",""
"98",13160,"{""Q0"":98}","[object Object]","survey-likert",97,1347367,"0.0-97.0","wb1klpxlvybewt1znt21bsuzckz9ltqh","Thu Jan 26 2017 12:05:04 GMT-0600 (Central Standard Time)","female","Black or African American","moderate/middle of the road","",NA,"","offCivRatings","the officer shouted ""get your fucking hands up!"" at the civilian","the civilian shocked the officer with a tazer","handsUp","tazer","civilianOfficer","acceptableOff","98","","","",""
"99",3668,"{""Q0"":3}","[object Object]","survey-likert",98,1351041,"0.0-98.0","wb1klpxlvybewt1znt21bsuzckz9ltqh","Thu Jan 26 2017 12:05:04 GMT-0600 (Central Standard Time)","female","Black or African American","moderate/middle of the road","",NA,"","offCivRatings","the officer shouted ""get your fucking hands up!"" at the civilian","the civilian shocked the officer with a tazer","handsUp","tazer","civilianOfficer","punishOff","3","","","",""
"100",3385,"{""Q0"":50}","[object Object]","survey-likert",99,1354433,"0.0-99.0","wb1klpxlvybewt1znt21bsuzckz9ltqh","Thu Jan 26 2017 12:05:04 GMT-0600 (Central Standard Time)","female","Black or African American","moderate/middle of the road","",NA,"","offCivRatings","the officer shouted ""get your fucking hands up!"" at the civilian","the civilian shocked the officer with a tazer","handsUp","tazer","civilianOfficer","appropriateOff","50","","","",""
"101",6717,"{""Q0"":3}","[object Object]","survey-likert",100,1361155,"0.0-100.0","wb1klpxlvybewt1znt21bsuzckz9ltqh","Thu Jan 26 2017 12:05:04 GMT-0600 (Central Standard Time)","female","Black or African American","moderate/middle of the road","",NA,"","offCivRatings","the officer shouted ""get your fucking hands up!"" at the civilian","the civilian shocked the officer with a tazer","handsUp","tazer","civilianOfficer","forceOff","3","","","",""
"102",1513,"","","instructions",101,1362668,"0.0-101.0","wb1klpxlvybewt1znt21bsuzckz9ltqh","Thu Jan 26 2017 12:05:04 GMT-0600 (Central Standard Time)","female","Black or African American","moderate/middle of the road","",NA,"[{""page_index"":0,""viewing_time"":1513}]","break","","","","","","","","","","",""
"103",12896,"{""Q0"":50}","[object Object]","survey-likert",102,1375770,"0.0-102.0","wb1klpxlvybewt1znt21bsuzckz9ltqh","Thu Jan 26 2017 12:05:04 GMT-0600 (Central Standard Time)","female","Black or African American","moderate/middle of the road","",NA,"","offCivRatings","the officer called the civilian a ""thug""","the civilian yelled ""get back!"" at the officer","nameCall","getBack","officerCivilian","appropriateCiv","50","","","",""
"104",6163,"{""Q0"":59}","[object Object]","survey-likert",103,1381938,"0.0-103.0","wb1klpxlvybewt1znt21bsuzckz9ltqh","Thu Jan 26 2017 12:05:04 GMT-0600 (Central Standard Time)","female","Black or African American","moderate/middle of the road","",NA,"","offCivRatings","the officer called the civilian a ""thug""","the civilian yelled ""get back!"" at the officer","nameCall","getBack","officerCivilian","acceptableCiv","59","","","",""
"105",7777,"{""Q0"":6}","[object Object]","survey-likert",104,1389720,"0.0-104.0","wb1klpxlvybewt1znt21bsuzckz9ltqh","Thu Jan 26 2017 12:05:04 GMT-0600 (Central Standard Time)","female","Black or African American","moderate/middle of the road","",NA,"","offCivRatings","the officer called the civilian a ""thug""","the civilian yelled ""get back!"" at the officer","nameCall","getBack","officerCivilian","forceCiv","6","","","",""
"106",5193,"{""Q0"":2}","[object Object]","survey-likert",105,1394919,"0.0-105.0","wb1klpxlvybewt1znt21bsuzckz9ltqh","Thu Jan 26 2017 12:05:04 GMT-0600 (Central Standard Time)","female","Black or African American","moderate/middle of the road","",NA,"","offCivRatings","the officer called the civilian a ""thug""","the civilian yelled ""get back!"" at the officer","nameCall","getBack","officerCivilian","punishCiv","2","","","",""
"107",1230,"","","instructions",106,1396149,"0.0-106.0","wb1klpxlvybewt1znt21bsuzckz9ltqh","Thu Jan 26 2017 12:05:04 GMT-0600 (Central Standard Time)","female","Black or African American","moderate/middle of the road","",NA,"[{""page_index"":0,""viewing_time"":1230}]","break","","","","","","","","","","",""
"108",10827,"{""Q0"":90}","[object Object]","survey-likert",107,1407182,"0.0-107.0","wb1klpxlvybewt1znt21bsuzckz9ltqh","Thu Jan 26 2017 12:05:04 GMT-0600 (Central Standard Time)","female","Black or African American","moderate/middle of the road","",NA,"","offCivRatings","the officer headbutted the civilian in the face","the civilian purposefully struck the officer with a motor vehicle","headbutt","vehicle","officerCivilian","punishCiv","90","","","",""
"109",60151,"{""Q0"":2}","[object Object]","survey-likert",108,1467339,"0.0-108.0","wb1klpxlvybewt1znt21bsuzckz9ltqh","Thu Jan 26 2017 12:05:04 GMT-0600 (Central Standard Time)","female","Black or African American","moderate/middle of the road","",NA,"","offCivRatings","the officer headbutted the civilian in the face","the civilian purposefully struck the officer with a motor vehicle","headbutt","vehicle","officerCivilian","acceptableCiv","2","","","",""
"110",5668,"{""Q0"":97}","[object Object]","survey-likert",109,1473013,"0.0-109.0","wb1klpxlvybewt1znt21bsuzckz9ltqh","Thu Jan 26 2017 12:05:04 GMT-0600 (Central Standard Time)","female","Black or African American","moderate/middle of the road","",NA,"","offCivRatings","the officer headbutted the civilian in the face","the civilian purposefully struck the officer with a motor vehicle","headbutt","vehicle","officerCivilian","forceCiv","97","","","",""
"111",13429,"{""Q0"":99}","[object Object]","survey-likert",110,1486449,"0.0-110.0","wb1klpxlvybewt1znt21bsuzckz9ltqh","Thu Jan 26 2017 12:05:04 GMT-0600 (Central Standard Time)","female","Black or African American","moderate/middle of the road","",NA,"","offCivRatings","the officer headbutted the civilian in the face","the civilian purposefully struck the officer with a motor vehicle","headbutt","vehicle","officerCivilian","appropriateCiv","99","","","",""
"112",1452,"","","instructions",111,1487901,"0.0-111.0","wb1klpxlvybewt1znt21bsuzckz9ltqh","Thu Jan 26 2017 12:05:04 GMT-0600 (Central Standard Time)","female","Black or African American","moderate/middle of the road","",NA,"[{""page_index"":0,""viewing_time"":1451}]","break","","","","","","","","","","",""
"113",6670,"{""Q0"":64}","[object Object]","survey-likert",112,1494776,"0.0-112.0","wb1klpxlvybewt1znt21bsuzckz9ltqh","Thu Jan 26 2017 12:05:04 GMT-0600 (Central Standard Time)","female","Black or African American","moderate/middle of the road","",NA,"","offCivRatings","the officer kicked the civilian in the stomach","the civilian called the officer a ""pig""","kickStom","nameCall","civilianOfficer","forceOff","64","","","",""
"114",4457,"{""Q0"":21}","[object Object]","survey-likert",113,1499238,"0.0-113.0","wb1klpxlvybewt1znt21bsuzckz9ltqh","Thu Jan 26 2017 12:05:04 GMT-0600 (Central Standard Time)","female","Black or African American","moderate/middle of the road","",NA,"","offCivRatings","the officer kicked the civilian in the stomach","the civilian called the officer a ""pig""","kickStom","nameCall","civilianOfficer","acceptableOff","21","","","",""
"115",5496,"{""Q0"":2}","[object Object]","survey-likert",114,1504739,"0.0-114.0","wb1klpxlvybewt1znt21bsuzckz9ltqh","Thu Jan 26 2017 12:05:04 GMT-0600 (Central Standard Time)","female","Black or African American","moderate/middle of the road","",NA,"","offCivRatings","the officer kicked the civilian in the stomach","the civilian called the officer a ""pig""","kickStom","nameCall","civilianOfficer","manipCheckLow","2","","","",""
"116",9767,"{""Q0"":82}","[object Object]","survey-likert",115,1514511,"0.0-115.0","wb1klpxlvybewt1znt21bsuzckz9ltqh","Thu Jan 26 2017 12:05:04 GMT-0600 (Central Standard Time)","female","Black or African American","moderate/middle of the road","",NA,"","offCivRatings","the officer kicked the civilian in the stomach","the civilian called the officer a ""pig""","kickStom","nameCall","civilianOfficer","appropriateOff","82","","","",""
"117",6899,"{""Q0"":68}","[object Object]","survey-likert",116,1521415,"0.0-116.0","wb1klpxlvybewt1znt21bsuzckz9ltqh","Thu Jan 26 2017 12:05:04 GMT-0600 (Central Standard Time)","female","Black or African American","moderate/middle of the road","",NA,"","offCivRatings","the officer kicked the civilian in the stomach","the civilian called the officer a ""pig""","kickStom","nameCall","civilianOfficer","punishOff","68","","","",""
"118",1251,"","","instructions",117,1522666,"0.0-117.0","wb1klpxlvybewt1znt21bsuzckz9ltqh","Thu Jan 26 2017 12:05:04 GMT-0600 (Central Standard Time)","female","Black or African American","moderate/middle of the road","",NA,"[{""page_index"":0,""viewing_time"":1250}]","break","","","","","","","","","","",""
"119",25305,"{""Q0"":50}","[object Object]","survey-likert",118,1548176,"0.0-118.0","wb1klpxlvybewt1znt21bsuzckz9ltqh","Thu Jan 26 2017 12:05:04 GMT-0600 (Central Standard Time)","female","Black or African American","moderate/middle of the road","",NA,"","offCivRatings","the officer shot the civilian in the head with a handgun","the civilian shouted ""I don't have to fucking listen to you!"" at the officer","handgunHead","dontListen","officerCivilian","appropriateCiv","50","","","",""
"120",12119,"{""Q0"":12}","[object Object]","survey-likert",119,1560299,"0.0-119.0","wb1klpxlvybewt1znt21bsuzckz9ltqh","Thu Jan 26 2017 12:05:04 GMT-0600 (Central Standard Time)","female","Black or African American","moderate/middle of the road","",NA,"","offCivRatings","the officer shot the civilian in the head with a handgun","the civilian shouted ""I don't have to fucking listen to you!"" at the officer","handgunHead","dontListen","officerCivilian","forceCiv","12","","","",""
"121",79392,"{""Q0"":99}","[object Object]","survey-likert",120,1639696,"0.0-120.0","wb1klpxlvybewt1znt21bsuzckz9ltqh","Thu Jan 26 2017 12:05:04 GMT-0600 (Central Standard Time)","female","Black or African American","moderate/middle of the road","",NA,"","offCivRatings","the officer shot the civilian in the head with a handgun","the civilian shouted ""I don't have to fucking listen to you!"" at the officer","handgunHead","dontListen","officerCivilian","manipCheckHigh","99","","","",""
"122",11699,"{""Q0"":2}","[object Object]","survey-likert",121,1651399,"0.0-121.0","wb1klpxlvybewt1znt21bsuzckz9ltqh","Thu Jan 26 2017 12:05:04 GMT-0600 (Central Standard Time)","female","Black or African American","moderate/middle of the road","",NA,"","offCivRatings","the officer shot the civilian in the head with a handgun","the civilian shouted ""I don't have to fucking listen to you!"" at the officer","handgunHead","dontListen","officerCivilian","punishCiv","2","","","",""
"123",6002,"{""Q0"":99}","[object Object]","survey-likert",122,1657407,"0.0-122.0","wb1klpxlvybewt1znt21bsuzckz9ltqh","Thu Jan 26 2017 12:05:04 GMT-0600 (Central Standard Time)","female","Black or African American","moderate/middle of the road","",NA,"","offCivRatings","the officer shot the civilian in the head with a handgun","the civilian shouted ""I don't have to fucking listen to you!"" at the officer","handgunHead","dontListen","officerCivilian","acceptableCiv","99","","","",""
"124",1220,"","","instructions",123,1658627,"0.0-123.0","wb1klpxlvybewt1znt21bsuzckz9ltqh","Thu Jan 26 2017 12:05:04 GMT-0600 (Central Standard Time)","female","Black or African American","moderate/middle of the road","",NA,"[{""page_index"":0,""viewing_time"":1219}]","break","","","","","","","","","","",""
"125",8094,"{""Q0"":99}","[object Object]","survey-likert",124,1666926,"0.0-124.0","wb1klpxlvybewt1znt21bsuzckz9ltqh","Thu Jan 26 2017 12:05:04 GMT-0600 (Central Standard Time)","female","Black or African American","moderate/middle of the road","",NA,"","policeLegitimacy","","","","","","","99","communityWants","normAlignment","",""
"126",7566,"{""Q0"":75}","[object Object]","survey-likert",125,1674498,"0.0-125.0","wb1klpxlvybewt1znt21bsuzckz9ltqh","Thu Jan 26 2017 12:05:04 GMT-0600 (Central Standard Time)","female","Black or African American","moderate/middle of the road","",NA,"","policeLegitimacy","","","","","","","75","doReasons","feltObligation","",""
"127",9848,"{""Q0"":71}","[object Object]","survey-likert",126,1684350,"0.0-126.0","wb1klpxlvybewt1znt21bsuzckz9ltqh","Thu Jan 26 2017 12:05:04 GMT-0600 (Central Standard Time)","female","Black or African American","moderate/middle of the road","",NA,"","policeLegitimacy","","","","","","","71","doTreat","feltObligation","",""
"128",8828,"{""Q0"":65}","[object Object]","survey-likert",127,1693184,"0.0-127.0","wb1klpxlvybewt1znt21bsuzckz9ltqh","Thu Jan 26 2017 12:05:04 GMT-0600 (Central Standard Time)","female","Black or African American","moderate/middle of the road","",NA,"","policeLegitimacy","","","","","","","65","support","feltObligation","",""
"129",6920,"{""Q0"":54}","[object Object]","survey-likert",128,1700108,"0.0-128.0","wb1klpxlvybewt1znt21bsuzckz9ltqh","Thu Jan 26 2017 12:05:04 GMT-0600 (Central Standard Time)","female","Black or African American","moderate/middle of the road","",NA,"","policeLegitimacy","","","","","","","54","importantValues","normAlignment","",""
"130",9242,"{""Q0"":57}","[object Object]","survey-likert",129,1709355,"0.0-129.0","wb1klpxlvybewt1znt21bsuzckz9ltqh","Thu Jan 26 2017 12:05:04 GMT-0600 (Central Standard Time)","female","Black or African American","moderate/middle of the road","",NA,"","policeLegitimacy","","","","","","","57","rightWrong","normAlignment","",""
"131",4556,"{""Q0"":""no""}","[object Object]","survey-multi-choice2",130,1713918,"0.0-130.0","wb1klpxlvybewt1znt21bsuzckz9ltqh","Thu Jan 26 2017 12:05:04 GMT-0600 (Central Standard Time)","female","Black or African American","moderate/middle of the road","",NA,"","policeExperience","","","","","","","no","insultLang","","personal","Have the police ever used insulting language toward you?"
"132",5206,"{""Q0"":""no""}","[object Object]","survey-multi-choice2",131,1719126,"0.0-131.0","wb1klpxlvybewt1znt21bsuzckz9ltqh","Thu Jan 26 2017 12:05:04 GMT-0600 (Central Standard Time)","female","Black or African American","moderate/middle of the road","",NA,"","policeExperience","","","","","","","no","excessForce","","personal","Have the police ever used excessive force against you?"
"133",4934,"{""Q0"":""yes""}","[object Object]","survey-multi-choice2",132,1724062,"0.0-132.0","wb1klpxlvybewt1znt21bsuzckz9ltqh","Thu Jan 26 2017 12:05:04 GMT-0600 (Central Standard Time)","female","Black or African American","moderate/middle of the road","",NA,"","policeExperience","","","","","","","yes","insultLang","","vicarious","Have the police ever used insulting language toward anyone in your household?"
"134",5953,"{""Q0"":""no""}","[object Object]","survey-multi-choice2",133,1730018,"0.0-133.0","wb1klpxlvybewt1znt21bsuzckz9ltqh","Thu Jan 26 2017 12:05:04 GMT-0600 (Central Standard Time)","female","Black or African American","moderate/middle of the road","",NA,"","policeExperience","","","","","","","no","corrupt","","personal","Have you ever seen a police officer engage in any corrupt activities (e.g., taking bribes or involvement in the drug trade)?"
"135",4965,"{""Q0"":""yes""}","[object Object]","survey-multi-choice2",134,1734985,"0.0-134.0","wb1klpxlvybewt1znt21bsuzckz9ltqh","Thu Jan 26 2017 12:05:04 GMT-0600 (Central Standard Time)","female","Black or African American","moderate/middle of the road","",NA,"","policeExperience","","","","","","","yes","stopped","","vicarious","Has anyone in your household ever been stopped on the street by the police without good reason?"
"136",11233,"{""Q0"":""yes""}","[object Object]","survey-multi-choice2",135,1746220,"0.0-135.0","wb1klpxlvybewt1znt21bsuzckz9ltqh","Thu Jan 26 2017 12:05:04 GMT-0600 (Central Standard Time)","female","Black or African American","moderate/middle of the road","",NA,"","policeExperience","","","","","","","yes","excessForce","","vicarious","Have the police ever used excessive force against anyone in your household?"
"137",4006,"{""Q0"":""no""}","[object Object]","survey-multi-choice2",136,1750228,"0.0-136.0","wb1klpxlvybewt1znt21bsuzckz9ltqh","Thu Jan 26 2017 12:05:04 GMT-0600 (Central Standard Time)","female","Black or African American","moderate/middle of the road","",NA,"","policeExperience","","","","","","","no","stopped","","personal","Have you ever been stopped by the police on the street without good reason?"
"138",19568,"{""Q0"":""female"",""Q1"":""Black or African American"",""Q2"":""moderate/middle of the road""}","[object Object]","survey-multi-choice",137,1769802,"0.0-137.0","wb1klpxlvybewt1znt21bsuzckz9ltqh","Thu Jan 26 2017 12:05:04 GMT-0600 (Central Standard Time)","female","Black or African American","moderate/middle of the road","",NA,"","demographics","","","","","","","","","","",""
"139",30410,"","","instructions",138,1801214,"0.0-138.0","wb1klpxlvybewt1znt21bsuzckz9ltqh","Thu Jan 26 2017 12:05:04 GMT-0600 (Central Standard Time)","female","Black or African American","moderate/middle of the road","",NA,"[{""page_index"":0,""viewing_time"":4164},{""page_index"":1,""viewing_time"":15121},{""page_index"":2,""viewing_time"":8299},{""page_index"":3,""viewing_time"":2826}]","debriefing","","","","","","","","","","",""
