"","rt","responses","internalResp","trial_type","trial_index","time_elapsed","internal_node_id","randSubjectID","date","sex","race","polAff","stimulus","key_press","view_history","questionType","officerAction","civilianAction","offActName","civActName","order","questionName","response","name","dimension","person","question"
"1",2385,"","[object Object]","survey-text",0,2400,"0.0-0.0","wj9dyg8gp70zmktnl54c6t1vcjlwe35g","Thu Jan 19 2017 13:21:02 GMT-0500 (Eastern Standard Time)","female","White","liberal","",NA,"","","","","","","","","","","","",""
"2",51511,"","","single-stim",1,54944,"0.0-1.0","wj9dyg8gp70zmktnl54c6t1vcjlwe35g","Thu Jan 19 2017 13:21:02 GMT-0500 (Eastern Standard Time)","female","White","liberal","<img src='static/images/1602685960_ICS_Credit-0.png' alt='Consent 1' height=1100 width=850><img src='static/images/1602685960_ICS_Credit-1.png' alt='Consent 2' height=1100 width=850></p>",89,"","","","","","","","","","","","",""
"3",5539,"","","instructions",2,61484,"0.0-2.0","wj9dyg8gp70zmktnl54c6t1vcjlwe35g","Thu Jan 19 2017 13:21:02 GMT-0500 (Eastern Standard Time)","female","White","liberal","",NA,"[{""page_index"":0,""viewing_time"":5538}]","instructions","","","","","","","","","","",""
"4",39526,"","","instructions",3,102010,"0.0-3.0","wj9dyg8gp70zmktnl54c6t1vcjlwe35g","Thu Jan 19 2017 13:21:02 GMT-0500 (Eastern Standard Time)","female","White","liberal","",NA,"[{""page_index"":0,""viewing_time"":9029},{""page_index"":1,""viewing_time"":7025},{""page_index"":2,""viewing_time"":13760},{""page_index"":3,""viewing_time"":9711}]","instructions","","","","","","","","","","",""
"5",39217,"{""Q0"":31}","[object Object]","survey-likert",4,142286,"0.0-4.0","wj9dyg8gp70zmktnl54c6t1vcjlwe35g","Thu Jan 19 2017 13:21:02 GMT-0500 (Eastern Standard Time)","female","White","liberal","",NA,"","offCivRatings","the officer headbutted the civilian in the face","the civilian said ""if you touch me, you're gonna get hurt"" to the officer","headbutt","hurtThreat","officerCivilian","forceCiv","31","","","",""
"6",35775,"{""Q0"":72}","[object Object]","survey-likert",5,178082,"0.0-5.0","wj9dyg8gp70zmktnl54c6t1vcjlwe35g","Thu Jan 19 2017 13:21:02 GMT-0500 (Eastern Standard Time)","female","White","liberal","",NA,"","offCivRatings","the officer headbutted the civilian in the face","the civilian said ""if you touch me, you're gonna get hurt"" to the officer","headbutt","hurtThreat","officerCivilian","appropriateCiv","72","","","",""
"7",10837,"{""Q0"":41}","[object Object]","survey-likert",6,188937,"0.0-6.0","wj9dyg8gp70zmktnl54c6t1vcjlwe35g","Thu Jan 19 2017 13:21:02 GMT-0500 (Eastern Standard Time)","female","White","liberal","",NA,"","offCivRatings","the officer headbutted the civilian in the face","the civilian said ""if you touch me, you're gonna get hurt"" to the officer","headbutt","hurtThreat","officerCivilian","punishCiv","41","","","",""
"8",3622,"{""Q0"":1}","[object Object]","survey-likert",7,192576,"0.0-7.0","wj9dyg8gp70zmktnl54c6t1vcjlwe35g","Thu Jan 19 2017 13:21:02 GMT-0500 (Eastern Standard Time)","female","White","liberal","",NA,"","offCivRatings","the officer headbutted the civilian in the face","the civilian said ""if you touch me, you're gonna get hurt"" to the officer","headbutt","hurtThreat","officerCivilian","manipCheckLow","1","","","",""
"9",11482,"{""Q0"":47}","[object Object]","survey-likert",8,204077,"0.0-8.0","wj9dyg8gp70zmktnl54c6t1vcjlwe35g","Thu Jan 19 2017 13:21:02 GMT-0500 (Eastern Standard Time)","female","White","liberal","",NA,"","offCivRatings","the officer headbutted the civilian in the face","the civilian said ""if you touch me, you're gonna get hurt"" to the officer","headbutt","hurtThreat","officerCivilian","acceptableCiv","47","","","",""
"10",900,"","","instructions",9,204978,"0.0-9.0","wj9dyg8gp70zmktnl54c6t1vcjlwe35g","Thu Jan 19 2017 13:21:02 GMT-0500 (Eastern Standard Time)","female","White","liberal","",NA,"[{""page_index"":0,""viewing_time"":899}]","break","","","","","","","","","","",""
"11",7506,"{""Q0"":1}","[object Object]","survey-likert",10,212701,"0.0-10.0","wj9dyg8gp70zmktnl54c6t1vcjlwe35g","Thu Jan 19 2017 13:21:02 GMT-0500 (Eastern Standard Time)","female","White","liberal","",NA,"","offCivRatings","the officer shot the civilian in the head with a handgun","the civilian applied a chokehold to the officer","handgunHead","choke","officerCivilian","manipCheckLow","1","","","",""
"12",33018,"{""Q0"":41}","[object Object]","survey-likert",11,245735,"0.0-11.0","wj9dyg8gp70zmktnl54c6t1vcjlwe35g","Thu Jan 19 2017 13:21:02 GMT-0500 (Eastern Standard Time)","female","White","liberal","",NA,"","offCivRatings","the officer shot the civilian in the head with a handgun","the civilian applied a chokehold to the officer","handgunHead","choke","officerCivilian","acceptableCiv","41","","","",""
"13",6773,"{""Q0"":38}","[object Object]","survey-likert",12,252525,"0.0-12.0","wj9dyg8gp70zmktnl54c6t1vcjlwe35g","Thu Jan 19 2017 13:21:02 GMT-0500 (Eastern Standard Time)","female","White","liberal","",NA,"","offCivRatings","the officer shot the civilian in the head with a handgun","the civilian applied a chokehold to the officer","handgunHead","choke","officerCivilian","punishCiv","38","","","",""
"14",7890,"{""Q0"":49}","[object Object]","survey-likert",13,260429,"0.0-13.0","wj9dyg8gp70zmktnl54c6t1vcjlwe35g","Thu Jan 19 2017 13:21:02 GMT-0500 (Eastern Standard Time)","female","White","liberal","",NA,"","offCivRatings","the officer shot the civilian in the head with a handgun","the civilian applied a chokehold to the officer","handgunHead","choke","officerCivilian","forceCiv","49","","","",""
"15",7803,"{""Q0"":64}","[object Object]","survey-likert",14,268250,"0.0-14.0","wj9dyg8gp70zmktnl54c6t1vcjlwe35g","Thu Jan 19 2017 13:21:02 GMT-0500 (Eastern Standard Time)","female","White","liberal","",NA,"","offCivRatings","the officer shot the civilian in the head with a handgun","the civilian applied a chokehold to the officer","handgunHead","choke","officerCivilian","appropriateCiv","64","","","",""
"16",1277,"","","instructions",15,269527,"0.0-15.0","wj9dyg8gp70zmktnl54c6t1vcjlwe35g","Thu Jan 19 2017 13:21:02 GMT-0500 (Eastern Standard Time)","female","White","liberal","",NA,"[{""page_index"":0,""viewing_time"":1276}]","break","","","","","","","","","","",""
"17",26881,"{""Q0"":13}","[object Object]","survey-likert",16,296624,"0.0-16.0","wj9dyg8gp70zmktnl54c6t1vcjlwe35g","Thu Jan 19 2017 13:21:02 GMT-0500 (Eastern Standard Time)","female","White","liberal","",NA,"","offCivRatings","the officer called the civilian a ""thug""","the civilian shot the officer in the chest with a handgun","nameCall","handgunChest","civilianOfficer","forceOff","13","","","",""
"18",13272,"{""Q0"":20}","[object Object]","survey-likert",17,309913,"0.0-17.0","wj9dyg8gp70zmktnl54c6t1vcjlwe35g","Thu Jan 19 2017 13:21:02 GMT-0500 (Eastern Standard Time)","female","White","liberal","",NA,"","offCivRatings","the officer called the civilian a ""thug""","the civilian shot the officer in the chest with a handgun","nameCall","handgunChest","civilianOfficer","appropriateOff","20","","","",""
"19",4504,"{""Q0"":16}","[object Object]","survey-likert",18,314433,"0.0-18.0","wj9dyg8gp70zmktnl54c6t1vcjlwe35g","Thu Jan 19 2017 13:21:02 GMT-0500 (Eastern Standard Time)","female","White","liberal","",NA,"","offCivRatings","the officer called the civilian a ""thug""","the civilian shot the officer in the chest with a handgun","nameCall","handgunChest","civilianOfficer","punishOff","16","","","",""
"20",4823,"{""Q0"":33}","[object Object]","survey-likert",19,319274,"0.0-19.0","wj9dyg8gp70zmktnl54c6t1vcjlwe35g","Thu Jan 19 2017 13:21:02 GMT-0500 (Eastern Standard Time)","female","White","liberal","",NA,"","offCivRatings","the officer called the civilian a ""thug""","the civilian shot the officer in the chest with a handgun","nameCall","handgunChest","civilianOfficer","acceptableOff","33","","","",""
"21",3879,"{""Q0"":100}","[object Object]","survey-likert",20,323169,"0.0-20.0","wj9dyg8gp70zmktnl54c6t1vcjlwe35g","Thu Jan 19 2017 13:21:02 GMT-0500 (Eastern Standard Time)","female","White","liberal","",NA,"","offCivRatings","the officer called the civilian a ""thug""","the civilian shot the officer in the chest with a handgun","nameCall","handgunChest","civilianOfficer","manipCheckHigh","100","","","",""
"22",1109,"","","instructions",21,324278,"0.0-21.0","wj9dyg8gp70zmktnl54c6t1vcjlwe35g","Thu Jan 19 2017 13:21:02 GMT-0500 (Eastern Standard Time)","female","White","liberal","",NA,"[{""page_index"":0,""viewing_time"":1109}]","break","","","","","","","","","","",""
"23",16157,"{""Q0"":53}","[object Object]","survey-likert",22,340653,"0.0-22.0","wj9dyg8gp70zmktnl54c6t1vcjlwe35g","Thu Jan 19 2017 13:21:02 GMT-0500 (Eastern Standard Time)","female","White","liberal","",NA,"","offCivRatings","the officer said ""if you touch me, you're gonna get hurt"" to the civilian","the civilian slammed the officer's head into the concrete curb","hurtThreat","headSlam","civilianOfficer","appropriateOff","53","","","",""
"24",7648,"{""Q0"":43}","[object Object]","survey-likert",23,348316,"0.0-23.0","wj9dyg8gp70zmktnl54c6t1vcjlwe35g","Thu Jan 19 2017 13:21:02 GMT-0500 (Eastern Standard Time)","female","White","liberal","",NA,"","offCivRatings","the officer said ""if you touch me, you're gonna get hurt"" to the civilian","the civilian slammed the officer's head into the concrete curb","hurtThreat","headSlam","civilianOfficer","acceptableOff","43","","","",""
"25",6626,"{""Q0"":31}","[object Object]","survey-likert",24,354958,"0.0-24.0","wj9dyg8gp70zmktnl54c6t1vcjlwe35g","Thu Jan 19 2017 13:21:02 GMT-0500 (Eastern Standard Time)","female","White","liberal","",NA,"","offCivRatings","the officer said ""if you touch me, you're gonna get hurt"" to the civilian","the civilian slammed the officer's head into the concrete curb","hurtThreat","headSlam","civilianOfficer","forceOff","31","","","",""
"26",8055,"{""Q0"":25}","[object Object]","survey-likert",25,363029,"0.0-25.0","wj9dyg8gp70zmktnl54c6t1vcjlwe35g","Thu Jan 19 2017 13:21:02 GMT-0500 (Eastern Standard Time)","female","White","liberal","",NA,"","offCivRatings","the officer said ""if you touch me, you're gonna get hurt"" to the civilian","the civilian slammed the officer's head into the concrete curb","hurtThreat","headSlam","civilianOfficer","punishOff","25","","","",""
"27",861,"","","instructions",26,363890,"0.0-26.0","wj9dyg8gp70zmktnl54c6t1vcjlwe35g","Thu Jan 19 2017 13:21:02 GMT-0500 (Eastern Standard Time)","female","White","liberal","",NA,"[{""page_index"":0,""viewing_time"":860}]","break","","","","","","","","","","",""
"28",20195,"{""Q0"":81}","[object Object]","survey-likert",27,384300,"0.0-27.0","wj9dyg8gp70zmktnl54c6t1vcjlwe35g","Thu Jan 19 2017 13:21:02 GMT-0500 (Eastern Standard Time)","female","White","liberal","",NA,"","offCivRatings","the officer shouted ""get your fucking hands up!"" at the civilian","the civilian twisted the arm of the officer, forcing him to the ground","handsUp","armbar","officerCivilian","appropriateCiv","81","","","",""
"29",12881,"{""Q0"":56}","[object Object]","survey-likert",28,397197,"0.0-28.0","wj9dyg8gp70zmktnl54c6t1vcjlwe35g","Thu Jan 19 2017 13:21:02 GMT-0500 (Eastern Standard Time)","female","White","liberal","",NA,"","offCivRatings","the officer shouted ""get your fucking hands up!"" at the civilian","the civilian twisted the arm of the officer, forcing him to the ground","handsUp","armbar","officerCivilian","forceCiv","56","","","",""
"30",2805,"{""Q0"":1}","[object Object]","survey-likert",29,400017,"0.0-29.0","wj9dyg8gp70zmktnl54c6t1vcjlwe35g","Thu Jan 19 2017 13:21:02 GMT-0500 (Eastern Standard Time)","female","White","liberal","",NA,"","offCivRatings","the officer shouted ""get your fucking hands up!"" at the civilian","the civilian twisted the arm of the officer, forcing him to the ground","handsUp","armbar","officerCivilian","manipCheckLow","1","","","",""
"31",6210,"{""Q0"":54}","[object Object]","survey-likert",30,406242,"0.0-30.0","wj9dyg8gp70zmktnl54c6t1vcjlwe35g","Thu Jan 19 2017 13:21:02 GMT-0500 (Eastern Standard Time)","female","White","liberal","",NA,"","offCivRatings","the officer shouted ""get your fucking hands up!"" at the civilian","the civilian twisted the arm of the officer, forcing him to the ground","handsUp","armbar","officerCivilian","punishCiv","54","","","",""
"32",12272,"{""Q0"":19}","[object Object]","survey-likert",31,418529,"0.0-31.0","wj9dyg8gp70zmktnl54c6t1vcjlwe35g","Thu Jan 19 2017 13:21:02 GMT-0500 (Eastern Standard Time)","female","White","liberal","",NA,"","offCivRatings","the officer shouted ""get your fucking hands up!"" at the civilian","the civilian twisted the arm of the officer, forcing him to the ground","handsUp","armbar","officerCivilian","acceptableCiv","19","","","",""
"33",837,"","","instructions",32,419367,"0.0-32.0","wj9dyg8gp70zmktnl54c6t1vcjlwe35g","Thu Jan 19 2017 13:21:02 GMT-0500 (Eastern Standard Time)","female","White","liberal","",NA,"[{""page_index"":0,""viewing_time"":836}]","break","","","","","","","","","","",""
"34",10444,"{""Q0"":10}","[object Object]","survey-likert",33,430025,"0.0-33.0","wj9dyg8gp70zmktnl54c6t1vcjlwe35g","Thu Jan 19 2017 13:21:02 GMT-0500 (Eastern Standard Time)","female","White","liberal","",NA,"","offCivRatings","the officer shocked the civilian with a tazer","the civilian yelled ""get back!"" at the officer","tazer","getBack","officerCivilian","forceCiv","10","","","",""
"35",8505,"{""Q0"":44}","[object Object]","survey-likert",34,438545,"0.0-34.0","wj9dyg8gp70zmktnl54c6t1vcjlwe35g","Thu Jan 19 2017 13:21:02 GMT-0500 (Eastern Standard Time)","female","White","liberal","",NA,"","offCivRatings","the officer shocked the civilian with a tazer","the civilian yelled ""get back!"" at the officer","tazer","getBack","officerCivilian","appropriateCiv","44","","","",""
"36",10193,"{""Q0"":8}","[object Object]","survey-likert",35,448754,"0.0-35.0","wj9dyg8gp70zmktnl54c6t1vcjlwe35g","Thu Jan 19 2017 13:21:02 GMT-0500 (Eastern Standard Time)","female","White","liberal","",NA,"","offCivRatings","the officer shocked the civilian with a tazer","the civilian yelled ""get back!"" at the officer","tazer","getBack","officerCivilian","punishCiv","8","","","",""
"37",14365,"{""Q0"":39}","[object Object]","survey-likert",36,463134,"0.0-36.0","wj9dyg8gp70zmktnl54c6t1vcjlwe35g","Thu Jan 19 2017 13:21:02 GMT-0500 (Eastern Standard Time)","female","White","liberal","",NA,"","offCivRatings","the officer shocked the civilian with a tazer","the civilian yelled ""get back!"" at the officer","tazer","getBack","officerCivilian","acceptableCiv","39","","","",""
"38",806,"","","instructions",37,463940,"0.0-37.0","wj9dyg8gp70zmktnl54c6t1vcjlwe35g","Thu Jan 19 2017 13:21:02 GMT-0500 (Eastern Standard Time)","female","White","liberal","",NA,"[{""page_index"":0,""viewing_time"":805}]","break","","","","","","","","","","",""
"39",20339,"{""Q0"":42}","[object Object]","survey-likert",38,484494,"0.0-38.0","wj9dyg8gp70zmktnl54c6t1vcjlwe35g","Thu Jan 19 2017 13:21:02 GMT-0500 (Eastern Standard Time)","female","White","liberal","",NA,"","offCivRatings","the officer struck the civilian in the stomach with a metal flashlight","the civilian headbutted the officer in the face","flashlight","headbutt","officerCivilian","punishCiv","42","","","",""
"40",3032,"{""Q0"":44}","[object Object]","survey-likert",39,487541,"0.0-39.0","wj9dyg8gp70zmktnl54c6t1vcjlwe35g","Thu Jan 19 2017 13:21:02 GMT-0500 (Eastern Standard Time)","female","White","liberal","",NA,"","offCivRatings","the officer struck the civilian in the stomach with a metal flashlight","the civilian headbutted the officer in the face","flashlight","headbutt","officerCivilian","forceCiv","44","","","",""
"41",5346,"{""Q0"":57}","[object Object]","survey-likert",40,492902,"0.0-40.0","wj9dyg8gp70zmktnl54c6t1vcjlwe35g","Thu Jan 19 2017 13:21:02 GMT-0500 (Eastern Standard Time)","female","White","liberal","",NA,"","offCivRatings","the officer struck the civilian in the stomach with a metal flashlight","the civilian headbutted the officer in the face","flashlight","headbutt","officerCivilian","appropriateCiv","57","","","",""
"42",4233,"{""Q0"":20}","[object Object]","survey-likert",41,497150,"0.0-41.0","wj9dyg8gp70zmktnl54c6t1vcjlwe35g","Thu Jan 19 2017 13:21:02 GMT-0500 (Eastern Standard Time)","female","White","liberal","",NA,"","offCivRatings","the officer struck the civilian in the stomach with a metal flashlight","the civilian headbutted the officer in the face","flashlight","headbutt","officerCivilian","acceptableCiv","20","","","",""
"43",669,"","","instructions",42,497819,"0.0-42.0","wj9dyg8gp70zmktnl54c6t1vcjlwe35g","Thu Jan 19 2017 13:21:02 GMT-0500 (Eastern Standard Time)","female","White","liberal","",NA,"[{""page_index"":0,""viewing_time"":669}]","break","","","","","","","","","","",""
"44",20667,"{""Q0"":67}","[object Object]","survey-likert",43,518701,"0.0-43.0","wj9dyg8gp70zmktnl54c6t1vcjlwe35g","Thu Jan 19 2017 13:21:02 GMT-0500 (Eastern Standard Time)","female","White","liberal","",NA,"","offCivRatings","the officer yelled ""get back!"" at the civilian","the civilian kicked the officer in the stomach","getBack","kickStom","officerCivilian","acceptableCiv","67","","","",""
"45",2086,"{""Q0"":57}","[object Object]","survey-likert",44,520803,"0.0-44.0","wj9dyg8gp70zmktnl54c6t1vcjlwe35g","Thu Jan 19 2017 13:21:02 GMT-0500 (Eastern Standard Time)","female","White","liberal","",NA,"","offCivRatings","the officer yelled ""get back!"" at the civilian","the civilian kicked the officer in the stomach","getBack","kickStom","officerCivilian","punishCiv","57","","","",""
"46",3927,"{""Q0"":70}","[object Object]","survey-likert",45,524747,"0.0-45.0","wj9dyg8gp70zmktnl54c6t1vcjlwe35g","Thu Jan 19 2017 13:21:02 GMT-0500 (Eastern Standard Time)","female","White","liberal","",NA,"","offCivRatings","the officer yelled ""get back!"" at the civilian","the civilian kicked the officer in the stomach","getBack","kickStom","officerCivilian","appropriateCiv","70","","","",""
"47",10319,"{""Q0"":55}","[object Object]","survey-likert",46,535084,"0.0-46.0","wj9dyg8gp70zmktnl54c6t1vcjlwe35g","Thu Jan 19 2017 13:21:02 GMT-0500 (Eastern Standard Time)","female","White","liberal","",NA,"","offCivRatings","the officer yelled ""get back!"" at the civilian","the civilian kicked the officer in the stomach","getBack","kickStom","officerCivilian","forceCiv","55","","","",""
"48",821,"","","instructions",47,535905,"0.0-47.0","wj9dyg8gp70zmktnl54c6t1vcjlwe35g","Thu Jan 19 2017 13:21:02 GMT-0500 (Eastern Standard Time)","female","White","liberal","",NA,"[{""page_index"":0,""viewing_time"":820}]","break","","","","","","","","","","",""
"49",14426,"{""Q0"":30}","[object Object]","survey-likert",48,550548,"0.0-48.0","wj9dyg8gp70zmktnl54c6t1vcjlwe35g","Thu Jan 19 2017 13:21:02 GMT-0500 (Eastern Standard Time)","female","White","liberal","",NA,"","offCivRatings","the officer sprayed the civilian with pepper spray","the civilian struck the officer on the leg with a metal pipe","pepperSpray","metalPipe","civilianOfficer","forceOff","30","","","",""
"50",25038,"{""Q0"":90}","[object Object]","survey-likert",49,575602,"0.0-49.0","wj9dyg8gp70zmktnl54c6t1vcjlwe35g","Thu Jan 19 2017 13:21:02 GMT-0500 (Eastern Standard Time)","female","White","liberal","",NA,"","offCivRatings","the officer sprayed the civilian with pepper spray","the civilian struck the officer on the leg with a metal pipe","pepperSpray","metalPipe","civilianOfficer","appropriateOff","90","","","",""
"51",4474,"{""Q0"":14}","[object Object]","survey-likert",50,580091,"0.0-50.0","wj9dyg8gp70zmktnl54c6t1vcjlwe35g","Thu Jan 19 2017 13:21:02 GMT-0500 (Eastern Standard Time)","female","White","liberal","",NA,"","offCivRatings","the officer sprayed the civilian with pepper spray","the civilian struck the officer on the leg with a metal pipe","pepperSpray","metalPipe","civilianOfficer","punishOff","14","","","",""
"52",3022,"{""Q0"":65}","[object Object]","survey-likert",51,583127,"0.0-51.0","wj9dyg8gp70zmktnl54c6t1vcjlwe35g","Thu Jan 19 2017 13:21:02 GMT-0500 (Eastern Standard Time)","female","White","liberal","",NA,"","offCivRatings","the officer sprayed the civilian with pepper spray","the civilian struck the officer on the leg with a metal pipe","pepperSpray","metalPipe","civilianOfficer","acceptableOff","65","","","",""
"53",830,"","","instructions",52,583957,"0.0-52.0","wj9dyg8gp70zmktnl54c6t1vcjlwe35g","Thu Jan 19 2017 13:21:02 GMT-0500 (Eastern Standard Time)","female","White","liberal","",NA,"[{""page_index"":0,""viewing_time"":829}]","break","","","","","","","","","","",""
"54",14340,"{""Q0"":11}","[object Object]","survey-likert",53,598511,"0.0-53.0","wj9dyg8gp70zmktnl54c6t1vcjlwe35g","Thu Jan 19 2017 13:21:02 GMT-0500 (Eastern Standard Time)","female","White","liberal","",NA,"","offCivRatings","the officer shot the civilian in the chest with a beanbag shotgun round","the civilian stood near the officer","beanbag","stoodNear","civilianOfficer","acceptableOff","11","","","",""
"55",4904,"{""Q0"":84}","[object Object]","survey-likert",54,603430,"0.0-54.0","wj9dyg8gp70zmktnl54c6t1vcjlwe35g","Thu Jan 19 2017 13:21:02 GMT-0500 (Eastern Standard Time)","female","White","liberal","",NA,"","offCivRatings","the officer shot the civilian in the chest with a beanbag shotgun round","the civilian stood near the officer","beanbag","stoodNear","civilianOfficer","forceOff","84","","","",""
"56",4736,"{""Q0"":5}","[object Object]","survey-likert",55,608182,"0.0-55.0","wj9dyg8gp70zmktnl54c6t1vcjlwe35g","Thu Jan 19 2017 13:21:02 GMT-0500 (Eastern Standard Time)","female","White","liberal","",NA,"","offCivRatings","the officer shot the civilian in the chest with a beanbag shotgun round","the civilian stood near the officer","beanbag","stoodNear","civilianOfficer","appropriateOff","5","","","",""
"57",4057,"{""Q0"":75}","[object Object]","survey-likert",56,612254,"0.0-56.0","wj9dyg8gp70zmktnl54c6t1vcjlwe35g","Thu Jan 19 2017 13:21:02 GMT-0500 (Eastern Standard Time)","female","White","liberal","",NA,"","offCivRatings","the officer shot the civilian in the chest with a beanbag shotgun round","the civilian stood near the officer","beanbag","stoodNear","civilianOfficer","punishOff","75","","","",""
"58",3370,"{""Q0"":1}","[object Object]","survey-likert",57,615640,"0.0-57.0","wj9dyg8gp70zmktnl54c6t1vcjlwe35g","Thu Jan 19 2017 13:21:02 GMT-0500 (Eastern Standard Time)","female","White","liberal","",NA,"","offCivRatings","the officer shot the civilian in the chest with a beanbag shotgun round","the civilian stood near the officer","beanbag","stoodNear","civilianOfficer","manipCheckLow","1","","","",""
"59",797,"","","instructions",58,616438,"0.0-58.0","wj9dyg8gp70zmktnl54c6t1vcjlwe35g","Thu Jan 19 2017 13:21:02 GMT-0500 (Eastern Standard Time)","female","White","liberal","",NA,"[{""page_index"":0,""viewing_time"":796}]","break","","","","","","","","","","",""
"60",17011,"{""Q0"":1}","[object Object]","survey-likert",59,633663,"0.0-59.0","wj9dyg8gp70zmktnl54c6t1vcjlwe35g","Thu Jan 19 2017 13:21:02 GMT-0500 (Eastern Standard Time)","female","White","liberal","",NA,"","offCivRatings","the officer stood near the civilian","the civilian pulled away from the officer","stoodNear","pulledAway","civilianOfficer","punishOff","1","","","",""
"61",4241,"{""Q0"":100}","[object Object]","survey-likert",60,637919,"0.0-60.0","wj9dyg8gp70zmktnl54c6t1vcjlwe35g","Thu Jan 19 2017 13:21:02 GMT-0500 (Eastern Standard Time)","female","White","liberal","",NA,"","offCivRatings","the officer stood near the civilian","the civilian pulled away from the officer","stoodNear","pulledAway","civilianOfficer","acceptableOff","100","","","",""
"62",4813,"{""Q0"":48}","[object Object]","survey-likert",61,642748,"0.0-61.0","wj9dyg8gp70zmktnl54c6t1vcjlwe35g","Thu Jan 19 2017 13:21:02 GMT-0500 (Eastern Standard Time)","female","White","liberal","",NA,"","offCivRatings","the officer stood near the civilian","the civilian pulled away from the officer","stoodNear","pulledAway","civilianOfficer","appropriateOff","48","","","",""
"63",4567,"{""Q0"":1}","[object Object]","survey-likert",62,647331,"0.0-62.0","wj9dyg8gp70zmktnl54c6t1vcjlwe35g","Thu Jan 19 2017 13:21:02 GMT-0500 (Eastern Standard Time)","female","White","liberal","",NA,"","offCivRatings","the officer stood near the civilian","the civilian pulled away from the officer","stoodNear","pulledAway","civilianOfficer","forceOff","1","","","",""
"64",686,"","","instructions",63,648017,"0.0-63.0","wj9dyg8gp70zmktnl54c6t1vcjlwe35g","Thu Jan 19 2017 13:21:02 GMT-0500 (Eastern Standard Time)","female","White","liberal","",NA,"[{""page_index"":0,""viewing_time"":685}]","break","","","","","","","","","","",""
"65",9908,"{""Q0"":35}","[object Object]","survey-likert",64,658140,"0.0-64.0","wj9dyg8gp70zmktnl54c6t1vcjlwe35g","Thu Jan 19 2017 13:21:02 GMT-0500 (Eastern Standard Time)","female","White","liberal","",NA,"","offCivRatings","the officer punched the civilian in the face","the civilian purposefully struck the officer with a motor vehicle","punchFace","vehicle","civilianOfficer","forceOff","35","","","",""
"66",5222,"{""Q0"":63}","[object Object]","survey-likert",65,663380,"0.0-65.0","wj9dyg8gp70zmktnl54c6t1vcjlwe35g","Thu Jan 19 2017 13:21:02 GMT-0500 (Eastern Standard Time)","female","White","liberal","",NA,"","offCivRatings","the officer punched the civilian in the face","the civilian purposefully struck the officer with a motor vehicle","punchFace","vehicle","civilianOfficer","appropriateOff","63","","","",""
"67",3442,"{""Q0"":54}","[object Object]","survey-likert",66,666836,"0.0-66.0","wj9dyg8gp70zmktnl54c6t1vcjlwe35g","Thu Jan 19 2017 13:21:02 GMT-0500 (Eastern Standard Time)","female","White","liberal","",NA,"","offCivRatings","the officer punched the civilian in the face","the civilian purposefully struck the officer with a motor vehicle","punchFace","vehicle","civilianOfficer","acceptableOff","54","","","",""
"68",4704,"{""Q0"":41}","[object Object]","survey-likert",67,671555,"0.0-67.0","wj9dyg8gp70zmktnl54c6t1vcjlwe35g","Thu Jan 19 2017 13:21:02 GMT-0500 (Eastern Standard Time)","female","White","liberal","",NA,"","offCivRatings","the officer punched the civilian in the face","the civilian purposefully struck the officer with a motor vehicle","punchFace","vehicle","civilianOfficer","punishOff","41","","","",""
"69",598,"","","instructions",68,672154,"0.0-68.0","wj9dyg8gp70zmktnl54c6t1vcjlwe35g","Thu Jan 19 2017 13:21:02 GMT-0500 (Eastern Standard Time)","female","White","liberal","",NA,"[{""page_index"":0,""viewing_time"":597}]","break","","","","","","","","","","",""
"70",25939,"{""Q0"":60}","[object Object]","survey-likert",69,698307,"0.0-69.0","wj9dyg8gp70zmktnl54c6t1vcjlwe35g","Thu Jan 19 2017 13:21:02 GMT-0500 (Eastern Standard Time)","female","White","liberal","",NA,"","offCivRatings","the officer struck the civilian on the leg with a collapsible baton","the civilian shocked the officer with a tazer","batonLeg","tazer","civilianOfficer","forceOff","60","","","",""
"71",3627,"{""Q0"":56}","[object Object]","survey-likert",70,701949,"0.0-70.0","wj9dyg8gp70zmktnl54c6t1vcjlwe35g","Thu Jan 19 2017 13:21:02 GMT-0500 (Eastern Standard Time)","female","White","liberal","",NA,"","offCivRatings","the officer struck the civilian on the leg with a collapsible baton","the civilian shocked the officer with a tazer","batonLeg","tazer","civilianOfficer","appropriateOff","56","","","",""
"72",7932,"{""Q0"":24}","[object Object]","survey-likert",71,709895,"0.0-71.0","wj9dyg8gp70zmktnl54c6t1vcjlwe35g","Thu Jan 19 2017 13:21:02 GMT-0500 (Eastern Standard Time)","female","White","liberal","",NA,"","offCivRatings","the officer struck the civilian on the leg with a collapsible baton","the civilian shocked the officer with a tazer","batonLeg","tazer","civilianOfficer","punishOff","24","","","",""
"73",5569,"{""Q0"":70}","[object Object]","survey-likert",72,715479,"0.0-72.0","wj9dyg8gp70zmktnl54c6t1vcjlwe35g","Thu Jan 19 2017 13:21:02 GMT-0500 (Eastern Standard Time)","female","White","liberal","",NA,"","offCivRatings","the officer struck the civilian on the leg with a collapsible baton","the civilian shocked the officer with a tazer","batonLeg","tazer","civilianOfficer","acceptableOff","70","","","",""
"74",726,"","","instructions",73,716205,"0.0-73.0","wj9dyg8gp70zmktnl54c6t1vcjlwe35g","Thu Jan 19 2017 13:21:02 GMT-0500 (Eastern Standard Time)","female","White","liberal","",NA,"[{""page_index"":0,""viewing_time"":725}]","break","","","","","","","","","","",""
"75",13596,"{""Q0"":11}","[object Object]","survey-likert",74,730016,"0.0-74.0","wj9dyg8gp70zmktnl54c6t1vcjlwe35g","Thu Jan 19 2017 13:21:02 GMT-0500 (Eastern Standard Time)","female","White","liberal","",NA,"","offCivRatings","the officer put handcuffs on the civilian","the civilian sprayed the officer with pepper spray","handcuff","pepperSpray","officerCivilian","acceptableCiv","11","","","",""
"76",17696,"{""Q0"":72}","[object Object]","survey-likert",75,747727,"0.0-75.0","wj9dyg8gp70zmktnl54c6t1vcjlwe35g","Thu Jan 19 2017 13:21:02 GMT-0500 (Eastern Standard Time)","female","White","liberal","",NA,"","offCivRatings","the officer put handcuffs on the civilian","the civilian sprayed the officer with pepper spray","handcuff","pepperSpray","officerCivilian","punishCiv","72","","","",""
"77",4586,"{""Q0"":41}","[object Object]","survey-likert",76,752327,"0.0-76.0","wj9dyg8gp70zmktnl54c6t1vcjlwe35g","Thu Jan 19 2017 13:21:02 GMT-0500 (Eastern Standard Time)","female","White","liberal","",NA,"","offCivRatings","the officer put handcuffs on the civilian","the civilian sprayed the officer with pepper spray","handcuff","pepperSpray","officerCivilian","forceCiv","41","","","",""
"78",7353,"{""Q0"":70}","[object Object]","survey-likert",77,759696,"0.0-77.0","wj9dyg8gp70zmktnl54c6t1vcjlwe35g","Thu Jan 19 2017 13:21:02 GMT-0500 (Eastern Standard Time)","female","White","liberal","",NA,"","offCivRatings","the officer put handcuffs on the civilian","the civilian sprayed the officer with pepper spray","handcuff","pepperSpray","officerCivilian","appropriateCiv","70","","","",""
"79",701,"","","instructions",78,760398,"0.0-78.0","wj9dyg8gp70zmktnl54c6t1vcjlwe35g","Thu Jan 19 2017 13:21:02 GMT-0500 (Eastern Standard Time)","female","White","liberal","",NA,"[{""page_index"":0,""viewing_time"":700}]","break","","","","","","","","","","",""
"80",11705,"{""Q0"":45}","[object Object]","survey-likert",79,772318,"0.0-79.0","wj9dyg8gp70zmktnl54c6t1vcjlwe35g","Thu Jan 19 2017 13:21:02 GMT-0500 (Eastern Standard Time)","female","White","liberal","",NA,"","offCivRatings","the officer slammed the civilian's head into the concrete curb","the civilian punched the officer in the face","headSlam","punchFace","civilianOfficer","acceptableOff","45","","","",""
"81",2753,"{""Q0"":1}","[object Object]","survey-likert",80,775085,"0.0-80.0","wj9dyg8gp70zmktnl54c6t1vcjlwe35g","Thu Jan 19 2017 13:21:02 GMT-0500 (Eastern Standard Time)","female","White","liberal","",NA,"","offCivRatings","the officer slammed the civilian's head into the concrete curb","the civilian punched the officer in the face","headSlam","punchFace","civilianOfficer","manipCheckLow","1","","","",""
"82",6370,"{""Q0"":24}","[object Object]","survey-likert",81,781469,"0.0-81.0","wj9dyg8gp70zmktnl54c6t1vcjlwe35g","Thu Jan 19 2017 13:21:02 GMT-0500 (Eastern Standard Time)","female","White","liberal","",NA,"","offCivRatings","the officer slammed the civilian's head into the concrete curb","the civilian punched the officer in the face","headSlam","punchFace","civilianOfficer","punishOff","24","","","",""
"83",5400,"{""Q0"":57}","[object Object]","survey-likert",82,786884,"0.0-82.0","wj9dyg8gp70zmktnl54c6t1vcjlwe35g","Thu Jan 19 2017 13:21:02 GMT-0500 (Eastern Standard Time)","female","White","liberal","",NA,"","offCivRatings","the officer slammed the civilian's head into the concrete curb","the civilian punched the officer in the face","headSlam","punchFace","civilianOfficer","forceOff","57","","","",""
"84",5474,"{""Q0"":53}","[object Object]","survey-likert",83,792373,"0.0-83.0","wj9dyg8gp70zmktnl54c6t1vcjlwe35g","Thu Jan 19 2017 13:21:02 GMT-0500 (Eastern Standard Time)","female","White","liberal","",NA,"","offCivRatings","the officer slammed the civilian's head into the concrete curb","the civilian punched the officer in the face","headSlam","punchFace","civilianOfficer","appropriateOff","53","","","",""
"85",565,"","","instructions",84,792939,"0.0-84.0","wj9dyg8gp70zmktnl54c6t1vcjlwe35g","Thu Jan 19 2017 13:21:02 GMT-0500 (Eastern Standard Time)","female","White","liberal","",NA,"[{""page_index"":0,""viewing_time"":564}]","break","","","","","","","","","","",""
"86",15684,"{""Q0"":4}","[object Object]","survey-likert",85,808837,"0.0-85.0","wj9dyg8gp70zmktnl54c6t1vcjlwe35g","Thu Jan 19 2017 13:21:02 GMT-0500 (Eastern Standard Time)","female","White","liberal","",NA,"","offCivRatings","the officer twisted the arm of the civilian, forcing him to the ground","the civilian shouted ""I don't have to fucking listen to you!"" at the officer","armbar","dontListen","civilianOfficer","punishOff","4","","","",""
"87",4200,"{""Q0"":45}","[object Object]","survey-likert",86,813052,"0.0-86.0","wj9dyg8gp70zmktnl54c6t1vcjlwe35g","Thu Jan 19 2017 13:21:02 GMT-0500 (Eastern Standard Time)","female","White","liberal","",NA,"","offCivRatings","the officer twisted the arm of the civilian, forcing him to the ground","the civilian shouted ""I don't have to fucking listen to you!"" at the officer","armbar","dontListen","civilianOfficer","appropriateOff","45","","","",""
"88",2329,"{""Q0"":1}","[object Object]","survey-likert",87,815398,"0.0-87.0","wj9dyg8gp70zmktnl54c6t1vcjlwe35g","Thu Jan 19 2017 13:21:02 GMT-0500 (Eastern Standard Time)","female","White","liberal","",NA,"","offCivRatings","the officer twisted the arm of the civilian, forcing him to the ground","the civilian shouted ""I don't have to fucking listen to you!"" at the officer","armbar","dontListen","civilianOfficer","manipCheckLow","1","","","",""
"89",8786,"{""Q0"":37}","[object Object]","survey-likert",88,824197,"0.0-88.0","wj9dyg8gp70zmktnl54c6t1vcjlwe35g","Thu Jan 19 2017 13:21:02 GMT-0500 (Eastern Standard Time)","female","White","liberal","",NA,"","offCivRatings","the officer twisted the arm of the civilian, forcing him to the ground","the civilian shouted ""I don't have to fucking listen to you!"" at the officer","armbar","dontListen","civilianOfficer","forceOff","37","","","",""
"90",3282,"{""Q0"":97}","[object Object]","survey-likert",89,827493,"0.0-89.0","wj9dyg8gp70zmktnl54c6t1vcjlwe35g","Thu Jan 19 2017 13:21:02 GMT-0500 (Eastern Standard Time)","female","White","liberal","",NA,"","offCivRatings","the officer twisted the arm of the civilian, forcing him to the ground","the civilian shouted ""I don't have to fucking listen to you!"" at the officer","armbar","dontListen","civilianOfficer","acceptableOff","97","","","",""
"91",630,"","","instructions",90,828123,"0.0-90.0","wj9dyg8gp70zmktnl54c6t1vcjlwe35g","Thu Jan 19 2017 13:21:02 GMT-0500 (Eastern Standard Time)","female","White","liberal","",NA,"[{""page_index"":0,""viewing_time"":629}]","break","","","","","","","","","","",""
"92",16096,"{""Q0"":78}","[object Object]","survey-likert",91,844433,"0.0-91.0","wj9dyg8gp70zmktnl54c6t1vcjlwe35g","Thu Jan 19 2017 13:21:02 GMT-0500 (Eastern Standard Time)","female","White","liberal","",NA,"","offCivRatings","the officer applied a chokehold to the civilian","the civilian shot the officer in the head with a handgun","choke","handgunHead","civilianOfficer","acceptableOff","78","","","",""
"93",3938,"{""Q0"":71}","[object Object]","survey-likert",92,848386,"0.0-92.0","wj9dyg8gp70zmktnl54c6t1vcjlwe35g","Thu Jan 19 2017 13:21:02 GMT-0500 (Eastern Standard Time)","female","White","liberal","",NA,"","offCivRatings","the officer applied a chokehold to the civilian","the civilian shot the officer in the head with a handgun","choke","handgunHead","civilianOfficer","forceOff","71","","","",""
"94",9048,"{""Q0"":46}","[object Object]","survey-likert",93,857448,"0.0-93.0","wj9dyg8gp70zmktnl54c6t1vcjlwe35g","Thu Jan 19 2017 13:21:02 GMT-0500 (Eastern Standard Time)","female","White","liberal","",NA,"","offCivRatings","the officer applied a chokehold to the civilian","the civilian shot the officer in the head with a handgun","choke","handgunHead","civilianOfficer","appropriateOff","46","","","",""
"95",7658,"{""Q0"":7}","[object Object]","survey-likert",94,865121,"0.0-94.0","wj9dyg8gp70zmktnl54c6t1vcjlwe35g","Thu Jan 19 2017 13:21:02 GMT-0500 (Eastern Standard Time)","female","White","liberal","",NA,"","offCivRatings","the officer applied a chokehold to the civilian","the civilian shot the officer in the head with a handgun","choke","handgunHead","civilianOfficer","punishOff","7","","","",""
"96",2538,"{""Q0"":100}","[object Object]","survey-likert",95,867673,"0.0-95.0","wj9dyg8gp70zmktnl54c6t1vcjlwe35g","Thu Jan 19 2017 13:21:02 GMT-0500 (Eastern Standard Time)","female","White","liberal","",NA,"","offCivRatings","the officer applied a chokehold to the civilian","the civilian shot the officer in the head with a handgun","choke","handgunHead","civilianOfficer","manipCheckHigh","100","","","",""
"97",717,"","","instructions",96,868390,"0.0-96.0","wj9dyg8gp70zmktnl54c6t1vcjlwe35g","Thu Jan 19 2017 13:21:02 GMT-0500 (Eastern Standard Time)","female","White","liberal","",NA,"[{""page_index"":0,""viewing_time"":716}]","break","","","","","","","","","","",""
"98",10629,"{""Q0"":9}","[object Object]","survey-likert",97,879233,"0.0-97.0","wj9dyg8gp70zmktnl54c6t1vcjlwe35g","Thu Jan 19 2017 13:21:02 GMT-0500 (Eastern Standard Time)","female","White","liberal","",NA,"","offCivRatings","the officer kicked the civilian in the stomach","the civilian asked the officer how he was doing","kickStom","asked","civilianOfficer","acceptableOff","9","","","",""
"99",4665,"{""Q0"":64}","[object Object]","survey-likert",98,883913,"0.0-98.0","wj9dyg8gp70zmktnl54c6t1vcjlwe35g","Thu Jan 19 2017 13:21:02 GMT-0500 (Eastern Standard Time)","female","White","liberal","",NA,"","offCivRatings","the officer kicked the civilian in the stomach","the civilian asked the officer how he was doing","kickStom","asked","civilianOfficer","forceOff","64","","","",""
"100",30980,"{""Q0"":78}","[object Object]","survey-likert",99,914908,"0.0-99.0","wj9dyg8gp70zmktnl54c6t1vcjlwe35g","Thu Jan 19 2017 13:21:02 GMT-0500 (Eastern Standard Time)","female","White","liberal","",NA,"","offCivRatings","the officer kicked the civilian in the stomach","the civilian asked the officer how he was doing","kickStom","asked","civilianOfficer","appropriateOff","78","","","",""
"101",5090,"{""Q0"":74}","[object Object]","survey-likert",100,920012,"0.0-100.0","wj9dyg8gp70zmktnl54c6t1vcjlwe35g","Thu Jan 19 2017 13:21:02 GMT-0500 (Eastern Standard Time)","female","White","liberal","",NA,"","offCivRatings","the officer kicked the civilian in the stomach","the civilian asked the officer how he was doing","kickStom","asked","civilianOfficer","punishOff","74","","","",""
"102",709,"","","instructions",101,920721,"0.0-101.0","wj9dyg8gp70zmktnl54c6t1vcjlwe35g","Thu Jan 19 2017 13:21:02 GMT-0500 (Eastern Standard Time)","female","White","liberal","",NA,"[{""page_index"":0,""viewing_time"":708}]","break","","","","","","","","","","",""
"103",16036,"{""Q0"":83}","[object Object]","survey-likert",102,936971,"0.0-102.0","wj9dyg8gp70zmktnl54c6t1vcjlwe35g","Thu Jan 19 2017 13:21:02 GMT-0500 (Eastern Standard Time)","female","White","liberal","",NA,"","offCivRatings","the officer waved at the civilian in greeting","the civilian hit the officer in the chest with a baseball bat","waved","ballBat","officerCivilian","appropriateCiv","83","","","",""
"104",3537,"{""Q0"":11}","[object Object]","survey-likert",103,940524,"0.0-103.0","wj9dyg8gp70zmktnl54c6t1vcjlwe35g","Thu Jan 19 2017 13:21:02 GMT-0500 (Eastern Standard Time)","female","White","liberal","",NA,"","offCivRatings","the officer waved at the civilian in greeting","the civilian hit the officer in the chest with a baseball bat","waved","ballBat","officerCivilian","acceptableCiv","11","","","",""
"105",3641,"{""Q0"":75}","[object Object]","survey-likert",104,944179,"0.0-104.0","wj9dyg8gp70zmktnl54c6t1vcjlwe35g","Thu Jan 19 2017 13:21:02 GMT-0500 (Eastern Standard Time)","female","White","liberal","",NA,"","offCivRatings","the officer waved at the civilian in greeting","the civilian hit the officer in the chest with a baseball bat","waved","ballBat","officerCivilian","punishCiv","75","","","",""
"106",3626,"{""Q0"":71}","[object Object]","survey-likert",105,947820,"0.0-105.0","wj9dyg8gp70zmktnl54c6t1vcjlwe35g","Thu Jan 19 2017 13:21:02 GMT-0500 (Eastern Standard Time)","female","White","liberal","",NA,"","offCivRatings","the officer waved at the civilian in greeting","the civilian hit the officer in the chest with a baseball bat","waved","ballBat","officerCivilian","forceCiv","71","","","",""
"107",773,"","","instructions",106,948594,"0.0-106.0","wj9dyg8gp70zmktnl54c6t1vcjlwe35g","Thu Jan 19 2017 13:21:02 GMT-0500 (Eastern Standard Time)","female","White","liberal","",NA,"[{""page_index"":0,""viewing_time"":772}]","break","","","","","","","","","","",""
"108",18316,"{""Q0"":15}","[object Object]","survey-likert",107,967124,"0.0-107.0","wj9dyg8gp70zmktnl54c6t1vcjlwe35g","Thu Jan 19 2017 13:21:02 GMT-0500 (Eastern Standard Time)","female","White","liberal","",NA,"","offCivRatings","the officer purposefully struck the civilian with a motor vehicle","the civilian called the officer a ""pig""","vehicle","nameCall","officerCivilian","punishCiv","15","","","",""
"109",5724,"{""Q0"":47}","[object Object]","survey-likert",108,972862,"0.0-108.0","wj9dyg8gp70zmktnl54c6t1vcjlwe35g","Thu Jan 19 2017 13:21:02 GMT-0500 (Eastern Standard Time)","female","White","liberal","",NA,"","offCivRatings","the officer purposefully struck the civilian with a motor vehicle","the civilian called the officer a ""pig""","vehicle","nameCall","officerCivilian","appropriateCiv","47","","","",""
"110",2219,"{""Q0"":1}","[object Object]","survey-likert",109,975096,"0.0-109.0","wj9dyg8gp70zmktnl54c6t1vcjlwe35g","Thu Jan 19 2017 13:21:02 GMT-0500 (Eastern Standard Time)","female","White","liberal","",NA,"","offCivRatings","the officer purposefully struck the civilian with a motor vehicle","the civilian called the officer a ""pig""","vehicle","nameCall","officerCivilian","manipCheckLow","1","","","",""
"111",4930,"{""Q0"":79}","[object Object]","survey-likert",110,980040,"0.0-110.0","wj9dyg8gp70zmktnl54c6t1vcjlwe35g","Thu Jan 19 2017 13:21:02 GMT-0500 (Eastern Standard Time)","female","White","liberal","",NA,"","offCivRatings","the officer purposefully struck the civilian with a motor vehicle","the civilian called the officer a ""pig""","vehicle","nameCall","officerCivilian","acceptableCiv","79","","","",""
"112",5202,"{""Q0"":14}","[object Object]","survey-likert",111,985257,"0.0-111.0","wj9dyg8gp70zmktnl54c6t1vcjlwe35g","Thu Jan 19 2017 13:21:02 GMT-0500 (Eastern Standard Time)","female","White","liberal","",NA,"","offCivRatings","the officer purposefully struck the civilian with a motor vehicle","the civilian called the officer a ""pig""","vehicle","nameCall","officerCivilian","forceCiv","14","","","",""
"113",701,"","","instructions",112,985959,"0.0-112.0","wj9dyg8gp70zmktnl54c6t1vcjlwe35g","Thu Jan 19 2017 13:21:02 GMT-0500 (Eastern Standard Time)","female","White","liberal","",NA,"[{""page_index"":0,""viewing_time"":700}]","break","","","","","","","","","","",""
"114",19738,"{""Q0"":86}","[object Object]","survey-likert",113,1005913,"0.0-113.0","wj9dyg8gp70zmktnl54c6t1vcjlwe35g","Thu Jan 19 2017 13:21:02 GMT-0500 (Eastern Standard Time)","female","White","liberal","",NA,"","offCivRatings","the officer asked the civilian how he was doing","the civilian struck the officer in the stomach with a metal flashlight","asked","flashlight","officerCivilian","appropriateCiv","86","","","",""
"115",8905,"{""Q0"":42}","[object Object]","survey-likert",114,1014833,"0.0-114.0","wj9dyg8gp70zmktnl54c6t1vcjlwe35g","Thu Jan 19 2017 13:21:02 GMT-0500 (Eastern Standard Time)","female","White","liberal","",NA,"","offCivRatings","the officer asked the civilian how he was doing","the civilian struck the officer in the stomach with a metal flashlight","asked","flashlight","officerCivilian","forceCiv","42","","","",""
"116",2233,"{""Q0"":56}","[object Object]","survey-likert",115,1017081,"0.0-115.0","wj9dyg8gp70zmktnl54c6t1vcjlwe35g","Thu Jan 19 2017 13:21:02 GMT-0500 (Eastern Standard Time)","female","White","liberal","",NA,"","offCivRatings","the officer asked the civilian how he was doing","the civilian struck the officer in the stomach with a metal flashlight","asked","flashlight","officerCivilian","punishCiv","56","","","",""
"117",8881,"{""Q0"":12}","[object Object]","survey-likert",116,1025976,"0.0-116.0","wj9dyg8gp70zmktnl54c6t1vcjlwe35g","Thu Jan 19 2017 13:21:02 GMT-0500 (Eastern Standard Time)","female","White","liberal","",NA,"","offCivRatings","the officer asked the civilian how he was doing","the civilian struck the officer in the stomach with a metal flashlight","asked","flashlight","officerCivilian","acceptableCiv","12","","","",""
"118",621,"","","instructions",117,1026598,"0.0-117.0","wj9dyg8gp70zmktnl54c6t1vcjlwe35g","Thu Jan 19 2017 13:21:02 GMT-0500 (Eastern Standard Time)","female","White","liberal","",NA,"[{""page_index"":0,""viewing_time"":620}]","break","","","","","","","","","","",""
"119",13096,"{""Q0"":100}","[object Object]","survey-likert",118,1039909,"0.0-118.0","wj9dyg8gp70zmktnl54c6t1vcjlwe35g","Thu Jan 19 2017 13:21:02 GMT-0500 (Eastern Standard Time)","female","White","liberal","",NA,"","offCivRatings","the officer shot the civilian in the chest with a handgun","the civilian waved at the officer in greeting","handgunChest","waved","officerCivilian","manipCheckHigh","100","","","",""
"120",3625,"{""Q0"":1}","[object Object]","survey-likert",119,1043549,"0.0-119.0","wj9dyg8gp70zmktnl54c6t1vcjlwe35g","Thu Jan 19 2017 13:21:02 GMT-0500 (Eastern Standard Time)","female","White","liberal","",NA,"","offCivRatings","the officer shot the civilian in the chest with a handgun","the civilian waved at the officer in greeting","handgunChest","waved","officerCivilian","punishCiv","1","","","",""
"121",9730,"{""Q0"":49}","[object Object]","survey-likert",120,1053293,"0.0-120.0","wj9dyg8gp70zmktnl54c6t1vcjlwe35g","Thu Jan 19 2017 13:21:02 GMT-0500 (Eastern Standard Time)","female","White","liberal","",NA,"","offCivRatings","the officer shot the civilian in the chest with a handgun","the civilian waved at the officer in greeting","handgunChest","waved","officerCivilian","appropriateCiv","49","","","",""
"122",5353,"{""Q0"":98}","[object Object]","survey-likert",121,1058661,"0.0-121.0","wj9dyg8gp70zmktnl54c6t1vcjlwe35g","Thu Jan 19 2017 13:21:02 GMT-0500 (Eastern Standard Time)","female","White","liberal","",NA,"","offCivRatings","the officer shot the civilian in the chest with a handgun","the civilian waved at the officer in greeting","handgunChest","waved","officerCivilian","acceptableCiv","98","","","",""
"123",8497,"{""Q0"":2}","[object Object]","survey-likert",122,1067172,"0.0-122.0","wj9dyg8gp70zmktnl54c6t1vcjlwe35g","Thu Jan 19 2017 13:21:02 GMT-0500 (Eastern Standard Time)","female","White","liberal","",NA,"","offCivRatings","the officer shot the civilian in the chest with a handgun","the civilian waved at the officer in greeting","handgunChest","waved","officerCivilian","forceCiv","2","","","",""
"124",685,"","","instructions",123,1067858,"0.0-123.0","wj9dyg8gp70zmktnl54c6t1vcjlwe35g","Thu Jan 19 2017 13:21:02 GMT-0500 (Eastern Standard Time)","female","White","liberal","",NA,"[{""page_index"":0,""viewing_time"":684}]","break","","","","","","","","","","",""
"125",29526,"{""Q0"":88}","[object Object]","survey-likert",124,1097601,"0.0-124.0","wj9dyg8gp70zmktnl54c6t1vcjlwe35g","Thu Jan 19 2017 13:21:02 GMT-0500 (Eastern Standard Time)","female","White","liberal","",NA,"","policeLegitimacy","","","","","","","88","doTreat","feltObligation","",""
"126",7186,"{""Q0"":24}","[object Object]","survey-likert",125,1104802,"0.0-125.0","wj9dyg8gp70zmktnl54c6t1vcjlwe35g","Thu Jan 19 2017 13:21:02 GMT-0500 (Eastern Standard Time)","female","White","liberal","",NA,"","policeLegitimacy","","","","","","","24","importantValues","normAlignment","",""
"127",5881,"{""Q0"":37}","[object Object]","survey-likert",126,1110697,"0.0-126.0","wj9dyg8gp70zmktnl54c6t1vcjlwe35g","Thu Jan 19 2017 13:21:02 GMT-0500 (Eastern Standard Time)","female","White","liberal","",NA,"","policeLegitimacy","","","","","","","37","support","feltObligation","",""
"128",14515,"{""Q0"":89}","[object Object]","survey-likert",127,1125227,"0.0-127.0","wj9dyg8gp70zmktnl54c6t1vcjlwe35g","Thu Jan 19 2017 13:21:02 GMT-0500 (Eastern Standard Time)","female","White","liberal","",NA,"","policeLegitimacy","","","","","","","89","doReasons","feltObligation","",""
"129",7312,"{""Q0"":47}","[object Object]","survey-likert",128,1132553,"0.0-128.0","wj9dyg8gp70zmktnl54c6t1vcjlwe35g","Thu Jan 19 2017 13:21:02 GMT-0500 (Eastern Standard Time)","female","White","liberal","",NA,"","policeLegitimacy","","","","","","","47","rightWrong","normAlignment","",""
"130",6491,"{""Q0"":34}","[object Object]","survey-likert",129,1139058,"0.0-129.0","wj9dyg8gp70zmktnl54c6t1vcjlwe35g","Thu Jan 19 2017 13:21:02 GMT-0500 (Eastern Standard Time)","female","White","liberal","",NA,"","policeLegitimacy","","","","","","","34","communityWants","normAlignment","",""
"131",7668,"{""Q0"":""no""}","[object Object]","survey-multi-choice2",130,1146739,"0.0-130.0","wj9dyg8gp70zmktnl54c6t1vcjlwe35g","Thu Jan 19 2017 13:21:02 GMT-0500 (Eastern Standard Time)","female","White","liberal","",NA,"","policeExperience","","","","","","","no","insultLang","","personal","Have the police ever used insulting language toward you?"
"132",5741,"{""Q0"":""no""}","[object Object]","survey-multi-choice2",131,1152488,"0.0-131.0","wj9dyg8gp70zmktnl54c6t1vcjlwe35g","Thu Jan 19 2017 13:21:02 GMT-0500 (Eastern Standard Time)","female","White","liberal","",NA,"","policeExperience","","","","","","","no","excessForce","","vicarious","Have the police ever used excessive force against anyone in your household?"
"133",7078,"{""Q0"":""yes""}","[object Object]","survey-multi-choice2",132,1159573,"0.0-132.0","wj9dyg8gp70zmktnl54c6t1vcjlwe35g","Thu Jan 19 2017 13:21:02 GMT-0500 (Eastern Standard Time)","female","White","liberal","",NA,"","policeExperience","","","","","","","yes","insultLang","","vicarious","Have the police ever used insulting language toward anyone in your household?"
"134",5306,"{""Q0"":""no""}","[object Object]","survey-multi-choice2",133,1164884,"0.0-133.0","wj9dyg8gp70zmktnl54c6t1vcjlwe35g","Thu Jan 19 2017 13:21:02 GMT-0500 (Eastern Standard Time)","female","White","liberal","",NA,"","policeExperience","","","","","","","no","stopped","","vicarious","Has anyone in your household ever been stopped on the street by the police without good reason?"
"135",6635,"{""Q0"":""no""}","[object Object]","survey-multi-choice2",134,1171524,"0.0-134.0","wj9dyg8gp70zmktnl54c6t1vcjlwe35g","Thu Jan 19 2017 13:21:02 GMT-0500 (Eastern Standard Time)","female","White","liberal","",NA,"","policeExperience","","","","","","","no","stopped","","personal","Have you ever been stopped by the police on the street without good reason?"
"136",4659,"{""Q0"":""no""}","[object Object]","survey-multi-choice2",135,1176188,"0.0-135.0","wj9dyg8gp70zmktnl54c6t1vcjlwe35g","Thu Jan 19 2017 13:21:02 GMT-0500 (Eastern Standard Time)","female","White","liberal","",NA,"","policeExperience","","","","","","","no","excessForce","","personal","Have the police ever used excessive force against you?"
"137",7251,"{""Q0"":""no""}","[object Object]","survey-multi-choice2",136,1183444,"0.0-136.0","wj9dyg8gp70zmktnl54c6t1vcjlwe35g","Thu Jan 19 2017 13:21:02 GMT-0500 (Eastern Standard Time)","female","White","liberal","",NA,"","policeExperience","","","","","","","no","corrupt","","personal","Have you ever seen a police officer engage in any corrupt activities (e.g., taking bribes or involvement in the drug trade)?"
"138",13959,"{""Q0"":""female"",""Q1"":""White"",""Q2"":""liberal""}","[object Object]","survey-multi-choice",137,1197432,"0.0-137.0","wj9dyg8gp70zmktnl54c6t1vcjlwe35g","Thu Jan 19 2017 13:21:02 GMT-0500 (Eastern Standard Time)","female","White","liberal","",NA,"","demographics","","","","","","","","","","",""
"139",15090,"","","instructions",138,1213524,"0.0-138.0","wj9dyg8gp70zmktnl54c6t1vcjlwe35g","Thu Jan 19 2017 13:21:02 GMT-0500 (Eastern Standard Time)","female","White","liberal","",NA,"[{""page_index"":0,""viewing_time"":1329},{""page_index"":1,""viewing_time"":5127},{""page_index"":2,""viewing_time"":5649},{""page_index"":3,""viewing_time"":2984}]","debriefing","","","","","","","","","","",""
