"","rt","responses","internalResp","trial_type","trial_index","time_elapsed","internal_node_id","randSubjectID","date","sex","race","polAff","stimulus","key_press","view_history","questionType","officerAction","civilianAction","offActName","civActName","order","questionName","response","name","dimension","person","question"
"1",9311,"","[object Object]","survey-text",0,9317,"0.0-0.0","wk3q06bh9fxdpckrrq8e2y6hlm5vtvya","Mon Apr 17 2017 10:11:22 GMT-0400 (Eastern Daylight Time)","female","White","slightly liberal","",NA,"","","","","","","","","","","","",""
"2",10353,"","","single-stim",1,20682,"0.0-1.0","wk3q06bh9fxdpckrrq8e2y6hlm5vtvya","Mon Apr 17 2017 10:11:22 GMT-0400 (Eastern Daylight Time)","female","White","slightly liberal","<img src='static/images/1602685960_ICS_Credit-0.png' alt='Consent 1' height=1100 width=850><img src='static/images/1602685960_ICS_Credit-1.png' alt='Consent 2' height=1100 width=850></p>",89,"","","","","","","","","","","","",""
"3",3175,"","","instructions",2,24860,"0.0-2.0","wk3q06bh9fxdpckrrq8e2y6hlm5vtvya","Mon Apr 17 2017 10:11:22 GMT-0400 (Eastern Daylight Time)","female","White","slightly liberal","",NA,"[{""page_index"":0,""viewing_time"":3175}]","instructions","","","","","","","","","","",""
"4",19208,"","","instructions",3,45082,"0.0-3.0","wk3q06bh9fxdpckrrq8e2y6hlm5vtvya","Mon Apr 17 2017 10:11:22 GMT-0400 (Eastern Daylight Time)","female","White","slightly liberal","",NA,"[{""page_index"":0,""viewing_time"":5301},{""page_index"":1,""viewing_time"":2396},{""page_index"":2,""viewing_time"":7726},{""page_index"":3,""viewing_time"":3785}]","instructions","","","","","","","","","","",""
"5",63861,"{""Q0"":1}","[object Object]","survey-likert",4,109974,"0.0-4.0","wk3q06bh9fxdpckrrq8e2y6hlm5vtvya","Mon Apr 17 2017 10:11:22 GMT-0400 (Eastern Daylight Time)","female","White","slightly liberal","",NA,"","offCivRatings","the officer twisted the arm of the civilian, forcing him to the ground","the civilian shouted ""I don't have to fucking listen to you!"" at the officer","armbar","dontListen","officerCivilian","punishCiv","1","","","",""
"6",15457,"{""Q0"":1}","[object Object]","survey-likert",5,125437,"0.0-5.0","wk3q06bh9fxdpckrrq8e2y6hlm5vtvya","Mon Apr 17 2017 10:11:22 GMT-0400 (Eastern Daylight Time)","female","White","slightly liberal","",NA,"","offCivRatings","the officer twisted the arm of the civilian, forcing him to the ground","the civilian shouted ""I don't have to fucking listen to you!"" at the officer","armbar","dontListen","officerCivilian","forceCiv","1","","","",""
"7",5665,"{""Q0"":100}","[object Object]","survey-likert",6,131108,"0.0-6.0","wk3q06bh9fxdpckrrq8e2y6hlm5vtvya","Mon Apr 17 2017 10:11:22 GMT-0400 (Eastern Daylight Time)","female","White","slightly liberal","",NA,"","offCivRatings","the officer twisted the arm of the civilian, forcing him to the ground","the civilian shouted ""I don't have to fucking listen to you!"" at the officer","armbar","dontListen","officerCivilian","acceptableCiv","100","","","",""
"8",10015,"{""Q0"":1}","[object Object]","survey-likert",7,141128,"0.0-7.0","wk3q06bh9fxdpckrrq8e2y6hlm5vtvya","Mon Apr 17 2017 10:11:22 GMT-0400 (Eastern Daylight Time)","female","White","slightly liberal","",NA,"","offCivRatings","the officer twisted the arm of the civilian, forcing him to the ground","the civilian shouted ""I don't have to fucking listen to you!"" at the officer","armbar","dontListen","officerCivilian","manipCheckLow","1","","","",""
"9",21147,"{""Q0"":70}","[object Object]","survey-likert",8,162283,"0.0-8.0","wk3q06bh9fxdpckrrq8e2y6hlm5vtvya","Mon Apr 17 2017 10:11:22 GMT-0400 (Eastern Daylight Time)","female","White","slightly liberal","",NA,"","offCivRatings","the officer twisted the arm of the civilian, forcing him to the ground","the civilian shouted ""I don't have to fucking listen to you!"" at the officer","armbar","dontListen","officerCivilian","appropriateCiv","70","","","",""
"10",1348,"","","instructions",9,163631,"0.0-9.0","wk3q06bh9fxdpckrrq8e2y6hlm5vtvya","Mon Apr 17 2017 10:11:22 GMT-0400 (Eastern Daylight Time)","female","White","slightly liberal","",NA,"[{""page_index"":0,""viewing_time"":1348}]","break","","","","","","","","","","",""
"11",18338,"{""Q0"":50}","[object Object]","survey-likert",10,182185,"0.0-10.0","wk3q06bh9fxdpckrrq8e2y6hlm5vtvya","Mon Apr 17 2017 10:11:22 GMT-0400 (Eastern Daylight Time)","female","White","slightly liberal","",NA,"","offCivRatings","the officer applied a chokehold to the civilian","the civilian stood near the officer","choke","stoodNear","officerCivilian","appropriateCiv","50","","","",""
"12",5345,"{""Q0"":1}","[object Object]","survey-likert",11,187535,"0.0-11.0","wk3q06bh9fxdpckrrq8e2y6hlm5vtvya","Mon Apr 17 2017 10:11:22 GMT-0400 (Eastern Daylight Time)","female","White","slightly liberal","",NA,"","offCivRatings","the officer applied a chokehold to the civilian","the civilian stood near the officer","choke","stoodNear","officerCivilian","forceCiv","1","","","",""
"13",5416,"{""Q0"":1}","[object Object]","survey-likert",12,192958,"0.0-12.0","wk3q06bh9fxdpckrrq8e2y6hlm5vtvya","Mon Apr 17 2017 10:11:22 GMT-0400 (Eastern Daylight Time)","female","White","slightly liberal","",NA,"","offCivRatings","the officer applied a chokehold to the civilian","the civilian stood near the officer","choke","stoodNear","officerCivilian","punishCiv","1","","","",""
"14",4404,"{""Q0"":100}","[object Object]","survey-likert",13,197367,"0.0-13.0","wk3q06bh9fxdpckrrq8e2y6hlm5vtvya","Mon Apr 17 2017 10:11:22 GMT-0400 (Eastern Daylight Time)","female","White","slightly liberal","",NA,"","offCivRatings","the officer applied a chokehold to the civilian","the civilian stood near the officer","choke","stoodNear","officerCivilian","acceptableCiv","100","","","",""
"15",1113,"","","instructions",14,198481,"0.0-14.0","wk3q06bh9fxdpckrrq8e2y6hlm5vtvya","Mon Apr 17 2017 10:11:22 GMT-0400 (Eastern Daylight Time)","female","White","slightly liberal","",NA,"[{""page_index"":0,""viewing_time"":1113}]","break","","","","","","","","","","",""
"16",21113,"{""Q0"":100}","[object Object]","survey-likert",15,219800,"0.0-15.0","wk3q06bh9fxdpckrrq8e2y6hlm5vtvya","Mon Apr 17 2017 10:11:22 GMT-0400 (Eastern Daylight Time)","female","White","slightly liberal","",NA,"","offCivRatings","the officer shocked the civilian with a tazer","the civilian shot the officer in the head with a handgun","tazer","handgunHead","civilianOfficer","acceptableOff","100","","","",""
"17",8525,"{""Q0"":50}","[object Object]","survey-likert",16,228330,"0.0-16.0","wk3q06bh9fxdpckrrq8e2y6hlm5vtvya","Mon Apr 17 2017 10:11:22 GMT-0400 (Eastern Daylight Time)","female","White","slightly liberal","",NA,"","offCivRatings","the officer shocked the civilian with a tazer","the civilian shot the officer in the head with a handgun","tazer","handgunHead","civilianOfficer","appropriateOff","50","","","",""
"18",6760,"{""Q0"":80}","[object Object]","survey-likert",17,235095,"0.0-17.0","wk3q06bh9fxdpckrrq8e2y6hlm5vtvya","Mon Apr 17 2017 10:11:22 GMT-0400 (Eastern Daylight Time)","female","White","slightly liberal","",NA,"","offCivRatings","the officer shocked the civilian with a tazer","the civilian shot the officer in the head with a handgun","tazer","handgunHead","civilianOfficer","forceOff","80","","","",""
"19",6794,"{""Q0"":1}","[object Object]","survey-likert",18,241894,"0.0-18.0","wk3q06bh9fxdpckrrq8e2y6hlm5vtvya","Mon Apr 17 2017 10:11:22 GMT-0400 (Eastern Daylight Time)","female","White","slightly liberal","",NA,"","offCivRatings","the officer shocked the civilian with a tazer","the civilian shot the officer in the head with a handgun","tazer","handgunHead","civilianOfficer","punishOff","1","","","",""
"20",1476,"","","instructions",19,243370,"0.0-19.0","wk3q06bh9fxdpckrrq8e2y6hlm5vtvya","Mon Apr 17 2017 10:11:22 GMT-0400 (Eastern Daylight Time)","female","White","slightly liberal","",NA,"[{""page_index"":0,""viewing_time"":1475}]","break","","","","","","","","","","",""
"21",25849,"{""Q0"":50}","[object Object]","survey-likert",20,269431,"0.0-20.0","wk3q06bh9fxdpckrrq8e2y6hlm5vtvya","Mon Apr 17 2017 10:11:22 GMT-0400 (Eastern Daylight Time)","female","White","slightly liberal","",NA,"","offCivRatings","the officer shot the civilian in the chest with a handgun","the civilian kicked the officer in the stomach","handgunChest","kickStom","officerCivilian","appropriateCiv","50","","","",""
"22",4462,"{""Q0"":100}","[object Object]","survey-likert",21,273901,"0.0-21.0","wk3q06bh9fxdpckrrq8e2y6hlm5vtvya","Mon Apr 17 2017 10:11:22 GMT-0400 (Eastern Daylight Time)","female","White","slightly liberal","",NA,"","offCivRatings","the officer shot the civilian in the chest with a handgun","the civilian kicked the officer in the stomach","handgunChest","kickStom","officerCivilian","manipCheckHigh","100","","","",""
"23",5412,"{""Q0"":63}","[object Object]","survey-likert",22,279317,"0.0-22.0","wk3q06bh9fxdpckrrq8e2y6hlm5vtvya","Mon Apr 17 2017 10:11:22 GMT-0400 (Eastern Daylight Time)","female","White","slightly liberal","",NA,"","offCivRatings","the officer shot the civilian in the chest with a handgun","the civilian kicked the officer in the stomach","handgunChest","kickStom","officerCivilian","acceptableCiv","63","","","",""
"24",7410,"{""Q0"":1}","[object Object]","survey-likert",23,286732,"0.0-23.0","wk3q06bh9fxdpckrrq8e2y6hlm5vtvya","Mon Apr 17 2017 10:11:22 GMT-0400 (Eastern Daylight Time)","female","White","slightly liberal","",NA,"","offCivRatings","the officer shot the civilian in the chest with a handgun","the civilian kicked the officer in the stomach","handgunChest","kickStom","officerCivilian","punishCiv","1","","","",""
"25",5740,"{""Q0"":38}","[object Object]","survey-likert",24,292478,"0.0-24.0","wk3q06bh9fxdpckrrq8e2y6hlm5vtvya","Mon Apr 17 2017 10:11:22 GMT-0400 (Eastern Daylight Time)","female","White","slightly liberal","",NA,"","offCivRatings","the officer shot the civilian in the chest with a handgun","the civilian kicked the officer in the stomach","handgunChest","kickStom","officerCivilian","forceCiv","38","","","",""
"26",1086,"","","instructions",25,293564,"0.0-25.0","wk3q06bh9fxdpckrrq8e2y6hlm5vtvya","Mon Apr 17 2017 10:11:22 GMT-0400 (Eastern Daylight Time)","female","White","slightly liberal","",NA,"[{""page_index"":0,""viewing_time"":1086}]","break","","","","","","","","","","",""
"27",16831,"{""Q0"":41}","[object Object]","survey-likert",26,310600,"0.0-26.0","wk3q06bh9fxdpckrrq8e2y6hlm5vtvya","Mon Apr 17 2017 10:11:22 GMT-0400 (Eastern Daylight Time)","female","White","slightly liberal","",NA,"","offCivRatings","the officer struck the civilian on the leg with a collapsible baton","the civilian yelled ""get back!"" at the officer","batonLeg","getBack","civilianOfficer","punishOff","41","","","",""
"28",4069,"{""Q0"":58}","[object Object]","survey-likert",27,314674,"0.0-27.0","wk3q06bh9fxdpckrrq8e2y6hlm5vtvya","Mon Apr 17 2017 10:11:22 GMT-0400 (Eastern Daylight Time)","female","White","slightly liberal","",NA,"","offCivRatings","the officer struck the civilian on the leg with a collapsible baton","the civilian yelled ""get back!"" at the officer","batonLeg","getBack","civilianOfficer","acceptableOff","58","","","",""
"29",9453,"{""Q0"":60}","[object Object]","survey-likert",28,324132,"0.0-28.0","wk3q06bh9fxdpckrrq8e2y6hlm5vtvya","Mon Apr 17 2017 10:11:22 GMT-0400 (Eastern Daylight Time)","female","White","slightly liberal","",NA,"","offCivRatings","the officer struck the civilian on the leg with a collapsible baton","the civilian yelled ""get back!"" at the officer","batonLeg","getBack","civilianOfficer","appropriateOff","60","","","",""
"30",5653,"{""Q0"":60}","[object Object]","survey-likert",29,329790,"0.0-29.0","wk3q06bh9fxdpckrrq8e2y6hlm5vtvya","Mon Apr 17 2017 10:11:22 GMT-0400 (Eastern Daylight Time)","female","White","slightly liberal","",NA,"","offCivRatings","the officer struck the civilian on the leg with a collapsible baton","the civilian yelled ""get back!"" at the officer","batonLeg","getBack","civilianOfficer","forceOff","60","","","",""
"31",1046,"","","instructions",30,330836,"0.0-30.0","wk3q06bh9fxdpckrrq8e2y6hlm5vtvya","Mon Apr 17 2017 10:11:22 GMT-0400 (Eastern Daylight Time)","female","White","slightly liberal","",NA,"[{""page_index"":0,""viewing_time"":1046}]","break","","","","","","","","","","",""
"32",18645,"{""Q0"":50}","[object Object]","survey-likert",31,349691,"0.0-31.0","wk3q06bh9fxdpckrrq8e2y6hlm5vtvya","Mon Apr 17 2017 10:11:22 GMT-0400 (Eastern Daylight Time)","female","White","slightly liberal","",NA,"","offCivRatings","the officer punched the civilian in the face","the civilian headbutted the officer in the face","punchFace","headbutt","officerCivilian","acceptableCiv","50","","","",""
"33",7895,"{""Q0"":60}","[object Object]","survey-likert",32,357591,"0.0-32.0","wk3q06bh9fxdpckrrq8e2y6hlm5vtvya","Mon Apr 17 2017 10:11:22 GMT-0400 (Eastern Daylight Time)","female","White","slightly liberal","",NA,"","offCivRatings","the officer punched the civilian in the face","the civilian headbutted the officer in the face","punchFace","headbutt","officerCivilian","punishCiv","60","","","",""
"34",5955,"{""Q0"":63}","[object Object]","survey-likert",33,363550,"0.0-33.0","wk3q06bh9fxdpckrrq8e2y6hlm5vtvya","Mon Apr 17 2017 10:11:22 GMT-0400 (Eastern Daylight Time)","female","White","slightly liberal","",NA,"","offCivRatings","the officer punched the civilian in the face","the civilian headbutted the officer in the face","punchFace","headbutt","officerCivilian","appropriateCiv","63","","","",""
"35",5981,"{""Q0"":62}","[object Object]","survey-likert",34,369536,"0.0-34.0","wk3q06bh9fxdpckrrq8e2y6hlm5vtvya","Mon Apr 17 2017 10:11:22 GMT-0400 (Eastern Daylight Time)","female","White","slightly liberal","",NA,"","offCivRatings","the officer punched the civilian in the face","the civilian headbutted the officer in the face","punchFace","headbutt","officerCivilian","forceCiv","62","","","",""
"36",973,"","","instructions",35,370509,"0.0-35.0","wk3q06bh9fxdpckrrq8e2y6hlm5vtvya","Mon Apr 17 2017 10:11:22 GMT-0400 (Eastern Daylight Time)","female","White","slightly liberal","",NA,"[{""page_index"":0,""viewing_time"":972}]","break","","","","","","","","","","",""
"37",18613,"{""Q0"":60}","[object Object]","survey-likert",36,389337,"0.0-36.0","wk3q06bh9fxdpckrrq8e2y6hlm5vtvya","Mon Apr 17 2017 10:11:22 GMT-0400 (Eastern Daylight Time)","female","White","slightly liberal","",NA,"","offCivRatings","the officer shot the civilian in the chest with a beanbag shotgun round","the civilian slammed the officer's head into the concrete curb","beanbag","headSlam","civilianOfficer","forceOff","60","","","",""
"38",4620,"{""Q0"":33}","[object Object]","survey-likert",37,393961,"0.0-37.0","wk3q06bh9fxdpckrrq8e2y6hlm5vtvya","Mon Apr 17 2017 10:11:22 GMT-0400 (Eastern Daylight Time)","female","White","slightly liberal","",NA,"","offCivRatings","the officer shot the civilian in the chest with a beanbag shotgun round","the civilian slammed the officer's head into the concrete curb","beanbag","headSlam","civilianOfficer","punishOff","33","","","",""
"39",3303,"{""Q0"":64}","[object Object]","survey-likert",38,397269,"0.0-38.0","wk3q06bh9fxdpckrrq8e2y6hlm5vtvya","Mon Apr 17 2017 10:11:22 GMT-0400 (Eastern Daylight Time)","female","White","slightly liberal","",NA,"","offCivRatings","the officer shot the civilian in the chest with a beanbag shotgun round","the civilian slammed the officer's head into the concrete curb","beanbag","headSlam","civilianOfficer","acceptableOff","64","","","",""
"40",3787,"{""Q0"":2}","[object Object]","survey-likert",39,401061,"0.0-39.0","wk3q06bh9fxdpckrrq8e2y6hlm5vtvya","Mon Apr 17 2017 10:11:22 GMT-0400 (Eastern Daylight Time)","female","White","slightly liberal","",NA,"","offCivRatings","the officer shot the civilian in the chest with a beanbag shotgun round","the civilian slammed the officer's head into the concrete curb","beanbag","headSlam","civilianOfficer","manipCheckLow","2","","","",""
"41",6443,"{""Q0"":66}","[object Object]","survey-likert",40,407511,"0.0-40.0","wk3q06bh9fxdpckrrq8e2y6hlm5vtvya","Mon Apr 17 2017 10:11:22 GMT-0400 (Eastern Daylight Time)","female","White","slightly liberal","",NA,"","offCivRatings","the officer shot the civilian in the chest with a beanbag shotgun round","the civilian slammed the officer's head into the concrete curb","beanbag","headSlam","civilianOfficer","appropriateOff","66","","","",""
"42",1059,"","","instructions",41,408570,"0.0-41.0","wk3q06bh9fxdpckrrq8e2y6hlm5vtvya","Mon Apr 17 2017 10:11:22 GMT-0400 (Eastern Daylight Time)","female","White","slightly liberal","",NA,"[{""page_index"":0,""viewing_time"":1059}]","break","","","","","","","","","","",""
"43",13592,"{""Q0"":71}","[object Object]","survey-likert",42,422375,"0.0-42.0","wk3q06bh9fxdpckrrq8e2y6hlm5vtvya","Mon Apr 17 2017 10:11:22 GMT-0400 (Eastern Daylight Time)","female","White","slightly liberal","",NA,"","offCivRatings","the officer called the civilian a ""thug""","the civilian said ""if you touch me, you're gonna get hurt"" to the officer","nameCall","hurtThreat","officerCivilian","punishCiv","71","","","",""
"44",7136,"{""Q0"":61}","[object Object]","survey-likert",43,429517,"0.0-43.0","wk3q06bh9fxdpckrrq8e2y6hlm5vtvya","Mon Apr 17 2017 10:11:22 GMT-0400 (Eastern Daylight Time)","female","White","slightly liberal","",NA,"","offCivRatings","the officer called the civilian a ""thug""","the civilian said ""if you touch me, you're gonna get hurt"" to the officer","nameCall","hurtThreat","officerCivilian","appropriateCiv","61","","","",""
"45",4103,"{""Q0"":1}","[object Object]","survey-likert",44,433626,"0.0-44.0","wk3q06bh9fxdpckrrq8e2y6hlm5vtvya","Mon Apr 17 2017 10:11:22 GMT-0400 (Eastern Daylight Time)","female","White","slightly liberal","",NA,"","offCivRatings","the officer called the civilian a ""thug""","the civilian said ""if you touch me, you're gonna get hurt"" to the officer","nameCall","hurtThreat","officerCivilian","manipCheckLow","1","","","",""
"46",5919,"{""Q0"":67}","[object Object]","survey-likert",45,439551,"0.0-45.0","wk3q06bh9fxdpckrrq8e2y6hlm5vtvya","Mon Apr 17 2017 10:11:22 GMT-0400 (Eastern Daylight Time)","female","White","slightly liberal","",NA,"","offCivRatings","the officer called the civilian a ""thug""","the civilian said ""if you touch me, you're gonna get hurt"" to the officer","nameCall","hurtThreat","officerCivilian","forceCiv","67","","","",""
"47",7371,"{""Q0"":28}","[object Object]","survey-likert",46,446927,"0.0-46.0","wk3q06bh9fxdpckrrq8e2y6hlm5vtvya","Mon Apr 17 2017 10:11:22 GMT-0400 (Eastern Daylight Time)","female","White","slightly liberal","",NA,"","offCivRatings","the officer called the civilian a ""thug""","the civilian said ""if you touch me, you're gonna get hurt"" to the officer","nameCall","hurtThreat","officerCivilian","acceptableCiv","28","","","",""
"48",1368,"","","instructions",47,448295,"0.0-47.0","wk3q06bh9fxdpckrrq8e2y6hlm5vtvya","Mon Apr 17 2017 10:11:22 GMT-0400 (Eastern Daylight Time)","female","White","slightly liberal","",NA,"[{""page_index"":0,""viewing_time"":1368}]","break","","","","","","","","","","",""
"49",9350,"{""Q0"":38}","[object Object]","survey-likert",48,457853,"0.0-48.0","wk3q06bh9fxdpckrrq8e2y6hlm5vtvya","Mon Apr 17 2017 10:11:22 GMT-0400 (Eastern Daylight Time)","female","White","slightly liberal","",NA,"","offCivRatings","the officer kicked the civilian in the stomach","the civilian applied a chokehold to the officer","kickStom","choke","civilianOfficer","forceOff","38","","","",""
"50",3184,"{""Q0"":100}","[object Object]","survey-likert",49,461041,"0.0-49.0","wk3q06bh9fxdpckrrq8e2y6hlm5vtvya","Mon Apr 17 2017 10:11:22 GMT-0400 (Eastern Daylight Time)","female","White","slightly liberal","",NA,"","offCivRatings","the officer kicked the civilian in the stomach","the civilian applied a chokehold to the officer","kickStom","choke","civilianOfficer","manipCheckHigh","100","","","",""
"51",147419,"{""Q0"":82}","[object Object]","survey-likert",50,608464,"0.0-50.0","wk3q06bh9fxdpckrrq8e2y6hlm5vtvya","Mon Apr 17 2017 10:11:22 GMT-0400 (Eastern Daylight Time)","female","White","slightly liberal","",NA,"","offCivRatings","the officer kicked the civilian in the stomach","the civilian applied a chokehold to the officer","kickStom","choke","civilianOfficer","appropriateOff","82","","","",""
"52",3861,"{""Q0"":69}","[object Object]","survey-likert",51,612331,"0.0-51.0","wk3q06bh9fxdpckrrq8e2y6hlm5vtvya","Mon Apr 17 2017 10:11:22 GMT-0400 (Eastern Daylight Time)","female","White","slightly liberal","",NA,"","offCivRatings","the officer kicked the civilian in the stomach","the civilian applied a chokehold to the officer","kickStom","choke","civilianOfficer","acceptableOff","69","","","",""
"53",5213,"{""Q0"":38}","[object Object]","survey-likert",52,617548,"0.0-52.0","wk3q06bh9fxdpckrrq8e2y6hlm5vtvya","Mon Apr 17 2017 10:11:22 GMT-0400 (Eastern Daylight Time)","female","White","slightly liberal","",NA,"","offCivRatings","the officer kicked the civilian in the stomach","the civilian applied a chokehold to the officer","kickStom","choke","civilianOfficer","punishOff","38","","","",""
"54",965,"","","instructions",53,618513,"0.0-53.0","wk3q06bh9fxdpckrrq8e2y6hlm5vtvya","Mon Apr 17 2017 10:11:22 GMT-0400 (Eastern Daylight Time)","female","White","slightly liberal","",NA,"[{""page_index"":0,""viewing_time"":964}]","break","","","","","","","","","","",""
"55",7988,"{""Q0"":98}","[object Object]","survey-likert",54,626709,"0.0-54.0","wk3q06bh9fxdpckrrq8e2y6hlm5vtvya","Mon Apr 17 2017 10:11:22 GMT-0400 (Eastern Daylight Time)","female","White","slightly liberal","",NA,"","offCivRatings","the officer waved at the civilian in greeting","the civilian purposefully struck the officer with a motor vehicle","waved","vehicle","officerCivilian","punishCiv","98","","","",""
"56",3399,"{""Q0"":30}","[object Object]","survey-likert",55,630113,"0.0-55.0","wk3q06bh9fxdpckrrq8e2y6hlm5vtvya","Mon Apr 17 2017 10:11:22 GMT-0400 (Eastern Daylight Time)","female","White","slightly liberal","",NA,"","offCivRatings","the officer waved at the civilian in greeting","the civilian purposefully struck the officer with a motor vehicle","waved","vehicle","officerCivilian","acceptableCiv","30","","","",""
"57",3667,"{""Q0"":98}","[object Object]","survey-likert",56,633785,"0.0-56.0","wk3q06bh9fxdpckrrq8e2y6hlm5vtvya","Mon Apr 17 2017 10:11:22 GMT-0400 (Eastern Daylight Time)","female","White","slightly liberal","",NA,"","offCivRatings","the officer waved at the civilian in greeting","the civilian purposefully struck the officer with a motor vehicle","waved","vehicle","officerCivilian","forceCiv","98","","","",""
"58",10515,"{""Q0"":94}","[object Object]","survey-likert",57,644304,"0.0-57.0","wk3q06bh9fxdpckrrq8e2y6hlm5vtvya","Mon Apr 17 2017 10:11:22 GMT-0400 (Eastern Daylight Time)","female","White","slightly liberal","",NA,"","offCivRatings","the officer waved at the civilian in greeting","the civilian purposefully struck the officer with a motor vehicle","waved","vehicle","officerCivilian","appropriateCiv","94","","","",""
"59",1537,"","","instructions",58,645841,"0.0-58.0","wk3q06bh9fxdpckrrq8e2y6hlm5vtvya","Mon Apr 17 2017 10:11:22 GMT-0400 (Eastern Daylight Time)","female","White","slightly liberal","",NA,"[{""page_index"":0,""viewing_time"":1536}]","break","","","","","","","","","","",""
"60",6989,"{""Q0"":39}","[object Object]","survey-likert",59,653037,"0.0-59.0","wk3q06bh9fxdpckrrq8e2y6hlm5vtvya","Mon Apr 17 2017 10:11:22 GMT-0400 (Eastern Daylight Time)","female","White","slightly liberal","",NA,"","offCivRatings","the officer sprayed the civilian with pepper spray","the civilian called the officer a ""pig""","pepperSpray","nameCall","officerCivilian","forceCiv","39","","","",""
"61",11090,"{""Q0"":50}","[object Object]","survey-likert",60,664133,"0.0-60.0","wk3q06bh9fxdpckrrq8e2y6hlm5vtvya","Mon Apr 17 2017 10:11:22 GMT-0400 (Eastern Daylight Time)","female","White","slightly liberal","",NA,"","offCivRatings","the officer sprayed the civilian with pepper spray","the civilian called the officer a ""pig""","pepperSpray","nameCall","officerCivilian","appropriateCiv","50","","","",""
"62",58885,"{""Q0"":79}","[object Object]","survey-likert",61,723023,"0.0-61.0","wk3q06bh9fxdpckrrq8e2y6hlm5vtvya","Mon Apr 17 2017 10:11:22 GMT-0400 (Eastern Daylight Time)","female","White","slightly liberal","",NA,"","offCivRatings","the officer sprayed the civilian with pepper spray","the civilian called the officer a ""pig""","pepperSpray","nameCall","officerCivilian","acceptableCiv","79","","","",""
"63",28220,"{""Q0"":5}","[object Object]","survey-likert",62,751248,"0.0-62.0","wk3q06bh9fxdpckrrq8e2y6hlm5vtvya","Mon Apr 17 2017 10:11:22 GMT-0400 (Eastern Daylight Time)","female","White","slightly liberal","",NA,"","offCivRatings","the officer sprayed the civilian with pepper spray","the civilian called the officer a ""pig""","pepperSpray","nameCall","officerCivilian","punishCiv","5","","","",""
"64",1039,"","","instructions",63,752287,"0.0-63.0","wk3q06bh9fxdpckrrq8e2y6hlm5vtvya","Mon Apr 17 2017 10:11:22 GMT-0400 (Eastern Daylight Time)","female","White","slightly liberal","",NA,"[{""page_index"":0,""viewing_time"":1039}]","break","","","","","","","","","","",""
"65",11527,"{""Q0"":50}","[object Object]","survey-likert",64,764021,"0.0-64.0","wk3q06bh9fxdpckrrq8e2y6hlm5vtvya","Mon Apr 17 2017 10:11:22 GMT-0400 (Eastern Daylight Time)","female","White","slightly liberal","",NA,"","offCivRatings","the officer stood near the civilian","the civilian struck the officer on the leg with a metal pipe","stoodNear","metalPipe","civilianOfficer","appropriateOff","50","","","",""
"66",5419,"{""Q0"":92}","[object Object]","survey-likert",65,769445,"0.0-65.0","wk3q06bh9fxdpckrrq8e2y6hlm5vtvya","Mon Apr 17 2017 10:11:22 GMT-0400 (Eastern Daylight Time)","female","White","slightly liberal","",NA,"","offCivRatings","the officer stood near the civilian","the civilian struck the officer on the leg with a metal pipe","stoodNear","metalPipe","civilianOfficer","acceptableOff","92","","","",""
"67",2640,"{""Q0"":16}","[object Object]","survey-likert",66,772089,"0.0-66.0","wk3q06bh9fxdpckrrq8e2y6hlm5vtvya","Mon Apr 17 2017 10:11:22 GMT-0400 (Eastern Daylight Time)","female","White","slightly liberal","",NA,"","offCivRatings","the officer stood near the civilian","the civilian struck the officer on the leg with a metal pipe","stoodNear","metalPipe","civilianOfficer","punishOff","16","","","",""
"68",3901,"{""Q0"":2}","[object Object]","survey-likert",67,775995,"0.0-67.0","wk3q06bh9fxdpckrrq8e2y6hlm5vtvya","Mon Apr 17 2017 10:11:22 GMT-0400 (Eastern Daylight Time)","female","White","slightly liberal","",NA,"","offCivRatings","the officer stood near the civilian","the civilian struck the officer on the leg with a metal pipe","stoodNear","metalPipe","civilianOfficer","forceOff","2","","","",""
"69",3157,"{""Q0"":100}","[object Object]","survey-likert",68,779157,"0.0-68.0","wk3q06bh9fxdpckrrq8e2y6hlm5vtvya","Mon Apr 17 2017 10:11:22 GMT-0400 (Eastern Daylight Time)","female","White","slightly liberal","",NA,"","offCivRatings","the officer stood near the civilian","the civilian struck the officer on the leg with a metal pipe","stoodNear","metalPipe","civilianOfficer","manipCheckHigh","100","","","",""
"70",1287,"","","instructions",69,780444,"0.0-69.0","wk3q06bh9fxdpckrrq8e2y6hlm5vtvya","Mon Apr 17 2017 10:11:22 GMT-0400 (Eastern Daylight Time)","female","White","slightly liberal","",NA,"[{""page_index"":0,""viewing_time"":1287}]","break","","","","","","","","","","",""
"71",11076,"{""Q0"":32}","[object Object]","survey-likert",70,791736,"0.0-70.0","wk3q06bh9fxdpckrrq8e2y6hlm5vtvya","Mon Apr 17 2017 10:11:22 GMT-0400 (Eastern Daylight Time)","female","White","slightly liberal","",NA,"","offCivRatings","the officer yelled ""get back!"" at the civilian","the civilian shot the officer in the chest with a handgun","getBack","handgunChest","civilianOfficer","appropriateOff","32","","","",""
"72",3640,"{""Q0"":92}","[object Object]","survey-likert",71,795380,"0.0-71.0","wk3q06bh9fxdpckrrq8e2y6hlm5vtvya","Mon Apr 17 2017 10:11:22 GMT-0400 (Eastern Daylight Time)","female","White","slightly liberal","",NA,"","offCivRatings","the officer yelled ""get back!"" at the civilian","the civilian shot the officer in the chest with a handgun","getBack","handgunChest","civilianOfficer","acceptableOff","92","","","",""
"73",2653,"{""Q0"":7}","[object Object]","survey-likert",72,798038,"0.0-72.0","wk3q06bh9fxdpckrrq8e2y6hlm5vtvya","Mon Apr 17 2017 10:11:22 GMT-0400 (Eastern Daylight Time)","female","White","slightly liberal","",NA,"","offCivRatings","the officer yelled ""get back!"" at the civilian","the civilian shot the officer in the chest with a handgun","getBack","handgunChest","civilianOfficer","punishOff","7","","","",""
"74",5184,"{""Q0"":16}","[object Object]","survey-likert",73,803227,"0.0-73.0","wk3q06bh9fxdpckrrq8e2y6hlm5vtvya","Mon Apr 17 2017 10:11:22 GMT-0400 (Eastern Daylight Time)","female","White","slightly liberal","",NA,"","offCivRatings","the officer yelled ""get back!"" at the civilian","the civilian shot the officer in the chest with a handgun","getBack","handgunChest","civilianOfficer","forceOff","16","","","",""
"75",1218,"","","instructions",74,804446,"0.0-74.0","wk3q06bh9fxdpckrrq8e2y6hlm5vtvya","Mon Apr 17 2017 10:11:22 GMT-0400 (Eastern Daylight Time)","female","White","slightly liberal","",NA,"[{""page_index"":0,""viewing_time"":1218}]","break","","","","","","","","","","",""
"76",7288,"{""Q0"":11}","[object Object]","survey-likert",75,811946,"0.0-75.0","wk3q06bh9fxdpckrrq8e2y6hlm5vtvya","Mon Apr 17 2017 10:11:22 GMT-0400 (Eastern Daylight Time)","female","White","slightly liberal","",NA,"","offCivRatings","the officer put handcuffs on the civilian","the civilian pulled away from the officer","handcuff","pulledAway","officerCivilian","punishCiv","11","","","",""
"77",4069,"{""Q0"":30}","[object Object]","survey-likert",76,816020,"0.0-76.0","wk3q06bh9fxdpckrrq8e2y6hlm5vtvya","Mon Apr 17 2017 10:11:22 GMT-0400 (Eastern Daylight Time)","female","White","slightly liberal","",NA,"","offCivRatings","the officer put handcuffs on the civilian","the civilian pulled away from the officer","handcuff","pulledAway","officerCivilian","forceCiv","30","","","",""
"78",7578,"{""Q0"":38}","[object Object]","survey-likert",77,823604,"0.0-77.0","wk3q06bh9fxdpckrrq8e2y6hlm5vtvya","Mon Apr 17 2017 10:11:22 GMT-0400 (Eastern Daylight Time)","female","White","slightly liberal","",NA,"","offCivRatings","the officer put handcuffs on the civilian","the civilian pulled away from the officer","handcuff","pulledAway","officerCivilian","acceptableCiv","38","","","",""
"79",3842,"{""Q0"":1}","[object Object]","survey-likert",78,827450,"0.0-78.0","wk3q06bh9fxdpckrrq8e2y6hlm5vtvya","Mon Apr 17 2017 10:11:22 GMT-0400 (Eastern Daylight Time)","female","White","slightly liberal","",NA,"","offCivRatings","the officer put handcuffs on the civilian","the civilian pulled away from the officer","handcuff","pulledAway","officerCivilian","manipCheckLow","1","","","",""
"80",17694,"{""Q0"":61}","[object Object]","survey-likert",79,845148,"0.0-79.0","wk3q06bh9fxdpckrrq8e2y6hlm5vtvya","Mon Apr 17 2017 10:11:22 GMT-0400 (Eastern Daylight Time)","female","White","slightly liberal","",NA,"","offCivRatings","the officer put handcuffs on the civilian","the civilian pulled away from the officer","handcuff","pulledAway","officerCivilian","appropriateCiv","61","","","",""
"81",1354,"","","instructions",80,846502,"0.0-80.0","wk3q06bh9fxdpckrrq8e2y6hlm5vtvya","Mon Apr 17 2017 10:11:22 GMT-0400 (Eastern Daylight Time)","female","White","slightly liberal","",NA,"[{""page_index"":0,""viewing_time"":1354}]","break","","","","","","","","","","",""
"82",13048,"{""Q0"":20}","[object Object]","survey-likert",81,859760,"0.0-81.0","wk3q06bh9fxdpckrrq8e2y6hlm5vtvya","Mon Apr 17 2017 10:11:22 GMT-0400 (Eastern Daylight Time)","female","White","slightly liberal","",NA,"","offCivRatings","the officer purposefully struck the civilian with a motor vehicle","the civilian sprayed the officer with pepper spray","vehicle","pepperSpray","officerCivilian","punishCiv","20","","","",""
"83",3049,"{""Q0"":67}","[object Object]","survey-likert",82,862813,"0.0-82.0","wk3q06bh9fxdpckrrq8e2y6hlm5vtvya","Mon Apr 17 2017 10:11:22 GMT-0400 (Eastern Daylight Time)","female","White","slightly liberal","",NA,"","offCivRatings","the officer purposefully struck the civilian with a motor vehicle","the civilian sprayed the officer with pepper spray","vehicle","pepperSpray","officerCivilian","acceptableCiv","67","","","",""
"84",4807,"{""Q0"":60}","[object Object]","survey-likert",83,867625,"0.0-83.0","wk3q06bh9fxdpckrrq8e2y6hlm5vtvya","Mon Apr 17 2017 10:11:22 GMT-0400 (Eastern Daylight Time)","female","White","slightly liberal","",NA,"","offCivRatings","the officer purposefully struck the civilian with a motor vehicle","the civilian sprayed the officer with pepper spray","vehicle","pepperSpray","officerCivilian","forceCiv","60","","","",""
"85",4732,"{""Q0"":51}","[object Object]","survey-likert",84,872363,"0.0-84.0","wk3q06bh9fxdpckrrq8e2y6hlm5vtvya","Mon Apr 17 2017 10:11:22 GMT-0400 (Eastern Daylight Time)","female","White","slightly liberal","",NA,"","offCivRatings","the officer purposefully struck the civilian with a motor vehicle","the civilian sprayed the officer with pepper spray","vehicle","pepperSpray","officerCivilian","appropriateCiv","51","","","",""
"86",4747,"{""Q0"":100}","[object Object]","survey-likert",85,877115,"0.0-85.0","wk3q06bh9fxdpckrrq8e2y6hlm5vtvya","Mon Apr 17 2017 10:11:22 GMT-0400 (Eastern Daylight Time)","female","White","slightly liberal","",NA,"","offCivRatings","the officer purposefully struck the civilian with a motor vehicle","the civilian sprayed the officer with pepper spray","vehicle","pepperSpray","officerCivilian","manipCheckHigh","100","","","",""
"87",1240,"","","instructions",86,878355,"0.0-86.0","wk3q06bh9fxdpckrrq8e2y6hlm5vtvya","Mon Apr 17 2017 10:11:22 GMT-0400 (Eastern Daylight Time)","female","White","slightly liberal","",NA,"[{""page_index"":0,""viewing_time"":1240}]","break","","","","","","","","","","",""
"88",10824,"{""Q0"":3}","[object Object]","survey-likert",87,889391,"0.0-87.0","wk3q06bh9fxdpckrrq8e2y6hlm5vtvya","Mon Apr 17 2017 10:11:22 GMT-0400 (Eastern Daylight Time)","female","White","slightly liberal","",NA,"","offCivRatings","the officer said ""if you touch me, you're gonna get hurt"" to the civilian","the civilian hit the officer in the chest with a baseball bat","hurtThreat","ballBat","civilianOfficer","punishOff","3","","","",""
"89",5821,"{""Q0"":59}","[object Object]","survey-likert",88,895216,"0.0-88.0","wk3q06bh9fxdpckrrq8e2y6hlm5vtvya","Mon Apr 17 2017 10:11:22 GMT-0400 (Eastern Daylight Time)","female","White","slightly liberal","",NA,"","offCivRatings","the officer said ""if you touch me, you're gonna get hurt"" to the civilian","the civilian hit the officer in the chest with a baseball bat","hurtThreat","ballBat","civilianOfficer","forceOff","59","","","",""
"90",11177,"{""Q0"":95}","[object Object]","survey-likert",89,906398,"0.0-89.0","wk3q06bh9fxdpckrrq8e2y6hlm5vtvya","Mon Apr 17 2017 10:11:22 GMT-0400 (Eastern Daylight Time)","female","White","slightly liberal","",NA,"","offCivRatings","the officer said ""if you touch me, you're gonna get hurt"" to the civilian","the civilian hit the officer in the chest with a baseball bat","hurtThreat","ballBat","civilianOfficer","acceptableOff","95","","","",""
"91",12323,"{""Q0"":51}","[object Object]","survey-likert",90,918725,"0.0-90.0","wk3q06bh9fxdpckrrq8e2y6hlm5vtvya","Mon Apr 17 2017 10:11:22 GMT-0400 (Eastern Daylight Time)","female","White","slightly liberal","",NA,"","offCivRatings","the officer said ""if you touch me, you're gonna get hurt"" to the civilian","the civilian hit the officer in the chest with a baseball bat","hurtThreat","ballBat","civilianOfficer","appropriateOff","51","","","",""
"92",1857,"","","instructions",91,920582,"0.0-91.0","wk3q06bh9fxdpckrrq8e2y6hlm5vtvya","Mon Apr 17 2017 10:11:22 GMT-0400 (Eastern Daylight Time)","female","White","slightly liberal","",NA,"[{""page_index"":0,""viewing_time"":1857}]","break","","","","","","","","","","",""
"93",7674,"{""Q0"":100}","[object Object]","survey-likert",92,928469,"0.0-92.0","wk3q06bh9fxdpckrrq8e2y6hlm5vtvya","Mon Apr 17 2017 10:11:22 GMT-0400 (Eastern Daylight Time)","female","White","slightly liberal","",NA,"","offCivRatings","the officer slammed the civilian's head into the concrete curb","the civilian waved at the officer in greeting","headSlam","waved","civilianOfficer","manipCheckHigh","100","","","",""
"94",4196,"{""Q0"":100}","[object Object]","survey-likert",93,932670,"0.0-93.0","wk3q06bh9fxdpckrrq8e2y6hlm5vtvya","Mon Apr 17 2017 10:11:22 GMT-0400 (Eastern Daylight Time)","female","White","slightly liberal","",NA,"","offCivRatings","the officer slammed the civilian's head into the concrete curb","the civilian waved at the officer in greeting","headSlam","waved","civilianOfficer","forceOff","100","","","",""
"95",4544,"{""Q0"":100}","[object Object]","survey-likert",94,937219,"0.0-94.0","wk3q06bh9fxdpckrrq8e2y6hlm5vtvya","Mon Apr 17 2017 10:11:22 GMT-0400 (Eastern Daylight Time)","female","White","slightly liberal","",NA,"","offCivRatings","the officer slammed the civilian's head into the concrete curb","the civilian waved at the officer in greeting","headSlam","waved","civilianOfficer","punishOff","100","","","",""
"96",4148,"{""Q0"":100}","[object Object]","survey-likert",95,941372,"0.0-95.0","wk3q06bh9fxdpckrrq8e2y6hlm5vtvya","Mon Apr 17 2017 10:11:22 GMT-0400 (Eastern Daylight Time)","female","White","slightly liberal","",NA,"","offCivRatings","the officer slammed the civilian's head into the concrete curb","the civilian waved at the officer in greeting","headSlam","waved","civilianOfficer","appropriateOff","100","","","",""
"97",4947,"{""Q0"":1}","[object Object]","survey-likert",96,946324,"0.0-96.0","wk3q06bh9fxdpckrrq8e2y6hlm5vtvya","Mon Apr 17 2017 10:11:22 GMT-0400 (Eastern Daylight Time)","female","White","slightly liberal","",NA,"","offCivRatings","the officer slammed the civilian's head into the concrete curb","the civilian waved at the officer in greeting","headSlam","waved","civilianOfficer","acceptableOff","1","","","",""
"98",1126,"","","instructions",97,947451,"0.0-97.0","wk3q06bh9fxdpckrrq8e2y6hlm5vtvya","Mon Apr 17 2017 10:11:22 GMT-0400 (Eastern Daylight Time)","female","White","slightly liberal","",NA,"[{""page_index"":0,""viewing_time"":1126}]","break","","","","","","","","","","",""
"99",9344,"{""Q0"":50}","[object Object]","survey-likert",98,956999,"0.0-98.0","wk3q06bh9fxdpckrrq8e2y6hlm5vtvya","Mon Apr 17 2017 10:11:22 GMT-0400 (Eastern Daylight Time)","female","White","slightly liberal","",NA,"","offCivRatings","the officer shouted ""get your fucking hands up!"" at the civilian","the civilian punched the officer in the face","handsUp","punchFace","civilianOfficer","appropriateOff","50","","","",""
"100",6725,"{""Q0"":96}","[object Object]","survey-likert",99,963728,"0.0-99.0","wk3q06bh9fxdpckrrq8e2y6hlm5vtvya","Mon Apr 17 2017 10:11:22 GMT-0400 (Eastern Daylight Time)","female","White","slightly liberal","",NA,"","offCivRatings","the officer shouted ""get your fucking hands up!"" at the civilian","the civilian punched the officer in the face","handsUp","punchFace","civilianOfficer","acceptableOff","96","","","",""
"101",3605,"{""Q0"":63}","[object Object]","survey-likert",100,967338,"0.0-100.0","wk3q06bh9fxdpckrrq8e2y6hlm5vtvya","Mon Apr 17 2017 10:11:22 GMT-0400 (Eastern Daylight Time)","female","White","slightly liberal","",NA,"","offCivRatings","the officer shouted ""get your fucking hands up!"" at the civilian","the civilian punched the officer in the face","handsUp","punchFace","civilianOfficer","forceOff","63","","","",""
"102",5054,"{""Q0"":4}","[object Object]","survey-likert",101,972397,"0.0-101.0","wk3q06bh9fxdpckrrq8e2y6hlm5vtvya","Mon Apr 17 2017 10:11:22 GMT-0400 (Eastern Daylight Time)","female","White","slightly liberal","",NA,"","offCivRatings","the officer shouted ""get your fucking hands up!"" at the civilian","the civilian punched the officer in the face","handsUp","punchFace","civilianOfficer","punishOff","4","","","",""
"103",3491,"{""Q0"":100}","[object Object]","survey-likert",102,975891,"0.0-102.0","wk3q06bh9fxdpckrrq8e2y6hlm5vtvya","Mon Apr 17 2017 10:11:22 GMT-0400 (Eastern Daylight Time)","female","White","slightly liberal","",NA,"","offCivRatings","the officer shouted ""get your fucking hands up!"" at the civilian","the civilian punched the officer in the face","handsUp","punchFace","civilianOfficer","manipCheckHigh","100","","","",""
"104",1274,"","","instructions",103,977166,"0.0-103.0","wk3q06bh9fxdpckrrq8e2y6hlm5vtvya","Mon Apr 17 2017 10:11:22 GMT-0400 (Eastern Daylight Time)","female","White","slightly liberal","",NA,"[{""page_index"":0,""viewing_time"":1274}]","break","","","","","","","","","","",""
"105",9701,"{""Q0"":96}","[object Object]","survey-likert",104,987077,"0.0-104.0","wk3q06bh9fxdpckrrq8e2y6hlm5vtvya","Mon Apr 17 2017 10:11:22 GMT-0400 (Eastern Daylight Time)","female","White","slightly liberal","",NA,"","offCivRatings","the officer asked the civilian how he was doing","the civilian shocked the officer with a tazer","asked","tazer","officerCivilian","punishCiv","96","","","",""
"106",12033,"{""Q0"":100}","[object Object]","survey-likert",105,999115,"0.0-105.0","wk3q06bh9fxdpckrrq8e2y6hlm5vtvya","Mon Apr 17 2017 10:11:22 GMT-0400 (Eastern Daylight Time)","female","White","slightly liberal","",NA,"","offCivRatings","the officer asked the civilian how he was doing","the civilian shocked the officer with a tazer","asked","tazer","officerCivilian","appropriateCiv","100","","","",""
"107",3376,"{""Q0"":100}","[object Object]","survey-likert",106,1002496,"0.0-106.0","wk3q06bh9fxdpckrrq8e2y6hlm5vtvya","Mon Apr 17 2017 10:11:22 GMT-0400 (Eastern Daylight Time)","female","White","slightly liberal","",NA,"","offCivRatings","the officer asked the civilian how he was doing","the civilian shocked the officer with a tazer","asked","tazer","officerCivilian","forceCiv","100","","","",""
"108",4598,"{""Q0"":1}","[object Object]","survey-likert",107,1007099,"0.0-107.0","wk3q06bh9fxdpckrrq8e2y6hlm5vtvya","Mon Apr 17 2017 10:11:22 GMT-0400 (Eastern Daylight Time)","female","White","slightly liberal","",NA,"","offCivRatings","the officer asked the civilian how he was doing","the civilian shocked the officer with a tazer","asked","tazer","officerCivilian","acceptableCiv","1","","","",""
"109",984,"","","instructions",108,1008083,"0.0-108.0","wk3q06bh9fxdpckrrq8e2y6hlm5vtvya","Mon Apr 17 2017 10:11:22 GMT-0400 (Eastern Daylight Time)","female","White","slightly liberal","",NA,"[{""page_index"":0,""viewing_time"":984}]","break","","","","","","","","","","",""
"110",9337,"{""Q0"":1}","[object Object]","survey-likert",109,1017625,"0.0-109.0","wk3q06bh9fxdpckrrq8e2y6hlm5vtvya","Mon Apr 17 2017 10:11:22 GMT-0400 (Eastern Daylight Time)","female","White","slightly liberal","",NA,"","offCivRatings","the officer struck the civilian in the stomach with a metal flashlight","the civilian struck the officer in the stomach with a metal flashlight","flashlight","flashlight","civilianOfficer","punishOff","1","","","",""
"111",6577,"{""Q0"":68}","[object Object]","survey-likert",110,1024207,"0.0-110.0","wk3q06bh9fxdpckrrq8e2y6hlm5vtvya","Mon Apr 17 2017 10:11:22 GMT-0400 (Eastern Daylight Time)","female","White","slightly liberal","",NA,"","offCivRatings","the officer struck the civilian in the stomach with a metal flashlight","the civilian struck the officer in the stomach with a metal flashlight","flashlight","flashlight","civilianOfficer","appropriateOff","68","","","",""
"112",3866,"{""Q0"":61}","[object Object]","survey-likert",111,1028077,"0.0-111.0","wk3q06bh9fxdpckrrq8e2y6hlm5vtvya","Mon Apr 17 2017 10:11:22 GMT-0400 (Eastern Daylight Time)","female","White","slightly liberal","",NA,"","offCivRatings","the officer struck the civilian in the stomach with a metal flashlight","the civilian struck the officer in the stomach with a metal flashlight","flashlight","flashlight","civilianOfficer","forceOff","61","","","",""
"113",5429,"{""Q0"":40}","[object Object]","survey-likert",112,1033511,"0.0-112.0","wk3q06bh9fxdpckrrq8e2y6hlm5vtvya","Mon Apr 17 2017 10:11:22 GMT-0400 (Eastern Daylight Time)","female","White","slightly liberal","",NA,"","offCivRatings","the officer struck the civilian in the stomach with a metal flashlight","the civilian struck the officer in the stomach with a metal flashlight","flashlight","flashlight","civilianOfficer","acceptableOff","40","","","",""
"114",1146,"","","instructions",113,1034657,"0.0-113.0","wk3q06bh9fxdpckrrq8e2y6hlm5vtvya","Mon Apr 17 2017 10:11:22 GMT-0400 (Eastern Daylight Time)","female","White","slightly liberal","",NA,"[{""page_index"":0,""viewing_time"":1146}]","break","","","","","","","","","","",""
"115",10928,"{""Q0"":34}","[object Object]","survey-likert",114,1045794,"0.0-114.0","wk3q06bh9fxdpckrrq8e2y6hlm5vtvya","Mon Apr 17 2017 10:11:22 GMT-0400 (Eastern Daylight Time)","female","White","slightly liberal","",NA,"","offCivRatings","the officer shot the civilian in the head with a handgun","the civilian twisted the arm of the officer, forcing him to the ground","handgunHead","armbar","civilianOfficer","acceptableOff","34","","","",""
"116",3504,"{""Q0"":98}","[object Object]","survey-likert",115,1049303,"0.0-115.0","wk3q06bh9fxdpckrrq8e2y6hlm5vtvya","Mon Apr 17 2017 10:11:22 GMT-0400 (Eastern Daylight Time)","female","White","slightly liberal","",NA,"","offCivRatings","the officer shot the civilian in the head with a handgun","the civilian twisted the arm of the officer, forcing him to the ground","handgunHead","armbar","civilianOfficer","forceOff","98","","","",""
"117",10467,"{""Q0"":41}","[object Object]","survey-likert",116,1059775,"0.0-116.0","wk3q06bh9fxdpckrrq8e2y6hlm5vtvya","Mon Apr 17 2017 10:11:22 GMT-0400 (Eastern Daylight Time)","female","White","slightly liberal","",NA,"","offCivRatings","the officer shot the civilian in the head with a handgun","the civilian twisted the arm of the officer, forcing him to the ground","handgunHead","armbar","civilianOfficer","punishOff","41","","","",""
"118",4556,"{""Q0"":70}","[object Object]","survey-likert",117,1064336,"0.0-117.0","wk3q06bh9fxdpckrrq8e2y6hlm5vtvya","Mon Apr 17 2017 10:11:22 GMT-0400 (Eastern Daylight Time)","female","White","slightly liberal","",NA,"","offCivRatings","the officer shot the civilian in the head with a handgun","the civilian twisted the arm of the officer, forcing him to the ground","handgunHead","armbar","civilianOfficer","appropriateOff","70","","","",""
"119",1447,"","","instructions",118,1065785,"0.0-118.0","wk3q06bh9fxdpckrrq8e2y6hlm5vtvya","Mon Apr 17 2017 10:11:22 GMT-0400 (Eastern Daylight Time)","female","White","slightly liberal","",NA,"[{""page_index"":0,""viewing_time"":1447}]","break","","","","","","","","","","",""
"120",7776,"{""Q0"":1}","[object Object]","survey-likert",119,1073773,"0.0-119.0","wk3q06bh9fxdpckrrq8e2y6hlm5vtvya","Mon Apr 17 2017 10:11:22 GMT-0400 (Eastern Daylight Time)","female","White","slightly liberal","",NA,"","offCivRatings","the officer headbutted the civilian in the face","the civilian asked the officer how he was doing","headbutt","asked","officerCivilian","forceCiv","1","","","",""
"121",3423,"{""Q0"":100}","[object Object]","survey-likert",120,1077201,"0.0-120.0","wk3q06bh9fxdpckrrq8e2y6hlm5vtvya","Mon Apr 17 2017 10:11:22 GMT-0400 (Eastern Daylight Time)","female","White","slightly liberal","",NA,"","offCivRatings","the officer headbutted the civilian in the face","the civilian asked the officer how he was doing","headbutt","asked","officerCivilian","acceptableCiv","100","","","",""
"122",5319,"{""Q0"":1}","[object Object]","survey-likert",121,1082526,"0.0-121.0","wk3q06bh9fxdpckrrq8e2y6hlm5vtvya","Mon Apr 17 2017 10:11:22 GMT-0400 (Eastern Daylight Time)","female","White","slightly liberal","",NA,"","offCivRatings","the officer headbutted the civilian in the face","the civilian asked the officer how he was doing","headbutt","asked","officerCivilian","punishCiv","1","","","",""
"123",4939,"{""Q0"":11}","[object Object]","survey-likert",122,1087470,"0.0-122.0","wk3q06bh9fxdpckrrq8e2y6hlm5vtvya","Mon Apr 17 2017 10:11:22 GMT-0400 (Eastern Daylight Time)","female","White","slightly liberal","",NA,"","offCivRatings","the officer headbutted the civilian in the face","the civilian asked the officer how he was doing","headbutt","asked","officerCivilian","appropriateCiv","11","","","",""
"124",1045,"","","instructions",123,1088515,"0.0-123.0","wk3q06bh9fxdpckrrq8e2y6hlm5vtvya","Mon Apr 17 2017 10:11:22 GMT-0400 (Eastern Daylight Time)","female","White","slightly liberal","",NA,"[{""page_index"":0,""viewing_time"":1045}]","break","","","","","","","","","","",""
"125",5659,"{""Q0"":60}","[object Object]","survey-likert",124,1094391,"0.0-124.0","wk3q06bh9fxdpckrrq8e2y6hlm5vtvya","Mon Apr 17 2017 10:11:22 GMT-0400 (Eastern Daylight Time)","female","White","slightly liberal","",NA,"","policeLegitimacy","","","","","","","60","communityWants","normAlignment","",""
"126",7930,"{""Q0"":38}","[object Object]","survey-likert",125,1102326,"0.0-125.0","wk3q06bh9fxdpckrrq8e2y6hlm5vtvya","Mon Apr 17 2017 10:11:22 GMT-0400 (Eastern Daylight Time)","female","White","slightly liberal","",NA,"","policeLegitimacy","","","","","","","38","doTreat","feltObligation","",""
"127",4631,"{""Q0"":37}","[object Object]","survey-likert",126,1106961,"0.0-126.0","wk3q06bh9fxdpckrrq8e2y6hlm5vtvya","Mon Apr 17 2017 10:11:22 GMT-0400 (Eastern Daylight Time)","female","White","slightly liberal","",NA,"","policeLegitimacy","","","","","","","37","importantValues","normAlignment","",""
"128",7266,"{""Q0"":3}","[object Object]","survey-likert",127,1114232,"0.0-127.0","wk3q06bh9fxdpckrrq8e2y6hlm5vtvya","Mon Apr 17 2017 10:11:22 GMT-0400 (Eastern Daylight Time)","female","White","slightly liberal","",NA,"","policeLegitimacy","","","","","","","3","support","feltObligation","",""
"129",6689,"{""Q0"":36}","[object Object]","survey-likert",128,1120926,"0.0-128.0","wk3q06bh9fxdpckrrq8e2y6hlm5vtvya","Mon Apr 17 2017 10:11:22 GMT-0400 (Eastern Daylight Time)","female","White","slightly liberal","",NA,"","policeLegitimacy","","","","","","","36","doReasons","feltObligation","",""
"130",4590,"{""Q0"":24}","[object Object]","survey-likert",129,1125520,"0.0-129.0","wk3q06bh9fxdpckrrq8e2y6hlm5vtvya","Mon Apr 17 2017 10:11:22 GMT-0400 (Eastern Daylight Time)","female","White","slightly liberal","",NA,"","policeLegitimacy","","","","","","","24","rightWrong","normAlignment","",""
"131",5482,"{""Q0"":""no""}","[object Object]","survey-multi-choice2",130,1131008,"0.0-130.0","wk3q06bh9fxdpckrrq8e2y6hlm5vtvya","Mon Apr 17 2017 10:11:22 GMT-0400 (Eastern Daylight Time)","female","White","slightly liberal","",NA,"","policeExperience","","","","","","","no","excessForce","","personal","Have the police ever used excessive force against you?"
"132",4007,"{""Q0"":""no""}","[object Object]","survey-multi-choice2",131,1135018,"0.0-131.0","wk3q06bh9fxdpckrrq8e2y6hlm5vtvya","Mon Apr 17 2017 10:11:22 GMT-0400 (Eastern Daylight Time)","female","White","slightly liberal","",NA,"","policeExperience","","","","","","","no","insultLang","","vicarious","Have the police ever used insulting language toward anyone in your household?"
"133",4879,"{""Q0"":""no""}","[object Object]","survey-multi-choice2",132,1139900,"0.0-132.0","wk3q06bh9fxdpckrrq8e2y6hlm5vtvya","Mon Apr 17 2017 10:11:22 GMT-0400 (Eastern Daylight Time)","female","White","slightly liberal","",NA,"","policeExperience","","","","","","","no","corrupt","","personal","Have you ever seen a police officer engage in any corrupt activities (e.g., taking bribes or involvement in the drug trade)?"
"134",3599,"{""Q0"":""no""}","[object Object]","survey-multi-choice2",133,1143502,"0.0-133.0","wk3q06bh9fxdpckrrq8e2y6hlm5vtvya","Mon Apr 17 2017 10:11:22 GMT-0400 (Eastern Daylight Time)","female","White","slightly liberal","",NA,"","policeExperience","","","","","","","no","excessForce","","vicarious","Have the police ever used excessive force against anyone in your household?"
"135",3331,"{""Q0"":""no""}","[object Object]","survey-multi-choice2",134,1146835,"0.0-134.0","wk3q06bh9fxdpckrrq8e2y6hlm5vtvya","Mon Apr 17 2017 10:11:22 GMT-0400 (Eastern Daylight Time)","female","White","slightly liberal","",NA,"","policeExperience","","","","","","","no","stopped","","personal","Have you ever been stopped by the police on the street without good reason?"
"136",3970,"{""Q0"":""no""}","[object Object]","survey-multi-choice2",135,1150806,"0.0-135.0","wk3q06bh9fxdpckrrq8e2y6hlm5vtvya","Mon Apr 17 2017 10:11:22 GMT-0400 (Eastern Daylight Time)","female","White","slightly liberal","",NA,"","policeExperience","","","","","","","no","insultLang","","personal","Have the police ever used insulting language toward you?"
"137",3888,"{""Q0"":""no""}","[object Object]","survey-multi-choice2",136,1154695,"0.0-136.0","wk3q06bh9fxdpckrrq8e2y6hlm5vtvya","Mon Apr 17 2017 10:11:22 GMT-0400 (Eastern Daylight Time)","female","White","slightly liberal","",NA,"","policeExperience","","","","","","","no","stopped","","vicarious","Has anyone in your household ever been stopped on the street by the police without good reason?"
"138",10456,"{""Q0"":""female"",""Q1"":""White"",""Q2"":""slightly liberal""}","[object Object]","survey-multi-choice",137,1165160,"0.0-137.0","wk3q06bh9fxdpckrrq8e2y6hlm5vtvya","Mon Apr 17 2017 10:11:22 GMT-0400 (Eastern Daylight Time)","female","White","slightly liberal","",NA,"","demographics","","","","","","","","","","",""
"139",8138,"","","instructions",138,1174307,"0.0-138.0","wk3q06bh9fxdpckrrq8e2y6hlm5vtvya","Mon Apr 17 2017 10:11:22 GMT-0400 (Eastern Daylight Time)","female","White","slightly liberal","",NA,"[{""page_index"":0,""viewing_time"":5488},{""page_index"":1,""viewing_time"":1013},{""page_index"":2,""viewing_time"":570},{""page_index"":3,""viewing_time"":1067}]","debriefing","","","","","","","","","","",""
