"","rt","responses","internalResp","trial_type","trial_index","time_elapsed","internal_node_id","randSubjectID","date","sex","race","polAff","stimulus","key_press","view_history","questionType","officerAction","civilianAction","offActName","civActName","order","questionName","response","name","dimension","person","question"
"1",10432,"","[object Object]","survey-text",0,10437,"0.0-0.0","wx2dl1sqazpwcqfxwyksr1bn35j1409p","Thu Apr 06 2017 15:03:46 GMT-0400 (EDT)","male","White","don't know/not political","",NA,"","","","","","","","","","","","",""
"2",7713,"","","single-stim",1,19155,"0.0-1.0","wx2dl1sqazpwcqfxwyksr1bn35j1409p","Thu Apr 06 2017 15:03:46 GMT-0400 (EDT)","male","White","don't know/not political","<img src='static/images/1602685960_ICS_Credit-0.png' alt='Consent 1' height=1100 width=850><img src='static/images/1602685960_ICS_Credit-1.png' alt='Consent 2' height=1100 width=850></p>",89,"","","","","","","","","","","","",""
"3",5337,"","","instructions",2,25496,"0.0-2.0","wx2dl1sqazpwcqfxwyksr1bn35j1409p","Thu Apr 06 2017 15:03:46 GMT-0400 (EDT)","male","White","don't know/not political","",NA,"[{""page_index"":0,""viewing_time"":5336}]","instructions","","","","","","","","","","",""
"4",18176,"","","instructions",3,44674,"0.0-3.0","wx2dl1sqazpwcqfxwyksr1bn35j1409p","Thu Apr 06 2017 15:03:46 GMT-0400 (EDT)","male","White","don't know/not political","",NA,"[{""page_index"":0,""viewing_time"":7138},{""page_index"":1,""viewing_time"":4502},{""page_index"":2,""viewing_time"":5477},{""page_index"":3,""viewing_time"":1058}]","instructions","","","","","","","","","","",""
"5",11212,"{""Q0"":50}","[object Object]","survey-likert",4,56912,"0.0-4.0","wx2dl1sqazpwcqfxwyksr1bn35j1409p","Thu Apr 06 2017 15:03:46 GMT-0400 (EDT)","male","White","don't know/not political","",NA,"","offCivRatings","the officer asked the civilian how he was doing","the civilian slammed the officer's head into the concrete curb","asked","headSlam","officerCivilian","punishCiv","50","","","",""
"6",4694,"{""Q0"":50}","[object Object]","survey-likert",5,61612,"0.0-5.0","wx2dl1sqazpwcqfxwyksr1bn35j1409p","Thu Apr 06 2017 15:03:46 GMT-0400 (EDT)","male","White","don't know/not political","",NA,"","offCivRatings","the officer asked the civilian how he was doing","the civilian slammed the officer's head into the concrete curb","asked","headSlam","officerCivilian","acceptableCiv","50","","","",""
"7",1325,"{""Q0"":50}","[object Object]","survey-likert",6,62942,"0.0-6.0","wx2dl1sqazpwcqfxwyksr1bn35j1409p","Thu Apr 06 2017 15:03:46 GMT-0400 (EDT)","male","White","don't know/not political","",NA,"","offCivRatings","the officer asked the civilian how he was doing","the civilian slammed the officer's head into the concrete curb","asked","headSlam","officerCivilian","forceCiv","50","","","",""
"8",6749,"{""Q0"":50}","[object Object]","survey-likert",7,69696,"0.0-7.0","wx2dl1sqazpwcqfxwyksr1bn35j1409p","Thu Apr 06 2017 15:03:46 GMT-0400 (EDT)","male","White","don't know/not political","",NA,"","offCivRatings","the officer asked the civilian how he was doing","the civilian slammed the officer's head into the concrete curb","asked","headSlam","officerCivilian","appropriateCiv","50","","","",""
"9",933,"","","instructions",8,70629,"0.0-8.0","wx2dl1sqazpwcqfxwyksr1bn35j1409p","Thu Apr 06 2017 15:03:46 GMT-0400 (EDT)","male","White","don't know/not political","",NA,"[{""page_index"":0,""viewing_time"":933}]","break","","","","","","","","","","",""
"10",1892,"{""Q0"":50}","[object Object]","survey-likert",9,72730,"0.0-9.0","wx2dl1sqazpwcqfxwyksr1bn35j1409p","Thu Apr 06 2017 15:03:46 GMT-0400 (EDT)","male","White","don't know/not political","",NA,"","offCivRatings","the officer called the civilian a ""thug""","the civilian twisted the arm of the officer, forcing him to the ground","nameCall","armbar","civilianOfficer","manipCheckHigh","50","","","",""
"11",1076,"{""Q0"":50}","[object Object]","survey-likert",10,73812,"0.0-10.0","wx2dl1sqazpwcqfxwyksr1bn35j1409p","Thu Apr 06 2017 15:03:46 GMT-0400 (EDT)","male","White","don't know/not political","",NA,"","offCivRatings","the officer called the civilian a ""thug""","the civilian twisted the arm of the officer, forcing him to the ground","nameCall","armbar","civilianOfficer","punishOff","50","","","",""
"12",1085,"{""Q0"":50}","[object Object]","survey-likert",11,74903,"0.0-11.0","wx2dl1sqazpwcqfxwyksr1bn35j1409p","Thu Apr 06 2017 15:03:46 GMT-0400 (EDT)","male","White","don't know/not political","",NA,"","offCivRatings","the officer called the civilian a ""thug""","the civilian twisted the arm of the officer, forcing him to the ground","nameCall","armbar","civilianOfficer","appropriateOff","50","","","",""
"13",1300,"{""Q0"":50}","[object Object]","survey-likert",12,76209,"0.0-12.0","wx2dl1sqazpwcqfxwyksr1bn35j1409p","Thu Apr 06 2017 15:03:46 GMT-0400 (EDT)","male","White","don't know/not political","",NA,"","offCivRatings","the officer called the civilian a ""thug""","the civilian twisted the arm of the officer, forcing him to the ground","nameCall","armbar","civilianOfficer","acceptableOff","50","","","",""
"14",1398,"{""Q0"":50}","[object Object]","survey-likert",13,77611,"0.0-13.0","wx2dl1sqazpwcqfxwyksr1bn35j1409p","Thu Apr 06 2017 15:03:46 GMT-0400 (EDT)","male","White","don't know/not political","",NA,"","offCivRatings","the officer called the civilian a ""thug""","the civilian twisted the arm of the officer, forcing him to the ground","nameCall","armbar","civilianOfficer","forceOff","50","","","",""
"15",608,"","","instructions",14,78220,"0.0-14.0","wx2dl1sqazpwcqfxwyksr1bn35j1409p","Thu Apr 06 2017 15:03:46 GMT-0400 (EDT)","male","White","don't know/not political","",NA,"[{""page_index"":0,""viewing_time"":608}]","break","","","","","","","","","","",""
"16",1118,"{""Q0"":50}","[object Object]","survey-likert",15,79543,"0.0-15.0","wx2dl1sqazpwcqfxwyksr1bn35j1409p","Thu Apr 06 2017 15:03:46 GMT-0400 (EDT)","male","White","don't know/not political","",NA,"","offCivRatings","the officer put handcuffs on the civilian","the civilian applied a chokehold to the officer","handcuff","choke","civilianOfficer","punishOff","50","","","",""
"17",1005,"{""Q0"":50}","[object Object]","survey-likert",16,80553,"0.0-16.0","wx2dl1sqazpwcqfxwyksr1bn35j1409p","Thu Apr 06 2017 15:03:46 GMT-0400 (EDT)","male","White","don't know/not political","",NA,"","offCivRatings","the officer put handcuffs on the civilian","the civilian applied a chokehold to the officer","handcuff","choke","civilianOfficer","forceOff","50","","","",""
"18",1189,"{""Q0"":50}","[object Object]","survey-likert",17,81748,"0.0-17.0","wx2dl1sqazpwcqfxwyksr1bn35j1409p","Thu Apr 06 2017 15:03:46 GMT-0400 (EDT)","male","White","don't know/not political","",NA,"","offCivRatings","the officer put handcuffs on the civilian","the civilian applied a chokehold to the officer","handcuff","choke","civilianOfficer","acceptableOff","50","","","",""
"19",1286,"{""Q0"":50}","[object Object]","survey-likert",18,83038,"0.0-18.0","wx2dl1sqazpwcqfxwyksr1bn35j1409p","Thu Apr 06 2017 15:03:46 GMT-0400 (EDT)","male","White","don't know/not political","",NA,"","offCivRatings","the officer put handcuffs on the civilian","the civilian applied a chokehold to the officer","handcuff","choke","civilianOfficer","manipCheckHigh","50","","","",""
"20",1271,"{""Q0"":50}","[object Object]","survey-likert",19,84313,"0.0-19.0","wx2dl1sqazpwcqfxwyksr1bn35j1409p","Thu Apr 06 2017 15:03:46 GMT-0400 (EDT)","male","White","don't know/not political","",NA,"","offCivRatings","the officer put handcuffs on the civilian","the civilian applied a chokehold to the officer","handcuff","choke","civilianOfficer","appropriateOff","50","","","",""
"21",592,"","","instructions",20,84905,"0.0-20.0","wx2dl1sqazpwcqfxwyksr1bn35j1409p","Thu Apr 06 2017 15:03:46 GMT-0400 (EDT)","male","White","don't know/not political","",NA,"[{""page_index"":0,""viewing_time"":592}]","break","","","","","","","","","","",""
"22",1366,"{""Q0"":50}","[object Object]","survey-likert",21,86481,"0.0-21.0","wx2dl1sqazpwcqfxwyksr1bn35j1409p","Thu Apr 06 2017 15:03:46 GMT-0400 (EDT)","male","White","don't know/not political","",NA,"","offCivRatings","the officer stood near the civilian","the civilian struck the officer in the stomach with a metal flashlight","stoodNear","flashlight","civilianOfficer","punishOff","50","","","",""
"23",1415,"{""Q0"":50}","[object Object]","survey-likert",22,87900,"0.0-22.0","wx2dl1sqazpwcqfxwyksr1bn35j1409p","Thu Apr 06 2017 15:03:46 GMT-0400 (EDT)","male","White","don't know/not political","",NA,"","offCivRatings","the officer stood near the civilian","the civilian struck the officer in the stomach with a metal flashlight","stoodNear","flashlight","civilianOfficer","appropriateOff","50","","","",""
"24",1061,"{""Q0"":50}","[object Object]","survey-likert",23,88966,"0.0-23.0","wx2dl1sqazpwcqfxwyksr1bn35j1409p","Thu Apr 06 2017 15:03:46 GMT-0400 (EDT)","male","White","don't know/not political","",NA,"","offCivRatings","the officer stood near the civilian","the civilian struck the officer in the stomach with a metal flashlight","stoodNear","flashlight","civilianOfficer","acceptableOff","50","","","",""
"25",1522,"{""Q0"":50}","[object Object]","survey-likert",24,90493,"0.0-24.0","wx2dl1sqazpwcqfxwyksr1bn35j1409p","Thu Apr 06 2017 15:03:46 GMT-0400 (EDT)","male","White","don't know/not political","",NA,"","offCivRatings","the officer stood near the civilian","the civilian struck the officer in the stomach with a metal flashlight","stoodNear","flashlight","civilianOfficer","manipCheckHigh","50","","","",""
"26",1173,"{""Q0"":50}","[object Object]","survey-likert",25,91671,"0.0-25.0","wx2dl1sqazpwcqfxwyksr1bn35j1409p","Thu Apr 06 2017 15:03:46 GMT-0400 (EDT)","male","White","don't know/not political","",NA,"","offCivRatings","the officer stood near the civilian","the civilian struck the officer in the stomach with a metal flashlight","stoodNear","flashlight","civilianOfficer","forceOff","50","","","",""
"27",553,"","","instructions",26,92225,"0.0-26.0","wx2dl1sqazpwcqfxwyksr1bn35j1409p","Thu Apr 06 2017 15:03:46 GMT-0400 (EDT)","male","White","don't know/not political","",NA,"[{""page_index"":0,""viewing_time"":553}]","break","","","","","","","","","","",""
"28",2311,"{""Q0"":50}","[object Object]","survey-likert",27,94741,"0.0-27.0","wx2dl1sqazpwcqfxwyksr1bn35j1409p","Thu Apr 06 2017 15:03:46 GMT-0400 (EDT)","male","White","don't know/not political","",NA,"","offCivRatings","the officer shouted ""get your fucking hands up!"" at the civilian","the civilian purposefully struck the officer with a motor vehicle","handsUp","vehicle","civilianOfficer","forceOff","50","","","",""
"29",974,"{""Q0"":50}","[object Object]","survey-likert",28,95720,"0.0-28.0","wx2dl1sqazpwcqfxwyksr1bn35j1409p","Thu Apr 06 2017 15:03:46 GMT-0400 (EDT)","male","White","don't know/not political","",NA,"","offCivRatings","the officer shouted ""get your fucking hands up!"" at the civilian","the civilian purposefully struck the officer with a motor vehicle","handsUp","vehicle","civilianOfficer","acceptableOff","50","","","",""
"30",1180,"{""Q0"":50}","[object Object]","survey-likert",29,96906,"0.0-29.0","wx2dl1sqazpwcqfxwyksr1bn35j1409p","Thu Apr 06 2017 15:03:46 GMT-0400 (EDT)","male","White","don't know/not political","",NA,"","offCivRatings","the officer shouted ""get your fucking hands up!"" at the civilian","the civilian purposefully struck the officer with a motor vehicle","handsUp","vehicle","civilianOfficer","punishOff","50","","","",""
"31",1149,"{""Q0"":50}","[object Object]","survey-likert",30,98060,"0.0-30.0","wx2dl1sqazpwcqfxwyksr1bn35j1409p","Thu Apr 06 2017 15:03:46 GMT-0400 (EDT)","male","White","don't know/not political","",NA,"","offCivRatings","the officer shouted ""get your fucking hands up!"" at the civilian","the civilian purposefully struck the officer with a motor vehicle","handsUp","vehicle","civilianOfficer","appropriateOff","50","","","",""
"32",601,"","","instructions",31,98661,"0.0-31.0","wx2dl1sqazpwcqfxwyksr1bn35j1409p","Thu Apr 06 2017 15:03:46 GMT-0400 (EDT)","male","White","don't know/not political","",NA,"[{""page_index"":0,""viewing_time"":600}]","break","","","","","","","","","","",""
"33",1464,"{""Q0"":50}","[object Object]","survey-likert",32,100333,"0.0-32.0","wx2dl1sqazpwcqfxwyksr1bn35j1409p","Thu Apr 06 2017 15:03:46 GMT-0400 (EDT)","male","White","don't know/not political","",NA,"","offCivRatings","the officer shot the civilian in the head with a handgun","the civilian struck the officer on the leg with a metal pipe","handgunHead","metalPipe","officerCivilian","appropriateCiv","50","","","",""
"34",1359,"{""Q0"":50}","[object Object]","survey-likert",33,101696,"0.0-33.0","wx2dl1sqazpwcqfxwyksr1bn35j1409p","Thu Apr 06 2017 15:03:46 GMT-0400 (EDT)","male","White","don't know/not political","",NA,"","offCivRatings","the officer shot the civilian in the head with a handgun","the civilian struck the officer on the leg with a metal pipe","handgunHead","metalPipe","officerCivilian","punishCiv","50","","","",""
"35",1398,"{""Q0"":50}","[object Object]","survey-likert",34,103099,"0.0-34.0","wx2dl1sqazpwcqfxwyksr1bn35j1409p","Thu Apr 06 2017 15:03:46 GMT-0400 (EDT)","male","White","don't know/not political","",NA,"","offCivRatings","the officer shot the civilian in the head with a handgun","the civilian struck the officer on the leg with a metal pipe","handgunHead","metalPipe","officerCivilian","forceCiv","50","","","",""
"36",1631,"{""Q0"":50}","[object Object]","survey-likert",35,104734,"0.0-35.0","wx2dl1sqazpwcqfxwyksr1bn35j1409p","Thu Apr 06 2017 15:03:46 GMT-0400 (EDT)","male","White","don't know/not political","",NA,"","offCivRatings","the officer shot the civilian in the head with a handgun","the civilian struck the officer on the leg with a metal pipe","handgunHead","metalPipe","officerCivilian","acceptableCiv","50","","","",""
"37",844,"","","instructions",36,105579,"0.0-36.0","wx2dl1sqazpwcqfxwyksr1bn35j1409p","Thu Apr 06 2017 15:03:46 GMT-0400 (EDT)","male","White","don't know/not political","",NA,"[{""page_index"":0,""viewing_time"":844}]","break","","","","","","","","","","",""
"38",1443,"{""Q0"":50}","[object Object]","survey-likert",37,107232,"0.0-37.0","wx2dl1sqazpwcqfxwyksr1bn35j1409p","Thu Apr 06 2017 15:03:46 GMT-0400 (EDT)","male","White","don't know/not political","",NA,"","offCivRatings","the officer punched the civilian in the face","the civilian kicked the officer in the stomach","punchFace","kickStom","civilianOfficer","acceptableOff","50","","","",""
"39",1086,"{""Q0"":50}","[object Object]","survey-likert",38,108322,"0.0-38.0","wx2dl1sqazpwcqfxwyksr1bn35j1409p","Thu Apr 06 2017 15:03:46 GMT-0400 (EDT)","male","White","don't know/not political","",NA,"","offCivRatings","the officer punched the civilian in the face","the civilian kicked the officer in the stomach","punchFace","kickStom","civilianOfficer","punishOff","50","","","",""
"40",4986,"{""Q0"":50}","[object Object]","survey-likert",39,113312,"0.0-39.0","wx2dl1sqazpwcqfxwyksr1bn35j1409p","Thu Apr 06 2017 15:03:46 GMT-0400 (EDT)","male","White","don't know/not political","",NA,"","offCivRatings","the officer punched the civilian in the face","the civilian kicked the officer in the stomach","punchFace","kickStom","civilianOfficer","appropriateOff","50","","","",""
"41",1062,"{""Q0"":50}","[object Object]","survey-likert",40,114378,"0.0-40.0","wx2dl1sqazpwcqfxwyksr1bn35j1409p","Thu Apr 06 2017 15:03:46 GMT-0400 (EDT)","male","White","don't know/not political","",NA,"","offCivRatings","the officer punched the civilian in the face","the civilian kicked the officer in the stomach","punchFace","kickStom","civilianOfficer","forceOff","50","","","",""
"42",1085,"{""Q0"":50}","[object Object]","survey-likert",41,115468,"0.0-41.0","wx2dl1sqazpwcqfxwyksr1bn35j1409p","Thu Apr 06 2017 15:03:46 GMT-0400 (EDT)","male","White","don't know/not political","",NA,"","offCivRatings","the officer punched the civilian in the face","the civilian kicked the officer in the stomach","punchFace","kickStom","civilianOfficer","manipCheckHigh","50","","","",""
"43",907,"","","instructions",42,116375,"0.0-42.0","wx2dl1sqazpwcqfxwyksr1bn35j1409p","Thu Apr 06 2017 15:03:46 GMT-0400 (EDT)","male","White","don't know/not political","",NA,"[{""page_index"":0,""viewing_time"":906}]","break","","","","","","","","","","",""
"44",1027,"{""Q0"":50}","[object Object]","survey-likert",43,117609,"0.0-43.0","wx2dl1sqazpwcqfxwyksr1bn35j1409p","Thu Apr 06 2017 15:03:46 GMT-0400 (EDT)","male","White","don't know/not political","",NA,"","offCivRatings","the officer yelled ""get back!"" at the civilian","the civilian stood near the officer","getBack","stoodNear","officerCivilian","forceCiv","50","","","",""
"45",1150,"{""Q0"":50}","[object Object]","survey-likert",44,118763,"0.0-44.0","wx2dl1sqazpwcqfxwyksr1bn35j1409p","Thu Apr 06 2017 15:03:46 GMT-0400 (EDT)","male","White","don't know/not political","",NA,"","offCivRatings","the officer yelled ""get back!"" at the civilian","the civilian stood near the officer","getBack","stoodNear","officerCivilian","punishCiv","50","","","",""
"46",1519,"{""Q0"":50}","[object Object]","survey-likert",45,120287,"0.0-45.0","wx2dl1sqazpwcqfxwyksr1bn35j1409p","Thu Apr 06 2017 15:03:46 GMT-0400 (EDT)","male","White","don't know/not political","",NA,"","offCivRatings","the officer yelled ""get back!"" at the civilian","the civilian stood near the officer","getBack","stoodNear","officerCivilian","acceptableCiv","50","","","",""
"47",1510,"{""Q0"":50}","[object Object]","survey-likert",46,121802,"0.0-46.0","wx2dl1sqazpwcqfxwyksr1bn35j1409p","Thu Apr 06 2017 15:03:46 GMT-0400 (EDT)","male","White","don't know/not political","",NA,"","offCivRatings","the officer yelled ""get back!"" at the civilian","the civilian stood near the officer","getBack","stoodNear","officerCivilian","manipCheckHigh","50","","","",""
"48",1230,"{""Q0"":50}","[object Object]","survey-likert",47,123036,"0.0-47.0","wx2dl1sqazpwcqfxwyksr1bn35j1409p","Thu Apr 06 2017 15:03:46 GMT-0400 (EDT)","male","White","don't know/not political","",NA,"","offCivRatings","the officer yelled ""get back!"" at the civilian","the civilian stood near the officer","getBack","stoodNear","officerCivilian","appropriateCiv","50","","","",""
"49",544,"","","instructions",48,123580,"0.0-48.0","wx2dl1sqazpwcqfxwyksr1bn35j1409p","Thu Apr 06 2017 15:03:46 GMT-0400 (EDT)","male","White","don't know/not political","",NA,"[{""page_index"":0,""viewing_time"":544}]","break","","","","","","","","","","",""
"50",943,"{""Q0"":50}","[object Object]","survey-likert",49,124731,"0.0-49.0","wx2dl1sqazpwcqfxwyksr1bn35j1409p","Thu Apr 06 2017 15:03:46 GMT-0400 (EDT)","male","White","don't know/not political","",NA,"","offCivRatings","the officer struck the civilian on the leg with a collapsible baton","the civilian yelled ""get back!"" at the officer","batonLeg","getBack","officerCivilian","acceptableCiv","50","","","",""
"51",1375,"{""Q0"":50}","[object Object]","survey-likert",50,126110,"0.0-50.0","wx2dl1sqazpwcqfxwyksr1bn35j1409p","Thu Apr 06 2017 15:03:46 GMT-0400 (EDT)","male","White","don't know/not political","",NA,"","offCivRatings","the officer struck the civilian on the leg with a collapsible baton","the civilian yelled ""get back!"" at the officer","batonLeg","getBack","officerCivilian","punishCiv","50","","","",""
"52",1414,"{""Q0"":50}","[object Object]","survey-likert",51,127529,"0.0-51.0","wx2dl1sqazpwcqfxwyksr1bn35j1409p","Thu Apr 06 2017 15:03:46 GMT-0400 (EDT)","male","White","don't know/not political","",NA,"","offCivRatings","the officer struck the civilian on the leg with a collapsible baton","the civilian yelled ""get back!"" at the officer","batonLeg","getBack","officerCivilian","forceCiv","50","","","",""
"53",2757,"{""Q0"":50}","[object Object]","survey-likert",52,130291,"0.0-52.0","wx2dl1sqazpwcqfxwyksr1bn35j1409p","Thu Apr 06 2017 15:03:46 GMT-0400 (EDT)","male","White","don't know/not political","",NA,"","offCivRatings","the officer struck the civilian on the leg with a collapsible baton","the civilian yelled ""get back!"" at the officer","batonLeg","getBack","officerCivilian","appropriateCiv","50","","","",""
"54",625,"","","instructions",53,130916,"0.0-53.0","wx2dl1sqazpwcqfxwyksr1bn35j1409p","Thu Apr 06 2017 15:03:46 GMT-0400 (EDT)","male","White","don't know/not political","",NA,"[{""page_index"":0,""viewing_time"":625}]","break","","","","","","","","","","",""
"55",1133,"{""Q0"":50}","[object Object]","survey-likert",54,132255,"0.0-54.0","wx2dl1sqazpwcqfxwyksr1bn35j1409p","Thu Apr 06 2017 15:03:46 GMT-0400 (EDT)","male","White","don't know/not political","",NA,"","offCivRatings","the officer twisted the arm of the civilian, forcing him to the ground","the civilian shot the officer in the chest with a handgun","armbar","handgunChest","civilianOfficer","punishOff","50","","","",""
"56",1511,"{""Q0"":50}","[object Object]","survey-likert",55,133771,"0.0-55.0","wx2dl1sqazpwcqfxwyksr1bn35j1409p","Thu Apr 06 2017 15:03:46 GMT-0400 (EDT)","male","White","don't know/not political","",NA,"","offCivRatings","the officer twisted the arm of the civilian, forcing him to the ground","the civilian shot the officer in the chest with a handgun","armbar","handgunChest","civilianOfficer","forceOff","50","","","",""
"57",2411,"{""Q0"":50}","[object Object]","survey-likert",56,136189,"0.0-56.0","wx2dl1sqazpwcqfxwyksr1bn35j1409p","Thu Apr 06 2017 15:03:46 GMT-0400 (EDT)","male","White","don't know/not political","",NA,"","offCivRatings","the officer twisted the arm of the civilian, forcing him to the ground","the civilian shot the officer in the chest with a handgun","armbar","handgunChest","civilianOfficer","appropriateOff","50","","","",""
"58",1644,"{""Q0"":50}","[object Object]","survey-likert",57,137838,"0.0-57.0","wx2dl1sqazpwcqfxwyksr1bn35j1409p","Thu Apr 06 2017 15:03:46 GMT-0400 (EDT)","male","White","don't know/not political","",NA,"","offCivRatings","the officer twisted the arm of the civilian, forcing him to the ground","the civilian shot the officer in the chest with a handgun","armbar","handgunChest","civilianOfficer","acceptableOff","50","","","",""
"59",893,"","","instructions",58,138732,"0.0-58.0","wx2dl1sqazpwcqfxwyksr1bn35j1409p","Thu Apr 06 2017 15:03:46 GMT-0400 (EDT)","male","White","don't know/not political","",NA,"[{""page_index"":0,""viewing_time"":893}]","break","","","","","","","","","","",""
"60",1287,"{""Q0"":50}","[object Object]","survey-likert",59,140223,"0.0-59.0","wx2dl1sqazpwcqfxwyksr1bn35j1409p","Thu Apr 06 2017 15:03:46 GMT-0400 (EDT)","male","White","don't know/not political","",NA,"","offCivRatings","the officer shot the civilian in the chest with a handgun","the civilian pulled away from the officer","handgunChest","pulledAway","officerCivilian","punishCiv","50","","","",""
"61",1479,"{""Q0"":50}","[object Object]","survey-likert",60,141708,"0.0-60.0","wx2dl1sqazpwcqfxwyksr1bn35j1409p","Thu Apr 06 2017 15:03:46 GMT-0400 (EDT)","male","White","don't know/not political","",NA,"","offCivRatings","the officer shot the civilian in the chest with a handgun","the civilian pulled away from the officer","handgunChest","pulledAway","officerCivilian","appropriateCiv","50","","","",""
"62",1348,"{""Q0"":50}","[object Object]","survey-likert",61,143061,"0.0-61.0","wx2dl1sqazpwcqfxwyksr1bn35j1409p","Thu Apr 06 2017 15:03:46 GMT-0400 (EDT)","male","White","don't know/not political","",NA,"","offCivRatings","the officer shot the civilian in the chest with a handgun","the civilian pulled away from the officer","handgunChest","pulledAway","officerCivilian","manipCheckHigh","50","","","",""
"63",1173,"{""Q0"":50}","[object Object]","survey-likert",62,144240,"0.0-62.0","wx2dl1sqazpwcqfxwyksr1bn35j1409p","Thu Apr 06 2017 15:03:46 GMT-0400 (EDT)","male","White","don't know/not political","",NA,"","offCivRatings","the officer shot the civilian in the chest with a handgun","the civilian pulled away from the officer","handgunChest","pulledAway","officerCivilian","forceCiv","50","","","",""
"64",1582,"{""Q0"":50}","[object Object]","survey-likert",63,145827,"0.0-63.0","wx2dl1sqazpwcqfxwyksr1bn35j1409p","Thu Apr 06 2017 15:03:46 GMT-0400 (EDT)","male","White","don't know/not political","",NA,"","offCivRatings","the officer shot the civilian in the chest with a handgun","the civilian pulled away from the officer","handgunChest","pulledAway","officerCivilian","acceptableCiv","50","","","",""
"65",578,"","","instructions",64,146405,"0.0-64.0","wx2dl1sqazpwcqfxwyksr1bn35j1409p","Thu Apr 06 2017 15:03:46 GMT-0400 (EDT)","male","White","don't know/not political","",NA,"[{""page_index"":0,""viewing_time"":577}]","break","","","","","","","","","","",""
"66",1276,"{""Q0"":50}","[object Object]","survey-likert",65,147887,"0.0-65.0","wx2dl1sqazpwcqfxwyksr1bn35j1409p","Thu Apr 06 2017 15:03:46 GMT-0400 (EDT)","male","White","don't know/not political","",NA,"","offCivRatings","the officer kicked the civilian in the stomach","the civilian waved at the officer in greeting","kickStom","waved","civilianOfficer","appropriateOff","50","","","",""
"67",1531,"{""Q0"":50}","[object Object]","survey-likert",66,149424,"0.0-66.0","wx2dl1sqazpwcqfxwyksr1bn35j1409p","Thu Apr 06 2017 15:03:46 GMT-0400 (EDT)","male","White","don't know/not political","",NA,"","offCivRatings","the officer kicked the civilian in the stomach","the civilian waved at the officer in greeting","kickStom","waved","civilianOfficer","forceOff","50","","","",""
"68",1101,"{""Q0"":50}","[object Object]","survey-likert",67,150529,"0.0-67.0","wx2dl1sqazpwcqfxwyksr1bn35j1409p","Thu Apr 06 2017 15:03:46 GMT-0400 (EDT)","male","White","don't know/not political","",NA,"","offCivRatings","the officer kicked the civilian in the stomach","the civilian waved at the officer in greeting","kickStom","waved","civilianOfficer","acceptableOff","50","","","",""
"69",982,"{""Q0"":50}","[object Object]","survey-likert",68,151515,"0.0-68.0","wx2dl1sqazpwcqfxwyksr1bn35j1409p","Thu Apr 06 2017 15:03:46 GMT-0400 (EDT)","male","White","don't know/not political","",NA,"","offCivRatings","the officer kicked the civilian in the stomach","the civilian waved at the officer in greeting","kickStom","waved","civilianOfficer","punishOff","50","","","",""
"70",561,"","","instructions",69,152076,"0.0-69.0","wx2dl1sqazpwcqfxwyksr1bn35j1409p","Thu Apr 06 2017 15:03:46 GMT-0400 (EDT)","male","White","don't know/not political","",NA,"[{""page_index"":0,""viewing_time"":561}]","break","","","","","","","","","","",""
"71",1030,"{""Q0"":50}","[object Object]","survey-likert",70,153311,"0.0-70.0","wx2dl1sqazpwcqfxwyksr1bn35j1409p","Thu Apr 06 2017 15:03:46 GMT-0400 (EDT)","male","White","don't know/not political","",NA,"","offCivRatings","the officer waved at the civilian in greeting","the civilian sprayed the officer with pepper spray","waved","pepperSpray","officerCivilian","forceCiv","50","","","",""
"72",1119,"{""Q0"":50}","[object Object]","survey-likert",71,154434,"0.0-71.0","wx2dl1sqazpwcqfxwyksr1bn35j1409p","Thu Apr 06 2017 15:03:46 GMT-0400 (EDT)","male","White","don't know/not political","",NA,"","offCivRatings","the officer waved at the civilian in greeting","the civilian sprayed the officer with pepper spray","waved","pepperSpray","officerCivilian","appropriateCiv","50","","","",""
"73",989,"{""Q0"":50}","[object Object]","survey-likert",72,155427,"0.0-72.0","wx2dl1sqazpwcqfxwyksr1bn35j1409p","Thu Apr 06 2017 15:03:46 GMT-0400 (EDT)","male","White","don't know/not political","",NA,"","offCivRatings","the officer waved at the civilian in greeting","the civilian sprayed the officer with pepper spray","waved","pepperSpray","officerCivilian","acceptableCiv","50","","","",""
"74",998,"{""Q0"":50}","[object Object]","survey-likert",73,156430,"0.0-73.0","wx2dl1sqazpwcqfxwyksr1bn35j1409p","Thu Apr 06 2017 15:03:46 GMT-0400 (EDT)","male","White","don't know/not political","",NA,"","offCivRatings","the officer waved at the civilian in greeting","the civilian sprayed the officer with pepper spray","waved","pepperSpray","officerCivilian","punishCiv","50","","","",""
"75",521,"","","instructions",74,156951,"0.0-74.0","wx2dl1sqazpwcqfxwyksr1bn35j1409p","Thu Apr 06 2017 15:03:46 GMT-0400 (EDT)","male","White","don't know/not political","",NA,"[{""page_index"":0,""viewing_time"":520}]","break","","","","","","","","","","",""
"76",1358,"{""Q0"":50}","[object Object]","survey-likert",75,158515,"0.0-75.0","wx2dl1sqazpwcqfxwyksr1bn35j1409p","Thu Apr 06 2017 15:03:46 GMT-0400 (EDT)","male","White","don't know/not political","",NA,"","offCivRatings","the officer shot the civilian in the chest with a beanbag shotgun round","the civilian headbutted the officer in the face","beanbag","headbutt","civilianOfficer","appropriateOff","50","","","",""
"77",1691,"{""Q0"":50}","[object Object]","survey-likert",76,160210,"0.0-76.0","wx2dl1sqazpwcqfxwyksr1bn35j1409p","Thu Apr 06 2017 15:03:46 GMT-0400 (EDT)","male","White","don't know/not political","",NA,"","offCivRatings","the officer shot the civilian in the chest with a beanbag shotgun round","the civilian headbutted the officer in the face","beanbag","headbutt","civilianOfficer","forceOff","50","","","",""
"78",1253,"{""Q0"":50}","[object Object]","survey-likert",77,161469,"0.0-77.0","wx2dl1sqazpwcqfxwyksr1bn35j1409p","Thu Apr 06 2017 15:03:46 GMT-0400 (EDT)","male","White","don't know/not political","",NA,"","offCivRatings","the officer shot the civilian in the chest with a beanbag shotgun round","the civilian headbutted the officer in the face","beanbag","headbutt","civilianOfficer","punishOff","50","","","",""
"79",1912,"{""Q0"":50}","[object Object]","survey-likert",78,163385,"0.0-78.0","wx2dl1sqazpwcqfxwyksr1bn35j1409p","Thu Apr 06 2017 15:03:46 GMT-0400 (EDT)","male","White","don't know/not political","",NA,"","offCivRatings","the officer shot the civilian in the chest with a beanbag shotgun round","the civilian headbutted the officer in the face","beanbag","headbutt","civilianOfficer","acceptableOff","50","","","",""
"80",652,"","","instructions",79,164037,"0.0-79.0","wx2dl1sqazpwcqfxwyksr1bn35j1409p","Thu Apr 06 2017 15:03:46 GMT-0400 (EDT)","male","White","don't know/not political","",NA,"[{""page_index"":0,""viewing_time"":652}]","break","","","","","","","","","","",""
"81",1066,"{""Q0"":50}","[object Object]","survey-likert",80,165313,"0.0-80.0","wx2dl1sqazpwcqfxwyksr1bn35j1409p","Thu Apr 06 2017 15:03:46 GMT-0400 (EDT)","male","White","don't know/not political","",NA,"","offCivRatings","the officer struck the civilian in the stomach with a metal flashlight","the civilian asked the officer how he was doing","flashlight","asked","officerCivilian","acceptableCiv","50","","","",""
"82",1182,"{""Q0"":50}","[object Object]","survey-likert",81,166499,"0.0-81.0","wx2dl1sqazpwcqfxwyksr1bn35j1409p","Thu Apr 06 2017 15:03:46 GMT-0400 (EDT)","male","White","don't know/not political","",NA,"","offCivRatings","the officer struck the civilian in the stomach with a metal flashlight","the civilian asked the officer how he was doing","flashlight","asked","officerCivilian","punishCiv","50","","","",""
"83",1055,"{""Q0"":50}","[object Object]","survey-likert",82,167558,"0.0-82.0","wx2dl1sqazpwcqfxwyksr1bn35j1409p","Thu Apr 06 2017 15:03:46 GMT-0400 (EDT)","male","White","don't know/not political","",NA,"","offCivRatings","the officer struck the civilian in the stomach with a metal flashlight","the civilian asked the officer how he was doing","flashlight","asked","officerCivilian","forceCiv","50","","","",""
"84",2356,"{""Q0"":50}","[object Object]","survey-likert",83,169919,"0.0-83.0","wx2dl1sqazpwcqfxwyksr1bn35j1409p","Thu Apr 06 2017 15:03:46 GMT-0400 (EDT)","male","White","don't know/not political","",NA,"","offCivRatings","the officer struck the civilian in the stomach with a metal flashlight","the civilian asked the officer how he was doing","flashlight","asked","officerCivilian","manipCheckHigh","50","","","",""
"85",1696,"{""Q0"":50}","[object Object]","survey-likert",84,171620,"0.0-84.0","wx2dl1sqazpwcqfxwyksr1bn35j1409p","Thu Apr 06 2017 15:03:46 GMT-0400 (EDT)","male","White","don't know/not political","",NA,"","offCivRatings","the officer struck the civilian in the stomach with a metal flashlight","the civilian asked the officer how he was doing","flashlight","asked","officerCivilian","appropriateCiv","50","","","",""
"86",559,"","","instructions",85,172179,"0.0-85.0","wx2dl1sqazpwcqfxwyksr1bn35j1409p","Thu Apr 06 2017 15:03:46 GMT-0400 (EDT)","male","White","don't know/not political","",NA,"[{""page_index"":0,""viewing_time"":559}]","break","","","","","","","","","","",""
"87",1598,"{""Q0"":50}","[object Object]","survey-likert",86,173984,"0.0-86.0","wx2dl1sqazpwcqfxwyksr1bn35j1409p","Thu Apr 06 2017 15:03:46 GMT-0400 (EDT)","male","White","don't know/not political","",NA,"","offCivRatings","the officer shocked the civilian with a tazer","the civilian punched the officer in the face","tazer","punchFace","officerCivilian","punishCiv","50","","","",""
"88",1446,"{""Q0"":50}","[object Object]","survey-likert",87,175435,"0.0-87.0","wx2dl1sqazpwcqfxwyksr1bn35j1409p","Thu Apr 06 2017 15:03:46 GMT-0400 (EDT)","male","White","don't know/not political","",NA,"","offCivRatings","the officer shocked the civilian with a tazer","the civilian punched the officer in the face","tazer","punchFace","officerCivilian","forceCiv","50","","","",""
"89",1747,"{""Q0"":50}","[object Object]","survey-likert",88,177187,"0.0-88.0","wx2dl1sqazpwcqfxwyksr1bn35j1409p","Thu Apr 06 2017 15:03:46 GMT-0400 (EDT)","male","White","don't know/not political","",NA,"","offCivRatings","the officer shocked the civilian with a tazer","the civilian punched the officer in the face","tazer","punchFace","officerCivilian","acceptableCiv","50","","","",""
"90",1422,"{""Q0"":50}","[object Object]","survey-likert",89,178613,"0.0-89.0","wx2dl1sqazpwcqfxwyksr1bn35j1409p","Thu Apr 06 2017 15:03:46 GMT-0400 (EDT)","male","White","don't know/not political","",NA,"","offCivRatings","the officer shocked the civilian with a tazer","the civilian punched the officer in the face","tazer","punchFace","officerCivilian","appropriateCiv","50","","","",""
"91",1095,"{""Q0"":50}","[object Object]","survey-likert",90,179712,"0.0-90.0","wx2dl1sqazpwcqfxwyksr1bn35j1409p","Thu Apr 06 2017 15:03:46 GMT-0400 (EDT)","male","White","don't know/not political","",NA,"","offCivRatings","the officer shocked the civilian with a tazer","the civilian punched the officer in the face","tazer","punchFace","officerCivilian","manipCheckHigh","50","","","",""
"92",511,"","","instructions",91,180224,"0.0-91.0","wx2dl1sqazpwcqfxwyksr1bn35j1409p","Thu Apr 06 2017 15:03:46 GMT-0400 (EDT)","male","White","don't know/not political","",NA,"[{""page_index"":0,""viewing_time"":511}]","break","","","","","","","","","","",""
"93",1019,"{""Q0"":50}","[object Object]","survey-likert",92,181451,"0.0-92.0","wx2dl1sqazpwcqfxwyksr1bn35j1409p","Thu Apr 06 2017 15:03:46 GMT-0400 (EDT)","male","White","don't know/not political","",NA,"","offCivRatings","the officer slammed the civilian's head into the concrete curb","the civilian shot the officer in the head with a handgun","headSlam","handgunHead","officerCivilian","punishCiv","50","","","",""
"94",1029,"{""Q0"":50}","[object Object]","survey-likert",93,182485,"0.0-93.0","wx2dl1sqazpwcqfxwyksr1bn35j1409p","Thu Apr 06 2017 15:03:46 GMT-0400 (EDT)","male","White","don't know/not political","",NA,"","offCivRatings","the officer slammed the civilian's head into the concrete curb","the civilian shot the officer in the head with a handgun","headSlam","handgunHead","officerCivilian","appropriateCiv","50","","","",""
"95",1173,"{""Q0"":50}","[object Object]","survey-likert",94,183663,"0.0-94.0","wx2dl1sqazpwcqfxwyksr1bn35j1409p","Thu Apr 06 2017 15:03:46 GMT-0400 (EDT)","male","White","don't know/not political","",NA,"","offCivRatings","the officer slammed the civilian's head into the concrete curb","the civilian shot the officer in the head with a handgun","headSlam","handgunHead","officerCivilian","forceCiv","50","","","",""
"96",954,"{""Q0"":50}","[object Object]","survey-likert",95,184621,"0.0-95.0","wx2dl1sqazpwcqfxwyksr1bn35j1409p","Thu Apr 06 2017 15:03:46 GMT-0400 (EDT)","male","White","don't know/not political","",NA,"","offCivRatings","the officer slammed the civilian's head into the concrete curb","the civilian shot the officer in the head with a handgun","headSlam","handgunHead","officerCivilian","acceptableCiv","50","","","",""
"97",2260,"","","instructions",96,186882,"0.0-96.0","wx2dl1sqazpwcqfxwyksr1bn35j1409p","Thu Apr 06 2017 15:03:46 GMT-0400 (EDT)","male","White","don't know/not political","",NA,"[{""page_index"":0,""viewing_time"":2260}]","break","","","","","","","","","","",""
"98",1247,"{""Q0"":50}","[object Object]","survey-likert",97,188337,"0.0-97.0","wx2dl1sqazpwcqfxwyksr1bn35j1409p","Thu Apr 06 2017 15:03:46 GMT-0400 (EDT)","male","White","don't know/not political","",NA,"","offCivRatings","the officer headbutted the civilian in the face","the civilian hit the officer in the chest with a baseball bat","headbutt","ballBat","officerCivilian","punishCiv","50","","","",""
"99",1960,"{""Q0"":49}","[object Object]","survey-likert",98,190301,"0.0-98.0","wx2dl1sqazpwcqfxwyksr1bn35j1409p","Thu Apr 06 2017 15:03:46 GMT-0400 (EDT)","male","White","don't know/not political","",NA,"","offCivRatings","the officer headbutted the civilian in the face","the civilian hit the officer in the chest with a baseball bat","headbutt","ballBat","officerCivilian","appropriateCiv","49","","","",""
"100",957,"{""Q0"":50}","[object Object]","survey-likert",99,191264,"0.0-99.0","wx2dl1sqazpwcqfxwyksr1bn35j1409p","Thu Apr 06 2017 15:03:46 GMT-0400 (EDT)","male","White","don't know/not political","",NA,"","offCivRatings","the officer headbutted the civilian in the face","the civilian hit the officer in the chest with a baseball bat","headbutt","ballBat","officerCivilian","forceCiv","50","","","",""
"101",1752,"{""Q0"":54}","[object Object]","survey-likert",100,193020,"0.0-100.0","wx2dl1sqazpwcqfxwyksr1bn35j1409p","Thu Apr 06 2017 15:03:46 GMT-0400 (EDT)","male","White","don't know/not political","",NA,"","offCivRatings","the officer headbutted the civilian in the face","the civilian hit the officer in the chest with a baseball bat","headbutt","ballBat","officerCivilian","acceptableCiv","54","","","",""
"102",559,"","","instructions",101,193579,"0.0-101.0","wx2dl1sqazpwcqfxwyksr1bn35j1409p","Thu Apr 06 2017 15:03:46 GMT-0400 (EDT)","male","White","don't know/not political","",NA,"[{""page_index"":0,""viewing_time"":559}]","break","","","","","","","","","","",""
"103",767,"{""Q0"":47}","[object Object]","survey-likert",102,194554,"0.0-102.0","wx2dl1sqazpwcqfxwyksr1bn35j1409p","Thu Apr 06 2017 15:03:46 GMT-0400 (EDT)","male","White","don't know/not political","",NA,"","offCivRatings","the officer sprayed the civilian with pepper spray","the civilian called the officer a ""pig""","pepperSpray","nameCall","civilianOfficer","forceOff","47","","","",""
"104",1583,"{""Q0"":50}","[object Object]","survey-likert",103,196141,"0.0-103.0","wx2dl1sqazpwcqfxwyksr1bn35j1409p","Thu Apr 06 2017 15:03:46 GMT-0400 (EDT)","male","White","don't know/not political","",NA,"","offCivRatings","the officer sprayed the civilian with pepper spray","the civilian called the officer a ""pig""","pepperSpray","nameCall","civilianOfficer","acceptableOff","50","","","",""
"105",1318,"{""Q0"":50}","[object Object]","survey-likert",104,197464,"0.0-104.0","wx2dl1sqazpwcqfxwyksr1bn35j1409p","Thu Apr 06 2017 15:03:46 GMT-0400 (EDT)","male","White","don't know/not political","",NA,"","offCivRatings","the officer sprayed the civilian with pepper spray","the civilian called the officer a ""pig""","pepperSpray","nameCall","civilianOfficer","punishOff","50","","","",""
"106",1022,"{""Q0"":50}","[object Object]","survey-likert",105,198490,"0.0-105.0","wx2dl1sqazpwcqfxwyksr1bn35j1409p","Thu Apr 06 2017 15:03:46 GMT-0400 (EDT)","male","White","don't know/not political","",NA,"","offCivRatings","the officer sprayed the civilian with pepper spray","the civilian called the officer a ""pig""","pepperSpray","nameCall","civilianOfficer","appropriateOff","50","","","",""
"107",513,"","","instructions",106,199003,"0.0-106.0","wx2dl1sqazpwcqfxwyksr1bn35j1409p","Thu Apr 06 2017 15:03:46 GMT-0400 (EDT)","male","White","don't know/not political","",NA,"[{""page_index"":0,""viewing_time"":513}]","break","","","","","","","","","","",""
"108",1278,"{""Q0"":50}","[object Object]","survey-likert",107,200487,"0.0-107.0","wx2dl1sqazpwcqfxwyksr1bn35j1409p","Thu Apr 06 2017 15:03:46 GMT-0400 (EDT)","male","White","don't know/not political","",NA,"","offCivRatings","the officer said ""if you touch me, you're gonna get hurt"" to the civilian","the civilian said ""if you touch me, you're gonna get hurt"" to the officer","hurtThreat","hurtThreat","officerCivilian","appropriateCiv","50","","","",""
"109",2645,"{""Q0"":50}","[object Object]","survey-likert",108,203136,"0.0-108.0","wx2dl1sqazpwcqfxwyksr1bn35j1409p","Thu Apr 06 2017 15:03:46 GMT-0400 (EDT)","male","White","don't know/not political","",NA,"","offCivRatings","the officer said ""if you touch me, you're gonna get hurt"" to the civilian","the civilian said ""if you touch me, you're gonna get hurt"" to the officer","hurtThreat","hurtThreat","officerCivilian","forceCiv","50","","","",""
"110",1294,"{""Q0"":50}","[object Object]","survey-likert",109,204434,"0.0-109.0","wx2dl1sqazpwcqfxwyksr1bn35j1409p","Thu Apr 06 2017 15:03:46 GMT-0400 (EDT)","male","White","don't know/not political","",NA,"","offCivRatings","the officer said ""if you touch me, you're gonna get hurt"" to the civilian","the civilian said ""if you touch me, you're gonna get hurt"" to the officer","hurtThreat","hurtThreat","officerCivilian","punishCiv","50","","","",""
"111",1431,"{""Q0"":50}","[object Object]","survey-likert",110,205869,"0.0-110.0","wx2dl1sqazpwcqfxwyksr1bn35j1409p","Thu Apr 06 2017 15:03:46 GMT-0400 (EDT)","male","White","don't know/not political","",NA,"","offCivRatings","the officer said ""if you touch me, you're gonna get hurt"" to the civilian","the civilian said ""if you touch me, you're gonna get hurt"" to the officer","hurtThreat","hurtThreat","officerCivilian","manipCheckLow","50","","","",""
"112",1231,"{""Q0"":50}","[object Object]","survey-likert",111,207105,"0.0-111.0","wx2dl1sqazpwcqfxwyksr1bn35j1409p","Thu Apr 06 2017 15:03:46 GMT-0400 (EDT)","male","White","don't know/not political","",NA,"","offCivRatings","the officer said ""if you touch me, you're gonna get hurt"" to the civilian","the civilian said ""if you touch me, you're gonna get hurt"" to the officer","hurtThreat","hurtThreat","officerCivilian","acceptableCiv","50","","","",""
"113",536,"","","instructions",112,207641,"0.0-112.0","wx2dl1sqazpwcqfxwyksr1bn35j1409p","Thu Apr 06 2017 15:03:46 GMT-0400 (EDT)","male","White","don't know/not political","",NA,"[{""page_index"":0,""viewing_time"":536}]","break","","","","","","","","","","",""
"114",1107,"{""Q0"":50}","[object Object]","survey-likert",113,208956,"0.0-113.0","wx2dl1sqazpwcqfxwyksr1bn35j1409p","Thu Apr 06 2017 15:03:46 GMT-0400 (EDT)","male","White","don't know/not political","",NA,"","offCivRatings","the officer applied a chokehold to the civilian","the civilian shocked the officer with a tazer","choke","tazer","civilianOfficer","forceOff","50","","","",""
"115",1552,"{""Q0"":50}","[object Object]","survey-likert",114,210512,"0.0-114.0","wx2dl1sqazpwcqfxwyksr1bn35j1409p","Thu Apr 06 2017 15:03:46 GMT-0400 (EDT)","male","White","don't know/not political","",NA,"","offCivRatings","the officer applied a chokehold to the civilian","the civilian shocked the officer with a tazer","choke","tazer","civilianOfficer","acceptableOff","50","","","",""
"116",1182,"{""Q0"":50}","[object Object]","survey-likert",115,211698,"0.0-115.0","wx2dl1sqazpwcqfxwyksr1bn35j1409p","Thu Apr 06 2017 15:03:46 GMT-0400 (EDT)","male","White","don't know/not political","",NA,"","offCivRatings","the officer applied a chokehold to the civilian","the civilian shocked the officer with a tazer","choke","tazer","civilianOfficer","punishOff","50","","","",""
"117",2056,"{""Q0"":50}","[object Object]","survey-likert",116,213758,"0.0-116.0","wx2dl1sqazpwcqfxwyksr1bn35j1409p","Thu Apr 06 2017 15:03:46 GMT-0400 (EDT)","male","White","don't know/not political","",NA,"","offCivRatings","the officer applied a chokehold to the civilian","the civilian shocked the officer with a tazer","choke","tazer","civilianOfficer","appropriateOff","50","","","",""
"118",577,"","","instructions",117,214336,"0.0-117.0","wx2dl1sqazpwcqfxwyksr1bn35j1409p","Thu Apr 06 2017 15:03:46 GMT-0400 (EDT)","male","White","don't know/not political","",NA,"[{""page_index"":0,""viewing_time"":577}]","break","","","","","","","","","","",""
"119",1259,"{""Q0"":50}","[object Object]","survey-likert",118,215802,"0.0-118.0","wx2dl1sqazpwcqfxwyksr1bn35j1409p","Thu Apr 06 2017 15:03:46 GMT-0400 (EDT)","male","White","don't know/not political","",NA,"","offCivRatings","the officer purposefully struck the civilian with a motor vehicle","the civilian shouted ""I don't have to fucking listen to you!"" at the officer","vehicle","dontListen","civilianOfficer","acceptableOff","50","","","",""
"120",1239,"{""Q0"":50}","[object Object]","survey-likert",119,217045,"0.0-119.0","wx2dl1sqazpwcqfxwyksr1bn35j1409p","Thu Apr 06 2017 15:03:46 GMT-0400 (EDT)","male","White","don't know/not political","",NA,"","offCivRatings","the officer purposefully struck the civilian with a motor vehicle","the civilian shouted ""I don't have to fucking listen to you!"" at the officer","vehicle","dontListen","civilianOfficer","manipCheckLow","50","","","",""
"121",1432,"{""Q0"":50}","[object Object]","survey-likert",120,218481,"0.0-120.0","wx2dl1sqazpwcqfxwyksr1bn35j1409p","Thu Apr 06 2017 15:03:46 GMT-0400 (EDT)","male","White","don't know/not political","",NA,"","offCivRatings","the officer purposefully struck the civilian with a motor vehicle","the civilian shouted ""I don't have to fucking listen to you!"" at the officer","vehicle","dontListen","civilianOfficer","punishOff","50","","","",""
"122",1486,"{""Q0"":50}","[object Object]","survey-likert",121,219971,"0.0-121.0","wx2dl1sqazpwcqfxwyksr1bn35j1409p","Thu Apr 06 2017 15:03:46 GMT-0400 (EDT)","male","White","don't know/not political","",NA,"","offCivRatings","the officer purposefully struck the civilian with a motor vehicle","the civilian shouted ""I don't have to fucking listen to you!"" at the officer","vehicle","dontListen","civilianOfficer","forceOff","50","","","",""
"123",1382,"{""Q0"":50}","[object Object]","survey-likert",122,221359,"0.0-122.0","wx2dl1sqazpwcqfxwyksr1bn35j1409p","Thu Apr 06 2017 15:03:46 GMT-0400 (EDT)","male","White","don't know/not political","",NA,"","offCivRatings","the officer purposefully struck the civilian with a motor vehicle","the civilian shouted ""I don't have to fucking listen to you!"" at the officer","vehicle","dontListen","civilianOfficer","appropriateOff","50","","","",""
"124",844,"","","instructions",123,222203,"0.0-123.0","wx2dl1sqazpwcqfxwyksr1bn35j1409p","Thu Apr 06 2017 15:03:46 GMT-0400 (EDT)","male","White","don't know/not political","",NA,"[{""page_index"":0,""viewing_time"":844}]","break","","","","","","","","","","",""
"125",1487,"{""Q0"":50}","[object Object]","survey-likert",124,223896,"0.0-124.0","wx2dl1sqazpwcqfxwyksr1bn35j1409p","Thu Apr 06 2017 15:03:46 GMT-0400 (EDT)","male","White","don't know/not political","",NA,"","policeLegitimacy","","","","","","","50","doTreat","feltObligation","",""
"126",1350,"{""Q0"":50}","[object Object]","survey-likert",125,225250,"0.0-125.0","wx2dl1sqazpwcqfxwyksr1bn35j1409p","Thu Apr 06 2017 15:03:46 GMT-0400 (EDT)","male","White","don't know/not political","",NA,"","policeLegitimacy","","","","","","","50","importantValues","normAlignment","",""
"127",2541,"{""Q0"":50}","[object Object]","survey-likert",126,227795,"0.0-126.0","wx2dl1sqazpwcqfxwyksr1bn35j1409p","Thu Apr 06 2017 15:03:46 GMT-0400 (EDT)","male","White","don't know/not political","",NA,"","policeLegitimacy","","","","","","","50","support","feltObligation","",""
"128",1223,"{""Q0"":50}","[object Object]","survey-likert",127,229022,"0.0-127.0","wx2dl1sqazpwcqfxwyksr1bn35j1409p","Thu Apr 06 2017 15:03:46 GMT-0400 (EDT)","male","White","don't know/not political","",NA,"","policeLegitimacy","","","","","","","50","communityWants","normAlignment","",""
"129",1022,"{""Q0"":50}","[object Object]","survey-likert",128,230048,"0.0-128.0","wx2dl1sqazpwcqfxwyksr1bn35j1409p","Thu Apr 06 2017 15:03:46 GMT-0400 (EDT)","male","White","don't know/not political","",NA,"","policeLegitimacy","","","","","","","50","doReasons","feltObligation","",""
"130",1254,"{""Q0"":50}","[object Object]","survey-likert",129,231306,"0.0-129.0","wx2dl1sqazpwcqfxwyksr1bn35j1409p","Thu Apr 06 2017 15:03:46 GMT-0400 (EDT)","male","White","don't know/not political","",NA,"","policeLegitimacy","","","","","","","50","rightWrong","normAlignment","",""
"131",4073,"{""Q0"":""yes""}","[object Object]","survey-multi-choice2",130,235384,"0.0-130.0","wx2dl1sqazpwcqfxwyksr1bn35j1409p","Thu Apr 06 2017 15:03:46 GMT-0400 (EDT)","male","White","don't know/not political","",NA,"","policeExperience","","","","","","","yes","stopped","","vicarious","Has anyone in your household ever been stopped on the street by the police without good reason?"
"132",4361,"{""Q0"":""yes""}","[object Object]","survey-multi-choice2",131,239748,"0.0-131.0","wx2dl1sqazpwcqfxwyksr1bn35j1409p","Thu Apr 06 2017 15:03:46 GMT-0400 (EDT)","male","White","don't know/not political","",NA,"","policeExperience","","","","","","","yes","insultLang","","personal","Have the police ever used insulting language toward you?"
"133",2471,"{""Q0"":""no""}","[object Object]","survey-multi-choice2",132,242221,"0.0-132.0","wx2dl1sqazpwcqfxwyksr1bn35j1409p","Thu Apr 06 2017 15:03:46 GMT-0400 (EDT)","male","White","don't know/not political","",NA,"","policeExperience","","","","","","","no","excessForce","","vicarious","Have the police ever used excessive force against anyone in your household?"
"134",3533,"{""Q0"":""no""}","[object Object]","survey-multi-choice2",133,245756,"0.0-133.0","wx2dl1sqazpwcqfxwyksr1bn35j1409p","Thu Apr 06 2017 15:03:46 GMT-0400 (EDT)","male","White","don't know/not political","",NA,"","policeExperience","","","","","","","no","excessForce","","personal","Have the police ever used excessive force against you?"
"135",4227,"{""Q0"":""no""}","[object Object]","survey-multi-choice2",134,249985,"0.0-134.0","wx2dl1sqazpwcqfxwyksr1bn35j1409p","Thu Apr 06 2017 15:03:46 GMT-0400 (EDT)","male","White","don't know/not political","",NA,"","policeExperience","","","","","","","no","insultLang","","vicarious","Have the police ever used insulting language toward anyone in your household?"
"136",2568,"{""Q0"":""yes""}","[object Object]","survey-multi-choice2",135,252554,"0.0-135.0","wx2dl1sqazpwcqfxwyksr1bn35j1409p","Thu Apr 06 2017 15:03:46 GMT-0400 (EDT)","male","White","don't know/not political","",NA,"","policeExperience","","","","","","","yes","stopped","","personal","Have you ever been stopped by the police on the street without good reason?"
"137",4457,"{""Q0"":""no""}","[object Object]","survey-multi-choice2",136,257013,"0.0-136.0","wx2dl1sqazpwcqfxwyksr1bn35j1409p","Thu Apr 06 2017 15:03:46 GMT-0400 (EDT)","male","White","don't know/not political","",NA,"","policeExperience","","","","","","","no","corrupt","","personal","Have you ever seen a police officer engage in any corrupt activities (e.g., taking bribes or involvement in the drug trade)?"
"138",11105,"{""Q0"":""male"",""Q1"":""White"",""Q2"":""don't know/not political""}","[object Object]","survey-multi-choice",137,268124,"0.0-137.0","wx2dl1sqazpwcqfxwyksr1bn35j1409p","Thu Apr 06 2017 15:03:46 GMT-0400 (EDT)","male","White","don't know/not political","",NA,"","demographics","","","","","","","","","","",""
"139",5488,"","","instructions",138,274616,"0.0-138.0","wx2dl1sqazpwcqfxwyksr1bn35j1409p","Thu Apr 06 2017 15:03:46 GMT-0400 (EDT)","male","White","don't know/not political","",NA,"[{""page_index"":0,""viewing_time"":2598},{""page_index"":1,""viewing_time"":1507},{""page_index"":2,""viewing_time"":536},{""page_index"":3,""viewing_time"":847}]","debriefing","","","","","","","","","","",""
