"","rt","responses","internalResp","trial_type","trial_index","time_elapsed","internal_node_id","randSubjectID","date","sex","race","polAff","stimulus","key_press","view_history","questionType","officerAction","civilianAction","offActName","civActName","order","questionName","response","name","dimension","person","question"
"1",7242,"","[object Object]","survey-text",0,7245,"0.0-0.0","y4xywqe2mo9cywf7lok1bju24mo7mwwj","Mon Apr 10 2017 22:06:38 GMT-0400 (EDT)","male","White","liberal","",NA,"","","","","","","","","","","","",""
"2",5443,"","","single-stim",1,13694,"0.0-1.0","y4xywqe2mo9cywf7lok1bju24mo7mwwj","Mon Apr 10 2017 22:06:38 GMT-0400 (EDT)","male","White","liberal","<img src='static/images/1602685960_ICS_Credit-0.png' alt='Consent 1' height=1100 width=850><img src='static/images/1602685960_ICS_Credit-1.png' alt='Consent 2' height=1100 width=850></p>",89,"","","","","","","","","","","","",""
"3",999,"","","instructions",2,15695,"0.0-2.0","y4xywqe2mo9cywf7lok1bju24mo7mwwj","Mon Apr 10 2017 22:06:38 GMT-0400 (EDT)","male","White","liberal","",NA,"[{""page_index"":0,""viewing_time"":999}]","instructions","","","","","","","","","","",""
"4",112463,"","","instructions",3,129160,"0.0-3.0","y4xywqe2mo9cywf7lok1bju24mo7mwwj","Mon Apr 10 2017 22:06:38 GMT-0400 (EDT)","male","White","liberal","",NA,"[{""page_index"":0,""viewing_time"":1732},{""page_index"":1,""viewing_time"":108759},{""page_index"":2,""viewing_time"":1155},{""page_index"":3,""viewing_time"":816}]","instructions","","","","","","","","","","",""
"5",8288,"{""Q0"":68}","[object Object]","survey-likert",4,138475,"0.0-4.0","y4xywqe2mo9cywf7lok1bju24mo7mwwj","Mon Apr 10 2017 22:06:38 GMT-0400 (EDT)","male","White","liberal","",NA,"","offCivRatings","the officer struck the civilian on the leg with a collapsible baton","the civilian kicked the officer in the stomach","batonLeg","kickStom","civilianOfficer","acceptableOff","68","","","",""
"6",3144,"{""Q0"":56}","[object Object]","survey-likert",5,141627,"0.0-5.0","y4xywqe2mo9cywf7lok1bju24mo7mwwj","Mon Apr 10 2017 22:06:38 GMT-0400 (EDT)","male","White","liberal","",NA,"","offCivRatings","the officer struck the civilian on the leg with a collapsible baton","the civilian kicked the officer in the stomach","batonLeg","kickStom","civilianOfficer","appropriateOff","56","","","",""
"7",2868,"{""Q0"":100}","[object Object]","survey-likert",6,144501,"0.0-6.0","y4xywqe2mo9cywf7lok1bju24mo7mwwj","Mon Apr 10 2017 22:06:38 GMT-0400 (EDT)","male","White","liberal","",NA,"","offCivRatings","the officer struck the civilian on the leg with a collapsible baton","the civilian kicked the officer in the stomach","batonLeg","kickStom","civilianOfficer","forceOff","100","","","",""
"8",3443,"{""Q0"":78}","[object Object]","survey-likert",7,147951,"0.0-7.0","y4xywqe2mo9cywf7lok1bju24mo7mwwj","Mon Apr 10 2017 22:06:38 GMT-0400 (EDT)","male","White","liberal","",NA,"","offCivRatings","the officer struck the civilian on the leg with a collapsible baton","the civilian kicked the officer in the stomach","batonLeg","kickStom","civilianOfficer","punishOff","78","","","",""
"9",47637,"","","instructions",8,195588,"0.0-8.0","y4xywqe2mo9cywf7lok1bju24mo7mwwj","Mon Apr 10 2017 22:06:38 GMT-0400 (EDT)","male","White","liberal","",NA,"[{""page_index"":0,""viewing_time"":47637}]","break","","","","","","","","","","",""
"10",3475,"{""Q0"":78}","[object Object]","survey-likert",9,199272,"0.0-9.0","y4xywqe2mo9cywf7lok1bju24mo7mwwj","Mon Apr 10 2017 22:06:38 GMT-0400 (EDT)","male","White","liberal","",NA,"","offCivRatings","the officer struck the civilian in the stomach with a metal flashlight","the civilian applied a chokehold to the officer","flashlight","choke","civilianOfficer","appropriateOff","78","","","",""
"11",29971,"{""Q0"":56}","[object Object]","survey-likert",10,229248,"0.0-10.0","y4xywqe2mo9cywf7lok1bju24mo7mwwj","Mon Apr 10 2017 22:06:38 GMT-0400 (EDT)","male","White","liberal","",NA,"","offCivRatings","the officer struck the civilian in the stomach with a metal flashlight","the civilian applied a chokehold to the officer","flashlight","choke","civilianOfficer","forceOff","56","","","",""
"12",3640,"{""Q0"":57}","[object Object]","survey-likert",11,232894,"0.0-11.0","y4xywqe2mo9cywf7lok1bju24mo7mwwj","Mon Apr 10 2017 22:06:38 GMT-0400 (EDT)","male","White","liberal","",NA,"","offCivRatings","the officer struck the civilian in the stomach with a metal flashlight","the civilian applied a chokehold to the officer","flashlight","choke","civilianOfficer","acceptableOff","57","","","",""
"13",2846,"{""Q0"":53}","[object Object]","survey-likert",12,235745,"0.0-12.0","y4xywqe2mo9cywf7lok1bju24mo7mwwj","Mon Apr 10 2017 22:06:38 GMT-0400 (EDT)","male","White","liberal","",NA,"","offCivRatings","the officer struck the civilian in the stomach with a metal flashlight","the civilian applied a chokehold to the officer","flashlight","choke","civilianOfficer","punishOff","53","","","",""
"14",658,"","","instructions",13,236404,"0.0-13.0","y4xywqe2mo9cywf7lok1bju24mo7mwwj","Mon Apr 10 2017 22:06:38 GMT-0400 (EDT)","male","White","liberal","",NA,"[{""page_index"":0,""viewing_time"":658}]","break","","","","","","","","","","",""
"15",1117,"{""Q0"":61}","[object Object]","survey-likert",14,237730,"0.0-14.0","y4xywqe2mo9cywf7lok1bju24mo7mwwj","Mon Apr 10 2017 22:06:38 GMT-0400 (EDT)","male","White","liberal","",NA,"","offCivRatings","the officer kicked the civilian in the stomach","the civilian shouted ""I don't have to fucking listen to you!"" at the officer","kickStom","dontListen","officerCivilian","manipCheckLow","61","","","",""
"16",1125,"{""Q0"":67}","[object Object]","survey-likert",15,238861,"0.0-15.0","y4xywqe2mo9cywf7lok1bju24mo7mwwj","Mon Apr 10 2017 22:06:38 GMT-0400 (EDT)","male","White","liberal","",NA,"","offCivRatings","the officer kicked the civilian in the stomach","the civilian shouted ""I don't have to fucking listen to you!"" at the officer","kickStom","dontListen","officerCivilian","acceptableCiv","67","","","",""
"17",1126,"{""Q0"":70}","[object Object]","survey-likert",16,239991,"0.0-16.0","y4xywqe2mo9cywf7lok1bju24mo7mwwj","Mon Apr 10 2017 22:06:38 GMT-0400 (EDT)","male","White","liberal","",NA,"","offCivRatings","the officer kicked the civilian in the stomach","the civilian shouted ""I don't have to fucking listen to you!"" at the officer","kickStom","dontListen","officerCivilian","appropriateCiv","70","","","",""
"18",1938,"{""Q0"":42}","[object Object]","survey-likert",17,241935,"0.0-17.0","y4xywqe2mo9cywf7lok1bju24mo7mwwj","Mon Apr 10 2017 22:06:38 GMT-0400 (EDT)","male","White","liberal","",NA,"","offCivRatings","the officer kicked the civilian in the stomach","the civilian shouted ""I don't have to fucking listen to you!"" at the officer","kickStom","dontListen","officerCivilian","punishCiv","42","","","",""
"19",1177,"{""Q0"":57}","[object Object]","survey-likert",18,243116,"0.0-18.0","y4xywqe2mo9cywf7lok1bju24mo7mwwj","Mon Apr 10 2017 22:06:38 GMT-0400 (EDT)","male","White","liberal","",NA,"","offCivRatings","the officer kicked the civilian in the stomach","the civilian shouted ""I don't have to fucking listen to you!"" at the officer","kickStom","dontListen","officerCivilian","forceCiv","57","","","",""
"20",1294,"","","instructions",19,244410,"0.0-19.0","y4xywqe2mo9cywf7lok1bju24mo7mwwj","Mon Apr 10 2017 22:06:38 GMT-0400 (EDT)","male","White","liberal","",NA,"[{""page_index"":0,""viewing_time"":1293}]","break","","","","","","","","","","",""
"21",1073,"{""Q0"":66}","[object Object]","survey-likert",20,245690,"0.0-20.0","y4xywqe2mo9cywf7lok1bju24mo7mwwj","Mon Apr 10 2017 22:06:38 GMT-0400 (EDT)","male","White","liberal","",NA,"","offCivRatings","the officer punched the civilian in the face","the civilian shocked the officer with a tazer","punchFace","tazer","officerCivilian","acceptableCiv","66","","","",""
"22",1388,"{""Q0"":66}","[object Object]","survey-likert",21,247082,"0.0-21.0","y4xywqe2mo9cywf7lok1bju24mo7mwwj","Mon Apr 10 2017 22:06:38 GMT-0400 (EDT)","male","White","liberal","",NA,"","offCivRatings","the officer punched the civilian in the face","the civilian shocked the officer with a tazer","punchFace","tazer","officerCivilian","appropriateCiv","66","","","",""
"23",1785,"{""Q0"":67}","[object Object]","survey-likert",22,248872,"0.0-22.0","y4xywqe2mo9cywf7lok1bju24mo7mwwj","Mon Apr 10 2017 22:06:38 GMT-0400 (EDT)","male","White","liberal","",NA,"","offCivRatings","the officer punched the civilian in the face","the civilian shocked the officer with a tazer","punchFace","tazer","officerCivilian","punishCiv","67","","","",""
"24",2319,"{""Q0"":68}","[object Object]","survey-likert",23,251195,"0.0-23.0","y4xywqe2mo9cywf7lok1bju24mo7mwwj","Mon Apr 10 2017 22:06:38 GMT-0400 (EDT)","male","White","liberal","",NA,"","offCivRatings","the officer punched the civilian in the face","the civilian shocked the officer with a tazer","punchFace","tazer","officerCivilian","forceCiv","68","","","",""
"25",4471,"{""Q0"":100}","[object Object]","survey-likert",24,255671,"0.0-24.0","y4xywqe2mo9cywf7lok1bju24mo7mwwj","Mon Apr 10 2017 22:06:38 GMT-0400 (EDT)","male","White","liberal","",NA,"","offCivRatings","the officer punched the civilian in the face","the civilian shocked the officer with a tazer","punchFace","tazer","officerCivilian","manipCheckHigh","100","","","",""
"26",836,"","","instructions",25,256507,"0.0-25.0","y4xywqe2mo9cywf7lok1bju24mo7mwwj","Mon Apr 10 2017 22:06:38 GMT-0400 (EDT)","male","White","liberal","",NA,"[{""page_index"":0,""viewing_time"":835}]","break","","","","","","","","","","",""
"27",1666,"{""Q0"":59}","[object Object]","survey-likert",26,258380,"0.0-26.0","y4xywqe2mo9cywf7lok1bju24mo7mwwj","Mon Apr 10 2017 22:06:38 GMT-0400 (EDT)","male","White","liberal","",NA,"","offCivRatings","the officer said ""if you touch me, you're gonna get hurt"" to the civilian","the civilian twisted the arm of the officer, forcing him to the ground","hurtThreat","armbar","officerCivilian","acceptableCiv","59","","","",""
"28",1259,"{""Q0"":59}","[object Object]","survey-likert",27,259643,"0.0-27.0","y4xywqe2mo9cywf7lok1bju24mo7mwwj","Mon Apr 10 2017 22:06:38 GMT-0400 (EDT)","male","White","liberal","",NA,"","offCivRatings","the officer said ""if you touch me, you're gonna get hurt"" to the civilian","the civilian twisted the arm of the officer, forcing him to the ground","hurtThreat","armbar","officerCivilian","appropriateCiv","59","","","",""
"29",2591,"{""Q0"":36}","[object Object]","survey-likert",28,262239,"0.0-28.0","y4xywqe2mo9cywf7lok1bju24mo7mwwj","Mon Apr 10 2017 22:06:38 GMT-0400 (EDT)","male","White","liberal","",NA,"","offCivRatings","the officer said ""if you touch me, you're gonna get hurt"" to the civilian","the civilian twisted the arm of the officer, forcing him to the ground","hurtThreat","armbar","officerCivilian","punishCiv","36","","","",""
"30",2950,"{""Q0"":100}","[object Object]","survey-likert",29,265194,"0.0-29.0","y4xywqe2mo9cywf7lok1bju24mo7mwwj","Mon Apr 10 2017 22:06:38 GMT-0400 (EDT)","male","White","liberal","",NA,"","offCivRatings","the officer said ""if you touch me, you're gonna get hurt"" to the civilian","the civilian twisted the arm of the officer, forcing him to the ground","hurtThreat","armbar","officerCivilian","manipCheckHigh","100","","","",""
"31",1792,"{""Q0"":59}","[object Object]","survey-likert",30,266990,"0.0-30.0","y4xywqe2mo9cywf7lok1bju24mo7mwwj","Mon Apr 10 2017 22:06:38 GMT-0400 (EDT)","male","White","liberal","",NA,"","offCivRatings","the officer said ""if you touch me, you're gonna get hurt"" to the civilian","the civilian twisted the arm of the officer, forcing him to the ground","hurtThreat","armbar","officerCivilian","forceCiv","59","","","",""
"32",1690,"","","instructions",31,268680,"0.0-31.0","y4xywqe2mo9cywf7lok1bju24mo7mwwj","Mon Apr 10 2017 22:06:38 GMT-0400 (EDT)","male","White","liberal","",NA,"[{""page_index"":0,""viewing_time"":1690}]","break","","","","","","","","","","",""
"33",1731,"{""Q0"":41}","[object Object]","survey-likert",32,270618,"0.0-32.0","y4xywqe2mo9cywf7lok1bju24mo7mwwj","Mon Apr 10 2017 22:06:38 GMT-0400 (EDT)","male","White","liberal","",NA,"","offCivRatings","the officer shocked the civilian with a tazer","the civilian stood near the officer","tazer","stoodNear","civilianOfficer","appropriateOff","41","","","",""
"34",1654,"{""Q0"":61}","[object Object]","survey-likert",33,272277,"0.0-33.0","y4xywqe2mo9cywf7lok1bju24mo7mwwj","Mon Apr 10 2017 22:06:38 GMT-0400 (EDT)","male","White","liberal","",NA,"","offCivRatings","the officer shocked the civilian with a tazer","the civilian stood near the officer","tazer","stoodNear","civilianOfficer","acceptableOff","61","","","",""
"35",1884,"{""Q0"":61}","[object Object]","survey-likert",34,274166,"0.0-34.0","y4xywqe2mo9cywf7lok1bju24mo7mwwj","Mon Apr 10 2017 22:06:38 GMT-0400 (EDT)","male","White","liberal","",NA,"","offCivRatings","the officer shocked the civilian with a tazer","the civilian stood near the officer","tazer","stoodNear","civilianOfficer","forceOff","61","","","",""
"36",1544,"{""Q0"":63}","[object Object]","survey-likert",35,275714,"0.0-35.0","y4xywqe2mo9cywf7lok1bju24mo7mwwj","Mon Apr 10 2017 22:06:38 GMT-0400 (EDT)","male","White","liberal","",NA,"","offCivRatings","the officer shocked the civilian with a tazer","the civilian stood near the officer","tazer","stoodNear","civilianOfficer","punishOff","63","","","",""
"37",757,"","","instructions",36,276471,"0.0-36.0","y4xywqe2mo9cywf7lok1bju24mo7mwwj","Mon Apr 10 2017 22:06:38 GMT-0400 (EDT)","male","White","liberal","",NA,"[{""page_index"":0,""viewing_time"":756}]","break","","","","","","","","","","",""
"38",1701,"{""Q0"":63}","[object Object]","survey-likert",37,278379,"0.0-37.0","y4xywqe2mo9cywf7lok1bju24mo7mwwj","Mon Apr 10 2017 22:06:38 GMT-0400 (EDT)","male","White","liberal","",NA,"","offCivRatings","the officer yelled ""get back!"" at the civilian","the civilian waved at the officer in greeting","getBack","waved","officerCivilian","appropriateCiv","63","","","",""
"39",2296,"{""Q0"":39}","[object Object]","survey-likert",38,280679,"0.0-38.0","y4xywqe2mo9cywf7lok1bju24mo7mwwj","Mon Apr 10 2017 22:06:38 GMT-0400 (EDT)","male","White","liberal","",NA,"","offCivRatings","the officer yelled ""get back!"" at the civilian","the civilian waved at the officer in greeting","getBack","waved","officerCivilian","acceptableCiv","39","","","",""
"40",3033,"{""Q0"":40}","[object Object]","survey-likert",39,283717,"0.0-39.0","y4xywqe2mo9cywf7lok1bju24mo7mwwj","Mon Apr 10 2017 22:06:38 GMT-0400 (EDT)","male","White","liberal","",NA,"","offCivRatings","the officer yelled ""get back!"" at the civilian","the civilian waved at the officer in greeting","getBack","waved","officerCivilian","forceCiv","40","","","",""
"41",1940,"{""Q0"":27}","[object Object]","survey-likert",40,285661,"0.0-40.0","y4xywqe2mo9cywf7lok1bju24mo7mwwj","Mon Apr 10 2017 22:06:38 GMT-0400 (EDT)","male","White","liberal","",NA,"","offCivRatings","the officer yelled ""get back!"" at the civilian","the civilian waved at the officer in greeting","getBack","waved","officerCivilian","punishCiv","27","","","",""
"42",1145,"","","instructions",41,286806,"0.0-41.0","y4xywqe2mo9cywf7lok1bju24mo7mwwj","Mon Apr 10 2017 22:06:38 GMT-0400 (EDT)","male","White","liberal","",NA,"[{""page_index"":0,""viewing_time"":1145}]","break","","","","","","","","","","",""
"43",1481,"{""Q0"":43}","[object Object]","survey-likert",42,288495,"0.0-42.0","y4xywqe2mo9cywf7lok1bju24mo7mwwj","Mon Apr 10 2017 22:06:38 GMT-0400 (EDT)","male","White","liberal","",NA,"","offCivRatings","the officer twisted the arm of the civilian, forcing him to the ground","the civilian headbutted the officer in the face","armbar","headbutt","officerCivilian","forceCiv","43","","","",""
"44",2824,"{""Q0"":1}","[object Object]","survey-likert",43,291323,"0.0-43.0","y4xywqe2mo9cywf7lok1bju24mo7mwwj","Mon Apr 10 2017 22:06:38 GMT-0400 (EDT)","male","White","liberal","",NA,"","offCivRatings","the officer twisted the arm of the civilian, forcing him to the ground","the civilian headbutted the officer in the face","armbar","headbutt","officerCivilian","manipCheckLow","1","","","",""
"45",1679,"{""Q0"":33}","[object Object]","survey-likert",44,293007,"0.0-44.0","y4xywqe2mo9cywf7lok1bju24mo7mwwj","Mon Apr 10 2017 22:06:38 GMT-0400 (EDT)","male","White","liberal","",NA,"","offCivRatings","the officer twisted the arm of the civilian, forcing him to the ground","the civilian headbutted the officer in the face","armbar","headbutt","officerCivilian","acceptableCiv","33","","","",""
"46",2080,"{""Q0"":63}","[object Object]","survey-likert",45,295091,"0.0-45.0","y4xywqe2mo9cywf7lok1bju24mo7mwwj","Mon Apr 10 2017 22:06:38 GMT-0400 (EDT)","male","White","liberal","",NA,"","offCivRatings","the officer twisted the arm of the civilian, forcing him to the ground","the civilian headbutted the officer in the face","armbar","headbutt","officerCivilian","appropriateCiv","63","","","",""
"47",1177,"{""Q0"":55}","[object Object]","survey-likert",46,296272,"0.0-46.0","y4xywqe2mo9cywf7lok1bju24mo7mwwj","Mon Apr 10 2017 22:06:38 GMT-0400 (EDT)","male","White","liberal","",NA,"","offCivRatings","the officer twisted the arm of the civilian, forcing him to the ground","the civilian headbutted the officer in the face","armbar","headbutt","officerCivilian","punishCiv","55","","","",""
"48",626,"","","instructions",47,296898,"0.0-47.0","y4xywqe2mo9cywf7lok1bju24mo7mwwj","Mon Apr 10 2017 22:06:38 GMT-0400 (EDT)","male","White","liberal","",NA,"[{""page_index"":0,""viewing_time"":626}]","break","","","","","","","","","","",""
"49",3410,"{""Q0"":100}","[object Object]","survey-likert",48,300515,"0.0-48.0","y4xywqe2mo9cywf7lok1bju24mo7mwwj","Mon Apr 10 2017 22:06:38 GMT-0400 (EDT)","male","White","liberal","",NA,"","offCivRatings","the officer shouted ""get your fucking hands up!"" at the civilian","the civilian said ""if you touch me, you're gonna get hurt"" to the officer","handsUp","hurtThreat","civilianOfficer","manipCheckHigh","100","","","",""
"50",2736,"{""Q0"":43}","[object Object]","survey-likert",49,303255,"0.0-49.0","y4xywqe2mo9cywf7lok1bju24mo7mwwj","Mon Apr 10 2017 22:06:38 GMT-0400 (EDT)","male","White","liberal","",NA,"","offCivRatings","the officer shouted ""get your fucking hands up!"" at the civilian","the civilian said ""if you touch me, you're gonna get hurt"" to the officer","handsUp","hurtThreat","civilianOfficer","acceptableOff","43","","","",""
"51",5014,"{""Q0"":59}","[object Object]","survey-likert",50,308273,"0.0-50.0","y4xywqe2mo9cywf7lok1bju24mo7mwwj","Mon Apr 10 2017 22:06:38 GMT-0400 (EDT)","male","White","liberal","",NA,"","offCivRatings","the officer shouted ""get your fucking hands up!"" at the civilian","the civilian said ""if you touch me, you're gonna get hurt"" to the officer","handsUp","hurtThreat","civilianOfficer","appropriateOff","59","","","",""
"52",2501,"{""Q0"":59}","[object Object]","survey-likert",51,310778,"0.0-51.0","y4xywqe2mo9cywf7lok1bju24mo7mwwj","Mon Apr 10 2017 22:06:38 GMT-0400 (EDT)","male","White","liberal","",NA,"","offCivRatings","the officer shouted ""get your fucking hands up!"" at the civilian","the civilian said ""if you touch me, you're gonna get hurt"" to the officer","handsUp","hurtThreat","civilianOfficer","forceOff","59","","","",""
"53",1267,"{""Q0"":37}","[object Object]","survey-likert",52,312050,"0.0-52.0","y4xywqe2mo9cywf7lok1bju24mo7mwwj","Mon Apr 10 2017 22:06:38 GMT-0400 (EDT)","male","White","liberal","",NA,"","offCivRatings","the officer shouted ""get your fucking hands up!"" at the civilian","the civilian said ""if you touch me, you're gonna get hurt"" to the officer","handsUp","hurtThreat","civilianOfficer","punishOff","37","","","",""
"54",675,"","","instructions",53,312725,"0.0-53.0","y4xywqe2mo9cywf7lok1bju24mo7mwwj","Mon Apr 10 2017 22:06:38 GMT-0400 (EDT)","male","White","liberal","",NA,"[{""page_index"":0,""viewing_time"":675}]","break","","","","","","","","","","",""
"55",1268,"{""Q0"":60}","[object Object]","survey-likert",54,314200,"0.0-54.0","y4xywqe2mo9cywf7lok1bju24mo7mwwj","Mon Apr 10 2017 22:06:38 GMT-0400 (EDT)","male","White","liberal","",NA,"","offCivRatings","the officer shot the civilian in the chest with a handgun","the civilian struck the officer in the stomach with a metal flashlight","handgunChest","flashlight","civilianOfficer","forceOff","60","","","",""
"56",1506,"{""Q0"":37}","[object Object]","survey-likert",55,315710,"0.0-55.0","y4xywqe2mo9cywf7lok1bju24mo7mwwj","Mon Apr 10 2017 22:06:38 GMT-0400 (EDT)","male","White","liberal","",NA,"","offCivRatings","the officer shot the civilian in the chest with a handgun","the civilian struck the officer in the stomach with a metal flashlight","handgunChest","flashlight","civilianOfficer","appropriateOff","37","","","",""
"57",1519,"{""Q0"":42}","[object Object]","survey-likert",56,317234,"0.0-56.0","y4xywqe2mo9cywf7lok1bju24mo7mwwj","Mon Apr 10 2017 22:06:38 GMT-0400 (EDT)","male","White","liberal","",NA,"","offCivRatings","the officer shot the civilian in the chest with a handgun","the civilian struck the officer in the stomach with a metal flashlight","handgunChest","flashlight","civilianOfficer","acceptableOff","42","","","",""
"58",2252,"{""Q0"":40}","[object Object]","survey-likert",57,319490,"0.0-57.0","y4xywqe2mo9cywf7lok1bju24mo7mwwj","Mon Apr 10 2017 22:06:38 GMT-0400 (EDT)","male","White","liberal","",NA,"","offCivRatings","the officer shot the civilian in the chest with a handgun","the civilian struck the officer in the stomach with a metal flashlight","handgunChest","flashlight","civilianOfficer","punishOff","40","","","",""
"59",725,"","","instructions",58,320215,"0.0-58.0","y4xywqe2mo9cywf7lok1bju24mo7mwwj","Mon Apr 10 2017 22:06:38 GMT-0400 (EDT)","male","White","liberal","",NA,"[{""page_index"":0,""viewing_time"":725}]","break","","","","","","","","","","",""
"60",1537,"{""Q0"":43}","[object Object]","survey-likert",59,321959,"0.0-59.0","y4xywqe2mo9cywf7lok1bju24mo7mwwj","Mon Apr 10 2017 22:06:38 GMT-0400 (EDT)","male","White","liberal","",NA,"","offCivRatings","the officer slammed the civilian's head into the concrete curb","the civilian shot the officer in the head with a handgun","headSlam","handgunHead","civilianOfficer","acceptableOff","43","","","",""
"61",3228,"{""Q0"":41}","[object Object]","survey-likert",60,325191,"0.0-60.0","y4xywqe2mo9cywf7lok1bju24mo7mwwj","Mon Apr 10 2017 22:06:38 GMT-0400 (EDT)","male","White","liberal","",NA,"","offCivRatings","the officer slammed the civilian's head into the concrete curb","the civilian shot the officer in the head with a handgun","headSlam","handgunHead","civilianOfficer","punishOff","41","","","",""
"62",3391,"{""Q0"":1}","[object Object]","survey-likert",61,328586,"0.0-61.0","y4xywqe2mo9cywf7lok1bju24mo7mwwj","Mon Apr 10 2017 22:06:38 GMT-0400 (EDT)","male","White","liberal","",NA,"","offCivRatings","the officer slammed the civilian's head into the concrete curb","the civilian shot the officer in the head with a handgun","headSlam","handgunHead","civilianOfficer","manipCheckLow","1","","","",""
"63",2283,"{""Q0"":59}","[object Object]","survey-likert",62,330873,"0.0-62.0","y4xywqe2mo9cywf7lok1bju24mo7mwwj","Mon Apr 10 2017 22:06:38 GMT-0400 (EDT)","male","White","liberal","",NA,"","offCivRatings","the officer slammed the civilian's head into the concrete curb","the civilian shot the officer in the head with a handgun","headSlam","handgunHead","civilianOfficer","forceOff","59","","","",""
"64",1987,"{""Q0"":36}","[object Object]","survey-likert",63,332863,"0.0-63.0","y4xywqe2mo9cywf7lok1bju24mo7mwwj","Mon Apr 10 2017 22:06:38 GMT-0400 (EDT)","male","White","liberal","",NA,"","offCivRatings","the officer slammed the civilian's head into the concrete curb","the civilian shot the officer in the head with a handgun","headSlam","handgunHead","civilianOfficer","appropriateOff","36","","","",""
"65",755,"","","instructions",64,333618,"0.0-64.0","y4xywqe2mo9cywf7lok1bju24mo7mwwj","Mon Apr 10 2017 22:06:38 GMT-0400 (EDT)","male","White","liberal","",NA,"[{""page_index"":0,""viewing_time"":755}]","break","","","","","","","","","","",""
"66",2657,"{""Q0"":59}","[object Object]","survey-likert",65,336482,"0.0-65.0","y4xywqe2mo9cywf7lok1bju24mo7mwwj","Mon Apr 10 2017 22:06:38 GMT-0400 (EDT)","male","White","liberal","",NA,"","offCivRatings","the officer headbutted the civilian in the face","the civilian purposefully struck the officer with a motor vehicle","headbutt","vehicle","civilianOfficer","acceptableOff","59","","","",""
"67",1677,"{""Q0"":67}","[object Object]","survey-likert",66,338163,"0.0-66.0","y4xywqe2mo9cywf7lok1bju24mo7mwwj","Mon Apr 10 2017 22:06:38 GMT-0400 (EDT)","male","White","liberal","",NA,"","offCivRatings","the officer headbutted the civilian in the face","the civilian purposefully struck the officer with a motor vehicle","headbutt","vehicle","civilianOfficer","punishOff","67","","","",""
"68",1604,"{""Q0"":28}","[object Object]","survey-likert",67,339771,"0.0-67.0","y4xywqe2mo9cywf7lok1bju24mo7mwwj","Mon Apr 10 2017 22:06:38 GMT-0400 (EDT)","male","White","liberal","",NA,"","offCivRatings","the officer headbutted the civilian in the face","the civilian purposefully struck the officer with a motor vehicle","headbutt","vehicle","civilianOfficer","forceOff","28","","","",""
"69",1358,"{""Q0"":42}","[object Object]","survey-likert",68,341133,"0.0-68.0","y4xywqe2mo9cywf7lok1bju24mo7mwwj","Mon Apr 10 2017 22:06:38 GMT-0400 (EDT)","male","White","liberal","",NA,"","offCivRatings","the officer headbutted the civilian in the face","the civilian purposefully struck the officer with a motor vehicle","headbutt","vehicle","civilianOfficer","appropriateOff","42","","","",""
"70",2264,"{""Q0"":100}","[object Object]","survey-likert",69,343401,"0.0-69.0","y4xywqe2mo9cywf7lok1bju24mo7mwwj","Mon Apr 10 2017 22:06:38 GMT-0400 (EDT)","male","White","liberal","",NA,"","offCivRatings","the officer headbutted the civilian in the face","the civilian purposefully struck the officer with a motor vehicle","headbutt","vehicle","civilianOfficer","manipCheckHigh","100","","","",""
"71",717,"","","instructions",70,344118,"0.0-70.0","y4xywqe2mo9cywf7lok1bju24mo7mwwj","Mon Apr 10 2017 22:06:38 GMT-0400 (EDT)","male","White","liberal","",NA,"[{""page_index"":0,""viewing_time"":717}]","break","","","","","","","","","","",""
"72",2379,"{""Q0"":43}","[object Object]","survey-likert",71,346703,"0.0-71.0","y4xywqe2mo9cywf7lok1bju24mo7mwwj","Mon Apr 10 2017 22:06:38 GMT-0400 (EDT)","male","White","liberal","",NA,"","offCivRatings","the officer waved at the civilian in greeting","the civilian hit the officer in the chest with a baseball bat","waved","ballBat","civilianOfficer","acceptableOff","43","","","",""
"73",1365,"{""Q0"":35}","[object Object]","survey-likert",72,348071,"0.0-72.0","y4xywqe2mo9cywf7lok1bju24mo7mwwj","Mon Apr 10 2017 22:06:38 GMT-0400 (EDT)","male","White","liberal","",NA,"","offCivRatings","the officer waved at the civilian in greeting","the civilian hit the officer in the chest with a baseball bat","waved","ballBat","civilianOfficer","forceOff","35","","","",""
"74",1307,"{""Q0"":45}","[object Object]","survey-likert",73,349382,"0.0-73.0","y4xywqe2mo9cywf7lok1bju24mo7mwwj","Mon Apr 10 2017 22:06:38 GMT-0400 (EDT)","male","White","liberal","",NA,"","offCivRatings","the officer waved at the civilian in greeting","the civilian hit the officer in the chest with a baseball bat","waved","ballBat","civilianOfficer","appropriateOff","45","","","",""
"75",1761,"{""Q0"":65}","[object Object]","survey-likert",74,351146,"0.0-74.0","y4xywqe2mo9cywf7lok1bju24mo7mwwj","Mon Apr 10 2017 22:06:38 GMT-0400 (EDT)","male","White","liberal","",NA,"","offCivRatings","the officer waved at the civilian in greeting","the civilian hit the officer in the chest with a baseball bat","waved","ballBat","civilianOfficer","punishOff","65","","","",""
"76",3236,"{""Q0"":1}","[object Object]","survey-likert",75,354386,"0.0-75.0","y4xywqe2mo9cywf7lok1bju24mo7mwwj","Mon Apr 10 2017 22:06:38 GMT-0400 (EDT)","male","White","liberal","",NA,"","offCivRatings","the officer waved at the civilian in greeting","the civilian hit the officer in the chest with a baseball bat","waved","ballBat","civilianOfficer","manipCheckLow","1","","","",""
"77",676,"","","instructions",76,355062,"0.0-76.0","y4xywqe2mo9cywf7lok1bju24mo7mwwj","Mon Apr 10 2017 22:06:38 GMT-0400 (EDT)","male","White","liberal","",NA,"[{""page_index"":0,""viewing_time"":676}]","break","","","","","","","","","","",""
"78",2126,"{""Q0"":63}","[object Object]","survey-likert",77,357395,"0.0-77.0","y4xywqe2mo9cywf7lok1bju24mo7mwwj","Mon Apr 10 2017 22:06:38 GMT-0400 (EDT)","male","White","liberal","",NA,"","offCivRatings","the officer stood near the civilian","the civilian sprayed the officer with pepper spray","stoodNear","pepperSpray","officerCivilian","appropriateCiv","63","","","",""
"79",5300,"{""Q0"":2}","[object Object]","survey-likert",78,362699,"0.0-78.0","y4xywqe2mo9cywf7lok1bju24mo7mwwj","Mon Apr 10 2017 22:06:38 GMT-0400 (EDT)","male","White","liberal","",NA,"","offCivRatings","the officer stood near the civilian","the civilian sprayed the officer with pepper spray","stoodNear","pepperSpray","officerCivilian","acceptableCiv","2","","","",""
"80",3419,"{""Q0"":1}","[object Object]","survey-likert",79,366122,"0.0-79.0","y4xywqe2mo9cywf7lok1bju24mo7mwwj","Mon Apr 10 2017 22:06:38 GMT-0400 (EDT)","male","White","liberal","",NA,"","offCivRatings","the officer stood near the civilian","the civilian sprayed the officer with pepper spray","stoodNear","pepperSpray","officerCivilian","forceCiv","1","","","",""
"81",4205,"{""Q0"":78}","[object Object]","survey-likert",80,370331,"0.0-80.0","y4xywqe2mo9cywf7lok1bju24mo7mwwj","Mon Apr 10 2017 22:06:38 GMT-0400 (EDT)","male","White","liberal","",NA,"","offCivRatings","the officer stood near the civilian","the civilian sprayed the officer with pepper spray","stoodNear","pepperSpray","officerCivilian","punishCiv","78","","","",""
"82",1225,"","","instructions",81,371556,"0.0-81.0","y4xywqe2mo9cywf7lok1bju24mo7mwwj","Mon Apr 10 2017 22:06:38 GMT-0400 (EDT)","male","White","liberal","",NA,"[{""page_index"":0,""viewing_time"":1225}]","break","","","","","","","","","","",""
"83",1784,"{""Q0"":44}","[object Object]","survey-likert",82,373547,"0.0-82.0","y4xywqe2mo9cywf7lok1bju24mo7mwwj","Mon Apr 10 2017 22:06:38 GMT-0400 (EDT)","male","White","liberal","",NA,"","offCivRatings","the officer sprayed the civilian with pepper spray","the civilian punched the officer in the face","pepperSpray","punchFace","civilianOfficer","appropriateOff","44","","","",""
"84",1997,"{""Q0"":59}","[object Object]","survey-likert",83,375548,"0.0-83.0","y4xywqe2mo9cywf7lok1bju24mo7mwwj","Mon Apr 10 2017 22:06:38 GMT-0400 (EDT)","male","White","liberal","",NA,"","offCivRatings","the officer sprayed the civilian with pepper spray","the civilian punched the officer in the face","pepperSpray","punchFace","civilianOfficer","acceptableOff","59","","","",""
"85",1259,"{""Q0"":60}","[object Object]","survey-likert",84,376811,"0.0-84.0","y4xywqe2mo9cywf7lok1bju24mo7mwwj","Mon Apr 10 2017 22:06:38 GMT-0400 (EDT)","male","White","liberal","",NA,"","offCivRatings","the officer sprayed the civilian with pepper spray","the civilian punched the officer in the face","pepperSpray","punchFace","civilianOfficer","punishOff","60","","","",""
"86",1606,"{""Q0"":33}","[object Object]","survey-likert",85,378421,"0.0-85.0","y4xywqe2mo9cywf7lok1bju24mo7mwwj","Mon Apr 10 2017 22:06:38 GMT-0400 (EDT)","male","White","liberal","",NA,"","offCivRatings","the officer sprayed the civilian with pepper spray","the civilian punched the officer in the face","pepperSpray","punchFace","civilianOfficer","forceOff","33","","","",""
"87",1590,"","","instructions",86,380012,"0.0-86.0","y4xywqe2mo9cywf7lok1bju24mo7mwwj","Mon Apr 10 2017 22:06:38 GMT-0400 (EDT)","male","White","liberal","",NA,"[{""page_index"":0,""viewing_time"":1590}]","break","","","","","","","","","","",""
"88",2304,"{""Q0"":43}","[object Object]","survey-likert",87,382522,"0.0-87.0","y4xywqe2mo9cywf7lok1bju24mo7mwwj","Mon Apr 10 2017 22:06:38 GMT-0400 (EDT)","male","White","liberal","",NA,"","offCivRatings","the officer shot the civilian in the head with a handgun","the civilian called the officer a ""pig""","handgunHead","nameCall","officerCivilian","forceCiv","43","","","",""
"89",2442,"{""Q0"":66}","[object Object]","survey-likert",88,384967,"0.0-88.0","y4xywqe2mo9cywf7lok1bju24mo7mwwj","Mon Apr 10 2017 22:06:38 GMT-0400 (EDT)","male","White","liberal","",NA,"","offCivRatings","the officer shot the civilian in the head with a handgun","the civilian called the officer a ""pig""","handgunHead","nameCall","officerCivilian","appropriateCiv","66","","","",""
"90",1294,"{""Q0"":59}","[object Object]","survey-likert",89,386265,"0.0-89.0","y4xywqe2mo9cywf7lok1bju24mo7mwwj","Mon Apr 10 2017 22:06:38 GMT-0400 (EDT)","male","White","liberal","",NA,"","offCivRatings","the officer shot the civilian in the head with a handgun","the civilian called the officer a ""pig""","handgunHead","nameCall","officerCivilian","punishCiv","59","","","",""
"91",2045,"{""Q0"":22}","[object Object]","survey-likert",90,388315,"0.0-90.0","y4xywqe2mo9cywf7lok1bju24mo7mwwj","Mon Apr 10 2017 22:06:38 GMT-0400 (EDT)","male","White","liberal","",NA,"","offCivRatings","the officer shot the civilian in the head with a handgun","the civilian called the officer a ""pig""","handgunHead","nameCall","officerCivilian","acceptableCiv","22","","","",""
"92",733,"","","instructions",91,389049,"0.0-91.0","y4xywqe2mo9cywf7lok1bju24mo7mwwj","Mon Apr 10 2017 22:06:38 GMT-0400 (EDT)","male","White","liberal","",NA,"[{""page_index"":0,""viewing_time"":733}]","break","","","","","","","","","","",""
"93",18762,"{""Q0"":63}","[object Object]","survey-likert",92,408017,"0.0-92.0","y4xywqe2mo9cywf7lok1bju24mo7mwwj","Mon Apr 10 2017 22:06:38 GMT-0400 (EDT)","male","White","liberal","",NA,"","offCivRatings","the officer purposefully struck the civilian with a motor vehicle","the civilian yelled ""get back!"" at the officer","vehicle","getBack","civilianOfficer","punishOff","63","","","",""
"94",2661,"{""Q0"":66}","[object Object]","survey-likert",93,410683,"0.0-93.0","y4xywqe2mo9cywf7lok1bju24mo7mwwj","Mon Apr 10 2017 22:06:38 GMT-0400 (EDT)","male","White","liberal","",NA,"","offCivRatings","the officer purposefully struck the civilian with a motor vehicle","the civilian yelled ""get back!"" at the officer","vehicle","getBack","civilianOfficer","forceOff","66","","","",""
"95",1575,"{""Q0"":40}","[object Object]","survey-likert",94,412261,"0.0-94.0","y4xywqe2mo9cywf7lok1bju24mo7mwwj","Mon Apr 10 2017 22:06:38 GMT-0400 (EDT)","male","White","liberal","",NA,"","offCivRatings","the officer purposefully struck the civilian with a motor vehicle","the civilian yelled ""get back!"" at the officer","vehicle","getBack","civilianOfficer","acceptableOff","40","","","",""
"96",1985,"{""Q0"":38}","[object Object]","survey-likert",95,414251,"0.0-95.0","y4xywqe2mo9cywf7lok1bju24mo7mwwj","Mon Apr 10 2017 22:06:38 GMT-0400 (EDT)","male","White","liberal","",NA,"","offCivRatings","the officer purposefully struck the civilian with a motor vehicle","the civilian yelled ""get back!"" at the officer","vehicle","getBack","civilianOfficer","appropriateOff","38","","","",""
"97",1811,"","","instructions",96,416062,"0.0-96.0","y4xywqe2mo9cywf7lok1bju24mo7mwwj","Mon Apr 10 2017 22:06:38 GMT-0400 (EDT)","male","White","liberal","",NA,"[{""page_index"":0,""viewing_time"":1811}]","break","","","","","","","","","","",""
"98",14156,"{""Q0"":1}","[object Object]","survey-likert",97,430424,"0.0-97.0","y4xywqe2mo9cywf7lok1bju24mo7mwwj","Mon Apr 10 2017 22:06:38 GMT-0400 (EDT)","male","White","liberal","",NA,"","offCivRatings","the officer shot the civilian in the chest with a beanbag shotgun round","the civilian asked the officer how he was doing","beanbag","asked","civilianOfficer","appropriateOff","1","","","",""
"99",3651,"{""Q0"":1}","[object Object]","survey-likert",98,434078,"0.0-98.0","y4xywqe2mo9cywf7lok1bju24mo7mwwj","Mon Apr 10 2017 22:06:38 GMT-0400 (EDT)","male","White","liberal","",NA,"","offCivRatings","the officer shot the civilian in the chest with a beanbag shotgun round","the civilian asked the officer how he was doing","beanbag","asked","civilianOfficer","manipCheckLow","1","","","",""
"100",2447,"{""Q0"":1}","[object Object]","survey-likert",99,436530,"0.0-99.0","y4xywqe2mo9cywf7lok1bju24mo7mwwj","Mon Apr 10 2017 22:06:38 GMT-0400 (EDT)","male","White","liberal","",NA,"","offCivRatings","the officer shot the civilian in the chest with a beanbag shotgun round","the civilian asked the officer how he was doing","beanbag","asked","civilianOfficer","forceOff","1","","","",""
"101",3235,"{""Q0"":1}","[object Object]","survey-likert",100,439768,"0.0-100.0","y4xywqe2mo9cywf7lok1bju24mo7mwwj","Mon Apr 10 2017 22:06:38 GMT-0400 (EDT)","male","White","liberal","",NA,"","offCivRatings","the officer shot the civilian in the chest with a beanbag shotgun round","the civilian asked the officer how he was doing","beanbag","asked","civilianOfficer","punishOff","1","","","",""
"102",2614,"{""Q0"":100}","[object Object]","survey-likert",101,442387,"0.0-101.0","y4xywqe2mo9cywf7lok1bju24mo7mwwj","Mon Apr 10 2017 22:06:38 GMT-0400 (EDT)","male","White","liberal","",NA,"","offCivRatings","the officer shot the civilian in the chest with a beanbag shotgun round","the civilian asked the officer how he was doing","beanbag","asked","civilianOfficer","acceptableOff","100","","","",""
"103",603,"","","instructions",102,442991,"0.0-102.0","y4xywqe2mo9cywf7lok1bju24mo7mwwj","Mon Apr 10 2017 22:06:38 GMT-0400 (EDT)","male","White","liberal","",NA,"[{""page_index"":0,""viewing_time"":603}]","break","","","","","","","","","","",""
"104",53850,"{""Q0"":62}","[object Object]","survey-likert",103,497047,"0.0-103.0","y4xywqe2mo9cywf7lok1bju24mo7mwwj","Mon Apr 10 2017 22:06:38 GMT-0400 (EDT)","male","White","liberal","",NA,"","offCivRatings","the officer put handcuffs on the civilian","the civilian shot the officer in the chest with a handgun","handcuff","handgunChest","officerCivilian","acceptableCiv","62","","","",""
"105",2325,"{""Q0"":70}","[object Object]","survey-likert",104,499376,"0.0-104.0","y4xywqe2mo9cywf7lok1bju24mo7mwwj","Mon Apr 10 2017 22:06:38 GMT-0400 (EDT)","male","White","liberal","",NA,"","offCivRatings","the officer put handcuffs on the civilian","the civilian shot the officer in the chest with a handgun","handcuff","handgunChest","officerCivilian","forceCiv","70","","","",""
"106",4570,"{""Q0"":74}","[object Object]","survey-likert",105,503951,"0.0-105.0","y4xywqe2mo9cywf7lok1bju24mo7mwwj","Mon Apr 10 2017 22:06:38 GMT-0400 (EDT)","male","White","liberal","",NA,"","offCivRatings","the officer put handcuffs on the civilian","the civilian shot the officer in the chest with a handgun","handcuff","handgunChest","officerCivilian","punishCiv","74","","","",""
"107",1985,"{""Q0"":67}","[object Object]","survey-likert",106,505940,"0.0-106.0","y4xywqe2mo9cywf7lok1bju24mo7mwwj","Mon Apr 10 2017 22:06:38 GMT-0400 (EDT)","male","White","liberal","",NA,"","offCivRatings","the officer put handcuffs on the civilian","the civilian shot the officer in the chest with a handgun","handcuff","handgunChest","officerCivilian","appropriateCiv","67","","","",""
"108",3013,"{""Q0"":100}","[object Object]","survey-likert",107,508957,"0.0-107.0","y4xywqe2mo9cywf7lok1bju24mo7mwwj","Mon Apr 10 2017 22:06:38 GMT-0400 (EDT)","male","White","liberal","",NA,"","offCivRatings","the officer put handcuffs on the civilian","the civilian shot the officer in the chest with a handgun","handcuff","handgunChest","officerCivilian","manipCheckHigh","100","","","",""
"109",1016,"","","instructions",108,509973,"0.0-108.0","y4xywqe2mo9cywf7lok1bju24mo7mwwj","Mon Apr 10 2017 22:06:38 GMT-0400 (EDT)","male","White","liberal","",NA,"[{""page_index"":0,""viewing_time"":1016}]","break","","","","","","","","","","",""
"110",9210,"{""Q0"":96}","[object Object]","survey-likert",109,519389,"0.0-109.0","y4xywqe2mo9cywf7lok1bju24mo7mwwj","Mon Apr 10 2017 22:06:38 GMT-0400 (EDT)","male","White","liberal","",NA,"","offCivRatings","the officer called the civilian a ""thug""","the civilian slammed the officer's head into the concrete curb","nameCall","headSlam","officerCivilian","acceptableCiv","96","","","",""
"111",2053,"{""Q0"":60}","[object Object]","survey-likert",110,521446,"0.0-110.0","y4xywqe2mo9cywf7lok1bju24mo7mwwj","Mon Apr 10 2017 22:06:38 GMT-0400 (EDT)","male","White","liberal","",NA,"","offCivRatings","the officer called the civilian a ""thug""","the civilian slammed the officer's head into the concrete curb","nameCall","headSlam","officerCivilian","forceCiv","60","","","",""
"112",2219,"{""Q0"":38}","[object Object]","survey-likert",111,523669,"0.0-111.0","y4xywqe2mo9cywf7lok1bju24mo7mwwj","Mon Apr 10 2017 22:06:38 GMT-0400 (EDT)","male","White","liberal","",NA,"","offCivRatings","the officer called the civilian a ""thug""","the civilian slammed the officer's head into the concrete curb","nameCall","headSlam","officerCivilian","punishCiv","38","","","",""
"113",1487,"{""Q0"":63}","[object Object]","survey-likert",112,525159,"0.0-112.0","y4xywqe2mo9cywf7lok1bju24mo7mwwj","Mon Apr 10 2017 22:06:38 GMT-0400 (EDT)","male","White","liberal","",NA,"","offCivRatings","the officer called the civilian a ""thug""","the civilian slammed the officer's head into the concrete curb","nameCall","headSlam","officerCivilian","appropriateCiv","63","","","",""
"114",576,"","","instructions",113,525735,"0.0-113.0","y4xywqe2mo9cywf7lok1bju24mo7mwwj","Mon Apr 10 2017 22:06:38 GMT-0400 (EDT)","male","White","liberal","",NA,"[{""page_index"":0,""viewing_time"":576}]","break","","","","","","","","","","",""
"115",3219,"{""Q0"":77}","[object Object]","survey-likert",114,529161,"0.0-114.0","y4xywqe2mo9cywf7lok1bju24mo7mwwj","Mon Apr 10 2017 22:06:38 GMT-0400 (EDT)","male","White","liberal","",NA,"","offCivRatings","the officer asked the civilian how he was doing","the civilian pulled away from the officer","asked","pulledAway","officerCivilian","forceCiv","77","","","",""
"116",1956,"{""Q0"":92}","[object Object]","survey-likert",115,531121,"0.0-115.0","y4xywqe2mo9cywf7lok1bju24mo7mwwj","Mon Apr 10 2017 22:06:38 GMT-0400 (EDT)","male","White","liberal","",NA,"","offCivRatings","the officer asked the civilian how he was doing","the civilian pulled away from the officer","asked","pulledAway","officerCivilian","punishCiv","92","","","",""
"117",1672,"{""Q0"":57}","[object Object]","survey-likert",116,532799,"0.0-116.0","y4xywqe2mo9cywf7lok1bju24mo7mwwj","Mon Apr 10 2017 22:06:38 GMT-0400 (EDT)","male","White","liberal","",NA,"","offCivRatings","the officer asked the civilian how he was doing","the civilian pulled away from the officer","asked","pulledAway","officerCivilian","appropriateCiv","57","","","",""
"118",1369,"{""Q0"":35}","[object Object]","survey-likert",117,534171,"0.0-117.0","y4xywqe2mo9cywf7lok1bju24mo7mwwj","Mon Apr 10 2017 22:06:38 GMT-0400 (EDT)","male","White","liberal","",NA,"","offCivRatings","the officer asked the civilian how he was doing","the civilian pulled away from the officer","asked","pulledAway","officerCivilian","acceptableCiv","35","","","",""
"119",1097,"","","instructions",118,535268,"0.0-118.0","y4xywqe2mo9cywf7lok1bju24mo7mwwj","Mon Apr 10 2017 22:06:38 GMT-0400 (EDT)","male","White","liberal","",NA,"[{""page_index"":0,""viewing_time"":1097}]","break","","","","","","","","","","",""
"120",6893,"{""Q0"":39}","[object Object]","survey-likert",119,542367,"0.0-119.0","y4xywqe2mo9cywf7lok1bju24mo7mwwj","Mon Apr 10 2017 22:06:38 GMT-0400 (EDT)","male","White","liberal","",NA,"","offCivRatings","the officer applied a chokehold to the civilian","the civilian struck the officer on the leg with a metal pipe","choke","metalPipe","officerCivilian","acceptableCiv","39","","","",""
"121",1899,"{""Q0"":62}","[object Object]","survey-likert",120,544270,"0.0-120.0","y4xywqe2mo9cywf7lok1bju24mo7mwwj","Mon Apr 10 2017 22:06:38 GMT-0400 (EDT)","male","White","liberal","",NA,"","offCivRatings","the officer applied a chokehold to the civilian","the civilian struck the officer on the leg with a metal pipe","choke","metalPipe","officerCivilian","appropriateCiv","62","","","",""
"122",1303,"{""Q0"":57}","[object Object]","survey-likert",121,545576,"0.0-121.0","y4xywqe2mo9cywf7lok1bju24mo7mwwj","Mon Apr 10 2017 22:06:38 GMT-0400 (EDT)","male","White","liberal","",NA,"","offCivRatings","the officer applied a chokehold to the civilian","the civilian struck the officer on the leg with a metal pipe","choke","metalPipe","officerCivilian","forceCiv","57","","","",""
"123",1358,"{""Q0"":39}","[object Object]","survey-likert",122,546937,"0.0-122.0","y4xywqe2mo9cywf7lok1bju24mo7mwwj","Mon Apr 10 2017 22:06:38 GMT-0400 (EDT)","male","White","liberal","",NA,"","offCivRatings","the officer applied a chokehold to the civilian","the civilian struck the officer on the leg with a metal pipe","choke","metalPipe","officerCivilian","punishCiv","39","","","",""
"124",3185,"","","instructions",123,550122,"0.0-123.0","y4xywqe2mo9cywf7lok1bju24mo7mwwj","Mon Apr 10 2017 22:06:38 GMT-0400 (EDT)","male","White","liberal","",NA,"[{""page_index"":0,""viewing_time"":3184}]","break","","","","","","","","","","",""
"125",4537,"{""Q0"":58}","[object Object]","survey-likert",124,554865,"0.0-124.0","y4xywqe2mo9cywf7lok1bju24mo7mwwj","Mon Apr 10 2017 22:06:38 GMT-0400 (EDT)","male","White","liberal","",NA,"","policeLegitimacy","","","","","","","58","doReasons","feltObligation","",""
"126",3368,"{""Q0"":35}","[object Object]","survey-likert",125,558236,"0.0-125.0","y4xywqe2mo9cywf7lok1bju24mo7mwwj","Mon Apr 10 2017 22:06:38 GMT-0400 (EDT)","male","White","liberal","",NA,"","policeLegitimacy","","","","","","","35","support","feltObligation","",""
"127",2340,"{""Q0"":57}","[object Object]","survey-likert",126,560581,"0.0-126.0","y4xywqe2mo9cywf7lok1bju24mo7mwwj","Mon Apr 10 2017 22:06:38 GMT-0400 (EDT)","male","White","liberal","",NA,"","policeLegitimacy","","","","","","","57","importantValues","normAlignment","",""
"128",2913,"{""Q0"":89}","[object Object]","survey-likert",127,563497,"0.0-127.0","y4xywqe2mo9cywf7lok1bju24mo7mwwj","Mon Apr 10 2017 22:06:38 GMT-0400 (EDT)","male","White","liberal","",NA,"","policeLegitimacy","","","","","","","89","rightWrong","normAlignment","",""
"129",2375,"{""Q0"":88}","[object Object]","survey-likert",128,565876,"0.0-128.0","y4xywqe2mo9cywf7lok1bju24mo7mwwj","Mon Apr 10 2017 22:06:38 GMT-0400 (EDT)","male","White","liberal","",NA,"","policeLegitimacy","","","","","","","88","communityWants","normAlignment","",""
"130",4128,"{""Q0"":61}","[object Object]","survey-likert",129,570008,"0.0-129.0","y4xywqe2mo9cywf7lok1bju24mo7mwwj","Mon Apr 10 2017 22:06:38 GMT-0400 (EDT)","male","White","liberal","",NA,"","policeLegitimacy","","","","","","","61","doTreat","feltObligation","",""
"131",3415,"{""Q0"":""yes""}","[object Object]","survey-multi-choice2",130,573426,"0.0-130.0","y4xywqe2mo9cywf7lok1bju24mo7mwwj","Mon Apr 10 2017 22:06:38 GMT-0400 (EDT)","male","White","liberal","",NA,"","policeExperience","","","","","","","yes","stopped","","vicarious","Has anyone in your household ever been stopped on the street by the police without good reason?"
"132",3214,"{""Q0"":""no""}","[object Object]","survey-multi-choice2",131,576641,"0.0-131.0","y4xywqe2mo9cywf7lok1bju24mo7mwwj","Mon Apr 10 2017 22:06:38 GMT-0400 (EDT)","male","White","liberal","",NA,"","policeExperience","","","","","","","no","excessForce","","vicarious","Have the police ever used excessive force against anyone in your household?"
"133",3388,"{""Q0"":""no""}","[object Object]","survey-multi-choice2",132,580030,"0.0-132.0","y4xywqe2mo9cywf7lok1bju24mo7mwwj","Mon Apr 10 2017 22:06:38 GMT-0400 (EDT)","male","White","liberal","",NA,"","policeExperience","","","","","","","no","stopped","","personal","Have you ever been stopped by the police on the street without good reason?"
"134",3965,"{""Q0"":""no""}","[object Object]","survey-multi-choice2",133,583997,"0.0-133.0","y4xywqe2mo9cywf7lok1bju24mo7mwwj","Mon Apr 10 2017 22:06:38 GMT-0400 (EDT)","male","White","liberal","",NA,"","policeExperience","","","","","","","no","corrupt","","personal","Have you ever seen a police officer engage in any corrupt activities (e.g., taking bribes or involvement in the drug trade)?"
"135",2747,"{""Q0"":""no""}","[object Object]","survey-multi-choice2",134,586746,"0.0-134.0","y4xywqe2mo9cywf7lok1bju24mo7mwwj","Mon Apr 10 2017 22:06:38 GMT-0400 (EDT)","male","White","liberal","",NA,"","policeExperience","","","","","","","no","insultLang","","vicarious","Have the police ever used insulting language toward anyone in your household?"
"136",1436,"{""Q0"":""no""}","[object Object]","survey-multi-choice2",135,588183,"0.0-135.0","y4xywqe2mo9cywf7lok1bju24mo7mwwj","Mon Apr 10 2017 22:06:38 GMT-0400 (EDT)","male","White","liberal","",NA,"","policeExperience","","","","","","","no","excessForce","","personal","Have the police ever used excessive force against you?"
"137",1537,"{""Q0"":""no""}","[object Object]","survey-multi-choice2",136,589722,"0.0-136.0","y4xywqe2mo9cywf7lok1bju24mo7mwwj","Mon Apr 10 2017 22:06:38 GMT-0400 (EDT)","male","White","liberal","",NA,"","policeExperience","","","","","","","no","insultLang","","personal","Have the police ever used insulting language toward you?"
"138",8653,"{""Q0"":""male"",""Q1"":""White"",""Q2"":""liberal""}","[object Object]","survey-multi-choice",137,598383,"0.0-137.0","y4xywqe2mo9cywf7lok1bju24mo7mwwj","Mon Apr 10 2017 22:06:38 GMT-0400 (EDT)","male","White","liberal","",NA,"","demographics","","","","","","","","","","",""
"139",4442,"","","instructions",138,603826,"0.0-138.0","y4xywqe2mo9cywf7lok1bju24mo7mwwj","Mon Apr 10 2017 22:06:38 GMT-0400 (EDT)","male","White","liberal","",NA,"[{""page_index"":0,""viewing_time"":1103},{""page_index"":1,""viewing_time"":1725},{""page_index"":2,""viewing_time"":508},{""page_index"":3,""viewing_time"":1106}]","debriefing","","","","","","","","","","",""
