"","rt","responses","internalResp","trial_type","trial_index","time_elapsed","internal_node_id","randSubjectID","date","sex","race","polAff","stimulus","key_press","view_history","questionType","officerAction","civilianAction","offActName","civActName","order","questionName","response","name","dimension","person","question"
"1",5138,"","[object Object]","survey-text",0,5143,"0.0-0.0","yr362mkwx27cmd6gbjb70sl56k9axsqd","Mon Feb 06 2017 22:31:25 GMT-0500 (US Eastern Standard Time)","female","White","other","",NA,"","","","","","","","","","","","",""
"2",6334,"","","single-stim",1,12480,"0.0-1.0","yr362mkwx27cmd6gbjb70sl56k9axsqd","Mon Feb 06 2017 22:31:25 GMT-0500 (US Eastern Standard Time)","female","White","other","<img src='static/images/1602685960_ICS_Credit-0.png' alt='Consent 1' height=1100 width=850><img src='static/images/1602685960_ICS_Credit-1.png' alt='Consent 2' height=1100 width=850></p>",89,"","","","","","","","","","","","",""
"3",18791,"","","instructions",2,32271,"0.0-2.0","yr362mkwx27cmd6gbjb70sl56k9axsqd","Mon Feb 06 2017 22:31:25 GMT-0500 (US Eastern Standard Time)","female","White","other","",NA,"[{""page_index"":0,""viewing_time"":18791}]","instructions","","","","","","","","","","",""
"4",42411,"","","instructions",3,75683,"0.0-3.0","yr362mkwx27cmd6gbjb70sl56k9axsqd","Mon Feb 06 2017 22:31:25 GMT-0500 (US Eastern Standard Time)","female","White","other","",NA,"[{""page_index"":0,""viewing_time"":15926},{""page_index"":1,""viewing_time"":4440},{""page_index"":2,""viewing_time"":20510},{""page_index"":3,""viewing_time"":1534}]","instructions","","","","","","","","","","",""
"5",21963,"{""Q0"":72}","[object Object]","survey-likert",4,98664,"0.0-4.0","yr362mkwx27cmd6gbjb70sl56k9axsqd","Mon Feb 06 2017 22:31:25 GMT-0500 (US Eastern Standard Time)","female","White","other","",NA,"","offCivRatings","the officer shot the civilian in the chest with a handgun","the civilian applied a chokehold to the officer","handgunChest","choke","civilianOfficer","appropriateOff","72","","","",""
"6",30384,"{""Q0"":90}","[object Object]","survey-likert",5,129054,"0.0-5.0","yr362mkwx27cmd6gbjb70sl56k9axsqd","Mon Feb 06 2017 22:31:25 GMT-0500 (US Eastern Standard Time)","female","White","other","",NA,"","offCivRatings","the officer shot the civilian in the chest with a handgun","the civilian applied a chokehold to the officer","handgunChest","choke","civilianOfficer","forceOff","90","","","",""
"7",10837,"{""Q0"":10}","[object Object]","survey-likert",6,139896,"0.0-6.0","yr362mkwx27cmd6gbjb70sl56k9axsqd","Mon Feb 06 2017 22:31:25 GMT-0500 (US Eastern Standard Time)","female","White","other","",NA,"","offCivRatings","the officer shot the civilian in the chest with a handgun","the civilian applied a chokehold to the officer","handgunChest","choke","civilianOfficer","punishOff","10","","","",""
"8",10953,"{""Q0"":28}","[object Object]","survey-likert",7,150854,"0.0-7.0","yr362mkwx27cmd6gbjb70sl56k9axsqd","Mon Feb 06 2017 22:31:25 GMT-0500 (US Eastern Standard Time)","female","White","other","",NA,"","offCivRatings","the officer shot the civilian in the chest with a handgun","the civilian applied a chokehold to the officer","handgunChest","choke","civilianOfficer","acceptableOff","28","","","",""
"9",5680,"{""Q0"":1}","[object Object]","survey-likert",8,156540,"0.0-8.0","yr362mkwx27cmd6gbjb70sl56k9axsqd","Mon Feb 06 2017 22:31:25 GMT-0500 (US Eastern Standard Time)","female","White","other","",NA,"","offCivRatings","the officer shot the civilian in the chest with a handgun","the civilian applied a chokehold to the officer","handgunChest","choke","civilianOfficer","manipCheckLow","1","","","",""
"10",933,"","","instructions",9,157473,"0.0-9.0","yr362mkwx27cmd6gbjb70sl56k9axsqd","Mon Feb 06 2017 22:31:25 GMT-0500 (US Eastern Standard Time)","female","White","other","",NA,"[{""page_index"":0,""viewing_time"":933}]","break","","","","","","","","","","",""
"11",20158,"{""Q0"":31}","[object Object]","survey-likert",10,177838,"0.0-10.0","yr362mkwx27cmd6gbjb70sl56k9axsqd","Mon Feb 06 2017 22:31:25 GMT-0500 (US Eastern Standard Time)","female","White","other","",NA,"","offCivRatings","the officer headbutted the civilian in the face","the civilian hit the officer in the chest with a baseball bat","headbutt","ballBat","officerCivilian","acceptableCiv","31","","","",""
"12",7622,"{""Q0"":60}","[object Object]","survey-likert",11,185464,"0.0-11.0","yr362mkwx27cmd6gbjb70sl56k9axsqd","Mon Feb 06 2017 22:31:25 GMT-0500 (US Eastern Standard Time)","female","White","other","",NA,"","offCivRatings","the officer headbutted the civilian in the face","the civilian hit the officer in the chest with a baseball bat","headbutt","ballBat","officerCivilian","punishCiv","60","","","",""
"13",4773,"{""Q0"":1}","[object Object]","survey-likert",12,190242,"0.0-12.0","yr362mkwx27cmd6gbjb70sl56k9axsqd","Mon Feb 06 2017 22:31:25 GMT-0500 (US Eastern Standard Time)","female","White","other","",NA,"","offCivRatings","the officer headbutted the civilian in the face","the civilian hit the officer in the chest with a baseball bat","headbutt","ballBat","officerCivilian","manipCheckLow","1","","","",""
"14",11593,"{""Q0"":51}","[object Object]","survey-likert",13,201839,"0.0-13.0","yr362mkwx27cmd6gbjb70sl56k9axsqd","Mon Feb 06 2017 22:31:25 GMT-0500 (US Eastern Standard Time)","female","White","other","",NA,"","offCivRatings","the officer headbutted the civilian in the face","the civilian hit the officer in the chest with a baseball bat","headbutt","ballBat","officerCivilian","forceCiv","51","","","",""
"15",15182,"{""Q0"":61}","[object Object]","survey-likert",14,217025,"0.0-14.0","yr362mkwx27cmd6gbjb70sl56k9axsqd","Mon Feb 06 2017 22:31:25 GMT-0500 (US Eastern Standard Time)","female","White","other","",NA,"","offCivRatings","the officer headbutted the civilian in the face","the civilian hit the officer in the chest with a baseball bat","headbutt","ballBat","officerCivilian","appropriateCiv","61","","","",""
"16",1159,"","","instructions",15,218184,"0.0-15.0","yr362mkwx27cmd6gbjb70sl56k9axsqd","Mon Feb 06 2017 22:31:25 GMT-0500 (US Eastern Standard Time)","female","White","other","",NA,"[{""page_index"":0,""viewing_time"":1159}]","break","","","","","","","","","","",""
"17",29486,"{""Q0"":50}","[object Object]","survey-likert",16,247875,"0.0-16.0","yr362mkwx27cmd6gbjb70sl56k9axsqd","Mon Feb 06 2017 22:31:25 GMT-0500 (US Eastern Standard Time)","female","White","other","",NA,"","offCivRatings","the officer shocked the civilian with a tazer","the civilian said ""if you touch me, you're gonna get hurt"" to the officer","tazer","hurtThreat","officerCivilian","appropriateCiv","50","","","",""
"18",7990,"{""Q0"":1}","[object Object]","survey-likert",17,255869,"0.0-17.0","yr362mkwx27cmd6gbjb70sl56k9axsqd","Mon Feb 06 2017 22:31:25 GMT-0500 (US Eastern Standard Time)","female","White","other","",NA,"","offCivRatings","the officer shocked the civilian with a tazer","the civilian said ""if you touch me, you're gonna get hurt"" to the officer","tazer","hurtThreat","officerCivilian","forceCiv","1","","","",""
"19",3386,"{""Q0"":1}","[object Object]","survey-likert",18,259260,"0.0-18.0","yr362mkwx27cmd6gbjb70sl56k9axsqd","Mon Feb 06 2017 22:31:25 GMT-0500 (US Eastern Standard Time)","female","White","other","",NA,"","offCivRatings","the officer shocked the civilian with a tazer","the civilian said ""if you touch me, you're gonna get hurt"" to the officer","tazer","hurtThreat","officerCivilian","manipCheckLow","1","","","",""
"20",7793,"{""Q0"":36}","[object Object]","survey-likert",19,267057,"0.0-19.0","yr362mkwx27cmd6gbjb70sl56k9axsqd","Mon Feb 06 2017 22:31:25 GMT-0500 (US Eastern Standard Time)","female","White","other","",NA,"","offCivRatings","the officer shocked the civilian with a tazer","the civilian said ""if you touch me, you're gonna get hurt"" to the officer","tazer","hurtThreat","officerCivilian","acceptableCiv","36","","","",""
"21",4527,"{""Q0"":1}","[object Object]","survey-likert",20,271587,"0.0-20.0","yr362mkwx27cmd6gbjb70sl56k9axsqd","Mon Feb 06 2017 22:31:25 GMT-0500 (US Eastern Standard Time)","female","White","other","",NA,"","offCivRatings","the officer shocked the civilian with a tazer","the civilian said ""if you touch me, you're gonna get hurt"" to the officer","tazer","hurtThreat","officerCivilian","punishCiv","1","","","",""
"22",1061,"","","instructions",21,272648,"0.0-21.0","yr362mkwx27cmd6gbjb70sl56k9axsqd","Mon Feb 06 2017 22:31:25 GMT-0500 (US Eastern Standard Time)","female","White","other","",NA,"[{""page_index"":0,""viewing_time"":1061}]","break","","","","","","","","","","",""
"23",41561,"{""Q0"":50}","[object Object]","survey-likert",22,314416,"0.0-22.0","yr362mkwx27cmd6gbjb70sl56k9axsqd","Mon Feb 06 2017 22:31:25 GMT-0500 (US Eastern Standard Time)","female","White","other","",NA,"","offCivRatings","the officer said ""if you touch me, you're gonna get hurt"" to the civilian","the civilian yelled ""get back!"" at the officer","hurtThreat","getBack","civilianOfficer","appropriateOff","50","","","",""
"24",8213,"{""Q0"":5}","[object Object]","survey-likert",23,322633,"0.0-23.0","yr362mkwx27cmd6gbjb70sl56k9axsqd","Mon Feb 06 2017 22:31:25 GMT-0500 (US Eastern Standard Time)","female","White","other","",NA,"","offCivRatings","the officer said ""if you touch me, you're gonna get hurt"" to the civilian","the civilian yelled ""get back!"" at the officer","hurtThreat","getBack","civilianOfficer","punishOff","5","","","",""
"25",4143,"{""Q0"":1}","[object Object]","survey-likert",24,326785,"0.0-24.0","yr362mkwx27cmd6gbjb70sl56k9axsqd","Mon Feb 06 2017 22:31:25 GMT-0500 (US Eastern Standard Time)","female","White","other","",NA,"","offCivRatings","the officer said ""if you touch me, you're gonna get hurt"" to the civilian","the civilian yelled ""get back!"" at the officer","hurtThreat","getBack","civilianOfficer","forceOff","1","","","",""
"26",7373,"{""Q0"":42}","[object Object]","survey-likert",25,334161,"0.0-25.0","yr362mkwx27cmd6gbjb70sl56k9axsqd","Mon Feb 06 2017 22:31:25 GMT-0500 (US Eastern Standard Time)","female","White","other","",NA,"","offCivRatings","the officer said ""if you touch me, you're gonna get hurt"" to the civilian","the civilian yelled ""get back!"" at the officer","hurtThreat","getBack","civilianOfficer","acceptableOff","42","","","",""
"27",1001,"","","instructions",26,335162,"0.0-26.0","yr362mkwx27cmd6gbjb70sl56k9axsqd","Mon Feb 06 2017 22:31:25 GMT-0500 (US Eastern Standard Time)","female","White","other","",NA,"[{""page_index"":0,""viewing_time"":1000}]","break","","","","","","","","","","",""
"28",16548,"{""Q0"":1}","[object Object]","survey-likert",27,351914,"0.0-27.0","yr362mkwx27cmd6gbjb70sl56k9axsqd","Mon Feb 06 2017 22:31:25 GMT-0500 (US Eastern Standard Time)","female","White","other","",NA,"","offCivRatings","the officer asked the civilian how he was doing","the civilian struck the officer on the leg with a metal pipe","asked","metalPipe","officerCivilian","acceptableCiv","1","","","",""
"29",8115,"{""Q0"":65}","[object Object]","survey-likert",28,360032,"0.0-28.0","yr362mkwx27cmd6gbjb70sl56k9axsqd","Mon Feb 06 2017 22:31:25 GMT-0500 (US Eastern Standard Time)","female","White","other","",NA,"","offCivRatings","the officer asked the civilian how he was doing","the civilian struck the officer on the leg with a metal pipe","asked","metalPipe","officerCivilian","punishCiv","65","","","",""
"30",15909,"{""Q0"":87}","[object Object]","survey-likert",29,375945,"0.0-29.0","yr362mkwx27cmd6gbjb70sl56k9axsqd","Mon Feb 06 2017 22:31:25 GMT-0500 (US Eastern Standard Time)","female","White","other","",NA,"","offCivRatings","the officer asked the civilian how he was doing","the civilian struck the officer on the leg with a metal pipe","asked","metalPipe","officerCivilian","appropriateCiv","87","","","",""
"31",6283,"{""Q0"":79}","[object Object]","survey-likert",30,382232,"0.0-30.0","yr362mkwx27cmd6gbjb70sl56k9axsqd","Mon Feb 06 2017 22:31:25 GMT-0500 (US Eastern Standard Time)","female","White","other","",NA,"","offCivRatings","the officer asked the civilian how he was doing","the civilian struck the officer on the leg with a metal pipe","asked","metalPipe","officerCivilian","forceCiv","79","","","",""
"32",733,"","","instructions",31,382966,"0.0-31.0","yr362mkwx27cmd6gbjb70sl56k9axsqd","Mon Feb 06 2017 22:31:25 GMT-0500 (US Eastern Standard Time)","female","White","other","",NA,"[{""page_index"":0,""viewing_time"":733}]","break","","","","","","","","","","",""
"33",6942,"{""Q0"":70}","[object Object]","survey-likert",32,390112,"0.0-32.0","yr362mkwx27cmd6gbjb70sl56k9axsqd","Mon Feb 06 2017 22:31:25 GMT-0500 (US Eastern Standard Time)","female","White","other","",NA,"","offCivRatings","the officer sprayed the civilian with pepper spray","the civilian punched the officer in the face","pepperSpray","punchFace","officerCivilian","forceCiv","70","","","",""
"34",13065,"{""Q0"":71}","[object Object]","survey-likert",33,403183,"0.0-33.0","yr362mkwx27cmd6gbjb70sl56k9axsqd","Mon Feb 06 2017 22:31:25 GMT-0500 (US Eastern Standard Time)","female","White","other","",NA,"","offCivRatings","the officer sprayed the civilian with pepper spray","the civilian punched the officer in the face","pepperSpray","punchFace","officerCivilian","punishCiv","71","","","",""
"35",4840,"{""Q0"":31}","[object Object]","survey-likert",34,408026,"0.0-34.0","yr362mkwx27cmd6gbjb70sl56k9axsqd","Mon Feb 06 2017 22:31:25 GMT-0500 (US Eastern Standard Time)","female","White","other","",NA,"","offCivRatings","the officer sprayed the civilian with pepper spray","the civilian punched the officer in the face","pepperSpray","punchFace","officerCivilian","acceptableCiv","31","","","",""
"36",15680,"{""Q0"":80}","[object Object]","survey-likert",35,423710,"0.0-35.0","yr362mkwx27cmd6gbjb70sl56k9axsqd","Mon Feb 06 2017 22:31:25 GMT-0500 (US Eastern Standard Time)","female","White","other","",NA,"","offCivRatings","the officer sprayed the civilian with pepper spray","the civilian punched the officer in the face","pepperSpray","punchFace","officerCivilian","appropriateCiv","80","","","",""
"37",1049,"","","instructions",36,424759,"0.0-36.0","yr362mkwx27cmd6gbjb70sl56k9axsqd","Mon Feb 06 2017 22:31:25 GMT-0500 (US Eastern Standard Time)","female","White","other","",NA,"[{""page_index"":0,""viewing_time"":1049}]","break","","","","","","","","","","",""
"38",15297,"{""Q0"":1}","[object Object]","survey-likert",37,440262,"0.0-37.0","yr362mkwx27cmd6gbjb70sl56k9axsqd","Mon Feb 06 2017 22:31:25 GMT-0500 (US Eastern Standard Time)","female","White","other","",NA,"","offCivRatings","the officer struck the civilian in the stomach with a metal flashlight","the civilian stood near the officer","flashlight","stoodNear","officerCivilian","punishCiv","1","","","",""
"39",7324,"{""Q0"":50}","[object Object]","survey-likert",38,447590,"0.0-38.0","yr362mkwx27cmd6gbjb70sl56k9axsqd","Mon Feb 06 2017 22:31:25 GMT-0500 (US Eastern Standard Time)","female","White","other","",NA,"","offCivRatings","the officer struck the civilian in the stomach with a metal flashlight","the civilian stood near the officer","flashlight","stoodNear","officerCivilian","appropriateCiv","50","","","",""
"40",5574,"{""Q0"":50}","[object Object]","survey-likert",39,453168,"0.0-39.0","yr362mkwx27cmd6gbjb70sl56k9axsqd","Mon Feb 06 2017 22:31:25 GMT-0500 (US Eastern Standard Time)","female","White","other","",NA,"","offCivRatings","the officer struck the civilian in the stomach with a metal flashlight","the civilian stood near the officer","flashlight","stoodNear","officerCivilian","acceptableCiv","50","","","",""
"41",7130,"{""Q0"":1}","[object Object]","survey-likert",40,460303,"0.0-40.0","yr362mkwx27cmd6gbjb70sl56k9axsqd","Mon Feb 06 2017 22:31:25 GMT-0500 (US Eastern Standard Time)","female","White","other","",NA,"","offCivRatings","the officer struck the civilian in the stomach with a metal flashlight","the civilian stood near the officer","flashlight","stoodNear","officerCivilian","forceCiv","1","","","",""
"42",909,"","","instructions",41,461212,"0.0-41.0","yr362mkwx27cmd6gbjb70sl56k9axsqd","Mon Feb 06 2017 22:31:25 GMT-0500 (US Eastern Standard Time)","female","White","other","",NA,"[{""page_index"":0,""viewing_time"":908}]","break","","","","","","","","","","",""
"43",8715,"{""Q0"":1}","[object Object]","survey-likert",42,470131,"0.0-42.0","yr362mkwx27cmd6gbjb70sl56k9axsqd","Mon Feb 06 2017 22:31:25 GMT-0500 (US Eastern Standard Time)","female","White","other","",NA,"","offCivRatings","the officer called the civilian a ""thug""","the civilian shot the officer in the chest with a handgun","nameCall","handgunChest","civilianOfficer","forceOff","1","","","",""
"44",5619,"{""Q0"":1}","[object Object]","survey-likert",43,475755,"0.0-43.0","yr362mkwx27cmd6gbjb70sl56k9axsqd","Mon Feb 06 2017 22:31:25 GMT-0500 (US Eastern Standard Time)","female","White","other","",NA,"","offCivRatings","the officer called the civilian a ""thug""","the civilian shot the officer in the chest with a handgun","nameCall","handgunChest","civilianOfficer","appropriateOff","1","","","",""
"45",9843,"{""Q0"":1}","[object Object]","survey-likert",44,485602,"0.0-44.0","yr362mkwx27cmd6gbjb70sl56k9axsqd","Mon Feb 06 2017 22:31:25 GMT-0500 (US Eastern Standard Time)","female","White","other","",NA,"","offCivRatings","the officer called the civilian a ""thug""","the civilian shot the officer in the chest with a handgun","nameCall","handgunChest","civilianOfficer","punishOff","1","","","",""
"46",2892,"{""Q0"":1}","[object Object]","survey-likert",45,488498,"0.0-45.0","yr362mkwx27cmd6gbjb70sl56k9axsqd","Mon Feb 06 2017 22:31:25 GMT-0500 (US Eastern Standard Time)","female","White","other","",NA,"","offCivRatings","the officer called the civilian a ""thug""","the civilian shot the officer in the chest with a handgun","nameCall","handgunChest","civilianOfficer","manipCheckLow","1","","","",""
"47",7368,"{""Q0"":45}","[object Object]","survey-likert",46,495870,"0.0-46.0","yr362mkwx27cmd6gbjb70sl56k9axsqd","Mon Feb 06 2017 22:31:25 GMT-0500 (US Eastern Standard Time)","female","White","other","",NA,"","offCivRatings","the officer called the civilian a ""thug""","the civilian shot the officer in the chest with a handgun","nameCall","handgunChest","civilianOfficer","acceptableOff","45","","","",""
"48",968,"","","instructions",47,496838,"0.0-47.0","yr362mkwx27cmd6gbjb70sl56k9axsqd","Mon Feb 06 2017 22:31:25 GMT-0500 (US Eastern Standard Time)","female","White","other","",NA,"[{""page_index"":0,""viewing_time"":967}]","break","","","","","","","","","","",""
"49",11942,"{""Q0"":50}","[object Object]","survey-likert",48,508984,"0.0-48.0","yr362mkwx27cmd6gbjb70sl56k9axsqd","Mon Feb 06 2017 22:31:25 GMT-0500 (US Eastern Standard Time)","female","White","other","",NA,"","offCivRatings","the officer kicked the civilian in the stomach","the civilian shouted ""I don't have to fucking listen to you!"" at the officer","kickStom","dontListen","officerCivilian","appropriateCiv","50","","","",""
"50",7375,"{""Q0"":100}","[object Object]","survey-likert",49,516362,"0.0-49.0","yr362mkwx27cmd6gbjb70sl56k9axsqd","Mon Feb 06 2017 22:31:25 GMT-0500 (US Eastern Standard Time)","female","White","other","",NA,"","offCivRatings","the officer kicked the civilian in the stomach","the civilian shouted ""I don't have to fucking listen to you!"" at the officer","kickStom","dontListen","officerCivilian","manipCheckHigh","100","","","",""
"51",6433,"{""Q0"":1}","[object Object]","survey-likert",50,522798,"0.0-50.0","yr362mkwx27cmd6gbjb70sl56k9axsqd","Mon Feb 06 2017 22:31:25 GMT-0500 (US Eastern Standard Time)","female","White","other","",NA,"","offCivRatings","the officer kicked the civilian in the stomach","the civilian shouted ""I don't have to fucking listen to you!"" at the officer","kickStom","dontListen","officerCivilian","forceCiv","1","","","",""
"52",8048,"{""Q0"":25}","[object Object]","survey-likert",51,530850,"0.0-51.0","yr362mkwx27cmd6gbjb70sl56k9axsqd","Mon Feb 06 2017 22:31:25 GMT-0500 (US Eastern Standard Time)","female","White","other","",NA,"","offCivRatings","the officer kicked the civilian in the stomach","the civilian shouted ""I don't have to fucking listen to you!"" at the officer","kickStom","dontListen","officerCivilian","acceptableCiv","25","","","",""
"53",8671,"{""Q0"":16}","[object Object]","survey-likert",52,539525,"0.0-52.0","yr362mkwx27cmd6gbjb70sl56k9axsqd","Mon Feb 06 2017 22:31:25 GMT-0500 (US Eastern Standard Time)","female","White","other","",NA,"","offCivRatings","the officer kicked the civilian in the stomach","the civilian shouted ""I don't have to fucking listen to you!"" at the officer","kickStom","dontListen","officerCivilian","punishCiv","16","","","",""
"54",861,"","","instructions",53,540386,"0.0-53.0","yr362mkwx27cmd6gbjb70sl56k9axsqd","Mon Feb 06 2017 22:31:25 GMT-0500 (US Eastern Standard Time)","female","White","other","",NA,"[{""page_index"":0,""viewing_time"":860}]","break","","","","","","","","","","",""
"55",11061,"{""Q0"":83}","[object Object]","survey-likert",54,551652,"0.0-54.0","yr362mkwx27cmd6gbjb70sl56k9axsqd","Mon Feb 06 2017 22:31:25 GMT-0500 (US Eastern Standard Time)","female","White","other","",NA,"","offCivRatings","the officer slammed the civilian's head into the concrete curb","the civilian kicked the officer in the stomach","headSlam","kickStom","civilianOfficer","forceOff","83","","","",""
"56",6568,"{""Q0"":31}","[object Object]","survey-likert",55,558225,"0.0-55.0","yr362mkwx27cmd6gbjb70sl56k9axsqd","Mon Feb 06 2017 22:31:25 GMT-0500 (US Eastern Standard Time)","female","White","other","",NA,"","offCivRatings","the officer slammed the civilian's head into the concrete curb","the civilian kicked the officer in the stomach","headSlam","kickStom","civilianOfficer","punishOff","31","","","",""
"57",3682,"{""Q0"":100}","[object Object]","survey-likert",56,561911,"0.0-56.0","yr362mkwx27cmd6gbjb70sl56k9axsqd","Mon Feb 06 2017 22:31:25 GMT-0500 (US Eastern Standard Time)","female","White","other","",NA,"","offCivRatings","the officer slammed the civilian's head into the concrete curb","the civilian kicked the officer in the stomach","headSlam","kickStom","civilianOfficer","manipCheckHigh","100","","","",""
"58",8092,"{""Q0"":90}","[object Object]","survey-likert",57,570007,"0.0-57.0","yr362mkwx27cmd6gbjb70sl56k9axsqd","Mon Feb 06 2017 22:31:25 GMT-0500 (US Eastern Standard Time)","female","White","other","",NA,"","offCivRatings","the officer slammed the civilian's head into the concrete curb","the civilian kicked the officer in the stomach","headSlam","kickStom","civilianOfficer","appropriateOff","90","","","",""
"59",6710,"{""Q0"":42}","[object Object]","survey-likert",58,576719,"0.0-58.0","yr362mkwx27cmd6gbjb70sl56k9axsqd","Mon Feb 06 2017 22:31:25 GMT-0500 (US Eastern Standard Time)","female","White","other","",NA,"","offCivRatings","the officer slammed the civilian's head into the concrete curb","the civilian kicked the officer in the stomach","headSlam","kickStom","civilianOfficer","acceptableOff","42","","","",""
"60",668,"","","instructions",59,577389,"0.0-59.0","yr362mkwx27cmd6gbjb70sl56k9axsqd","Mon Feb 06 2017 22:31:25 GMT-0500 (US Eastern Standard Time)","female","White","other","",NA,"[{""page_index"":0,""viewing_time"":668}]","break","","","","","","","","","","",""
"61",10057,"{""Q0"":100}","[object Object]","survey-likert",60,587650,"0.0-60.0","yr362mkwx27cmd6gbjb70sl56k9axsqd","Mon Feb 06 2017 22:31:25 GMT-0500 (US Eastern Standard Time)","female","White","other","",NA,"","offCivRatings","the officer shot the civilian in the head with a handgun","the civilian struck the officer in the stomach with a metal flashlight","handgunHead","flashlight","civilianOfficer","forceOff","100","","","",""
"62",6964,"{""Q0"":100}","[object Object]","survey-likert",61,594617,"0.0-61.0","yr362mkwx27cmd6gbjb70sl56k9axsqd","Mon Feb 06 2017 22:31:25 GMT-0500 (US Eastern Standard Time)","female","White","other","",NA,"","offCivRatings","the officer shot the civilian in the head with a handgun","the civilian struck the officer in the stomach with a metal flashlight","handgunHead","flashlight","civilianOfficer","appropriateOff","100","","","",""
"63",6633,"{""Q0"":1}","[object Object]","survey-likert",62,601253,"0.0-62.0","yr362mkwx27cmd6gbjb70sl56k9axsqd","Mon Feb 06 2017 22:31:25 GMT-0500 (US Eastern Standard Time)","female","White","other","",NA,"","offCivRatings","the officer shot the civilian in the head with a handgun","the civilian struck the officer in the stomach with a metal flashlight","handgunHead","flashlight","civilianOfficer","acceptableOff","1","","","",""
"64",2407,"{""Q0"":1}","[object Object]","survey-likert",63,603663,"0.0-63.0","yr362mkwx27cmd6gbjb70sl56k9axsqd","Mon Feb 06 2017 22:31:25 GMT-0500 (US Eastern Standard Time)","female","White","other","",NA,"","offCivRatings","the officer shot the civilian in the head with a handgun","the civilian struck the officer in the stomach with a metal flashlight","handgunHead","flashlight","civilianOfficer","manipCheckLow","1","","","",""
"65",9340,"{""Q0"":90}","[object Object]","survey-likert",64,613007,"0.0-64.0","yr362mkwx27cmd6gbjb70sl56k9axsqd","Mon Feb 06 2017 22:31:25 GMT-0500 (US Eastern Standard Time)","female","White","other","",NA,"","offCivRatings","the officer shot the civilian in the head with a handgun","the civilian struck the officer in the stomach with a metal flashlight","handgunHead","flashlight","civilianOfficer","punishOff","90","","","",""
"66",1259,"","","instructions",65,614266,"0.0-65.0","yr362mkwx27cmd6gbjb70sl56k9axsqd","Mon Feb 06 2017 22:31:25 GMT-0500 (US Eastern Standard Time)","female","White","other","",NA,"[{""page_index"":0,""viewing_time"":1259}]","break","","","","","","","","","","",""
"67",7728,"{""Q0"":100}","[object Object]","survey-likert",66,622199,"0.0-66.0","yr362mkwx27cmd6gbjb70sl56k9axsqd","Mon Feb 06 2017 22:31:25 GMT-0500 (US Eastern Standard Time)","female","White","other","",NA,"","offCivRatings","the officer stood near the civilian","the civilian called the officer a ""pig""","stoodNear","nameCall","civilianOfficer","acceptableOff","100","","","",""
"68",6886,"{""Q0"":50}","[object Object]","survey-likert",67,629089,"0.0-67.0","yr362mkwx27cmd6gbjb70sl56k9axsqd","Mon Feb 06 2017 22:31:25 GMT-0500 (US Eastern Standard Time)","female","White","other","",NA,"","offCivRatings","the officer stood near the civilian","the civilian called the officer a ""pig""","stoodNear","nameCall","civilianOfficer","appropriateOff","50","","","",""
"69",2834,"{""Q0"":1}","[object Object]","survey-likert",68,631927,"0.0-68.0","yr362mkwx27cmd6gbjb70sl56k9axsqd","Mon Feb 06 2017 22:31:25 GMT-0500 (US Eastern Standard Time)","female","White","other","",NA,"","offCivRatings","the officer stood near the civilian","the civilian called the officer a ""pig""","stoodNear","nameCall","civilianOfficer","punishOff","1","","","",""
"70",4483,"{""Q0"":1}","[object Object]","survey-likert",69,636413,"0.0-69.0","yr362mkwx27cmd6gbjb70sl56k9axsqd","Mon Feb 06 2017 22:31:25 GMT-0500 (US Eastern Standard Time)","female","White","other","",NA,"","offCivRatings","the officer stood near the civilian","the civilian called the officer a ""pig""","stoodNear","nameCall","civilianOfficer","forceOff","1","","","",""
"71",750,"","","instructions",70,637163,"0.0-70.0","yr362mkwx27cmd6gbjb70sl56k9axsqd","Mon Feb 06 2017 22:31:25 GMT-0500 (US Eastern Standard Time)","female","White","other","",NA,"[{""page_index"":0,""viewing_time"":749}]","break","","","","","","","","","","",""
"72",18662,"{""Q0"":85}","[object Object]","survey-likert",71,656029,"0.0-71.0","yr362mkwx27cmd6gbjb70sl56k9axsqd","Mon Feb 06 2017 22:31:25 GMT-0500 (US Eastern Standard Time)","female","White","other","",NA,"","offCivRatings","the officer punched the civilian in the face","the civilian slammed the officer's head into the concrete curb","punchFace","headSlam","officerCivilian","appropriateCiv","85","","","",""
"73",4799,"{""Q0"":82}","[object Object]","survey-likert",72,660831,"0.0-72.0","yr362mkwx27cmd6gbjb70sl56k9axsqd","Mon Feb 06 2017 22:31:25 GMT-0500 (US Eastern Standard Time)","female","White","other","",NA,"","offCivRatings","the officer punched the civilian in the face","the civilian slammed the officer's head into the concrete curb","punchFace","headSlam","officerCivilian","forceCiv","82","","","",""
"74",9121,"{""Q0"":80}","[object Object]","survey-likert",73,669956,"0.0-73.0","yr362mkwx27cmd6gbjb70sl56k9axsqd","Mon Feb 06 2017 22:31:25 GMT-0500 (US Eastern Standard Time)","female","White","other","",NA,"","offCivRatings","the officer punched the civilian in the face","the civilian slammed the officer's head into the concrete curb","punchFace","headSlam","officerCivilian","punishCiv","80","","","",""
"75",6606,"{""Q0"":21}","[object Object]","survey-likert",74,676566,"0.0-74.0","yr362mkwx27cmd6gbjb70sl56k9axsqd","Mon Feb 06 2017 22:31:25 GMT-0500 (US Eastern Standard Time)","female","White","other","",NA,"","offCivRatings","the officer punched the civilian in the face","the civilian slammed the officer's head into the concrete curb","punchFace","headSlam","officerCivilian","acceptableCiv","21","","","",""
"76",1042,"","","instructions",75,677608,"0.0-75.0","yr362mkwx27cmd6gbjb70sl56k9axsqd","Mon Feb 06 2017 22:31:25 GMT-0500 (US Eastern Standard Time)","female","White","other","",NA,"[{""page_index"":0,""viewing_time"":1042}]","break","","","","","","","","","","",""
"77",8338,"{""Q0"":58}","[object Object]","survey-likert",76,686152,"0.0-76.0","yr362mkwx27cmd6gbjb70sl56k9axsqd","Mon Feb 06 2017 22:31:25 GMT-0500 (US Eastern Standard Time)","female","White","other","",NA,"","offCivRatings","the officer shot the civilian in the chest with a beanbag shotgun round","the civilian sprayed the officer with pepper spray","beanbag","pepperSpray","civilianOfficer","forceOff","58","","","",""
"78",8429,"{""Q0"":100}","[object Object]","survey-likert",77,694585,"0.0-77.0","yr362mkwx27cmd6gbjb70sl56k9axsqd","Mon Feb 06 2017 22:31:25 GMT-0500 (US Eastern Standard Time)","female","White","other","",NA,"","offCivRatings","the officer shot the civilian in the chest with a beanbag shotgun round","the civilian sprayed the officer with pepper spray","beanbag","pepperSpray","civilianOfficer","acceptableOff","100","","","",""
"79",5862,"{""Q0"":56}","[object Object]","survey-likert",78,700451,"0.0-78.0","yr362mkwx27cmd6gbjb70sl56k9axsqd","Mon Feb 06 2017 22:31:25 GMT-0500 (US Eastern Standard Time)","female","White","other","",NA,"","offCivRatings","the officer shot the civilian in the chest with a beanbag shotgun round","the civilian sprayed the officer with pepper spray","beanbag","pepperSpray","civilianOfficer","appropriateOff","56","","","",""
"80",4525,"{""Q0"":1}","[object Object]","survey-likert",79,704979,"0.0-79.0","yr362mkwx27cmd6gbjb70sl56k9axsqd","Mon Feb 06 2017 22:31:25 GMT-0500 (US Eastern Standard Time)","female","White","other","",NA,"","offCivRatings","the officer shot the civilian in the chest with a beanbag shotgun round","the civilian sprayed the officer with pepper spray","beanbag","pepperSpray","civilianOfficer","punishOff","1","","","",""
"81",1001,"","","instructions",80,705980,"0.0-80.0","yr362mkwx27cmd6gbjb70sl56k9axsqd","Mon Feb 06 2017 22:31:25 GMT-0500 (US Eastern Standard Time)","female","White","other","",NA,"[{""page_index"":0,""viewing_time"":1000}]","break","","","","","","","","","","",""
"82",10736,"{""Q0"":42}","[object Object]","survey-likert",81,716920,"0.0-81.0","yr362mkwx27cmd6gbjb70sl56k9axsqd","Mon Feb 06 2017 22:31:25 GMT-0500 (US Eastern Standard Time)","female","White","other","",NA,"","offCivRatings","the officer yelled ""get back!"" at the civilian","the civilian shocked the officer with a tazer","getBack","tazer","civilianOfficer","appropriateOff","42","","","",""
"83",3546,"{""Q0"":100}","[object Object]","survey-likert",82,720471,"0.0-82.0","yr362mkwx27cmd6gbjb70sl56k9axsqd","Mon Feb 06 2017 22:31:25 GMT-0500 (US Eastern Standard Time)","female","White","other","",NA,"","offCivRatings","the officer yelled ""get back!"" at the civilian","the civilian shocked the officer with a tazer","getBack","tazer","civilianOfficer","acceptableOff","100","","","",""
"84",2658,"{""Q0"":1}","[object Object]","survey-likert",83,723134,"0.0-83.0","yr362mkwx27cmd6gbjb70sl56k9axsqd","Mon Feb 06 2017 22:31:25 GMT-0500 (US Eastern Standard Time)","female","White","other","",NA,"","offCivRatings","the officer yelled ""get back!"" at the civilian","the civilian shocked the officer with a tazer","getBack","tazer","civilianOfficer","punishOff","1","","","",""
"85",4196,"{""Q0"":1}","[object Object]","survey-likert",84,727335,"0.0-84.0","yr362mkwx27cmd6gbjb70sl56k9axsqd","Mon Feb 06 2017 22:31:25 GMT-0500 (US Eastern Standard Time)","female","White","other","",NA,"","offCivRatings","the officer yelled ""get back!"" at the civilian","the civilian shocked the officer with a tazer","getBack","tazer","civilianOfficer","forceOff","1","","","",""
"86",955,"","","instructions",85,728290,"0.0-85.0","yr362mkwx27cmd6gbjb70sl56k9axsqd","Mon Feb 06 2017 22:31:25 GMT-0500 (US Eastern Standard Time)","female","White","other","",NA,"[{""page_index"":0,""viewing_time"":955}]","break","","","","","","","","","","",""
"87",13840,"{""Q0"":99}","[object Object]","survey-likert",86,742334,"0.0-86.0","yr362mkwx27cmd6gbjb70sl56k9axsqd","Mon Feb 06 2017 22:31:25 GMT-0500 (US Eastern Standard Time)","female","White","other","",NA,"","offCivRatings","the officer applied a chokehold to the civilian","the civilian shot the officer in the head with a handgun","choke","handgunHead","officerCivilian","punishCiv","99","","","",""
"88",2696,"{""Q0"":1}","[object Object]","survey-likert",87,745035,"0.0-87.0","yr362mkwx27cmd6gbjb70sl56k9axsqd","Mon Feb 06 2017 22:31:25 GMT-0500 (US Eastern Standard Time)","female","White","other","",NA,"","offCivRatings","the officer applied a chokehold to the civilian","the civilian shot the officer in the head with a handgun","choke","handgunHead","officerCivilian","acceptableCiv","1","","","",""
"89",4383,"{""Q0"":100}","[object Object]","survey-likert",88,749423,"0.0-88.0","yr362mkwx27cmd6gbjb70sl56k9axsqd","Mon Feb 06 2017 22:31:25 GMT-0500 (US Eastern Standard Time)","female","White","other","",NA,"","offCivRatings","the officer applied a chokehold to the civilian","the civilian shot the officer in the head with a handgun","choke","handgunHead","officerCivilian","appropriateCiv","100","","","",""
"90",2830,"{""Q0"":100}","[object Object]","survey-likert",89,752257,"0.0-89.0","yr362mkwx27cmd6gbjb70sl56k9axsqd","Mon Feb 06 2017 22:31:25 GMT-0500 (US Eastern Standard Time)","female","White","other","",NA,"","offCivRatings","the officer applied a chokehold to the civilian","the civilian shot the officer in the head with a handgun","choke","handgunHead","officerCivilian","forceCiv","100","","","",""
"91",1114,"","","instructions",90,753371,"0.0-90.0","yr362mkwx27cmd6gbjb70sl56k9axsqd","Mon Feb 06 2017 22:31:25 GMT-0500 (US Eastern Standard Time)","female","White","other","",NA,"[{""page_index"":0,""viewing_time"":1114}]","break","","","","","","","","","","",""
"92",7731,"{""Q0"":1}","[object Object]","survey-likert",91,761307,"0.0-91.0","yr362mkwx27cmd6gbjb70sl56k9axsqd","Mon Feb 06 2017 22:31:25 GMT-0500 (US Eastern Standard Time)","female","White","other","",NA,"","offCivRatings","the officer purposefully struck the civilian with a motor vehicle","the civilian pulled away from the officer","vehicle","pulledAway","officerCivilian","forceCiv","1","","","",""
"93",10042,"{""Q0"":44}","[object Object]","survey-likert",92,771353,"0.0-92.0","yr362mkwx27cmd6gbjb70sl56k9axsqd","Mon Feb 06 2017 22:31:25 GMT-0500 (US Eastern Standard Time)","female","White","other","",NA,"","offCivRatings","the officer purposefully struck the civilian with a motor vehicle","the civilian pulled away from the officer","vehicle","pulledAway","officerCivilian","appropriateCiv","44","","","",""
"94",5110,"{""Q0"":1}","[object Object]","survey-likert",93,776467,"0.0-93.0","yr362mkwx27cmd6gbjb70sl56k9axsqd","Mon Feb 06 2017 22:31:25 GMT-0500 (US Eastern Standard Time)","female","White","other","",NA,"","offCivRatings","the officer purposefully struck the civilian with a motor vehicle","the civilian pulled away from the officer","vehicle","pulledAway","officerCivilian","punishCiv","1","","","",""
"95",3406,"{""Q0"":1}","[object Object]","survey-likert",94,779877,"0.0-94.0","yr362mkwx27cmd6gbjb70sl56k9axsqd","Mon Feb 06 2017 22:31:25 GMT-0500 (US Eastern Standard Time)","female","White","other","",NA,"","offCivRatings","the officer purposefully struck the civilian with a motor vehicle","the civilian pulled away from the officer","vehicle","pulledAway","officerCivilian","manipCheckLow","1","","","",""
"96",6321,"{""Q0"":86}","[object Object]","survey-likert",95,786203,"0.0-95.0","yr362mkwx27cmd6gbjb70sl56k9axsqd","Mon Feb 06 2017 22:31:25 GMT-0500 (US Eastern Standard Time)","female","White","other","",NA,"","offCivRatings","the officer purposefully struck the civilian with a motor vehicle","the civilian pulled away from the officer","vehicle","pulledAway","officerCivilian","acceptableCiv","86","","","",""
"97",951,"","","instructions",96,787154,"0.0-96.0","yr362mkwx27cmd6gbjb70sl56k9axsqd","Mon Feb 06 2017 22:31:25 GMT-0500 (US Eastern Standard Time)","female","White","other","",NA,"[{""page_index"":0,""viewing_time"":951}]","break","","","","","","","","","","",""
"98",6113,"{""Q0"":1}","[object Object]","survey-likert",97,793471,"0.0-97.0","yr362mkwx27cmd6gbjb70sl56k9axsqd","Mon Feb 06 2017 22:31:25 GMT-0500 (US Eastern Standard Time)","female","White","other","",NA,"","offCivRatings","the officer waved at the civilian in greeting","the civilian asked the officer how he was doing","waved","asked","civilianOfficer","forceOff","1","","","",""
"99",11038,"{""Q0"":50}","[object Object]","survey-likert",98,804513,"0.0-98.0","yr362mkwx27cmd6gbjb70sl56k9axsqd","Mon Feb 06 2017 22:31:25 GMT-0500 (US Eastern Standard Time)","female","White","other","",NA,"","offCivRatings","the officer waved at the civilian in greeting","the civilian asked the officer how he was doing","waved","asked","civilianOfficer","appropriateOff","50","","","",""
"100",7512,"{""Q0"":1}","[object Object]","survey-likert",99,812028,"0.0-99.0","yr362mkwx27cmd6gbjb70sl56k9axsqd","Mon Feb 06 2017 22:31:25 GMT-0500 (US Eastern Standard Time)","female","White","other","",NA,"","offCivRatings","the officer waved at the civilian in greeting","the civilian asked the officer how he was doing","waved","asked","civilianOfficer","punishOff","1","","","",""
"101",3426,"{""Q0"":100}","[object Object]","survey-likert",100,815458,"0.0-100.0","yr362mkwx27cmd6gbjb70sl56k9axsqd","Mon Feb 06 2017 22:31:25 GMT-0500 (US Eastern Standard Time)","female","White","other","",NA,"","offCivRatings","the officer waved at the civilian in greeting","the civilian asked the officer how he was doing","waved","asked","civilianOfficer","acceptableOff","100","","","",""
"102",945,"","","instructions",101,816404,"0.0-101.0","yr362mkwx27cmd6gbjb70sl56k9axsqd","Mon Feb 06 2017 22:31:25 GMT-0500 (US Eastern Standard Time)","female","White","other","",NA,"[{""page_index"":0,""viewing_time"":945}]","break","","","","","","","","","","",""
"103",6949,"{""Q0"":36}","[object Object]","survey-likert",102,823558,"0.0-102.0","yr362mkwx27cmd6gbjb70sl56k9axsqd","Mon Feb 06 2017 22:31:25 GMT-0500 (US Eastern Standard Time)","female","White","other","",NA,"","offCivRatings","the officer struck the civilian on the leg with a collapsible baton","the civilian headbutted the officer in the face","batonLeg","headbutt","officerCivilian","acceptableCiv","36","","","",""
"104",4406,"{""Q0"":70}","[object Object]","survey-likert",103,827968,"0.0-103.0","yr362mkwx27cmd6gbjb70sl56k9axsqd","Mon Feb 06 2017 22:31:25 GMT-0500 (US Eastern Standard Time)","female","White","other","",NA,"","offCivRatings","the officer struck the civilian on the leg with a collapsible baton","the civilian headbutted the officer in the face","batonLeg","headbutt","officerCivilian","forceCiv","70","","","",""
"105",2338,"{""Q0"":63}","[object Object]","survey-likert",104,830310,"0.0-104.0","yr362mkwx27cmd6gbjb70sl56k9axsqd","Mon Feb 06 2017 22:31:25 GMT-0500 (US Eastern Standard Time)","female","White","other","",NA,"","offCivRatings","the officer struck the civilian on the leg with a collapsible baton","the civilian headbutted the officer in the face","batonLeg","headbutt","officerCivilian","punishCiv","63","","","",""
"106",6886,"{""Q0"":67}","[object Object]","survey-likert",105,837200,"0.0-105.0","yr362mkwx27cmd6gbjb70sl56k9axsqd","Mon Feb 06 2017 22:31:25 GMT-0500 (US Eastern Standard Time)","female","White","other","",NA,"","offCivRatings","the officer struck the civilian on the leg with a collapsible baton","the civilian headbutted the officer in the face","batonLeg","headbutt","officerCivilian","appropriateCiv","67","","","",""
"107",715,"","","instructions",106,837915,"0.0-106.0","yr362mkwx27cmd6gbjb70sl56k9axsqd","Mon Feb 06 2017 22:31:25 GMT-0500 (US Eastern Standard Time)","female","White","other","",NA,"[{""page_index"":0,""viewing_time"":714}]","break","","","","","","","","","","",""
"108",11447,"{""Q0"":46}","[object Object]","survey-likert",107,849568,"0.0-107.0","yr362mkwx27cmd6gbjb70sl56k9axsqd","Mon Feb 06 2017 22:31:25 GMT-0500 (US Eastern Standard Time)","female","White","other","",NA,"","offCivRatings","the officer shouted ""get your fucking hands up!"" at the civilian","the civilian purposefully struck the officer with a motor vehicle","handsUp","vehicle","civilianOfficer","appropriateOff","46","","","",""
"109",5273,"{""Q0"":100}","[object Object]","survey-likert",108,854845,"0.0-108.0","yr362mkwx27cmd6gbjb70sl56k9axsqd","Mon Feb 06 2017 22:31:25 GMT-0500 (US Eastern Standard Time)","female","White","other","",NA,"","offCivRatings","the officer shouted ""get your fucking hands up!"" at the civilian","the civilian purposefully struck the officer with a motor vehicle","handsUp","vehicle","civilianOfficer","acceptableOff","100","","","",""
"110",5073,"{""Q0"":1}","[object Object]","survey-likert",109,859922,"0.0-109.0","yr362mkwx27cmd6gbjb70sl56k9axsqd","Mon Feb 06 2017 22:31:25 GMT-0500 (US Eastern Standard Time)","female","White","other","",NA,"","offCivRatings","the officer shouted ""get your fucking hands up!"" at the civilian","the civilian purposefully struck the officer with a motor vehicle","handsUp","vehicle","civilianOfficer","forceOff","1","","","",""
"111",3164,"{""Q0"":1}","[object Object]","survey-likert",110,863090,"0.0-110.0","yr362mkwx27cmd6gbjb70sl56k9axsqd","Mon Feb 06 2017 22:31:25 GMT-0500 (US Eastern Standard Time)","female","White","other","",NA,"","offCivRatings","the officer shouted ""get your fucking hands up!"" at the civilian","the civilian purposefully struck the officer with a motor vehicle","handsUp","vehicle","civilianOfficer","punishOff","1","","","",""
"112",2205,"{""Q0"":1}","[object Object]","survey-likert",111,865298,"0.0-111.0","yr362mkwx27cmd6gbjb70sl56k9axsqd","Mon Feb 06 2017 22:31:25 GMT-0500 (US Eastern Standard Time)","female","White","other","",NA,"","offCivRatings","the officer shouted ""get your fucking hands up!"" at the civilian","the civilian purposefully struck the officer with a motor vehicle","handsUp","vehicle","civilianOfficer","manipCheckLow","1","","","",""
"113",1013,"","","instructions",112,866311,"0.0-112.0","yr362mkwx27cmd6gbjb70sl56k9axsqd","Mon Feb 06 2017 22:31:25 GMT-0500 (US Eastern Standard Time)","female","White","other","",NA,"[{""page_index"":0,""viewing_time"":1013}]","break","","","","","","","","","","",""
"114",11145,"{""Q0"":1}","[object Object]","survey-likert",113,877660,"0.0-113.0","yr362mkwx27cmd6gbjb70sl56k9axsqd","Mon Feb 06 2017 22:31:25 GMT-0500 (US Eastern Standard Time)","female","White","other","",NA,"","offCivRatings","the officer twisted the arm of the civilian, forcing him to the ground","the civilian twisted the arm of the officer, forcing him to the ground","armbar","armbar","civilianOfficer","punishOff","1","","","",""
"115",5784,"{""Q0"":100}","[object Object]","survey-likert",114,883448,"0.0-114.0","yr362mkwx27cmd6gbjb70sl56k9axsqd","Mon Feb 06 2017 22:31:25 GMT-0500 (US Eastern Standard Time)","female","White","other","",NA,"","offCivRatings","the officer twisted the arm of the civilian, forcing him to the ground","the civilian twisted the arm of the officer, forcing him to the ground","armbar","armbar","civilianOfficer","acceptableOff","100","","","",""
"116",4884,"{""Q0"":54}","[object Object]","survey-likert",115,888335,"0.0-115.0","yr362mkwx27cmd6gbjb70sl56k9axsqd","Mon Feb 06 2017 22:31:25 GMT-0500 (US Eastern Standard Time)","female","White","other","",NA,"","offCivRatings","the officer twisted the arm of the civilian, forcing him to the ground","the civilian twisted the arm of the officer, forcing him to the ground","armbar","armbar","civilianOfficer","forceOff","54","","","",""
"117",5725,"{""Q0"":50}","[object Object]","survey-likert",116,894064,"0.0-116.0","yr362mkwx27cmd6gbjb70sl56k9axsqd","Mon Feb 06 2017 22:31:25 GMT-0500 (US Eastern Standard Time)","female","White","other","",NA,"","offCivRatings","the officer twisted the arm of the civilian, forcing him to the ground","the civilian twisted the arm of the officer, forcing him to the ground","armbar","armbar","civilianOfficer","appropriateOff","50","","","",""
"118",675,"","","instructions",117,894739,"0.0-117.0","yr362mkwx27cmd6gbjb70sl56k9axsqd","Mon Feb 06 2017 22:31:25 GMT-0500 (US Eastern Standard Time)","female","White","other","",NA,"[{""page_index"":0,""viewing_time"":675}]","break","","","","","","","","","","",""
"119",8320,"{""Q0"":100}","[object Object]","survey-likert",118,903264,"0.0-118.0","yr362mkwx27cmd6gbjb70sl56k9axsqd","Mon Feb 06 2017 22:31:25 GMT-0500 (US Eastern Standard Time)","female","White","other","",NA,"","offCivRatings","the officer put handcuffs on the civilian","the civilian waved at the officer in greeting","handcuff","waved","officerCivilian","manipCheckHigh","100","","","",""
"120",8588,"{""Q0"":13}","[object Object]","survey-likert",119,911856,"0.0-119.0","yr362mkwx27cmd6gbjb70sl56k9axsqd","Mon Feb 06 2017 22:31:25 GMT-0500 (US Eastern Standard Time)","female","White","other","",NA,"","offCivRatings","the officer put handcuffs on the civilian","the civilian waved at the officer in greeting","handcuff","waved","officerCivilian","appropriateCiv","13","","","",""
"121",6152,"{""Q0"":100}","[object Object]","survey-likert",120,918012,"0.0-120.0","yr362mkwx27cmd6gbjb70sl56k9axsqd","Mon Feb 06 2017 22:31:25 GMT-0500 (US Eastern Standard Time)","female","White","other","",NA,"","offCivRatings","the officer put handcuffs on the civilian","the civilian waved at the officer in greeting","handcuff","waved","officerCivilian","acceptableCiv","100","","","",""
"122",4233,"{""Q0"":1}","[object Object]","survey-likert",121,922248,"0.0-121.0","yr362mkwx27cmd6gbjb70sl56k9axsqd","Mon Feb 06 2017 22:31:25 GMT-0500 (US Eastern Standard Time)","female","White","other","",NA,"","offCivRatings","the officer put handcuffs on the civilian","the civilian waved at the officer in greeting","handcuff","waved","officerCivilian","forceCiv","1","","","",""
"123",2865,"{""Q0"":1}","[object Object]","survey-likert",122,925116,"0.0-122.0","yr362mkwx27cmd6gbjb70sl56k9axsqd","Mon Feb 06 2017 22:31:25 GMT-0500 (US Eastern Standard Time)","female","White","other","",NA,"","offCivRatings","the officer put handcuffs on the civilian","the civilian waved at the officer in greeting","handcuff","waved","officerCivilian","punishCiv","1","","","",""
"124",696,"","","instructions",123,925812,"0.0-123.0","yr362mkwx27cmd6gbjb70sl56k9axsqd","Mon Feb 06 2017 22:31:25 GMT-0500 (US Eastern Standard Time)","female","White","other","",NA,"[{""page_index"":0,""viewing_time"":695}]","break","","","","","","","","","","",""
"125",8538,"{""Q0"":20}","[object Object]","survey-likert",124,934555,"0.0-124.0","yr362mkwx27cmd6gbjb70sl56k9axsqd","Mon Feb 06 2017 22:31:25 GMT-0500 (US Eastern Standard Time)","female","White","other","",NA,"","policeLegitimacy","","","","","","","20","rightWrong","normAlignment","",""
"126",8823,"{""Q0"":80}","[object Object]","survey-likert",125,943381,"0.0-125.0","yr362mkwx27cmd6gbjb70sl56k9axsqd","Mon Feb 06 2017 22:31:25 GMT-0500 (US Eastern Standard Time)","female","White","other","",NA,"","policeLegitimacy","","","","","","","80","doTreat","feltObligation","",""
"127",3669,"{""Q0"":100}","[object Object]","survey-likert",126,947055,"0.0-126.0","yr362mkwx27cmd6gbjb70sl56k9axsqd","Mon Feb 06 2017 22:31:25 GMT-0500 (US Eastern Standard Time)","female","White","other","",NA,"","policeLegitimacy","","","","","","","100","communityWants","normAlignment","",""
"128",7242,"{""Q0"":85}","[object Object]","survey-likert",127,954300,"0.0-127.0","yr362mkwx27cmd6gbjb70sl56k9axsqd","Mon Feb 06 2017 22:31:25 GMT-0500 (US Eastern Standard Time)","female","White","other","",NA,"","policeLegitimacy","","","","","","","85","importantValues","normAlignment","",""
"129",6827,"{""Q0"":57}","[object Object]","survey-likert",128,961131,"0.0-128.0","yr362mkwx27cmd6gbjb70sl56k9axsqd","Mon Feb 06 2017 22:31:25 GMT-0500 (US Eastern Standard Time)","female","White","other","",NA,"","policeLegitimacy","","","","","","","57","doReasons","feltObligation","",""
"130",5523,"{""Q0"":23}","[object Object]","survey-likert",129,966657,"0.0-129.0","yr362mkwx27cmd6gbjb70sl56k9axsqd","Mon Feb 06 2017 22:31:25 GMT-0500 (US Eastern Standard Time)","female","White","other","",NA,"","policeLegitimacy","","","","","","","23","support","feltObligation","",""
"131",4784,"{""Q0"":""no""}","[object Object]","survey-multi-choice2",130,971446,"0.0-130.0","yr362mkwx27cmd6gbjb70sl56k9axsqd","Mon Feb 06 2017 22:31:25 GMT-0500 (US Eastern Standard Time)","female","White","other","",NA,"","policeExperience","","","","","","","no","stopped","","personal","Have you ever been stopped by the police on the street without good reason?"
"132",3542,"{""Q0"":""no""}","[object Object]","survey-multi-choice2",131,974991,"0.0-131.0","yr362mkwx27cmd6gbjb70sl56k9axsqd","Mon Feb 06 2017 22:31:25 GMT-0500 (US Eastern Standard Time)","female","White","other","",NA,"","policeExperience","","","","","","","no","insultLang","","vicarious","Have the police ever used insulting language toward anyone in your household?"
"133",2294,"{""Q0"":""no""}","[object Object]","survey-multi-choice2",132,977287,"0.0-132.0","yr362mkwx27cmd6gbjb70sl56k9axsqd","Mon Feb 06 2017 22:31:25 GMT-0500 (US Eastern Standard Time)","female","White","other","",NA,"","policeExperience","","","","","","","no","excessForce","","vicarious","Have the police ever used excessive force against anyone in your household?"
"134",4100,"{""Q0"":""no""}","[object Object]","survey-multi-choice2",133,981389,"0.0-133.0","yr362mkwx27cmd6gbjb70sl56k9axsqd","Mon Feb 06 2017 22:31:25 GMT-0500 (US Eastern Standard Time)","female","White","other","",NA,"","policeExperience","","","","","","","no","corrupt","","personal","Have you ever seen a police officer engage in any corrupt activities (e.g., taking bribes or involvement in the drug trade)?"
"135",2079,"{""Q0"":""no""}","[object Object]","survey-multi-choice2",134,983469,"0.0-134.0","yr362mkwx27cmd6gbjb70sl56k9axsqd","Mon Feb 06 2017 22:31:25 GMT-0500 (US Eastern Standard Time)","female","White","other","",NA,"","policeExperience","","","","","","","no","insultLang","","personal","Have the police ever used insulting language toward you?"
"136",1527,"{""Q0"":""no""}","[object Object]","survey-multi-choice2",135,984997,"0.0-135.0","yr362mkwx27cmd6gbjb70sl56k9axsqd","Mon Feb 06 2017 22:31:25 GMT-0500 (US Eastern Standard Time)","female","White","other","",NA,"","policeExperience","","","","","","","no","excessForce","","personal","Have the police ever used excessive force against you?"
"137",2863,"{""Q0"":""no""}","[object Object]","survey-multi-choice2",136,987861,"0.0-136.0","yr362mkwx27cmd6gbjb70sl56k9axsqd","Mon Feb 06 2017 22:31:25 GMT-0500 (US Eastern Standard Time)","female","White","other","",NA,"","policeExperience","","","","","","","no","stopped","","vicarious","Has anyone in your household ever been stopped on the street by the police without good reason?"
"138",16241,"{""Q0"":""female"",""Q1"":""White"",""Q2"":""other""}","[object Object]","survey-multi-choice",137,1004109,"0.0-137.0","yr362mkwx27cmd6gbjb70sl56k9axsqd","Mon Feb 06 2017 22:31:25 GMT-0500 (US Eastern Standard Time)","female","White","other","",NA,"","demographics","","","","","","","","","","",""
"139",20292,"","","instructions",138,1025401,"0.0-138.0","yr362mkwx27cmd6gbjb70sl56k9axsqd","Mon Feb 06 2017 22:31:25 GMT-0500 (US Eastern Standard Time)","female","White","other","",NA,"[{""page_index"":0,""viewing_time"":1405},{""page_index"":1,""viewing_time"":7619},{""page_index"":2,""viewing_time"":9519},{""page_index"":3,""viewing_time"":1749}]","debriefing","","","","","","","","","","",""
