"","rt","responses","internalResp","trial_type","trial_index","time_elapsed","internal_node_id","randSubjectID","date","sex","race","polAff","stimulus","key_press","view_history","questionType","officerAction","civilianAction","offActName","civActName","order","questionName","response","name","dimension","person","question"
"1",9163,"","[object Object]","survey-text",0,9166,"0.0-0.0","z4yz1dzvtyq9waxpn974qg6dhqtp5xxk","Tue Apr 25 2017 18:19:51 GMT-0400 (EDT)","female","More than one","liberal","",NA,"","","","","","","","","","","","",""
"2",7867,"","","single-stim",1,18038,"0.0-1.0","z4yz1dzvtyq9waxpn974qg6dhqtp5xxk","Tue Apr 25 2017 18:19:51 GMT-0400 (EDT)","female","More than one","liberal","<img src='static/images/1602685960_ICS_Credit-0.png' alt='Consent 1' height=1100 width=850><img src='static/images/1602685960_ICS_Credit-1.png' alt='Consent 2' height=1100 width=850></p>",89,"","","","","","","","","","","","",""
"3",12246,"","","instructions",2,31290,"0.0-2.0","z4yz1dzvtyq9waxpn974qg6dhqtp5xxk","Tue Apr 25 2017 18:19:51 GMT-0400 (EDT)","female","More than one","liberal","",NA,"[{""page_index"":0,""viewing_time"":12245}]","instructions","","","","","","","","","","",""
"4",78700,"","","instructions",3,110991,"0.0-3.0","z4yz1dzvtyq9waxpn974qg6dhqtp5xxk","Tue Apr 25 2017 18:19:51 GMT-0400 (EDT)","female","More than one","liberal","",NA,"[{""page_index"":0,""viewing_time"":25214},{""page_index"":1,""viewing_time"":17921},{""page_index"":2,""viewing_time"":21324},{""page_index"":3,""viewing_time"":14241}]","instructions","","","","","","","","","","",""
"5",31689,"{""Q0"":100}","[object Object]","survey-likert",4,143700,"0.0-4.0","z4yz1dzvtyq9waxpn974qg6dhqtp5xxk","Tue Apr 25 2017 18:19:51 GMT-0400 (EDT)","female","More than one","liberal","",NA,"","offCivRatings","the officer punched the civilian in the face","the civilian waved at the officer in greeting","punchFace","waved","officerCivilian","manipCheckHigh","100","","","",""
"6",13684,"{""Q0"":93}","[object Object]","survey-likert",5,157423,"0.0-5.0","z4yz1dzvtyq9waxpn974qg6dhqtp5xxk","Tue Apr 25 2017 18:19:51 GMT-0400 (EDT)","female","More than one","liberal","",NA,"","offCivRatings","the officer punched the civilian in the face","the civilian waved at the officer in greeting","punchFace","waved","officerCivilian","acceptableCiv","93","","","",""
"7",17240,"{""Q0"":37}","[object Object]","survey-likert",6,174671,"0.0-6.0","z4yz1dzvtyq9waxpn974qg6dhqtp5xxk","Tue Apr 25 2017 18:19:51 GMT-0400 (EDT)","female","More than one","liberal","",NA,"","offCivRatings","the officer punched the civilian in the face","the civilian waved at the officer in greeting","punchFace","waved","officerCivilian","appropriateCiv","37","","","",""
"8",6795,"{""Q0"":5}","[object Object]","survey-likert",7,181472,"0.0-7.0","z4yz1dzvtyq9waxpn974qg6dhqtp5xxk","Tue Apr 25 2017 18:19:51 GMT-0400 (EDT)","female","More than one","liberal","",NA,"","offCivRatings","the officer punched the civilian in the face","the civilian waved at the officer in greeting","punchFace","waved","officerCivilian","forceCiv","5","","","",""
"9",10396,"{""Q0"":1}","[object Object]","survey-likert",8,191875,"0.0-8.0","z4yz1dzvtyq9waxpn974qg6dhqtp5xxk","Tue Apr 25 2017 18:19:51 GMT-0400 (EDT)","female","More than one","liberal","",NA,"","offCivRatings","the officer punched the civilian in the face","the civilian waved at the officer in greeting","punchFace","waved","officerCivilian","punishCiv","1","","","",""
"10",1200,"","","instructions",9,193075,"0.0-9.0","z4yz1dzvtyq9waxpn974qg6dhqtp5xxk","Tue Apr 25 2017 18:19:51 GMT-0400 (EDT)","female","More than one","liberal","",NA,"[{""page_index"":0,""viewing_time"":1200}]","break","","","","","","","","","","",""
"11",23124,"{""Q0"":65}","[object Object]","survey-likert",10,216408,"0.0-10.0","z4yz1dzvtyq9waxpn974qg6dhqtp5xxk","Tue Apr 25 2017 18:19:51 GMT-0400 (EDT)","female","More than one","liberal","",NA,"","offCivRatings","the officer put handcuffs on the civilian","the civilian punched the officer in the face","handcuff","punchFace","civilianOfficer","forceOff","65","","","",""
"12",5171,"{""Q0"":80}","[object Object]","survey-likert",11,221585,"0.0-11.0","z4yz1dzvtyq9waxpn974qg6dhqtp5xxk","Tue Apr 25 2017 18:19:51 GMT-0400 (EDT)","female","More than one","liberal","",NA,"","offCivRatings","the officer put handcuffs on the civilian","the civilian punched the officer in the face","handcuff","punchFace","civilianOfficer","acceptableOff","80","","","",""
"13",12856,"{""Q0"":59}","[object Object]","survey-likert",12,234447,"0.0-12.0","z4yz1dzvtyq9waxpn974qg6dhqtp5xxk","Tue Apr 25 2017 18:19:51 GMT-0400 (EDT)","female","More than one","liberal","",NA,"","offCivRatings","the officer put handcuffs on the civilian","the civilian punched the officer in the face","handcuff","punchFace","civilianOfficer","appropriateOff","59","","","",""
"14",5300,"{""Q0"":6}","[object Object]","survey-likert",13,239753,"0.0-13.0","z4yz1dzvtyq9waxpn974qg6dhqtp5xxk","Tue Apr 25 2017 18:19:51 GMT-0400 (EDT)","female","More than one","liberal","",NA,"","offCivRatings","the officer put handcuffs on the civilian","the civilian punched the officer in the face","handcuff","punchFace","civilianOfficer","punishOff","6","","","",""
"15",1352,"","","instructions",14,241106,"0.0-14.0","z4yz1dzvtyq9waxpn974qg6dhqtp5xxk","Tue Apr 25 2017 18:19:51 GMT-0400 (EDT)","female","More than one","liberal","",NA,"[{""page_index"":0,""viewing_time"":1352}]","break","","","","","","","","","","",""
"16",25497,"{""Q0"":61}","[object Object]","survey-likert",15,266814,"0.0-15.0","z4yz1dzvtyq9waxpn974qg6dhqtp5xxk","Tue Apr 25 2017 18:19:51 GMT-0400 (EDT)","female","More than one","liberal","",NA,"","offCivRatings","the officer shocked the civilian with a tazer","the civilian pulled away from the officer","tazer","pulledAway","officerCivilian","punishCiv","61","","","",""
"17",4906,"{""Q0"":6}","[object Object]","survey-likert",16,271726,"0.0-16.0","z4yz1dzvtyq9waxpn974qg6dhqtp5xxk","Tue Apr 25 2017 18:19:51 GMT-0400 (EDT)","female","More than one","liberal","",NA,"","offCivRatings","the officer shocked the civilian with a tazer","the civilian pulled away from the officer","tazer","pulledAway","officerCivilian","forceCiv","6","","","",""
"18",7635,"{""Q0"":57}","[object Object]","survey-likert",17,279367,"0.0-17.0","z4yz1dzvtyq9waxpn974qg6dhqtp5xxk","Tue Apr 25 2017 18:19:51 GMT-0400 (EDT)","female","More than one","liberal","",NA,"","offCivRatings","the officer shocked the civilian with a tazer","the civilian pulled away from the officer","tazer","pulledAway","officerCivilian","appropriateCiv","57","","","",""
"19",16527,"{""Q0"":54}","[object Object]","survey-likert",18,295900,"0.0-18.0","z4yz1dzvtyq9waxpn974qg6dhqtp5xxk","Tue Apr 25 2017 18:19:51 GMT-0400 (EDT)","female","More than one","liberal","",NA,"","offCivRatings","the officer shocked the civilian with a tazer","the civilian pulled away from the officer","tazer","pulledAway","officerCivilian","acceptableCiv","54","","","",""
"20",882,"","","instructions",19,296782,"0.0-19.0","z4yz1dzvtyq9waxpn974qg6dhqtp5xxk","Tue Apr 25 2017 18:19:51 GMT-0400 (EDT)","female","More than one","liberal","",NA,"[{""page_index"":0,""viewing_time"":882}]","break","","","","","","","","","","",""
"21",22362,"{""Q0"":3}","[object Object]","survey-likert",20,319356,"0.0-20.0","z4yz1dzvtyq9waxpn974qg6dhqtp5xxk","Tue Apr 25 2017 18:19:51 GMT-0400 (EDT)","female","More than one","liberal","",NA,"","offCivRatings","the officer yelled ""get back!"" at the civilian","the civilian slammed the officer's head into the concrete curb","getBack","headSlam","civilianOfficer","punishOff","3","","","",""
"22",4604,"{""Q0"":58}","[object Object]","survey-likert",21,323967,"0.0-21.0","z4yz1dzvtyq9waxpn974qg6dhqtp5xxk","Tue Apr 25 2017 18:19:51 GMT-0400 (EDT)","female","More than one","liberal","",NA,"","offCivRatings","the officer yelled ""get back!"" at the civilian","the civilian slammed the officer's head into the concrete curb","getBack","headSlam","civilianOfficer","forceOff","58","","","",""
"23",5388,"{""Q0"":31}","[object Object]","survey-likert",22,329362,"0.0-22.0","z4yz1dzvtyq9waxpn974qg6dhqtp5xxk","Tue Apr 25 2017 18:19:51 GMT-0400 (EDT)","female","More than one","liberal","",NA,"","offCivRatings","the officer yelled ""get back!"" at the civilian","the civilian slammed the officer's head into the concrete curb","getBack","headSlam","civilianOfficer","appropriateOff","31","","","",""
"24",4781,"{""Q0"":93}","[object Object]","survey-likert",23,334151,"0.0-23.0","z4yz1dzvtyq9waxpn974qg6dhqtp5xxk","Tue Apr 25 2017 18:19:51 GMT-0400 (EDT)","female","More than one","liberal","",NA,"","offCivRatings","the officer yelled ""get back!"" at the civilian","the civilian slammed the officer's head into the concrete curb","getBack","headSlam","civilianOfficer","acceptableOff","93","","","",""
"25",982,"","","instructions",24,335133,"0.0-24.0","z4yz1dzvtyq9waxpn974qg6dhqtp5xxk","Tue Apr 25 2017 18:19:51 GMT-0400 (EDT)","female","More than one","liberal","",NA,"[{""page_index"":0,""viewing_time"":982}]","break","","","","","","","","","","",""
"26",14889,"{""Q0"":80}","[object Object]","survey-likert",25,350232,"0.0-25.0","z4yz1dzvtyq9waxpn974qg6dhqtp5xxk","Tue Apr 25 2017 18:19:51 GMT-0400 (EDT)","female","More than one","liberal","",NA,"","offCivRatings","the officer asked the civilian how he was doing","the civilian purposefully struck the officer with a motor vehicle","asked","vehicle","officerCivilian","punishCiv","80","","","",""
"27",5869,"{""Q0"":80}","[object Object]","survey-likert",26,356106,"0.0-26.0","z4yz1dzvtyq9waxpn974qg6dhqtp5xxk","Tue Apr 25 2017 18:19:51 GMT-0400 (EDT)","female","More than one","liberal","",NA,"","offCivRatings","the officer asked the civilian how he was doing","the civilian purposefully struck the officer with a motor vehicle","asked","vehicle","officerCivilian","appropriateCiv","80","","","",""
"28",9704,"{""Q0"":9}","[object Object]","survey-likert",27,365817,"0.0-27.0","z4yz1dzvtyq9waxpn974qg6dhqtp5xxk","Tue Apr 25 2017 18:19:51 GMT-0400 (EDT)","female","More than one","liberal","",NA,"","offCivRatings","the officer asked the civilian how he was doing","the civilian purposefully struck the officer with a motor vehicle","asked","vehicle","officerCivilian","acceptableCiv","9","","","",""
"29",8303,"{""Q0"":78}","[object Object]","survey-likert",28,374128,"0.0-28.0","z4yz1dzvtyq9waxpn974qg6dhqtp5xxk","Tue Apr 25 2017 18:19:51 GMT-0400 (EDT)","female","More than one","liberal","",NA,"","offCivRatings","the officer asked the civilian how he was doing","the civilian purposefully struck the officer with a motor vehicle","asked","vehicle","officerCivilian","forceCiv","78","","","",""
"30",1321,"","","instructions",29,375450,"0.0-29.0","z4yz1dzvtyq9waxpn974qg6dhqtp5xxk","Tue Apr 25 2017 18:19:51 GMT-0400 (EDT)","female","More than one","liberal","",NA,"[{""page_index"":0,""viewing_time"":1321}]","break","","","","","","","","","","",""
"31",24067,"{""Q0"":11}","[object Object]","survey-likert",30,399726,"0.0-30.0","z4yz1dzvtyq9waxpn974qg6dhqtp5xxk","Tue Apr 25 2017 18:19:51 GMT-0400 (EDT)","female","More than one","liberal","",NA,"","offCivRatings","the officer shot the civilian in the head with a handgun","the civilian shouted ""I don't have to fucking listen to you!"" at the officer","handgunHead","dontListen","officerCivilian","punishCiv","11","","","",""
"32",4821,"{""Q0"":100}","[object Object]","survey-likert",31,404551,"0.0-31.0","z4yz1dzvtyq9waxpn974qg6dhqtp5xxk","Tue Apr 25 2017 18:19:51 GMT-0400 (EDT)","female","More than one","liberal","",NA,"","offCivRatings","the officer shot the civilian in the head with a handgun","the civilian shouted ""I don't have to fucking listen to you!"" at the officer","handgunHead","dontListen","officerCivilian","manipCheckHigh","100","","","",""
"33",14715,"{""Q0"":44}","[object Object]","survey-likert",32,419272,"0.0-32.0","z4yz1dzvtyq9waxpn974qg6dhqtp5xxk","Tue Apr 25 2017 18:19:51 GMT-0400 (EDT)","female","More than one","liberal","",NA,"","offCivRatings","the officer shot the civilian in the head with a handgun","the civilian shouted ""I don't have to fucking listen to you!"" at the officer","handgunHead","dontListen","officerCivilian","acceptableCiv","44","","","",""
"34",4546,"{""Q0"":9}","[object Object]","survey-likert",33,423824,"0.0-33.0","z4yz1dzvtyq9waxpn974qg6dhqtp5xxk","Tue Apr 25 2017 18:19:51 GMT-0400 (EDT)","female","More than one","liberal","",NA,"","offCivRatings","the officer shot the civilian in the head with a handgun","the civilian shouted ""I don't have to fucking listen to you!"" at the officer","handgunHead","dontListen","officerCivilian","forceCiv","9","","","",""
"35",4313,"{""Q0"":38}","[object Object]","survey-likert",34,428143,"0.0-34.0","z4yz1dzvtyq9waxpn974qg6dhqtp5xxk","Tue Apr 25 2017 18:19:51 GMT-0400 (EDT)","female","More than one","liberal","",NA,"","offCivRatings","the officer shot the civilian in the head with a handgun","the civilian shouted ""I don't have to fucking listen to you!"" at the officer","handgunHead","dontListen","officerCivilian","appropriateCiv","38","","","",""
"36",647,"","","instructions",35,428791,"0.0-35.0","z4yz1dzvtyq9waxpn974qg6dhqtp5xxk","Tue Apr 25 2017 18:19:51 GMT-0400 (EDT)","female","More than one","liberal","",NA,"[{""page_index"":0,""viewing_time"":646}]","break","","","","","","","","","","",""
"37",17664,"{""Q0"":71}","[object Object]","survey-likert",36,446665,"0.0-36.0","z4yz1dzvtyq9waxpn974qg6dhqtp5xxk","Tue Apr 25 2017 18:19:51 GMT-0400 (EDT)","female","More than one","liberal","",NA,"","offCivRatings","the officer struck the civilian in the stomach with a metal flashlight","the civilian struck the officer on the leg with a metal pipe","flashlight","metalPipe","civilianOfficer","appropriateOff","71","","","",""
"38",5864,"{""Q0"":30}","[object Object]","survey-likert",37,452535,"0.0-37.0","z4yz1dzvtyq9waxpn974qg6dhqtp5xxk","Tue Apr 25 2017 18:19:51 GMT-0400 (EDT)","female","More than one","liberal","",NA,"","offCivRatings","the officer struck the civilian in the stomach with a metal flashlight","the civilian struck the officer on the leg with a metal pipe","flashlight","metalPipe","civilianOfficer","acceptableOff","30","","","",""
"39",2794,"{""Q0"":100}","[object Object]","survey-likert",38,455334,"0.0-38.0","z4yz1dzvtyq9waxpn974qg6dhqtp5xxk","Tue Apr 25 2017 18:19:51 GMT-0400 (EDT)","female","More than one","liberal","",NA,"","offCivRatings","the officer struck the civilian in the stomach with a metal flashlight","the civilian struck the officer on the leg with a metal pipe","flashlight","metalPipe","civilianOfficer","manipCheckHigh","100","","","",""
"40",7024,"{""Q0"":60}","[object Object]","survey-likert",39,462363,"0.0-39.0","z4yz1dzvtyq9waxpn974qg6dhqtp5xxk","Tue Apr 25 2017 18:19:51 GMT-0400 (EDT)","female","More than one","liberal","",NA,"","offCivRatings","the officer struck the civilian in the stomach with a metal flashlight","the civilian struck the officer on the leg with a metal pipe","flashlight","metalPipe","civilianOfficer","punishOff","60","","","",""
"41",8029,"{""Q0"":71}","[object Object]","survey-likert",40,470398,"0.0-40.0","z4yz1dzvtyq9waxpn974qg6dhqtp5xxk","Tue Apr 25 2017 18:19:51 GMT-0400 (EDT)","female","More than one","liberal","",NA,"","offCivRatings","the officer struck the civilian in the stomach with a metal flashlight","the civilian struck the officer on the leg with a metal pipe","flashlight","metalPipe","civilianOfficer","forceOff","71","","","",""
"42",800,"","","instructions",41,471198,"0.0-41.0","z4yz1dzvtyq9waxpn974qg6dhqtp5xxk","Tue Apr 25 2017 18:19:51 GMT-0400 (EDT)","female","More than one","liberal","",NA,"[{""page_index"":0,""viewing_time"":800}]","break","","","","","","","","","","",""
"43",92274,"{""Q0"":41}","[object Object]","survey-likert",42,563680,"0.0-42.0","z4yz1dzvtyq9waxpn974qg6dhqtp5xxk","Tue Apr 25 2017 18:19:51 GMT-0400 (EDT)","female","More than one","liberal","",NA,"","offCivRatings","the officer struck the civilian on the leg with a collapsible baton","the civilian applied a chokehold to the officer","batonLeg","choke","civilianOfficer","appropriateOff","41","","","",""
"44",18700,"{""Q0"":62}","[object Object]","survey-likert",43,582385,"0.0-43.0","z4yz1dzvtyq9waxpn974qg6dhqtp5xxk","Tue Apr 25 2017 18:19:51 GMT-0400 (EDT)","female","More than one","liberal","",NA,"","offCivRatings","the officer struck the civilian on the leg with a collapsible baton","the civilian applied a chokehold to the officer","batonLeg","choke","civilianOfficer","forceOff","62","","","",""
"45",3076,"{""Q0"":1}","[object Object]","survey-likert",44,585468,"0.0-44.0","z4yz1dzvtyq9waxpn974qg6dhqtp5xxk","Tue Apr 25 2017 18:19:51 GMT-0400 (EDT)","female","More than one","liberal","",NA,"","offCivRatings","the officer struck the civilian on the leg with a collapsible baton","the civilian applied a chokehold to the officer","batonLeg","choke","civilianOfficer","manipCheckLow","1","","","",""
"46",18851,"{""Q0"":71}","[object Object]","survey-likert",45,604326,"0.0-45.0","z4yz1dzvtyq9waxpn974qg6dhqtp5xxk","Tue Apr 25 2017 18:19:51 GMT-0400 (EDT)","female","More than one","liberal","",NA,"","offCivRatings","the officer struck the civilian on the leg with a collapsible baton","the civilian applied a chokehold to the officer","batonLeg","choke","civilianOfficer","acceptableOff","71","","","",""
"47",10112,"{""Q0"":12}","[object Object]","survey-likert",46,614444,"0.0-46.0","z4yz1dzvtyq9waxpn974qg6dhqtp5xxk","Tue Apr 25 2017 18:19:51 GMT-0400 (EDT)","female","More than one","liberal","",NA,"","offCivRatings","the officer struck the civilian on the leg with a collapsible baton","the civilian applied a chokehold to the officer","batonLeg","choke","civilianOfficer","punishOff","12","","","",""
"48",1111,"","","instructions",47,615555,"0.0-47.0","z4yz1dzvtyq9waxpn974qg6dhqtp5xxk","Tue Apr 25 2017 18:19:51 GMT-0400 (EDT)","female","More than one","liberal","",NA,"[{""page_index"":0,""viewing_time"":1110}]","break","","","","","","","","","","",""
"49",35114,"{""Q0"":72}","[object Object]","survey-likert",48,650877,"0.0-48.0","z4yz1dzvtyq9waxpn974qg6dhqtp5xxk","Tue Apr 25 2017 18:19:51 GMT-0400 (EDT)","female","More than one","liberal","",NA,"","offCivRatings","the officer slammed the civilian's head into the concrete curb","the civilian stood near the officer","headSlam","stoodNear","civilianOfficer","punishOff","72","","","",""
"50",20096,"{""Q0"":91}","[object Object]","survey-likert",49,670979,"0.0-49.0","z4yz1dzvtyq9waxpn974qg6dhqtp5xxk","Tue Apr 25 2017 18:19:51 GMT-0400 (EDT)","female","More than one","liberal","",NA,"","offCivRatings","the officer slammed the civilian's head into the concrete curb","the civilian stood near the officer","headSlam","stoodNear","civilianOfficer","appropriateOff","91","","","",""
"51",4330,"{""Q0"":20}","[object Object]","survey-likert",50,675314,"0.0-50.0","z4yz1dzvtyq9waxpn974qg6dhqtp5xxk","Tue Apr 25 2017 18:19:51 GMT-0400 (EDT)","female","More than one","liberal","",NA,"","offCivRatings","the officer slammed the civilian's head into the concrete curb","the civilian stood near the officer","headSlam","stoodNear","civilianOfficer","acceptableOff","20","","","",""
"52",4817,"{""Q0"":80}","[object Object]","survey-likert",51,680137,"0.0-51.0","z4yz1dzvtyq9waxpn974qg6dhqtp5xxk","Tue Apr 25 2017 18:19:51 GMT-0400 (EDT)","female","More than one","liberal","",NA,"","offCivRatings","the officer slammed the civilian's head into the concrete curb","the civilian stood near the officer","headSlam","stoodNear","civilianOfficer","forceOff","80","","","",""
"53",872,"","","instructions",52,681009,"0.0-52.0","z4yz1dzvtyq9waxpn974qg6dhqtp5xxk","Tue Apr 25 2017 18:19:51 GMT-0400 (EDT)","female","More than one","liberal","",NA,"[{""page_index"":0,""viewing_time"":872}]","break","","","","","","","","","","",""
"54",173852,"{""Q0"":38}","[object Object]","survey-likert",53,855073,"0.0-53.0","z4yz1dzvtyq9waxpn974qg6dhqtp5xxk","Tue Apr 25 2017 18:19:51 GMT-0400 (EDT)","female","More than one","liberal","",NA,"","offCivRatings","the officer shouted ""get your fucking hands up!"" at the civilian","the civilian twisted the arm of the officer, forcing him to the ground","handsUp","armbar","civilianOfficer","forceOff","38","","","",""
"55",5022,"{""Q0"":9}","[object Object]","survey-likert",54,860099,"0.0-54.0","z4yz1dzvtyq9waxpn974qg6dhqtp5xxk","Tue Apr 25 2017 18:19:51 GMT-0400 (EDT)","female","More than one","liberal","",NA,"","offCivRatings","the officer shouted ""get your fucking hands up!"" at the civilian","the civilian twisted the arm of the officer, forcing him to the ground","handsUp","armbar","civilianOfficer","punishOff","9","","","",""
"56",2960,"{""Q0"":100}","[object Object]","survey-likert",55,863065,"0.0-55.0","z4yz1dzvtyq9waxpn974qg6dhqtp5xxk","Tue Apr 25 2017 18:19:51 GMT-0400 (EDT)","female","More than one","liberal","",NA,"","offCivRatings","the officer shouted ""get your fucking hands up!"" at the civilian","the civilian twisted the arm of the officer, forcing him to the ground","handsUp","armbar","civilianOfficer","manipCheckHigh","100","","","",""
"57",8294,"{""Q0"":39}","[object Object]","survey-likert",56,871364,"0.0-56.0","z4yz1dzvtyq9waxpn974qg6dhqtp5xxk","Tue Apr 25 2017 18:19:51 GMT-0400 (EDT)","female","More than one","liberal","",NA,"","offCivRatings","the officer shouted ""get your fucking hands up!"" at the civilian","the civilian twisted the arm of the officer, forcing him to the ground","handsUp","armbar","civilianOfficer","appropriateOff","39","","","",""
"58",8242,"{""Q0"":76}","[object Object]","survey-likert",57,879610,"0.0-57.0","z4yz1dzvtyq9waxpn974qg6dhqtp5xxk","Tue Apr 25 2017 18:19:51 GMT-0400 (EDT)","female","More than one","liberal","",NA,"","offCivRatings","the officer shouted ""get your fucking hands up!"" at the civilian","the civilian twisted the arm of the officer, forcing him to the ground","handsUp","armbar","civilianOfficer","acceptableOff","76","","","",""
"59",1107,"","","instructions",58,880717,"0.0-58.0","z4yz1dzvtyq9waxpn974qg6dhqtp5xxk","Tue Apr 25 2017 18:19:51 GMT-0400 (EDT)","female","More than one","liberal","",NA,"[{""page_index"":0,""viewing_time"":1106}]","break","","","","","","","","","","",""
"60",9517,"{""Q0"":17}","[object Object]","survey-likert",59,890444,"0.0-59.0","z4yz1dzvtyq9waxpn974qg6dhqtp5xxk","Tue Apr 25 2017 18:19:51 GMT-0400 (EDT)","female","More than one","liberal","",NA,"","offCivRatings","the officer purposefully struck the civilian with a motor vehicle","the civilian called the officer a ""pig""","vehicle","nameCall","officerCivilian","forceCiv","17","","","",""
"61",5663,"{""Q0"":40}","[object Object]","survey-likert",60,896112,"0.0-60.0","z4yz1dzvtyq9waxpn974qg6dhqtp5xxk","Tue Apr 25 2017 18:19:51 GMT-0400 (EDT)","female","More than one","liberal","",NA,"","offCivRatings","the officer purposefully struck the civilian with a motor vehicle","the civilian called the officer a ""pig""","vehicle","nameCall","officerCivilian","appropriateCiv","40","","","",""
"62",3639,"{""Q0"":100}","[object Object]","survey-likert",61,899756,"0.0-61.0","z4yz1dzvtyq9waxpn974qg6dhqtp5xxk","Tue Apr 25 2017 18:19:51 GMT-0400 (EDT)","female","More than one","liberal","",NA,"","offCivRatings","the officer purposefully struck the civilian with a motor vehicle","the civilian called the officer a ""pig""","vehicle","nameCall","officerCivilian","manipCheckHigh","100","","","",""
"63",5711,"{""Q0"":38}","[object Object]","survey-likert",62,905473,"0.0-62.0","z4yz1dzvtyq9waxpn974qg6dhqtp5xxk","Tue Apr 25 2017 18:19:51 GMT-0400 (EDT)","female","More than one","liberal","",NA,"","offCivRatings","the officer purposefully struck the civilian with a motor vehicle","the civilian called the officer a ""pig""","vehicle","nameCall","officerCivilian","acceptableCiv","38","","","",""
"64",17164,"{""Q0"":2}","[object Object]","survey-likert",63,922642,"0.0-63.0","z4yz1dzvtyq9waxpn974qg6dhqtp5xxk","Tue Apr 25 2017 18:19:51 GMT-0400 (EDT)","female","More than one","liberal","",NA,"","offCivRatings","the officer purposefully struck the civilian with a motor vehicle","the civilian called the officer a ""pig""","vehicle","nameCall","officerCivilian","punishCiv","2","","","",""
"65",1061,"","","instructions",64,923703,"0.0-64.0","z4yz1dzvtyq9waxpn974qg6dhqtp5xxk","Tue Apr 25 2017 18:19:51 GMT-0400 (EDT)","female","More than one","liberal","",NA,"[{""page_index"":0,""viewing_time"":1061}]","break","","","","","","","","","","",""
"66",10454,"{""Q0"":5}","[object Object]","survey-likert",65,934365,"0.0-65.0","z4yz1dzvtyq9waxpn974qg6dhqtp5xxk","Tue Apr 25 2017 18:19:51 GMT-0400 (EDT)","female","More than one","liberal","",NA,"","offCivRatings","the officer called the civilian a ""thug""","the civilian asked the officer how he was doing","nameCall","asked","civilianOfficer","forceOff","5","","","",""
"67",4264,"{""Q0"":19}","[object Object]","survey-likert",66,938635,"0.0-66.0","z4yz1dzvtyq9waxpn974qg6dhqtp5xxk","Tue Apr 25 2017 18:19:51 GMT-0400 (EDT)","female","More than one","liberal","",NA,"","offCivRatings","the officer called the civilian a ""thug""","the civilian asked the officer how he was doing","nameCall","asked","civilianOfficer","punishOff","19","","","",""
"68",7898,"{""Q0"":27}","[object Object]","survey-likert",67,946537,"0.0-67.0","z4yz1dzvtyq9waxpn974qg6dhqtp5xxk","Tue Apr 25 2017 18:19:51 GMT-0400 (EDT)","female","More than one","liberal","",NA,"","offCivRatings","the officer called the civilian a ""thug""","the civilian asked the officer how he was doing","nameCall","asked","civilianOfficer","acceptableOff","27","","","",""
"69",9912,"{""Q0"":54}","[object Object]","survey-likert",68,956453,"0.0-68.0","z4yz1dzvtyq9waxpn974qg6dhqtp5xxk","Tue Apr 25 2017 18:19:51 GMT-0400 (EDT)","female","More than one","liberal","",NA,"","offCivRatings","the officer called the civilian a ""thug""","the civilian asked the officer how he was doing","nameCall","asked","civilianOfficer","appropriateOff","54","","","",""
"70",952,"","","instructions",69,957405,"0.0-69.0","z4yz1dzvtyq9waxpn974qg6dhqtp5xxk","Tue Apr 25 2017 18:19:51 GMT-0400 (EDT)","female","More than one","liberal","",NA,"[{""page_index"":0,""viewing_time"":951}]","break","","","","","","","","","","",""
"71",13343,"{""Q0"":25}","[object Object]","survey-likert",70,970958,"0.0-70.0","z4yz1dzvtyq9waxpn974qg6dhqtp5xxk","Tue Apr 25 2017 18:19:51 GMT-0400 (EDT)","female","More than one","liberal","",NA,"","offCivRatings","the officer shot the civilian in the chest with a handgun","the civilian headbutted the officer in the face","handgunChest","headbutt","officerCivilian","punishCiv","25","","","",""
"72",4148,"{""Q0"":30}","[object Object]","survey-likert",71,975111,"0.0-71.0","z4yz1dzvtyq9waxpn974qg6dhqtp5xxk","Tue Apr 25 2017 18:19:51 GMT-0400 (EDT)","female","More than one","liberal","",NA,"","offCivRatings","the officer shot the civilian in the chest with a handgun","the civilian headbutted the officer in the face","handgunChest","headbutt","officerCivilian","acceptableCiv","30","","","",""
"73",5808,"{""Q0"":22}","[object Object]","survey-likert",72,980924,"0.0-72.0","z4yz1dzvtyq9waxpn974qg6dhqtp5xxk","Tue Apr 25 2017 18:19:51 GMT-0400 (EDT)","female","More than one","liberal","",NA,"","offCivRatings","the officer shot the civilian in the chest with a handgun","the civilian headbutted the officer in the face","handgunChest","headbutt","officerCivilian","appropriateCiv","22","","","",""
"74",6113,"{""Q0"":66}","[object Object]","survey-likert",73,987042,"0.0-73.0","z4yz1dzvtyq9waxpn974qg6dhqtp5xxk","Tue Apr 25 2017 18:19:51 GMT-0400 (EDT)","female","More than one","liberal","",NA,"","offCivRatings","the officer shot the civilian in the chest with a handgun","the civilian headbutted the officer in the face","handgunChest","headbutt","officerCivilian","forceCiv","66","","","",""
"75",1091,"","","instructions",74,988133,"0.0-74.0","z4yz1dzvtyq9waxpn974qg6dhqtp5xxk","Tue Apr 25 2017 18:19:51 GMT-0400 (EDT)","female","More than one","liberal","",NA,"[{""page_index"":0,""viewing_time"":1090}]","break","","","","","","","","","","",""
"76",16288,"{""Q0"":35}","[object Object]","survey-likert",75,1004633,"0.0-75.0","z4yz1dzvtyq9waxpn974qg6dhqtp5xxk","Tue Apr 25 2017 18:19:51 GMT-0400 (EDT)","female","More than one","liberal","",NA,"","offCivRatings","the officer waved at the civilian in greeting","the civilian said ""if you touch me, you're gonna get hurt"" to the officer","waved","hurtThreat","civilianOfficer","appropriateOff","35","","","",""
"77",3629,"{""Q0"":100}","[object Object]","survey-likert",76,1008268,"0.0-76.0","z4yz1dzvtyq9waxpn974qg6dhqtp5xxk","Tue Apr 25 2017 18:19:51 GMT-0400 (EDT)","female","More than one","liberal","",NA,"","offCivRatings","the officer waved at the civilian in greeting","the civilian said ""if you touch me, you're gonna get hurt"" to the officer","waved","hurtThreat","civilianOfficer","manipCheckHigh","100","","","",""
"78",5858,"{""Q0"":1}","[object Object]","survey-likert",77,1014131,"0.0-77.0","z4yz1dzvtyq9waxpn974qg6dhqtp5xxk","Tue Apr 25 2017 18:19:51 GMT-0400 (EDT)","female","More than one","liberal","",NA,"","offCivRatings","the officer waved at the civilian in greeting","the civilian said ""if you touch me, you're gonna get hurt"" to the officer","waved","hurtThreat","civilianOfficer","forceOff","1","","","",""
"79",3966,"{""Q0"":99}","[object Object]","survey-likert",78,1018101,"0.0-78.0","z4yz1dzvtyq9waxpn974qg6dhqtp5xxk","Tue Apr 25 2017 18:19:51 GMT-0400 (EDT)","female","More than one","liberal","",NA,"","offCivRatings","the officer waved at the civilian in greeting","the civilian said ""if you touch me, you're gonna get hurt"" to the officer","waved","hurtThreat","civilianOfficer","acceptableOff","99","","","",""
"80",3279,"{""Q0"":1}","[object Object]","survey-likert",79,1021384,"0.0-79.0","z4yz1dzvtyq9waxpn974qg6dhqtp5xxk","Tue Apr 25 2017 18:19:51 GMT-0400 (EDT)","female","More than one","liberal","",NA,"","offCivRatings","the officer waved at the civilian in greeting","the civilian said ""if you touch me, you're gonna get hurt"" to the officer","waved","hurtThreat","civilianOfficer","punishOff","1","","","",""
"81",1491,"","","instructions",80,1022875,"0.0-80.0","z4yz1dzvtyq9waxpn974qg6dhqtp5xxk","Tue Apr 25 2017 18:19:51 GMT-0400 (EDT)","female","More than one","liberal","",NA,"[{""page_index"":0,""viewing_time"":1490}]","break","","","","","","","","","","",""
"82",14849,"{""Q0"":70}","[object Object]","survey-likert",81,1037933,"0.0-81.0","z4yz1dzvtyq9waxpn974qg6dhqtp5xxk","Tue Apr 25 2017 18:19:51 GMT-0400 (EDT)","female","More than one","liberal","",NA,"","offCivRatings","the officer kicked the civilian in the stomach","the civilian struck the officer in the stomach with a metal flashlight","kickStom","flashlight","officerCivilian","forceCiv","70","","","",""
"83",8373,"{""Q0"":30}","[object Object]","survey-likert",82,1046313,"0.0-82.0","z4yz1dzvtyq9waxpn974qg6dhqtp5xxk","Tue Apr 25 2017 18:19:51 GMT-0400 (EDT)","female","More than one","liberal","",NA,"","offCivRatings","the officer kicked the civilian in the stomach","the civilian struck the officer in the stomach with a metal flashlight","kickStom","flashlight","officerCivilian","punishCiv","30","","","",""
"84",11036,"{""Q0"":42}","[object Object]","survey-likert",83,1057355,"0.0-83.0","z4yz1dzvtyq9waxpn974qg6dhqtp5xxk","Tue Apr 25 2017 18:19:51 GMT-0400 (EDT)","female","More than one","liberal","",NA,"","offCivRatings","the officer kicked the civilian in the stomach","the civilian struck the officer in the stomach with a metal flashlight","kickStom","flashlight","officerCivilian","appropriateCiv","42","","","",""
"85",5539,"{""Q0"":30}","[object Object]","survey-likert",84,1062899,"0.0-84.0","z4yz1dzvtyq9waxpn974qg6dhqtp5xxk","Tue Apr 25 2017 18:19:51 GMT-0400 (EDT)","female","More than one","liberal","",NA,"","offCivRatings","the officer kicked the civilian in the stomach","the civilian struck the officer in the stomach with a metal flashlight","kickStom","flashlight","officerCivilian","acceptableCiv","30","","","",""
"86",2100,"","","instructions",85,1064999,"0.0-85.0","z4yz1dzvtyq9waxpn974qg6dhqtp5xxk","Tue Apr 25 2017 18:19:51 GMT-0400 (EDT)","female","More than one","liberal","",NA,"[{""page_index"":0,""viewing_time"":2099}]","break","","","","","","","","","","",""
"87",16572,"{""Q0"":62}","[object Object]","survey-likert",86,1081779,"0.0-86.0","z4yz1dzvtyq9waxpn974qg6dhqtp5xxk","Tue Apr 25 2017 18:19:51 GMT-0400 (EDT)","female","More than one","liberal","",NA,"","offCivRatings","the officer headbutted the civilian in the face","the civilian kicked the officer in the stomach","headbutt","kickStom","civilianOfficer","appropriateOff","62","","","",""
"88",6054,"{""Q0"":61}","[object Object]","survey-likert",87,1087837,"0.0-87.0","z4yz1dzvtyq9waxpn974qg6dhqtp5xxk","Tue Apr 25 2017 18:19:51 GMT-0400 (EDT)","female","More than one","liberal","",NA,"","offCivRatings","the officer headbutted the civilian in the face","the civilian kicked the officer in the stomach","headbutt","kickStom","civilianOfficer","forceOff","61","","","",""
"89",2697,"{""Q0"":32}","[object Object]","survey-likert",88,1090540,"0.0-88.0","z4yz1dzvtyq9waxpn974qg6dhqtp5xxk","Tue Apr 25 2017 18:19:51 GMT-0400 (EDT)","female","More than one","liberal","",NA,"","offCivRatings","the officer headbutted the civilian in the face","the civilian kicked the officer in the stomach","headbutt","kickStom","civilianOfficer","acceptableOff","32","","","",""
"90",3202,"{""Q0"":14}","[object Object]","survey-likert",89,1093747,"0.0-89.0","z4yz1dzvtyq9waxpn974qg6dhqtp5xxk","Tue Apr 25 2017 18:19:51 GMT-0400 (EDT)","female","More than one","liberal","",NA,"","offCivRatings","the officer headbutted the civilian in the face","the civilian kicked the officer in the stomach","headbutt","kickStom","civilianOfficer","punishOff","14","","","",""
"91",1066,"","","instructions",90,1094813,"0.0-90.0","z4yz1dzvtyq9waxpn974qg6dhqtp5xxk","Tue Apr 25 2017 18:19:51 GMT-0400 (EDT)","female","More than one","liberal","",NA,"[{""page_index"":0,""viewing_time"":1065}]","break","","","","","","","","","","",""
"92",8672,"{""Q0"":59}","[object Object]","survey-likert",91,1103696,"0.0-91.0","z4yz1dzvtyq9waxpn974qg6dhqtp5xxk","Tue Apr 25 2017 18:19:51 GMT-0400 (EDT)","female","More than one","liberal","",NA,"","offCivRatings","the officer twisted the arm of the civilian, forcing him to the ground","the civilian sprayed the officer with pepper spray","armbar","pepperSpray","officerCivilian","forceCiv","59","","","",""
"93",2695,"{""Q0"":23}","[object Object]","survey-likert",92,1106397,"0.0-92.0","z4yz1dzvtyq9waxpn974qg6dhqtp5xxk","Tue Apr 25 2017 18:19:51 GMT-0400 (EDT)","female","More than one","liberal","",NA,"","offCivRatings","the officer twisted the arm of the civilian, forcing him to the ground","the civilian sprayed the officer with pepper spray","armbar","pepperSpray","officerCivilian","punishCiv","23","","","",""
"94",4266,"{""Q0"":41}","[object Object]","survey-likert",93,1110668,"0.0-93.0","z4yz1dzvtyq9waxpn974qg6dhqtp5xxk","Tue Apr 25 2017 18:19:51 GMT-0400 (EDT)","female","More than one","liberal","",NA,"","offCivRatings","the officer twisted the arm of the civilian, forcing him to the ground","the civilian sprayed the officer with pepper spray","armbar","pepperSpray","officerCivilian","acceptableCiv","41","","","",""
"95",4348,"{""Q0"":66}","[object Object]","survey-likert",94,1115022,"0.0-94.0","z4yz1dzvtyq9waxpn974qg6dhqtp5xxk","Tue Apr 25 2017 18:19:51 GMT-0400 (EDT)","female","More than one","liberal","",NA,"","offCivRatings","the officer twisted the arm of the civilian, forcing him to the ground","the civilian sprayed the officer with pepper spray","armbar","pepperSpray","officerCivilian","appropriateCiv","66","","","",""
"96",704,"","","instructions",95,1115726,"0.0-95.0","z4yz1dzvtyq9waxpn974qg6dhqtp5xxk","Tue Apr 25 2017 18:19:51 GMT-0400 (EDT)","female","More than one","liberal","",NA,"[{""page_index"":0,""viewing_time"":704}]","break","","","","","","","","","","",""
"97",10992,"{""Q0"":9}","[object Object]","survey-likert",96,1126925,"0.0-96.0","z4yz1dzvtyq9waxpn974qg6dhqtp5xxk","Tue Apr 25 2017 18:19:51 GMT-0400 (EDT)","female","More than one","liberal","",NA,"","offCivRatings","the officer stood near the civilian","the civilian shot the officer in the head with a handgun","stoodNear","handgunHead","civilianOfficer","forceOff","9","","","",""
"98",3671,"{""Q0"":99}","[object Object]","survey-likert",97,1130602,"0.0-97.0","z4yz1dzvtyq9waxpn974qg6dhqtp5xxk","Tue Apr 25 2017 18:19:51 GMT-0400 (EDT)","female","More than one","liberal","",NA,"","offCivRatings","the officer stood near the civilian","the civilian shot the officer in the head with a handgun","stoodNear","handgunHead","civilianOfficer","acceptableOff","99","","","",""
"99",2537,"{""Q0"":4}","[object Object]","survey-likert",98,1133143,"0.0-98.0","z4yz1dzvtyq9waxpn974qg6dhqtp5xxk","Tue Apr 25 2017 18:19:51 GMT-0400 (EDT)","female","More than one","liberal","",NA,"","offCivRatings","the officer stood near the civilian","the civilian shot the officer in the head with a handgun","stoodNear","handgunHead","civilianOfficer","punishOff","4","","","",""
"100",3972,"{""Q0"":1}","[object Object]","survey-likert",99,1137120,"0.0-99.0","z4yz1dzvtyq9waxpn974qg6dhqtp5xxk","Tue Apr 25 2017 18:19:51 GMT-0400 (EDT)","female","More than one","liberal","",NA,"","offCivRatings","the officer stood near the civilian","the civilian shot the officer in the head with a handgun","stoodNear","handgunHead","civilianOfficer","manipCheckLow","1","","","",""
"101",7942,"{""Q0"":18}","[object Object]","survey-likert",100,1145067,"0.0-100.0","z4yz1dzvtyq9waxpn974qg6dhqtp5xxk","Tue Apr 25 2017 18:19:51 GMT-0400 (EDT)","female","More than one","liberal","",NA,"","offCivRatings","the officer stood near the civilian","the civilian shot the officer in the head with a handgun","stoodNear","handgunHead","civilianOfficer","appropriateOff","18","","","",""
"102",945,"","","instructions",101,1146012,"0.0-101.0","z4yz1dzvtyq9waxpn974qg6dhqtp5xxk","Tue Apr 25 2017 18:19:51 GMT-0400 (EDT)","female","More than one","liberal","",NA,"[{""page_index"":0,""viewing_time"":945}]","break","","","","","","","","","","",""
"103",6262,"{""Q0"":100}","[object Object]","survey-likert",102,1152484,"0.0-102.0","z4yz1dzvtyq9waxpn974qg6dhqtp5xxk","Tue Apr 25 2017 18:19:51 GMT-0400 (EDT)","female","More than one","liberal","",NA,"","offCivRatings","the officer applied a chokehold to the civilian","the civilian yelled ""get back!"" at the officer","choke","getBack","officerCivilian","manipCheckHigh","100","","","",""
"104",6979,"{""Q0"":78}","[object Object]","survey-likert",103,1159468,"0.0-103.0","z4yz1dzvtyq9waxpn974qg6dhqtp5xxk","Tue Apr 25 2017 18:19:51 GMT-0400 (EDT)","female","More than one","liberal","",NA,"","offCivRatings","the officer applied a chokehold to the civilian","the civilian yelled ""get back!"" at the officer","choke","getBack","officerCivilian","acceptableCiv","78","","","",""
"105",6029,"{""Q0"":33}","[object Object]","survey-likert",104,1165503,"0.0-104.0","z4yz1dzvtyq9waxpn974qg6dhqtp5xxk","Tue Apr 25 2017 18:19:51 GMT-0400 (EDT)","female","More than one","liberal","",NA,"","offCivRatings","the officer applied a chokehold to the civilian","the civilian yelled ""get back!"" at the officer","choke","getBack","officerCivilian","appropriateCiv","33","","","",""
"106",4052,"{""Q0"":12}","[object Object]","survey-likert",105,1169561,"0.0-105.0","z4yz1dzvtyq9waxpn974qg6dhqtp5xxk","Tue Apr 25 2017 18:19:51 GMT-0400 (EDT)","female","More than one","liberal","",NA,"","offCivRatings","the officer applied a chokehold to the civilian","the civilian yelled ""get back!"" at the officer","choke","getBack","officerCivilian","forceCiv","12","","","",""
"107",2537,"{""Q0"":2}","[object Object]","survey-likert",106,1172103,"0.0-106.0","z4yz1dzvtyq9waxpn974qg6dhqtp5xxk","Tue Apr 25 2017 18:19:51 GMT-0400 (EDT)","female","More than one","liberal","",NA,"","offCivRatings","the officer applied a chokehold to the civilian","the civilian yelled ""get back!"" at the officer","choke","getBack","officerCivilian","punishCiv","2","","","",""
"108",1015,"","","instructions",107,1173118,"0.0-107.0","z4yz1dzvtyq9waxpn974qg6dhqtp5xxk","Tue Apr 25 2017 18:19:51 GMT-0400 (EDT)","female","More than one","liberal","",NA,"[{""page_index"":0,""viewing_time"":1015}]","break","","","","","","","","","","",""
"109",11104,"{""Q0"":28}","[object Object]","survey-likert",108,1184431,"0.0-108.0","z4yz1dzvtyq9waxpn974qg6dhqtp5xxk","Tue Apr 25 2017 18:19:51 GMT-0400 (EDT)","female","More than one","liberal","",NA,"","offCivRatings","the officer sprayed the civilian with pepper spray","the civilian shocked the officer with a tazer","pepperSpray","tazer","civilianOfficer","punishOff","28","","","",""
"110",2818,"{""Q0"":82}","[object Object]","survey-likert",109,1187254,"0.0-109.0","z4yz1dzvtyq9waxpn974qg6dhqtp5xxk","Tue Apr 25 2017 18:19:51 GMT-0400 (EDT)","female","More than one","liberal","",NA,"","offCivRatings","the officer sprayed the civilian with pepper spray","the civilian shocked the officer with a tazer","pepperSpray","tazer","civilianOfficer","forceOff","82","","","",""
"111",12438,"{""Q0"":45}","[object Object]","survey-likert",110,1199696,"0.0-110.0","z4yz1dzvtyq9waxpn974qg6dhqtp5xxk","Tue Apr 25 2017 18:19:51 GMT-0400 (EDT)","female","More than one","liberal","",NA,"","offCivRatings","the officer sprayed the civilian with pepper spray","the civilian shocked the officer with a tazer","pepperSpray","tazer","civilianOfficer","appropriateOff","45","","","",""
"112",4150,"{""Q0"":40}","[object Object]","survey-likert",111,1203852,"0.0-111.0","z4yz1dzvtyq9waxpn974qg6dhqtp5xxk","Tue Apr 25 2017 18:19:51 GMT-0400 (EDT)","female","More than one","liberal","",NA,"","offCivRatings","the officer sprayed the civilian with pepper spray","the civilian shocked the officer with a tazer","pepperSpray","tazer","civilianOfficer","acceptableOff","40","","","",""
"113",744,"","","instructions",112,1204597,"0.0-112.0","z4yz1dzvtyq9waxpn974qg6dhqtp5xxk","Tue Apr 25 2017 18:19:51 GMT-0400 (EDT)","female","More than one","liberal","",NA,"[{""page_index"":0,""viewing_time"":743}]","break","","","","","","","","","","",""
"114",11903,"{""Q0"":67}","[object Object]","survey-likert",113,1216710,"0.0-113.0","z4yz1dzvtyq9waxpn974qg6dhqtp5xxk","Tue Apr 25 2017 18:19:51 GMT-0400 (EDT)","female","More than one","liberal","",NA,"","offCivRatings","the officer shot the civilian in the chest with a beanbag shotgun round","the civilian hit the officer in the chest with a baseball bat","beanbag","ballBat","officerCivilian","appropriateCiv","67","","","",""
"115",3274,"{""Q0"":81}","[object Object]","survey-likert",114,1219990,"0.0-114.0","z4yz1dzvtyq9waxpn974qg6dhqtp5xxk","Tue Apr 25 2017 18:19:51 GMT-0400 (EDT)","female","More than one","liberal","",NA,"","offCivRatings","the officer shot the civilian in the chest with a beanbag shotgun round","the civilian hit the officer in the chest with a baseball bat","beanbag","ballBat","officerCivilian","forceCiv","81","","","",""
"116",2749,"{""Q0"":1}","[object Object]","survey-likert",115,1222746,"0.0-115.0","z4yz1dzvtyq9waxpn974qg6dhqtp5xxk","Tue Apr 25 2017 18:19:51 GMT-0400 (EDT)","female","More than one","liberal","",NA,"","offCivRatings","the officer shot the civilian in the chest with a beanbag shotgun round","the civilian hit the officer in the chest with a baseball bat","beanbag","ballBat","officerCivilian","manipCheckLow","1","","","",""
"117",40144,"{""Q0"":34}","[object Object]","survey-likert",116,1262896,"0.0-116.0","z4yz1dzvtyq9waxpn974qg6dhqtp5xxk","Tue Apr 25 2017 18:19:51 GMT-0400 (EDT)","female","More than one","liberal","",NA,"","offCivRatings","the officer shot the civilian in the chest with a beanbag shotgun round","the civilian hit the officer in the chest with a baseball bat","beanbag","ballBat","officerCivilian","acceptableCiv","34","","","",""
"118",5826,"{""Q0"":25}","[object Object]","survey-likert",117,1268728,"0.0-117.0","z4yz1dzvtyq9waxpn974qg6dhqtp5xxk","Tue Apr 25 2017 18:19:51 GMT-0400 (EDT)","female","More than one","liberal","",NA,"","offCivRatings","the officer shot the civilian in the chest with a beanbag shotgun round","the civilian hit the officer in the chest with a baseball bat","beanbag","ballBat","officerCivilian","punishCiv","25","","","",""
"119",1230,"","","instructions",118,1269959,"0.0-118.0","z4yz1dzvtyq9waxpn974qg6dhqtp5xxk","Tue Apr 25 2017 18:19:51 GMT-0400 (EDT)","female","More than one","liberal","",NA,"[{""page_index"":0,""viewing_time"":1230}]","break","","","","","","","","","","",""
"120",8669,"{""Q0"":10}","[object Object]","survey-likert",119,1278835,"0.0-119.0","z4yz1dzvtyq9waxpn974qg6dhqtp5xxk","Tue Apr 25 2017 18:19:51 GMT-0400 (EDT)","female","More than one","liberal","",NA,"","offCivRatings","the officer said ""if you touch me, you're gonna get hurt"" to the civilian","the civilian shot the officer in the chest with a handgun","hurtThreat","handgunChest","officerCivilian","acceptableCiv","10","","","",""
"121",3279,"{""Q0"":89}","[object Object]","survey-likert",120,1282120,"0.0-120.0","z4yz1dzvtyq9waxpn974qg6dhqtp5xxk","Tue Apr 25 2017 18:19:51 GMT-0400 (EDT)","female","More than one","liberal","",NA,"","offCivRatings","the officer said ""if you touch me, you're gonna get hurt"" to the civilian","the civilian shot the officer in the chest with a handgun","hurtThreat","handgunChest","officerCivilian","appropriateCiv","89","","","",""
"122",3617,"{""Q0"":79}","[object Object]","survey-likert",121,1285743,"0.0-121.0","z4yz1dzvtyq9waxpn974qg6dhqtp5xxk","Tue Apr 25 2017 18:19:51 GMT-0400 (EDT)","female","More than one","liberal","",NA,"","offCivRatings","the officer said ""if you touch me, you're gonna get hurt"" to the civilian","the civilian shot the officer in the chest with a handgun","hurtThreat","handgunChest","officerCivilian","punishCiv","79","","","",""
"123",3600,"{""Q0"":90}","[object Object]","survey-likert",122,1289347,"0.0-122.0","z4yz1dzvtyq9waxpn974qg6dhqtp5xxk","Tue Apr 25 2017 18:19:51 GMT-0400 (EDT)","female","More than one","liberal","",NA,"","offCivRatings","the officer said ""if you touch me, you're gonna get hurt"" to the civilian","the civilian shot the officer in the chest with a handgun","hurtThreat","handgunChest","officerCivilian","forceCiv","90","","","",""
"124",800,"","","instructions",123,1290147,"0.0-123.0","z4yz1dzvtyq9waxpn974qg6dhqtp5xxk","Tue Apr 25 2017 18:19:51 GMT-0400 (EDT)","female","More than one","liberal","",NA,"[{""page_index"":0,""viewing_time"":800}]","break","","","","","","","","","","",""
"125",16164,"{""Q0"":21}","[object Object]","survey-likert",124,1306519,"0.0-124.0","z4yz1dzvtyq9waxpn974qg6dhqtp5xxk","Tue Apr 25 2017 18:19:51 GMT-0400 (EDT)","female","More than one","liberal","",NA,"","policeLegitimacy","","","","","","","21","support","feltObligation","",""
"126",9402,"{""Q0"":30}","[object Object]","survey-likert",125,1315927,"0.0-125.0","z4yz1dzvtyq9waxpn974qg6dhqtp5xxk","Tue Apr 25 2017 18:19:51 GMT-0400 (EDT)","female","More than one","liberal","",NA,"","policeLegitimacy","","","","","","","30","importantValues","normAlignment","",""
"127",9524,"{""Q0"":61}","[object Object]","survey-likert",126,1325457,"0.0-126.0","z4yz1dzvtyq9waxpn974qg6dhqtp5xxk","Tue Apr 25 2017 18:19:51 GMT-0400 (EDT)","female","More than one","liberal","",NA,"","policeLegitimacy","","","","","","","61","rightWrong","normAlignment","",""
"128",7253,"{""Q0"":81}","[object Object]","survey-likert",127,1332715,"0.0-127.0","z4yz1dzvtyq9waxpn974qg6dhqtp5xxk","Tue Apr 25 2017 18:19:51 GMT-0400 (EDT)","female","More than one","liberal","",NA,"","policeLegitimacy","","","","","","","81","doTreat","feltObligation","",""
"129",7069,"{""Q0"":76}","[object Object]","survey-likert",128,1339791,"0.0-128.0","z4yz1dzvtyq9waxpn974qg6dhqtp5xxk","Tue Apr 25 2017 18:19:51 GMT-0400 (EDT)","female","More than one","liberal","",NA,"","policeLegitimacy","","","","","","","76","communityWants","normAlignment","",""
"130",10481,"{""Q0"":39}","[object Object]","survey-likert",129,1350279,"0.0-129.0","z4yz1dzvtyq9waxpn974qg6dhqtp5xxk","Tue Apr 25 2017 18:19:51 GMT-0400 (EDT)","female","More than one","liberal","",NA,"","policeLegitimacy","","","","","","","39","doReasons","feltObligation","",""
"131",4349,"{""Q0"":""no""}","[object Object]","survey-multi-choice2",130,1354633,"0.0-130.0","z4yz1dzvtyq9waxpn974qg6dhqtp5xxk","Tue Apr 25 2017 18:19:51 GMT-0400 (EDT)","female","More than one","liberal","",NA,"","policeExperience","","","","","","","no","insultLang","","personal","Have the police ever used insulting language toward you?"
"132",8751,"{""Q0"":""no""}","[object Object]","survey-multi-choice2",131,1363387,"0.0-131.0","z4yz1dzvtyq9waxpn974qg6dhqtp5xxk","Tue Apr 25 2017 18:19:51 GMT-0400 (EDT)","female","More than one","liberal","",NA,"","policeExperience","","","","","","","no","corrupt","","personal","Have you ever seen a police officer engage in any corrupt activities (e.g., taking bribes or involvement in the drug trade)?"
"133",2756,"{""Q0"":""no""}","[object Object]","survey-multi-choice2",132,1366146,"0.0-132.0","z4yz1dzvtyq9waxpn974qg6dhqtp5xxk","Tue Apr 25 2017 18:19:51 GMT-0400 (EDT)","female","More than one","liberal","",NA,"","policeExperience","","","","","","","no","insultLang","","vicarious","Have the police ever used insulting language toward anyone in your household?"
"134",2667,"{""Q0"":""no""}","[object Object]","survey-multi-choice2",133,1368816,"0.0-133.0","z4yz1dzvtyq9waxpn974qg6dhqtp5xxk","Tue Apr 25 2017 18:19:51 GMT-0400 (EDT)","female","More than one","liberal","",NA,"","policeExperience","","","","","","","no","excessForce","","personal","Have the police ever used excessive force against you?"
"135",2723,"{""Q0"":""no""}","[object Object]","survey-multi-choice2",134,1371541,"0.0-134.0","z4yz1dzvtyq9waxpn974qg6dhqtp5xxk","Tue Apr 25 2017 18:19:51 GMT-0400 (EDT)","female","More than one","liberal","",NA,"","policeExperience","","","","","","","no","excessForce","","vicarious","Have the police ever used excessive force against anyone in your household?"
"136",3687,"{""Q0"":""no""}","[object Object]","survey-multi-choice2",135,1375230,"0.0-135.0","z4yz1dzvtyq9waxpn974qg6dhqtp5xxk","Tue Apr 25 2017 18:19:51 GMT-0400 (EDT)","female","More than one","liberal","",NA,"","policeExperience","","","","","","","no","stopped","","vicarious","Has anyone in your household ever been stopped on the street by the police without good reason?"
"137",2622,"{""Q0"":""no""}","[object Object]","survey-multi-choice2",136,1377855,"0.0-136.0","z4yz1dzvtyq9waxpn974qg6dhqtp5xxk","Tue Apr 25 2017 18:19:51 GMT-0400 (EDT)","female","More than one","liberal","",NA,"","policeExperience","","","","","","","no","stopped","","personal","Have you ever been stopped by the police on the street without good reason?"
"138",15044,"{""Q0"":""female"",""Q1"":""More than one"",""Q2"":""liberal""}","[object Object]","survey-multi-choice",137,1392909,"0.0-137.0","z4yz1dzvtyq9waxpn974qg6dhqtp5xxk","Tue Apr 25 2017 18:19:51 GMT-0400 (EDT)","female","More than one","liberal","",NA,"","demographics","","","","","","","","","","",""
"139",25018,"","","instructions",138,1418931,"0.0-138.0","z4yz1dzvtyq9waxpn974qg6dhqtp5xxk","Tue Apr 25 2017 18:19:51 GMT-0400 (EDT)","female","More than one","liberal","",NA,"[{""page_index"":0,""viewing_time"":2974},{""page_index"":1,""viewing_time"":12917},{""page_index"":2,""viewing_time"":7146},{""page_index"":3,""viewing_time"":1980}]","debriefing","","","","","","","","","","",""
