"","manipCheckHigh","manipCheckLow","MADScore","randSubjectID"
"2","3","2","25.3059142024157","0dnxfhxvsmk3j196mwss4y0xg5kc2p7p"
"3","3","5","15.6632653061224","267rgpl0k1rvda4o2hlrbbwb922loeky"
"4","7","3","7.26364014993753","4j6bssmfeqt5v40l1d5t6h9vmfobkoue"
"5","6","4","11.0633069554352","4lcdcbfevhofrexjfc38vtvgrh2vuk35"
"6","5","2","8.50999583506872","4ybdr63noqpyzb7tyavhs568udrgmzvs"
"7","3","2","8.34652228238234","4yydbn61y8v6dfskn4k1jcaa5gwzuzby"
"8","0","3","33.7428154935444","52n5epd2wcfr4vtz3b45l7gaked6op72"
"9","2","0","34.2411495210329","582st1von2jw46nzln21e8yybzbryxy0"
"10","5","5","12.4583506872137","58oh6z0jklh3c69ddla0pmrp866bynzx"
"11","3","7","5.42440649729279","5q94glg64n6syntnzk7ejoc7kx8s2y3x"
"12","5","5","17.6516034985423","6d8exso7l7l68g2uhgajvrtwkqhgpn9f"
"13","3","0","22.6630570595585","6fojsrmon9muh3ktfg05nb7u2ev857s7"
"14","0","3","33.6389004581424","6g8c3c6s6x65rsoffkl19bwgs5shj6qo"
"15","0","2","26.0649729279467","6o17m309h2jsxjo6zdejv3s5ygx4m0s5"
"16","4","2","11.5739275301958","772uxar3gcmhyecs9enhjr4o9nj9kz86"
"17","0","7","27.2692628071637","777ujcc34wdmp1825yfnh460nbjwzjwy"
"18","1","2","26.8421491045398","77m5mx71633pgp21y84vmttfc8uex0cv"
"19","5","0","33.9854227405248","7kf6spqwcqqgth5jr8ec302c8npd670f"
"20","2","1","13.5660141607663","7lybc4jfchpfj0xh542tvds90mwux0cm"
"21","5","5","9.85131195335277","7y0o12tmv6p3rh84gkuszf40q3cmx796"
"22","2","1","30.1316118284048","7yr9dmg66d8426tw1zl2ovj1jd9clxy9"
"23","3","5","7.4710537276135","847vswau77cdtlr6h3hjcdjdyjv9guvf"
"24","2","0","35.9308621407747","8g8wh4s910kctfwzl3x49lltj6y8lujd"
"25","1","1","29.9069137859225","8k1alswde7rq8s0tgg71auc859s22l0l"
"26","1","3","18.9556434818826","8ozk9e8vb9rxq0ucbn9aus0zbq4r8smd"
"27","5","5","4.68679716784673","8yccxk1ah4tx7t8e40nyy12b127sy4cb"
"28","5","5","16.3948354852145","941se31zgpf12n9sbmkwhxekngwtvn75"
"29","4","6","16.5595585172845","9r071vkl186uelr1apcmneq7lchcafxt"
"30","4","6","0","b1vxfopf0mnqzfb7z4f3ml5jauso5nmx"
"31","2","0","12.6851311953353","bf345u3qz8dr030p2xl4bdnb6go7seen"
"32","5","5","6.19366930445648","ckf9zvedgsfturb640l9gv488udrdb3c"
"33","4","6","3.21470220741358","cn72lnv1r0grokc1t1wm82ofcz8wes2r"
"34","5","5","15.0022907122032","d15vn9skauqbhh74qm3qmmutu22aa3o2"
"35","3","0","15.6892961266139","d21bpnzp093snvn1m5rp39ahyn9xe7d3"
"36","6","0","30.8071636817992","dh4vfga0ym1x7bdoc0rtq9jhb9152ozx"
"37","1","3","23.4710537276135","ebs6q8mwb04f4zfhpthvl3lu2rw6m2mq"
"38","2","0","26.1516034985423","ekg3febe8s68wyx2agl9rtf41p21v0s4"
"39","3","1","21.8236151603499","enxvqc5gn1j0fo9qksyd0kdtmlzlfsck"
"40","4","6","0.0989171178675576","eqfoudkxhl65hkva92au17mvklhtdmre"
"41","3","0","30.5272802998751","fgo53zyopazybtreqfeq6z69d3ql7vdb"
"42","5","5","3.30966264056643","fp9wsosdprxdxhcgo4v7phdx5kb95p4b"
"43","0","1","11.5658059142024","g3ovs3mmw5mx029k1qconssvyjogzg0j"
"44","0","2","27.8617242815494","j1ua9ctj3slk87wnyahwhu9lmmhc2jcj"
"45","4","6","5.54852144939608","j8gocbo7ntmpoz787b023ouauzqz5ka6"
"46","0","2","28.344439816743","jekkj2xvumxkv4b9xuspyvxhfzlkmvzt"
"47","5","5","11.1195335276968","juovludt7kzxrh3hxm2yh4sk6bwx8co4"
"48","4","6","10.2915451895044","jzd4xhb29p64uan4rpuvdwkppeq0qtpy"
"49","1","3","24.2288629737609","kem3eyrotx6ypyysgrp104eshlqvl85g"
"50","2","0","29.5422740524781","l5gd6fspj24k99k0oogqt7kczpoxzty9"
"51","5","5","4.09162848812995","lmqhzk62118848ul50ht3yssn8g5z5aq"
"52","4","6","1.13619325281133","nfoh8y2aek8lfzhwse1s0pa6yoyjye9t"
"53","2","0","28.1482715535194","ngkaka199m7fm9r3phem46jd1esgcmns"
"54","4","6","24.1861724281549","npbu7vhut4ra7gyv8vr9ztagqej5n7uu"
"55","5","5","3.94002498958767","omke8adb9hlosrucpzxjrvs8ppvxt691"
"56","7","2","12.8877551020408","p1u4k1ltna41x5eyd9b512uylsu4o4eb"
"57","1","1","31.2413577675968","p5lp4mfwyfd3p0la0lphzg564sf22nc3"
"58","2","0","32.5241566014161","ph8tsxvkpbhkkqsp2oc6hez2920eyq3f"
"59","5","5","5.47813411078717","pmnz9up4thb7w9qo7bqcpajbms3z9quz"
"60","2","0","33.7936276551437","q0mjg17py7syaaso9m7c0mov0mv6a4ls"
"61","0","3","24.2040816326531","rgzngjuxusw3o4d7uv5mgu74e7h8ychx"
"62","3","6","10.3429820907955","rozzvyjtwap431kamw65mt3esozqx6ae"
"63","6","4","8.50020824656393","s2d1v4bwyuwxu01g6xq440uws017typ5"
"64","5","4","27.9323198667222","sj532ca8tr2jtov9mrmswzkfex1nl82o"
"65","3","7","0","t1ueyeaqpvlpdtp5q1t5jlfqm88wqs56"
"66","2","0","36.4441899208663","ubytclp82gnzap0x9wmz4z3gp8m7uw1q"
"67","4","6","15.9179508538109","uu2tbyotvqmbvf3sl6xjgqj8kharom87"
"68","4","6","7.38150770512287","vnqgo28b76wqrklfnkv1bgb01yde7ck1"
"69","4","6","20.1293211162016","vwsx4bx6gctqpylq48flkxw5ovsy8cox"
"70","5","5","6.84673052894627","w6lxx55zpmgtb10e02by46nyn82s4kw8"
"71","0","2","14.6176593086214","wk6pdpaju45jw6qts98wo1xs8e638rd1"
"72","2","3","19.5741357767597","wwzbuyoks8gwvty1v1jtvscmonn5a2vp"
"73","8","2","0.0816326530612245","wx2dl1sqazpwcqfxwyksr1bn35j1409p"
"74","1","1","18.7675968346522","x2kdbuy1w8ak9x8d27sx5ea0po5nt4j7"
"75","0","0","5.31028738025822","xb3s9s4zkwl6yd3k2yvbaqfg3lfgpur1"
"76","3","7","17.1780508121616","ydj3jjazu6y039g8nvrrgy3oulswe91d"
"77","2","0","30.2646813827572","yfe7wd2xp2j8q5nlycp5he4d37ozvuwa"
"78","0","2","21.3906705539359","zcum6d92wkn0ykdv1gj2r5x2ht13l7n4"
"79","7","3","13.2984173261141","zk7z6u3xnnz6d86tstawmsw463ma4sfl"
