"","Mean","Median","Mode","ESS","HDImass","HDIlow","HDIhigh","CompVal","PcntGtCompVal","ROPElow","ROPEhigh","PcntLtROPE","PcntInROPE","PcntGtROPE"
"B0[1]",-0.447177804708333,-0.446715,-0.437752172599702,913.4,0.95,-0.643216,-0.24737,0,0,NA,NA,NA,NA,NA
"B0[2]",0.665342618666667,0.6646465,0.674763835284355,995.1,0.95,0.453641,0.883055,0,100,NA,NA,NA,NA,NA
"B0[3]",0.593557871666667,0.5937775,0.594272673186984,1185.9,0.95,0.495778,0.694294,0,100,NA,NA,NA,NA,NA
"B0[4]",0.525170802083333,0.5250025,0.522710472998637,995.5,0.95,0.410707,0.634873,0,100,NA,NA,NA,NA,NA
"B0[5]",-0.886127863,-0.8851875,-0.877116989274891,889.9,0.95,-1.07738,-0.690913,0,0,NA,NA,NA,NA,NA
"B0[6]",-1.8748637275,-1.87434,-1.86103162814668,969.3,0.95,-2.12534,-1.63349,0,0,NA,NA,NA,NA,NA
"BCivAct[1]",-1.87234801166667,-1.872055,-1.87816123553134,3936.8,0.95,-1.96821,-1.77463,0,0,NA,NA,NA,NA,NA
"BCivAct[2]",1.25557115166667,1.25499,1.25683328717454,6090.9,0.95,1.16976,1.34611,0,100,NA,NA,NA,NA,NA
"BCivAct[3]",0.783017116,0.782604,0.78171637093297,7286.4,0.95,0.732883,0.836322,0,100,NA,NA,NA,NA,NA
"BCivAct[4]",-0.56558061025,-0.565323,-0.563158640860701,7492.1,0.95,-0.60856,-0.525623,0,0,NA,NA,NA,NA,NA
"BCivAct[5]",1.94492286666667,1.94456,1.941450011234,3095.5,0.95,1.85362,2.03402,0,100,NA,NA,NA,NA,NA
"BCivAct[6]",-1.25575435166667,-1.25507,-1.2492173827507,5503.3,0.95,-1.34143,-1.17515,0,0,NA,NA,NA,NA,NA
"BOffAct[1]",0.654098153666667,0.6537465,0.652487315689644,6607.6,0.95,0.587267,0.718086,0,100,NA,NA,NA,NA,NA
"BOffAct[2]",-1.31491148166667,-1.314545,-1.31724092511518,4684.4,0.95,-1.40874,-1.21576,0,0,NA,NA,NA,NA,NA
"BOffAct[3]",-0.329224474666667,-0.329068,-0.327835356701338,8986.4,0.95,-0.372135,-0.285275,0,0,NA,NA,NA,NA,NA
"BOffAct[4]",0.722194613583333,0.722101,0.725357020963155,4736.4,0.95,0.67101,0.771255,0,100,NA,NA,NA,NA,NA
"BOffAct[5]",-0.436077366166667,-0.4360055,-0.437813817649337,7643.6,0.95,-0.483284,-0.389145,0,0,NA,NA,NA,NA,NA
"BOffAct[6]",1.57683903333333,1.576285,1.57941365966542,3739.6,0.95,1.46889,1.68367,0,100,NA,NA,NA,NA,NA
"Bfona[1]",-0.581101305416667,-0.581193,-0.577948440519474,9464.8,0.95,-0.677545,-0.486177,0,0,NA,NA,NA,NA,NA
"Bfona[2]",0.544063383,0.544049,0.54544225839426,10662.9,0.95,0.426247,0.656782,0,100,NA,NA,NA,NA,NA
"Bfona[3]",0.244018293916667,0.2436985,0.243504852787392,9918.7,0.95,0.173195,0.30939,0,100,NA,NA,NA,NA,NA
"Bfona[4]",-0.0756533946107667,-0.07559365,-0.0718176877569979,10270.9,0.95,-0.133404,-0.0176058,0,0.633333333333333,NA,NA,NA,NA,NA
"Bfona[5]",0.413872122,0.413914,0.414057336231711,7181.7,0.95,0.334503,0.491597,0,100,NA,NA,NA,NA,NA
"Bfona[6]",-0.56948158125,-0.5693635,-0.569689881991137,10185.1,0.95,-0.675643,-0.464655,0,0,NA,NA,NA,NA,NA
"BfonaCivAct[1]",-0.173923075616667,-0.173517,-0.169094563927409,10750.9,0.95,-0.25004,-0.10029,0,0,NA,NA,NA,NA,NA
"BfonaCivAct[2]",0.0559191490788617,0.0559565,0.0598562559467703,11514.7,0.95,-0.0258386,0.13978,0,90.75,NA,NA,NA,NA,NA
"BfonaCivAct[3]",0.0935095252925,0.0934548,0.0925540903137835,12000,0.95,0.0442657,0.143977,0,100,NA,NA,NA,NA,NA
"BfonaCivAct[4]",-0.012529794040605,-0.0127281,-0.012512799509252,12000,0.95,-0.0544471,0.0287472,0,27.5083333333333,NA,NA,NA,NA,NA
"BfonaCivAct[5]",0.144807732641667,0.1450315,0.146442062526566,8110.7,0.95,0.0822119,0.209186,0,100,NA,NA,NA,NA,NA
"BfonaCivAct[6]",-0.000919430823925833,-0.000482602,0.0024469278130014,10105.2,0.95,-0.0792531,0.0776192,0,49.55,NA,NA,NA,NA,NA
"BfonaOffAct[1]",-0.0680132431131967,-0.0677518,-0.0638777627678943,11012.8,0.95,-0.132201,-0.00509395,0,1.83333333333333,NA,NA,NA,NA,NA
"BfonaOffAct[2]",-0.031215075557475,-0.03096175,-0.0296466449471014,11121.5,0.95,-0.107615,0.0479077,0,21.6166666666667,NA,NA,NA,NA,NA
"BfonaOffAct[3]",0.0616302728806,0.0616495,0.05990890230315,11009.4,0.95,0.0130195,0.106336,0,99.5666666666667,NA,NA,NA,NA,NA
"BfonaOffAct[4]",0.0641446998032542,0.06395575,0.0633773597578727,12000,0.95,0.0244758,0.102308,0,99.9333333333333,NA,NA,NA,NA,NA
"BfonaOffAct[5]",0.124427298808333,0.124287,0.127849459399123,10004.5,0.95,0.0765656,0.175854,0,100,NA,NA,NA,NA,NA
"BfonaOffAct[6]",0.0546677171905875,0.05512265,0.0569846166471207,10065.8,0.95,-0.0255863,0.129128,0,91.1083333333333,NA,NA,NA,NA,NA
"Sigma[1]",2.38422638416667,2.383715,2.38430676918526,5305.6,0.95,2.30166,2.47076,0,100,NA,NA,NA,NA,NA
"Sigma[2]",2.88451567333333,2.884105,2.88637864863784,4703,0.95,2.77742,2.99214,0,100,NA,NA,NA,NA,NA
"Sigma[3]",1.87203481833333,1.871865,1.86979838267718,8378.7,0.95,1.81689,1.92419,0,100,NA,NA,NA,NA,NA
"Sigma[4]",1.56000982666667,1.559385,1.5571596026089,9034.2,0.95,1.52002,1.60442,0,100,NA,NA,NA,NA,NA
"Sigma[5]",1.80694492166667,1.80659,1.80683733309763,6174.4,0.95,1.74733,1.86221,0,100,NA,NA,NA,NA,NA
"Sigma[6]",2.59295899416667,2.592215,2.58447797631831,3875.8,0.95,2.49356,2.69584,0,100,NA,NA,NA,NA,NA
"civActScale[1]",-2.5,-2.5,-2.50201858305612,0,0.95,-2.5,-2.5,0,0,NA,NA,NA,NA,NA
"civActScale[2]",0.694710110166667,0.694579,0.693573666595208,1975.5,0.95,0.557041,0.822804,0,100,NA,NA,NA,NA,NA
"civActScale[3]",-2.49620246166667,-2.495075,-2.48806050880697,2489,0.95,-2.67781,-2.3112,0,0,NA,NA,NA,NA,NA
"civActScale[4]",1.11043667566667,1.109095,1.09810369192649,2205,0.95,0.968081,1.24735,0,100,NA,NA,NA,NA,NA
"civActScale[5]",0.836863174583333,0.8366885,0.832947178169458,2159.3,0.95,0.697595,0.968941,0,100,NA,NA,NA,NA,NA
"civActScale[6]",-0.557045360916667,-0.5565645,-0.551803309962684,1932.3,0.95,-0.698773,-0.426413,0,0,NA,NA,NA,NA,NA
"civActScale[7]",0.689372868666667,0.6897765,0.694793326805491,2029.3,0.95,0.54655,0.813776,0,100,NA,NA,NA,NA,NA
"civActScale[8]",-1.078644109,-1.07873,-1.08242221614624,2050.2,0.95,-1.22618,-0.938189,0,0,NA,NA,NA,NA,NA
"civActScale[9]",2.02625109583333,2.025525,2.02267098780906,2690.4,0.95,1.86956,2.19032,0,100,NA,NA,NA,NA,NA
"civActScale[10]",0.720206687666667,0.7195135,0.717308974429291,1984.7,0.95,0.584068,0.855399,0,100,NA,NA,NA,NA,NA
"civActScale[11]",1.34571096916667,1.344885,1.33473501176304,2330.3,0.95,1.20139,1.49194,0,100,NA,NA,NA,NA,NA
"civActScale[12]",-0.538878471166667,-0.5390935,-0.542059092605516,1876.2,0.95,-0.672699,-0.404817,0,0,NA,NA,NA,NA,NA
"civActScale[13]",0.646813194083333,0.647284,0.654960685033501,1854.6,0.95,0.515421,0.780758,0,100,NA,NA,NA,NA,NA
"civActScale[14]",0.896860906166667,0.896877,0.89347987398924,2172.6,0.95,0.76053,1.03435,0,100,NA,NA,NA,NA,NA
"civActScale[15]",-0.962008939833333,-0.961279,-0.958484302804423,2019.2,0.95,-1.10525,-0.822328,0,0,NA,NA,NA,NA,NA
"civActScale[16]",0.610516457166667,0.6102365,0.606907147172021,1910,0.95,0.4847,0.748402,0,100,NA,NA,NA,NA,NA
"civActScale[17]",-1.06770937166667,-1.06823,-1.07394225509597,1944.3,0.95,-1.2065,-0.924533,0,0,NA,NA,NA,NA,NA
"civActScale[18]",0.779674124666667,0.779292,0.779147449122263,1930.8,0.95,0.643041,0.9096,0,100,NA,NA,NA,NA,NA
"civActScale[19]",-1.91592828833333,-1.915245,-1.91631771998598,2168.3,0.95,-2.08186,-1.75774,0,0,NA,NA,NA,NA,NA
"civActScale[20]",0.937627862583333,0.937018,0.932435599859986,2064.8,0.95,0.803227,1.07336,0,100,NA,NA,NA,NA,NA
"civActScale[21]",1.71613006,1.715615,1.72236972717212,2485,0.95,1.57049,1.86727,0,100,NA,NA,NA,NA,NA
"civActScale[22]",2.5,2.5,2.49798141694388,0,0.95,2.5,2.5,0,100,NA,NA,NA,NA,NA
"offActScale[1]",-2.5,-2.5,-2.50201858305612,0,0.95,-2.5,-2.5,0,0,NA,NA,NA,NA,NA
"offActScale[2]",-0.5957952355,-0.595504,-0.6057272385711,2561.2,0.95,-0.809299,-0.385861,0,0,NA,NA,NA,NA,NA
"offActScale[3]",-2.44504352083333,-2.442735,-2.40986970690104,2699.2,0.95,-2.71948,-2.18208,0,0,NA,NA,NA,NA,NA
"offActScale[4]",-0.197220480851245,-0.19582,-0.18046267787444,2307.9,0.95,-0.40875,0.00745065,0,3.05833333333333,NA,NA,NA,NA,NA
"offActScale[5]",0.168012523649266,0.1682205,0.162802551083628,2806.7,0.95,-0.0397226,0.369477,0,94.2916666666667,NA,NA,NA,NA,NA
"offActScale[6]",0.2153915791475,0.2145695,0.20808315823059,2581.3,0.95,0.0143117,0.417068,0,98.1583333333333,NA,NA,NA,NA,NA
"offActScale[7]",0.347016066435167,0.347383,0.367037493342271,2682.7,0.95,0.146633,0.553484,0,99.95,NA,NA,NA,NA,NA
"offActScale[8]",-1.89620850166667,-1.894485,-1.8908025568621,2448.5,0.95,-2.13444,-1.63627,0,0,NA,NA,NA,NA,NA
"offActScale[9]",-1.5994199225,-1.596255,-1.58297522160667,2191.3,0.95,-1.84378,-1.36379,0,0,NA,NA,NA,NA,NA
"offActScale[10]",1.99254278666667,1.991845,2.00382075744803,3039.5,0.95,1.76864,2.22099,0,100,NA,NA,NA,NA,NA
"offActScale[11]",-1.16481603475,-1.16333,-1.15521111542446,2425.3,0.95,-1.38286,-0.944035,0,0,NA,NA,NA,NA,NA
"offActScale[12]",0.498659823975,0.498648,0.496389405958326,2590.1,0.95,0.292411,0.702326,0,100,NA,NA,NA,NA,NA
"offActScale[13]",1.54355828666667,1.542235,1.53525619265736,2942.6,0.95,1.32639,1.75779,0,100,NA,NA,NA,NA,NA
"offActScale[14]",-1.3470628305,-1.346605,-1.35101494267074,2560.7,0.95,-1.57978,-1.11698,0,0,NA,NA,NA,NA,NA
"offActScale[15]",0.371668893948,0.3718555,0.359265744325615,2642.2,0.95,0.168438,0.57602,0,99.9916666666667,NA,NA,NA,NA,NA
"offActScale[16]",-1.16787238375,-1.166425,-1.16218732309281,2454.7,0.95,-1.38894,-0.940144,0,0,NA,NA,NA,NA,NA
"offActScale[17]",-0.417934188173333,-0.417812,-0.419013951378976,2281.3,0.95,-0.624359,-0.191752,0,0,NA,NA,NA,NA,NA
"offActScale[18]",0.585944387166667,0.5856835,0.587719786393173,2609.3,0.95,0.387155,0.801336,0,100,NA,NA,NA,NA,NA
"offActScale[19]",-2.49829401083333,-2.495695,-2.48707213658488,2636.6,0.95,-2.75586,-2.22396,0,0,NA,NA,NA,NA,NA
"offActScale[20]",-0.348803707790833,-0.3496645,-0.368975272053608,2604.6,0.95,-0.55561,-0.134953,0,0.0333333333333333,NA,NA,NA,NA,NA
"offActScale[21]",2.31253105916667,2.311965,2.31228297145441,3164.6,0.95,2.08408,2.56351,0,100,NA,NA,NA,NA,NA
"offActScale[22]",2.5,2.5,2.49798141694388,0,0.95,2.5,2.5,0,100,NA,NA,NA,NA,NA
