"","Mean","Median","Mode","ESS","HDImass","HDIlow","HDIhigh","CompVal","PcntGtCompVal","ROPElow","ROPEhigh","PcntLtROPE","PcntInROPE","PcntGtROPE"
"B0[1]",49.9784146916667,49.979,49.9818460735112,12000,0.95,49.7823,50.1742,0,100,NA,NA,NA,NA,NA
"B0[2]",50.011147275,50.0118,50.0159711393454,12000,0.95,49.8036,50.1995,0,100,NA,NA,NA,NA,NA
"BCivAct[1]",24.8653321583333,24.8605,24.8358204896079,2371,0.95,24.0156,25.7092,0,100,NA,NA,NA,NA,NA
"BCivAct[2]",-3.5995329775,-3.598185,-3.59874711650597,8279.2,0.95,-3.9552,-3.25954,0,0,NA,NA,NA,NA,NA
"BOffAct[1]",-2.692796615,-2.69055,-2.67826109538089,10066.6,0.95,-3.04438,-2.35835,0,0,NA,NA,NA,NA,NA
"BOffAct[2]",25.099426375,25.0959,25.1017026932415,2451.6,0.95,24.2603,26.0014,0,100,NA,NA,NA,NA,NA
"Bfona[1]",0.939379941701667,0.939921,0.943031128511961,12000,0.95,0.397136,1.4949,0,99.9583333333333,NA,NA,NA,NA,NA
"Bfona[2]",-1.44388317608333,-1.444005,-1.41443914884544,12000,0.95,-2.0123,-0.90286,0,0,NA,NA,NA,NA,NA
"BfonaCivAct[1]",1.74880863908333,1.748275,1.74697325412942,9943.5,0.95,1.32188,2.15082,0,100,NA,NA,NA,NA,NA
"BfonaCivAct[2]",0.607076599251917,0.6051825,0.597565628998346,12000,0.95,0.234929,0.971816,0,99.9166666666667,NA,NA,NA,NA,NA
"BfonaOffAct[1]",0.6416931829925,0.6422995,0.63702217726078,12000,0.95,0.259863,1.01898,0,99.9083333333333,NA,NA,NA,NA,NA
"BfonaOffAct[2]",1.072860544,1.071555,1.09542083128025,10802.6,0.95,0.621724,1.51075,0,100,NA,NA,NA,NA,NA
"Sigma[1]",19.9853916,19.98995,19.9972415261752,6047.2,0.95,19.9556,20,0,100,NA,NA,NA,NA,NA
"Sigma[2]",19.9871611833333,19.991,19.9974921669302,6303.9,0.95,19.9616,20,0,100,NA,NA,NA,NA,NA
"civActScale[1]",-2.5,-2.5,-2.50201858305612,0,0.95,-2.5,-2.5,0,0,NA,NA,NA,NA,NA
"civActScale[2]",0.687670090916667,0.6874735,0.68857628708806,9081.3,0.95,0.602342,0.777555,0,100,NA,NA,NA,NA,NA
"civActScale[3]",-2.47448339166667,-2.473445,-2.48114752875246,4350.7,0.95,-2.62481,-2.32913,0,0,NA,NA,NA,NA,NA
"civActScale[4]",1.03787254166667,1.038045,1.04239099551437,7560.7,0.95,0.944145,1.13447,0,100,NA,NA,NA,NA,NA
"civActScale[5]",0.890406249,0.890143,0.889443273783635,7946.1,0.95,0.800604,0.984101,0,100,NA,NA,NA,NA,NA
"civActScale[6]",-1.22826965916667,-1.227875,-1.23027454051634,6555.8,0.95,-1.33131,-1.13262,0,0,NA,NA,NA,NA,NA
"civActScale[7]",0.665176160916667,0.665282,0.667964954434856,9717.8,0.95,0.571961,0.755394,0,100,NA,NA,NA,NA,NA
"civActScale[8]",-1.50997865583333,-1.510335,-1.51616941317459,5661.9,0.95,-1.61349,-1.40633,0,0,NA,NA,NA,NA,NA
"civActScale[9]",2.16851405166667,2.167415,2.15798939547813,4623,0.95,2.03948,2.29741,0,100,NA,NA,NA,NA,NA
"civActScale[10]",0.730290605916667,0.729433,0.726889387950616,9914.9,0.95,0.639704,0.82128,0,100,NA,NA,NA,NA,NA
"civActScale[11]",1.35944693666667,1.358485,1.34948889465477,6294.6,0.95,1.25705,1.4622,0,100,NA,NA,NA,NA,NA
"civActScale[12]",-1.27135085083333,-1.270715,-1.27106719539489,6571.7,0.95,-1.3718,-1.17655,0,0,NA,NA,NA,NA,NA
"civActScale[13]",0.600068256916667,0.5995295,0.595179506797422,10116.2,0.95,0.511906,0.688128,0,100,NA,NA,NA,NA,NA
"civActScale[14]",0.9486416885,0.948045,0.945429179222732,8865.8,0.95,0.854362,1.04388,0,100,NA,NA,NA,NA,NA
"civActScale[15]",-1.7019564375,-1.701585,-1.70747901377417,5377,0.95,-1.82244,-1.59253,0,0,NA,NA,NA,NA,NA
"civActScale[16]",0.298455761083333,0.298444,0.305373359252517,12000,0.95,0.211318,0.382502,0,100,NA,NA,NA,NA,NA
"civActScale[17]",-1.2899520675,-1.289585,-1.28728340125986,6704,0.95,-1.38478,-1.19174,0,0,NA,NA,NA,NA,NA
"civActScale[18]",0.686514053333333,0.686134,0.685142717002727,9642,0.95,0.596096,0.773642,0,100,NA,NA,NA,NA,NA
"civActScale[19]",-2.34455271916667,-2.3445,-2.34989110953608,4210.3,0.95,-2.48154,-2.20716,0,0,NA,NA,NA,NA,NA
"civActScale[20]",0.871995376833333,0.87183,0.866946132777891,7824.3,0.95,0.782624,0.967815,0,100,NA,NA,NA,NA,NA
"civActScale[21]",1.74911177666667,1.74881,1.75348428911171,5233.3,0.95,1.64369,1.86334,0,100,NA,NA,NA,NA,NA
"civActScale[22]",2.5,2.5,2.49798141694388,0,0.95,2.5,2.5,0,100,NA,NA,NA,NA,NA
"offActScale[1]",-2.5,-2.5,-2.50201858305612,0,0.95,-2.5,-2.5,0,0,NA,NA,NA,NA,NA
"offActScale[2]",0.334545991333333,0.3342505,0.331259828820622,11375.8,0.95,0.246767,0.422312,0,100,NA,NA,NA,NA,NA
"offActScale[3]",-2.48866955916667,-2.48872,-2.49271238595525,4055,0.95,-2.63874,-2.34043,0,0,NA,NA,NA,NA,NA
"offActScale[4]",0.494231773166667,0.4940425,0.490679729588517,11672,0.95,0.407237,0.582278,0,100,NA,NA,NA,NA,NA
"offActScale[5]",0.9080257875,0.9076665,0.899862681957343,8273.1,0.95,0.814577,0.999255,0,100,NA,NA,NA,NA,NA
"offActScale[6]",0.793854192166667,0.793419,0.80031551120177,9200.1,0.95,0.700415,0.880983,0,100,NA,NA,NA,NA,NA
"offActScale[7]",0.45432105525,0.4540995,0.450603726084568,10900.9,0.95,0.36478,0.539982,0,100,NA,NA,NA,NA,NA
"offActScale[8]",-1.679726265,-1.679415,-1.68300963922108,5468.4,0.95,-1.79389,-1.56826,0,0,NA,NA,NA,NA,NA
"offActScale[9]",-0.716885576333333,-0.717357,-0.723043886020553,9102.4,0.95,-0.806491,-0.625574,0,0,NA,NA,NA,NA,NA
"offActScale[10]",2.0336652775,2.033215,2.02346563258424,4538.7,0.95,1.91551,2.15657,0,100,NA,NA,NA,NA,NA
"offActScale[11]",-0.939506371916667,-0.9397455,-0.942920639352001,7075.3,0.95,-1.03193,-0.843646,0,0,NA,NA,NA,NA,NA
"offActScale[12]",0.671717149166667,0.6715905,0.671129475509714,10019.2,0.95,0.586221,0.760207,0,100,NA,NA,NA,NA,NA
"offActScale[13]",1.26399163166667,1.26365,1.26530054701893,6058.9,0.95,1.166,1.3601,0,100,NA,NA,NA,NA,NA
"offActScale[14]",-1.3535552325,-1.35413,-1.36243831704429,6198.9,0.95,-1.45523,-1.2528,0,0,NA,NA,NA,NA,NA
"offActScale[15]",0.675221909583333,0.675,0.674477849369406,9437.8,0.95,0.584809,0.76209,0,100,NA,NA,NA,NA,NA
"offActScale[16]",-1.76378936083333,-1.762765,-1.76218823204328,4900.2,0.95,-1.88044,-1.64788,0,0,NA,NA,NA,NA,NA
"offActScale[17]",0.09993752260201,0.0998026,0.0995797908723207,12000,0.95,0.0178891,0.188081,0,98.975,NA,NA,NA,NA,NA
"offActScale[18]",0.5864743125,0.586425,0.586308549650111,9654.1,0.95,0.497936,0.673099,0,100,NA,NA,NA,NA,NA
"offActScale[19]",-2.40217081916667,-2.400755,-2.39598377000463,3812.2,0.95,-2.54775,-2.25892,0,0,NA,NA,NA,NA,NA
"offActScale[20]",0.61974094325,0.6195595,0.618141790397712,10802.9,0.95,0.528809,0.703702,0,100,NA,NA,NA,NA,NA
"offActScale[21]",1.76653019,1.76678,1.7763386973581,4960.5,0.95,1.65405,1.87906,0,100,NA,NA,NA,NA,NA
"offActScale[22]",2.5,2.5,2.49798141694388,0,0.95,2.5,2.5,0,100,NA,NA,NA,NA,NA
