"","Mean","Median","Mode","ESS","HDImass","HDIlow","HDIhigh","CompVal","PcntGtCompVal","ROPElow","ROPEhigh","PcntLtROPE","PcntInROPE","PcntGtROPE"
"b0[1]",-4.85200173083333,-4.80756,-4.85158230957337,4735.7,0.95,-6.19633,-3.6501,0,0,NA,NA,NA,NA,NA
"b0[2]",-3.46040786,-3.44489,-3.35625914054083,10067.7,0.95,-4.3296,-2.62194,0,0,NA,NA,NA,NA,NA
"b0[3]",-5.08711163583333,-5.03462,-4.88254316834481,3952,0.95,-6.52113,-3.7963,0,0,NA,NA,NA,NA,NA
"b0[4]",-0.242364776672658,-0.238424,-0.17860355861424,12000,0.95,-0.960665,0.477444,0,26.0916666666667,NA,NA,NA,NA,NA
"b0[5]",-1.70200576558333,-1.702345,-1.71369728291988,12000,0.95,-2.33553,-1.03297,0,0,NA,NA,NA,NA,NA
"b0[6]",-2.5107624025,-2.50398,-2.55898244292407,12000,0.95,-3.33955,-1.74764,0,0,NA,NA,NA,NA,NA
"b0[7]",-1.3870236587,-1.387155,-1.40766470223558,12000,0.95,-2.16736,-0.609965,0,0.025,NA,NA,NA,NA,NA
"b0[8]",-1.84169641008333,-1.837755,-1.83414451278673,12000,0.95,-2.59358,-1.12366,0,0,NA,NA,NA,NA,NA
"b0[9]",0.332435523625971,0.329937,0.335602952624435,12000,0.95,-0.231836,0.939075,0,87.05,NA,NA,NA,NA,NA
"b0[10]",0.51494187282175,0.5191835,0.571790475317747,12000,0.95,-0.178228,1.19217,0,93.05,NA,NA,NA,NA,NA
"b0[11]",0.506925687395542,0.504939,0.443168149940232,12000,0.95,-0.0526487,1.10129,0,95.7083333333333,NA,NA,NA,NA,NA
"b0[12]",0.772372666023333,0.774059,0.775475517368283,11030.3,0.95,0.00805677,1.53962,0,97.6583333333333,NA,NA,NA,NA,NA
"b0[13]",1.041122598395,1.04359,1.01187494322472,11811.6,0.95,0.211921,1.81991,0,99.4083333333333,NA,NA,NA,NA,NA
"b0[14]",0.689185879010583,0.688713,0.647655881759096,12000,0.95,-0.0956988,1.43696,0,95.925,NA,NA,NA,NA,NA
"b0[15]",0.8629226237035,0.8656325,0.766265726186087,12340.4,0.95,0.0958039,1.62904,0,98.525,NA,NA,NA,NA,NA
"b0[16]",0.997516533390833,1.000006,0.993645212562993,12000,0.95,0.375688,1.59489,0,99.875,NA,NA,NA,NA,NA
"b0[17]",1.334385829975,1.33406,1.42734090435223,12000,0.95,0.591005,2.06768,0,99.9833333333333,NA,NA,NA,NA,NA
"b0[18]",0.855269489312475,0.856287,0.755259884442854,12000,0.95,-0.0947034,1.85022,0,95.6666666666667,NA,NA,NA,NA,NA
"b0[19]",2.418979075,2.416885,2.36654408966592,11921.5,0.95,1.76622,3.12949,0,100,NA,NA,NA,NA,NA
"b0[20]",2.2914343775,2.289015,2.27285445935155,11504.8,0.95,1.75789,2.8328,0,100,NA,NA,NA,NA,NA
"b0[21]",3.68511777416667,3.66449,3.58429228903157,9680.5,0.95,2.8555,4.60824,0,100,NA,NA,NA,NA,NA
"b0[22]",3.3296849975,3.3191,3.2552664938367,10836.2,0.95,2.5684,4.1421,0,100,NA,NA,NA,NA,NA
"b1",0.0285741501138083,0.0278834,0.024981121577675,11584.5,0.95,-0.151936,0.218037,0,62.0083333333333,NA,NA,NA,NA,NA
"Sigma",1.29413479666667,1.29116,1.29154953117043,6420,0.95,1.15466,1.4345,0,100,NA,NA,NA,NA,NA
